marco:(-10.0,10.0),(-10.0,10.0)
timeIntervals:0.0-1.0
framesPerSecond:1000
3.1042519095981134 5.2716340955647665
3 -8.344200063684871 -2.853651533841097 -6.964851029475548 -0.14533091972248435 -10.0 -0.30493992247098534
-0.32335479730363664 -3.7231373766411915
6 -2.6889317234465624 -9.760950763971117 -1.6423792250585034 -9.094370996833895 -1.6963779878540246 -7.854740063267152 -2.7969292490376043 -7.281688896837632 -3.8434817474256633 -7.948268663974854 -3.7894829846301423 -9.187899597541596
3.0824795770861146 -2.3555407085168993
12 -6.516130437386911 4.248636525347118 -5.737923177560594 3.843428159597944 -5.776106068908991 4.719979598891598 -5.036081700431072 5.191322672436079 -5.814288960257388 5.596531038185253 -5.8524718516057845 6.473082477478908 -6.592496220083705 6.001739403934428 -7.370703479910022 6.406947769683602 -7.332520588561625 5.530396330389948 -8.072544957039545 5.059053256845467 -7.294337697213228 4.653844891096293 -7.256154805864831 3.777293451802638
-1.0614242172652864 -1.0852552228998473
4 -3.0688180820880384 1.737702852320725 -1.717489631975232 3.2121218632927486 -3.1919086429472556 4.563450313405555 -4.543237093060062 3.0890313024335314
-2.300259024297245 1.4255602320447809
6 0.39567504077992965 0.7604236031178404 1.4422275391679884 1.427003370255063 1.3882287763724672 2.666634303821806 0.28767751518888746 3.2396854702513265 -0.7588749831991712 2.5731057031141042 -0.7048762204036507 1.3334747695473614
-3.463784872073345 4.173879556407337
6 -6.804527566678683 2.962856994736055 -5.757975068290624 3.6294367618732775 -5.811973831086145 4.8690676954400205 -6.912525092269725 5.442118861869541 -7.959077590657784 4.775539094732318 -7.905078827862263 3.535908161165576
8.960707380210666 0.049777868600913905
4 -8.525580989027976 5.240994851088281 -7.1742525389151695 6.715413862060306 -8.648671549887194 8.066742312173112 -10.0 6.5923233012010884
-0.6813476789771877 3.8888016146563236
20 1.6063967596159174 -7.619746178001469 2.042423053029912 -6.643663079946392 1.7827977018320798 -6.176427633164272 2.0112138996617857 -5.927205333089148 2.499255448689324 -6.145218479796145 3.4337263422535655 -5.625967777400481 2.457643244198489 -5.189941483986486 1.9904077974163683 -5.449566835184318 1.7411854973412448 -5.221150637354612 1.9591986440482423 -4.733109088327074 1.4399479416525778 -3.7986381947628325 1.0039216482385833 -4.774721292817909 1.2635469994364155 -5.241956739600029 1.0351308016067093 -5.491179039675153 0.5470892525791712 -5.273165892968156 -0.38738164098507033 -5.79241659536382 0.5887014570700061 -6.228442888777815 1.055936903852127 -5.968817537579983 1.3051592039272504 -6.1972337354096885 1.087146057220253 -6.6852752844372265
-5.619599054396847 -1.4860378610817593
4 8.328352427229188 5.746389145461844 9.679680877341994 7.220808156433868 8.20526186636997 8.572136606546675 6.8539334162571635 7.097717595574651
1.8195653763184585 1.5899796367979657
6 4.809927868727696 -3.3250897775147745 5.856480367115755 -2.658510010377552 5.802481604320234 -1.4188790768108088 4.701930343136654 -0.8458279103812885 3.655377844748595 -1.5124076775185107 3.709376607544116 -2.7520386110852533
