areaTotal:400.0
tiempoTotalSimulado:1.0
areaOcupadaInicial:8.000000000000064
eventosSimples:794
eventosMultiples:0
0.0
[(0,15), (0,20), (0,53), (0,61), (0,62), (0,71), (0,93), (0,129), (0,185), (1,17), (1,30), (1,34), (1,68), (1,118), (1,135), (1,192), (1,193), (1,196), (2,39), (2,54), (2,120), (2,163), (2,187), (3,50), (3,92), (3,102), (3,180), (4,64), (4,106), (5,11), (5,12), (5,21), (5,35), (5,52), (5,56), (5,60), (5,76), (5,96), (5,98), (5,150), (5,160), (5,167), (6,77), (6,133), (6,154), (6,156), (6,177), (7,23), (7,32), (7,78), (7,99), (7,130), (7,136), (7,141), (7,199), (8,28), (8,70), (8,83), (8,89), (8,166), (8,197), (9,22), (9,72), (9,88), (9,194), (10,95), (10,146), (10,176), (10,184), (11,21), (11,35), (11,52), (11,56), (11,59), (11,82), (11,96), (11,150), (11,160), (11,198), (12,60), (12,76), (12,98), (12,150), (12,167), (13,37), (13,86), (13,112), (13,132), (13,143), (13,149), (14,16), (14,46), (14,79), (14,94), (15,61), (15,71), (15,93), (15,100), (15,129), (15,185), (16,46), (16,79), (16,94), (17,68), (17,109), (17,135), (17,148), (17,161), (18,42), (18,73), (18,108), (18,110), (18,158), (19,24), (19,47), (19,183), (19,186), (19,198), (20,53), (20,61), (20,62), (20,127), (20,185), (20,189), (21,35), (21,52), (21,56), (21,59), (21,96), (21,150), (21,160), (22,72), (22,88), (22,140), (22,153), (22,194), (23,32), (23,78), (23,99), (23,136), (23,141), (23,159), (24,47), (24,105), (24,183), (25,65), (25,140), (25,153), (26,55), (26,69), (26,81), (26,133), (26,154), (27,67), (27,70), (27,97), (27,114), (27,147), (27,170), (27,174), (27,195), (28,83), (28,89), (28,166), (28,180), (28,197), (29,90), (29,101), (29,179), (30,34), (30,118), (30,192), (30,193), (30,196), (31,57), (31,65), (31,121), (31,155), (32,78), (32,99), (32,136), (32,159), (33,112), (34,68), (34,118), (34,192), (34,193), (34,196), (35,52), (35,56), (35,96), (35,98), (35,150), (35,160), (36,44), (36,189), (37,86), (37,112), (37,132), (37,143), (37,149), (38,43), (38,63), (38,91), (38,105), (38,188), (39,54), (39,120), (39,163), (39,169), (39,187), (40,45), (40,54), (40,120), (40,169), (40,175), (41,64), (41,106), (41,123), (42,73), (42,108), (42,110), (42,137), (42,158), (43,63), (43,91), (43,105), (43,188), (44,189), (45,54), (45,120), (45,159), (45,169), (45,175), (46,79), (47,183), (47,186), (47,198), (48,55), (48,69), (48,81), (48,111), (48,128), (49,172), (49,190), (49,191), (50,92), (50,102), (51,57), (51,134), (51,137), (51,155), (51,158), (52,56), (52,96), (52,98), (52,150), (52,160), (53,61), (53,62), (53,127), (53,185), (53,189), (54,120), (54,163), (54,169), (54,187), (55,69), (55,81), (55,128), (56,59), (56,96), (56,150), (56,160), (57,121), (57,134), (57,137), (57,155), (57,158), (58,107), (58,117), (58,139), (58,145), (58,152), (58,157), (59,82), (59,160), (59,186), (59,198), (60,76), (60,98), (60,104), (60,125), (60,150), (60,167), (61,62), (61,71), (61,185), (62,127), (62,185), (63,91), (63,111), (63,122), (63,188), (64,106), (65,140), (65,153), (66,95), (66,151), (66,176), (67,97), (67,114), (67,165), (67,170), (67,195), (68,109), (68,118), (68,135), (68,148), (68,161), (68,196), (69,81), (69,128), (70,83), (70,97), (70,114), (70,147), (70,170), (70,174), (71,93), (71,100), (71,129), (71,185), (72,88), (72,140), (72,153), (72,194), (73,108), (73,110), (73,158), (73,177), (74,116), (74,131), (74,142), (75,76), (75,104), (75,125), (76,98), (76,104), (76,125), (76,150), (76,167), (77,133), (77,154), (77,156), (77,177), (78,99), (78,130), (78,136), (78,141), (78,199), (79,94), (80,85), (80,109), (80,113), (80,126), (80,138), (80,161), (80,162), (80,164), (80,181), (80,182), (81,128), (81,133), (81,154), (82,160), (82,186), (82,198), (83,89), (83,166), (83,180), (83,197), (84,103), (84,107), (84,173), (85,109), (85,113), (85,126), (85,138), (85,162), (85,164), (85,181), (85,182), (86,112), (86,132), (86,149), (87,144), (87,171), (87,178), (88,194), (89,166), (89,180), (89,197), (90,101), (90,179), (91,105), (91,188), (92,102), (93,100), (93,129), (93,190), (95,146), (95,151), (95,176), (95,184), (96,98), (96,150), (96,160), (97,114), (97,147), (97,170), (97,174), (97,195), (98,150), (98,160), (98,167), (99,136), (99,141), (100,129), (100,190), (101,179), (103,172), (103,173), (104,125), (104,167), (105,183), (105,188), (107,117), (107,139), (107,145), (107,152), (107,157), (107,173), (108,110), (108,158), (108,177), (109,113), (109,126), (109,135), (109,148), (109,161), (109,181), (109,182), (110,158), (110,177), (111,122), (111,128), (112,132), (112,149), (113,126), (113,161), (113,162), (113,164), (113,181), (113,182), (114,147), (114,170), (114,174), (114,195), (115,117), (115,138), (115,139), (115,145), (115,157), (115,162), (116,123), (116,131), (116,142), (117,139), (117,145), (117,157), (118,192), (118,193), (118,196), (119,124), (119,130), (119,144), (119,168), (119,171), (119,178), (119,199), (120,163), (120,169), (120,187), (121,155), (123,142), (124,130), (124,141), (124,199), (125,167), (126,138), (126,162), (126,164), (126,181), (126,182), (127,185), (127,189), (130,136), (130,141), (130,199), (131,142), (131,146), (131,184), (132,143), (132,149), (133,154), (133,156), (134,137), (134,155), (134,158), (135,148), (135,161), (136,141), (136,199), (137,155), (137,158), (138,162), (138,164), (138,181), (138,182), (139,145), (139,152), (139,157), (140,153), (140,194), (141,199), (143,149), (144,168), (144,171), (144,178), (145,157), (146,176), (146,184), (147,170), (147,174), (148,161), (150,160), (150,167), (151,176), (152,157), (154,156), (156,177), (159,175), (161,181), (161,182), (162,164), (162,181), (162,182), (163,169), (163,187), (164,181), (164,182), (165,195), (166,180), (166,197), (168,171), (168,178), (169,175), (170,174), (171,178), (172,190), (172,191), (176,184), (180,197), (181,182), (186,198), (190,191), (192,193), (192,196), (193,196)]
[(0,35), (0,72), (0,145), (0,160), (0,190), (1,32), (2,79), (2,112), (2,135), (2,137), (2,144), (3,64), (3,82), (3,128), (3,150), (3,155), (3,185), (4,12), (4,45), (4,76), (4,99), (4,107), (4,172), (4,174), (4,180), (4,184), (4,199), (5,7), (5,47), (5,110), (5,126), (5,131), (5,176), (6,38), (6,171), (7,47), (7,110), (7,121), (7,131), (7,176), (8,34), (8,109), (8,161), (8,173), (9,11), (9,20), (9,29), (9,41), (9,43), (9,49), (9,50), (9,113), (9,162), (9,169), (10,42), (10,102), (10,111), (10,148), (10,183), (11,20), (11,29), (11,41), (11,43), (11,49), (11,50), (11,113), (11,162), (11,169), (12,26), (12,45), (12,57), (12,63), (12,76), (12,156), (12,172), (12,174), (12,180), (12,184), (12,199), (13,22), (13,44), (13,57), (13,61), (13,63), (13,156), (13,184), (13,193), (14,24), (14,33), (14,92), (14,141), (14,177), (15,23), (15,30), (15,124), (16,38), (16,59), (16,80), (16,115), (16,122), (16,175), (17,66), (17,73), (17,82), (17,128), (17,140), (17,150), (17,167), (17,197), (18,27), (18,70), (18,77), (18,78), (18,86), (18,139), (18,188), (18,198), (19,93), (19,116), (19,118), (19,127), (19,170), (20,29), (20,41), (20,43), (20,49), (20,50), (20,113), (20,162), (20,169), (21,40), (21,182), (22,44), (22,57), (22,61), (22,63), (22,187), (22,193), (23,30), (23,124), (24,33), (24,92), (24,141), (24,177), (25,123), (25,196), (26,57), (26,63), (26,76), (26,156), (26,172), (26,174), (26,180), (26,184), (26,199), (27,28), (27,70), (27,77), (27,78), (27,84), (27,86), (27,96), (27,108), (27,139), (27,188), (28,68), (28,77), (28,84), (28,86), (28,96), (28,108), (28,139), (28,188), (29,41), (29,43), (29,50), (29,113), (29,162), (29,169), (30,48), (30,124), (30,134), (31,91), (31,103), (32,39), (32,90), (32,136), (33,92), (33,141), (33,177), (34,70), (34,78), (34,109), (34,173), (34,198), (35,60), (35,101), (35,105), (35,160), (35,190), (35,191), (36,53), (36,54), (36,83), (36,114), (36,175), (36,195), (37,153), (37,159), (37,178), (38,171), (39,90), (39,136), (39,165), (40,65), (40,158), (40,182), (41,43), (41,49), (41,50), (41,71), (41,113), (41,162), (41,169), (42,92), (42,148), (42,183), (43,49), (43,50), (43,62), (43,71), (43,113), (43,162), (43,169), (44,61), (44,63), (44,187), (44,193), (45,76), (45,99), (45,107), (45,172), (45,174), (45,180), (45,184), (45,199), (46,56), (46,69), (46,75), (46,97), (46,138), (46,164), (46,166), (46,179), (47,110), (47,121), (47,131), (47,176), (48,65), (48,134), (48,158), (48,182), (49,50), (49,113), (49,162), (49,169), (50,113), (50,162), (50,169), (51,58), (51,112), (51,121), (51,137), (52,83), (52,94), (52,99), (52,107), (52,157), (52,181), (52,186), (53,54), (53,83), (53,114), (53,195), (54,83), (54,94), (54,114), (54,157), (54,181), (54,195), (56,69), (56,75), (56,87), (56,138), (56,164), (56,166), (56,179), (57,63), (57,76), (57,156), (57,172), (57,180), (57,184), (57,193), (58,112), (58,121), (58,137), (59,80), (59,115), (59,122), (59,175), (60,67), (60,101), (60,105), (60,129), (60,154), (60,160), (60,190), (60,191), (61,63), (61,187), (61,193), (62,71), (62,189), (63,76), (63,156), (63,172), (63,180), (63,184), (63,193), (64,82), (64,128), (64,150), (64,155), (64,185), (65,134), (65,158), (65,182), (66,73), (66,140), (66,167), (66,197), (67,101), (67,105), (67,129), (67,132), (67,151), (67,154), (67,191), (68,84), (68,96), (68,108), (69,91), (69,97), (69,164), (69,166), (69,179), (70,78), (70,173), (70,198), (71,189), (72,145), (72,152), (73,140), (73,146), (73,167), (73,197), (74,95), (74,98), (74,117), (74,133), (74,149), (75,87), (75,138), (75,164), (75,166), (75,179), (76,99), (76,156), (76,172), (76,174), (76,180), (76,184), (76,199), (77,84), (77,86), (77,96), (77,108), (77,139), (77,188), (78,198), (79,135), (79,137), (79,144), (80,115), (80,122), (80,175), (81,85), (81,87), (81,88), (81,100), (81,130), (81,168), (81,192), (82,128), (82,140), (82,150), (82,167), (83,94), (83,114), (83,157), (83,181), (83,186), (83,195), (84,86), (84,96), (84,108), (84,139), (84,188), (85,87), (85,88), (85,130), (85,138), (85,168), (85,192), (86,96), (86,108), (86,139), (86,188), (87,138), (87,164), (87,166), (87,168), (88,100), (88,130), (88,168), (88,192), (88,194), (89,142), (90,119), (90,136), (90,143), (90,165), (91,97), (91,179), (92,141), (92,177), (93,116), (93,118), (93,127), (93,170), (94,107), (94,114), (94,157), (94,181), (94,186), (94,195), (95,98), (95,117), (95,133), (95,149), (96,108), (96,139), (96,188), (97,166), (97,179), (98,117), (98,133), (98,142), (99,107), (99,172), (99,174), (99,199), (100,130), (100,192), (100,194), (101,105), (101,129), (101,132), (101,151), (101,154), (101,160), (101,190), (101,191), (102,111), (102,120), (102,148), (102,161), (102,183), (103,106), (104,187), (105,129), (105,132), (105,151), (105,154), (105,160), (105,190), (105,191), (107,157), (107,181), (107,186), (107,199), (108,139), (108,188), (109,161), (109,173), (109,198), (110,126), (110,131), (110,176), (111,120), (111,148), (111,183), (112,121), (112,135), (112,137), (112,144), (113,162), (113,169), (114,157), (114,181), (114,186), (114,195), (115,122), (115,175), (116,118), (116,127), (116,170), (117,133), (117,142), (117,149), (118,127), (118,170), (119,143), (119,165), (119,194), (120,161), (121,131), (121,137), (121,176), (122,175), (123,196), (125,163), (126,147), (127,170), (128,140), (128,150), (128,155), (128,185), (129,132), (129,151), (129,154), (129,191), (130,168), (130,192), (131,176), (132,146), (132,151), (132,154), (133,149), (134,158), (134,182), (135,137), (135,144), (137,144), (138,164), (138,166), (139,188), (140,150), (140,167), (140,197), (141,177), (143,165), (145,160), (146,151), (146,197), (147,153), (147,178), (148,183), (150,185), (151,154), (152,196), (153,159), (153,178), (154,160), (154,191), (155,185), (156,172), (156,180), (156,184), (156,193), (157,181), (157,186), (157,195), (158,182), (159,178), (160,190), (160,191), (162,169), (164,166), (164,179), (166,179), (167,197), (168,192), (172,174), (172,180), (172,184), (172,199), (173,198), (174,180), (174,184), (174,199), (180,184), (180,199), (181,186), (181,195), (184,199), (186,195), (190,191)]
8.082663675037771E-4, [(35,59),X]+
0.001908740069446519, [(102,148),Y]-
0.0019161114017291754, [(130,136),X]-
0.002468944161247605, [(87,130),Y]+
0.0032480332978237813, [(110,177),X]-
0.0036408660425934127, [(46,94),X]+
0.003693669783570191, [(111,161),Y]+
0.003735272741396385, [(79,137),Y]-
0.0044117476595439105, [(43,122),X]+
0.004489569056983135, [(23,159),X]-
0.005039475530392021, [(99,180),Y]+
0.0051595231248081595, [(60,160),X]+
0.005357491529845738, [(53,175),Y]+
0.0061151701863480885, [(72,152),Y]-
0.006286860020831303, [(29,71),Y]+
0.007800347647339966, [(0,60),Y]+
0.007839870264221734, [(112,135),Y]-
0.00794501030529781, [(49,100),X]+
0.008064430863370555, [(69,75),Y]+
0.008622549672123038, [(1,159),Y]+
0.008667296630105485, [(117,138),X]+
0.008674136641390445, [(42,92),Y]-
0.008986593090247777, [(58,144),Y]+
0.009559654610077819, [(170,195),X]+
0.009603448103806176, [(121,131),Y]-
0.01017428550936629, [(98,149),Y]+
0.010241943365217977, [(18,188),Y]-
0.01031286143180238, [(70,83),X]-
0.011990937852054111, [(26,199),Y]-
0.013012610330724202, [(47,121),Y]-
0.013410126287967575, [(32,78),X]-
0.013786428539433692, [(49,93),X]+
0.014099875111323771, [(145,152),X]+
0.014548531585179903, [(30,134),Y]-
0.015524855992506411, [(87,88),Y]+
0.016424150956180095, [(30,48),Y]-
0.01651661962043143, [(63,180),Y]-
0.016548278110337475, [(184,193),Y]+
0.016652402093300236, [(1,135),X]-
0.01720505695273518, [(43,62),Y]-
0.018534374128117398, [(17,196),X]+
0.018639171669839638, [(34,78),Y]-
0.018662777498071447, [(85,166),Y]+
0.01907724810121052, [(77,154),X]-
0.019626745154207283, [(29,169),Y]-
0.020517366459733906, [(27,108),Y]-
0.020550349509690615, [(17,196),X]-
0.020795759346740626, [(7,32),X]-
0.02283282177718783, [(109,164),X]+
0.023713723937240142, [(35,82),X]+
0.02371935245869988, [(68,96),Y]-
0.024467182274716347, [(15,116),Y]+
0.024690970663388462, [(56,97),Y]+
0.02491425590640785, [(11,198),X]-
0.02508123839329869, [(133,177),X]+
0.025418315536239494, [(1,32),Y]-
0.026395314135615362, [(60,96),X]+
0.026431398282816876, [(54,181),Y]-
0.02650726834928112, [(32,78),X]+
0.02707857963264407, [(39,119),Y]+
0.02750492395406697, [(49,93),X]-
0.02750492395406697, [(49,100),X]-
0.028349651926251798, [(40,159),X]+
0.02846861030621543, [(27,28),Y]-
0.02859935507609061, [(9,29),Y]-
0.028886442206799298, [(140,194),X]-
0.030427602366913734, [(138,157),X]+
0.030587304181563583, [(73,177),X]-
0.03078977478323173, [(21,59),X]-
0.031315021915041284, [(7,124),X]+
0.03143016877238505, [(100,168),Y]+
0.03146084319618477, [(7,121),Y]-
0.03169816746196727, [(36,83),Y]-
0.03278540291210593, [(8,166),X]-
0.03399245464180618, [(57,158),X]-
0.03512480966254055, [(75,167),X]+
0.03551290525125488, [(10,102),Y]-
0.035679674221386654, [(35,98),X]-
0.03688722212889127, [(39,119),Y]-
0.03774471371500718, [(27,198),Y]+
0.03799555268200842, [(152,157),X]-
0.038336638518813734, [(87,168),X]+
0.038586289286216276, [(51,176),Y]+
0.03868113076386905, [(128,167),Y]+
0.03897517385238471, [(28,77),Y]-
0.03949741237136349, [(8,28),X]-
0.04036130427680207, [(41,142),X]+
0.04094996725126785, [(16,38),Y]-
0.04136949305988812, [(31,134),X]+
0.04235669482649409, [(131,184),X]-
0.042775069834623, [(18,86),Y]-
0.04278714599902631, [(35,98),X]+
0.04359456641837779, [(17,196),X]+
0.04359456641837779, [(17,34),X]+
0.04479545468950892, [(146,197),Y]-
0.04600183383678, [(135,137),Y]-
0.046337906169844845, [(87,192),Y]+
0.04719725118879032, [(42,51),X]+
0.04762382859258606, [(74,146),X]+
0.04773543121748612, [(108,177),X]-
0.047946522675913004, [(34,70),Y]-
0.04845962807217302, [(27,70),X]-
0.050734510225320016, [(88,194),Y]-
0.05075429171030701, [(56,98),X]+
0.051414651177030264, [(43,189),Y]+
0.05167950285654799, [(21,141),Y]+
0.052565004515571674, [(183,198),X]+
0.05345184363781112, [(130,168),X]+
0.05423067758993757, [(45,184),Y]-
0.05517199130998262, [(139,152),X]-
0.05552279222086972, [(66,82),Y]+
0.055669364102636835, [(40,158),Y]-
0.05577746248342212, [(107,173),X]-
0.056069942495530635, [(87,192),Y]-
0.056562417972299404, [(97,164),Y]+
0.056731084523971055, [(0,100),X]+
0.05726188358230154, [(67,160),Y]+
0.0575160582618043, [(147,153),Y]-
0.05766179234467718, [(121,134),X]+
0.05770597627895198, [(68,118),X]-
0.06090431292312402, [(2,58),Y]+
0.06100199132183168, [(60,125),X]-
0.06376002513548008, [(57,180),Y]-
0.06556331571317844, [(77,78),Y]+
0.06594974758208672, [(53,83),Y]-
0.06748111722411794, [(136,199),X]-
0.06751849532833307, [(57,180),Y]+
0.06784637666807068, [(0,101),Y]+
0.06814366421795308, [(161,182),X]-
0.06856001909796582, [(107,186),Y]-
0.0690563993412242, [(78,130),X]-
0.0697248683782233, [(107,174),Y]+
0.07067390148135164, [(40,120),X]-
0.07069785458547523, [(31,106),Y]+
0.07086134420642587, [(75,97),Y]+
0.07097200332471787, [(43,105),X]-
0.07142312366719297, [(84,107),X]-
0.07450268146463435, [(40,120),X]+
0.07491046789419002, [(143,187),X]+
0.07601560563458998, [(102,180),X]+
0.07782528741939698, [(76,99),Y]-
0.07790543617625467, [(66,128),Y]+
0.07901955541776229, [(2,58),Y]-
0.07909750588554859, [(5,126),Y]-
0.07967024067448328, [(87,119),X]+
0.07989158679458268, [(150,155),Y]+
0.08106414819756919, [(154,177),X]+
0.08110943356038113, [(130,141),X]-
0.08110943356038113, [(124,141),X]-
0.0822408123782804, [(44,57),Y]+
0.08244838717259453, [(68,109),X]-
0.08265379729383969, [(74,142),Y]+
0.08272176626607965, [(111,148),Y]-
0.08421371152457274, [(11,98),X]+
0.08432520727352208, [(15,19),Y]+
0.08509716465580151, [(14,42),Y]+
0.08512344909784493, [(113,148),X]+
0.08659136797759877, [(23,116),Y]+
0.08672178281660031, [(73,177),X]+
0.08685626861934098, [(107,157),Y]-
0.08733212413134525, [(26,69),X]-
0.08742368499420772, [(82,160),X]-
0.08763510951973452, [(74,142),X]-
0.08888499421308818, [(61,71),X]-
0.08957109417252059, [(132,191),Y]+
0.08962095330522729, [(138,181),X]-
0.0900965466710022, [(15,127),Y]+
0.09022637073859698, [(85,164),Y]+
0.09027746461726346, [(77,198),Y]+
0.09029654684724285, [(57,137),X]-
0.09034786221502773, [(0,105),Y]+
0.09066693570466862, [(161,182),X]+
0.09079498930639181, [(89,118),Y]+
0.09130430540266103, [(41,189),Y]+
0.09136779613424403, [(122,175),Y]-
0.09178351913262453, [(138,139),X]+
0.09179492981552617, [(28,77),Y]+
0.09225275985121245, [(93,190),X]-
0.09279404887055245, [(18,137),X]+
0.09380221440276064, [(15,93),Y]+
0.09401141034397693, [(145,160),Y]-
0.09585262627405818, [(8,102),Y]+
0.09617449903301468, [(190,191),Y]-
0.09628314319307814, [(105,151),Y]-
0.09648380020589198, [(25,163),Y]+
0.09649833969697368, [(138,179),Y]+
0.09665895280182772, [(57,61),Y]+
0.09669832904848778, [(33,88),X]+
0.09691149950031384, [(55,154),X]+
0.09739656981308288, [(12,104),X]+
0.09789280713458653, [(146,176),X]-
0.09802157346497195, [(108,137),X]+
0.09858804304450636, [(29,162),Y]-
0.09879688076099576, [(94,107),Y]-
0.09953908409879458, [(41,106),X]-
0.0998242898718859, [(113,135),X]+
0.09998382525854035, [(15,93),Y]-
0.09998382525854035, [(15,19),Y]-
0.10015163125942103, [(54,181),Y]+
0.10161980129616986, [(119,194),Y]-
0.10172091347651185, [(32,175),X]+
0.10200462286869615, [(18,137),X]-
0.1020643013050824, [(88,138),Y]+
0.10266201511181644, [(45,54),X]-
0.10340676392673931, [(39,165),Y]-
0.10351650398060674, [(103,191),X]+
0.10370241954291269, [(5,126),Y]+
0.10444964302883883, [(0,53),X]-
0.10447480301304186, [(18,139),Y]-
0.1048987668505467, [(98,142),Y]-
0.1048987668505467, [(74,142),Y]-
0.10525747342379693, [(61,127),X]+
0.10614272395856178, [(43,111),X]+
0.10616933814860015, [(91,105),X]-
0.10675191275502482, [(73,77),X]+
0.10702877651966627, [(29,189),Y]+
0.10710485460046816, [(66,128),Y]-
0.10710485460046816, [(66,82),Y]-
0.10771271190433744, [(54,175),Y]+
0.10820558620288356, [(17,109),X]-
0.1084475019191995, [(109,198),Y]-
0.10848574808551943, [(69,138),Y]+
0.10897097540839036, [(63,180),Y]+
0.10955706959469154, [(77,198),Y]-
0.10955706959469154, [(77,78),Y]-
0.10980064939551974, [(123,152),Y]+
0.11017535348762215, [(6,154),X]-
0.11017535348762215, [(154,177),X]-
0.11064947011264438, [(34,198),Y]-
0.11103904984421113, [(190,191),Y]+
0.11240185078597617, [(76,150),X]-
0.11259415860383197, [(150,167),X]-
0.11263514226168193, [(138,145),X]+
0.11357649010253104, [(109,198),Y]+
0.11446786626432999, [(76,193),Y]+
0.11447759045444586, [(186,195),Y]-
0.11500792261007099, [(89,93),Y]+
0.11604324547367519, [(75,87),Y]-
0.11660771325599621, [(114,175),Y]+
0.11661810365161507, [(67,147),X]+
0.11666283469164702, [(80,138),X]-
0.1181228936480215, [(19,105),X]+
0.11816762418621386, [(25,163),Y]-
0.11840558447989138, [(48,111),X]-
0.11915086821059903, [(108,177),X]+
0.1194457232077041, [(95,146),X]-
0.12045491242823779, [(56,85),Y]+
0.1207243854243094, [(26,174),Y]-
0.12080738902922011, [(58,117),X]-
0.12095751193222908, [(113,162),X]-
0.12267679108663251, [(130,178),X]+
0.12308599888016412, [(151,184),X]+
0.12336561632955291, [(45,184),Y]+
0.12336561632955291, [(45,184),Y]-
0.12367681896789766, [(139,152),X]+
0.12367681896789766, [(139,152),X]-
0.12409475986867032, [(70,89),X]+
0.12409475986867032, [(70,197),X]+
0.12507836381494192, [(32,39),Y]-
0.12540818538837953, [(8,83),X]-
0.12703250056070495, [(117,142),Y]-
0.12864877001403552, [(169,175),X]-
0.1288343800332276, [(57,65),X]+
0.12893030824495152, [(20,189),X]-
0.1292054388226558, [(43,111),X]-
0.1292054388226558, [(43,122),X]-
0.1310615387315115, [(33,112),X]-
0.13160028024074058, [(114,165),X]+
0.13197544081063256, [(17,109),X]+
0.13197544081063256, [(68,109),X]+
0.1321840016610276, [(89,170),Y]+
0.13365768042176904, [(68,84),Y]-
0.13366683845570088, [(70,109),Y]+
0.13525235816644476, [(175,195),Y]+
0.13531301894950318, [(65,153),X]-
0.13564205099445098, [(87,168),X]-
0.13570160515255336, [(55,133),X]+
0.13696093083452043, [(61,193),Y]-
0.13756899879333498, [(13,156),Y]-
0.13846218723166223, [(10,176),X]-
0.1387036076325393, [(25,153),X]-
0.1388515933035184, [(102,183),Y]-
0.13958287085577564, [(91,179),Y]-
0.13972845868369457, [(5,167),X]-
0.1399918301906121, [(103,172),X]-
0.1399918301906121, [(103,191),X]-
0.14125180457460954, [(130,171),X]+
0.14178051084182108, [(38,105),X]-
0.14304992268902345, [(69,91),Y]-
0.14341356849579517, [(175,195),Y]-
0.14372493742363415, [(32,90),Y]-
0.1444365079856149, [(10,74),X]+
0.14455968446665346, [(87,164),Y]-
0.1448652420613409, [(113,148),X]-
0.14495121103756684, [(1,153),Y]+
0.14517556870487577, [(41,49),Y]-
0.1453492061261151, [(61,193),Y]+
0.14556976184766574, [(38,80),Y]+
0.14561873700964548, [(88,138),Y]-
0.14641996532371682, [(85,138),X]-
0.14757034076773773, [(131,142),X]-
0.14859783372769195, [(40,158),Y]+
0.1486826209004616, [(27,96),Y]-
0.14966689365034302, [(50,180),X]+
0.1499867762646052, [(110,137),X]+
0.1499867762646052, [(73,137),X]+
0.15034632343871782, [(119,199),X]-
0.1505012522690814, [(154,190),Y]+
0.15162776725207033, [(89,93),Y]-
0.15179310561202575, [(129,160),Y]+
0.1518281371744224, [(137,155),X]-
0.15247590196751587, [(169,175),X]+
0.15288053356803438, [(58,157),X]-
0.1533792824839926, [(97,138),Y]+
0.15398053125116654, [(36,59),Y]+
0.15469917757448545, [(29,50),Y]-
0.1547814548304011, [(147,195),X]+
0.1572707200514799, [(32,40),X]+
0.15743606957507505, [(85,113),X]-
0.15748033457183927, [(80,175),Y]-
0.15771089994015886, [(10,95),X]-
0.1587036832212362, [(26,156),X]+
0.1595800150438159, [(91,97),Y]-
0.16013446957366664, [(51,144),Y]+
0.16189134748683334, [(25,57),X]+
0.16313801700386116, [(107,172),Y]+
0.16350632943669688, [(51,57),X]-
0.16540871270127444, [(22,184),Y]+
0.16569277854545772, [(154,190),Y]-
0.1695708475114963, [(7,99),X]-
0.17018031100603342, [(128,167),Y]-
0.1703486059074699, [(35,60),X]+
0.1705615951027224, [(135,181),X]+
0.1717917734854564, [(42,134),X]+
0.1723106014969766, [(27,84),Y]-
0.17245503192746056, [(115,164),X]+
0.17343125346131164, [(27,139),Y]-
0.17408517167082177, [(56,87),Y]-
0.17408517167082177, [(56,85),Y]-
0.1747824545789641, [(161,164),X]+
0.17535525607072278, [(120,183),Y]+
0.17535525607072278, [(102,183),Y]+
0.17551972911003083, [(45,120),X]-
0.17551972911003083, [(45,120),X]+
0.17610495874005666, [(1,37),Y]+
0.1765932454702385, [(109,162),X]+
0.17728789181287385, [(76,99),Y]+
0.17747594656234783, [(107,172),Y]-
0.17780534203900297, [(16,79),X]-
0.17797537170816058, [(21,98),X]+
0.17810570890458985, [(53,59),Y]+
0.18375056231286443, [(16,175),Y]-
0.18484883119417797, [(8,111),Y]+
0.1853780428306719, [(84,152),X]+
0.1853780428306719, [(58,84),X]+
0.18641767484483007, [(135,181),X]-
0.1870509148507363, [(69,91),Y]+
0.18770183552387246, [(69,138),Y]-
0.18800926406592192, [(183,186),X]+
0.18866238821384484, [(115,175),Y]-
0.18885562759448804, [(102,166),X]+
0.18915030371971114, [(89,142),Y]-
0.18924059301896784, [(8,120),Y]+
0.1904434351980078, [(22,140),X]-
0.19066041439594208, [(7,23),X]-
0.1929239782184941, [(119,124),X]-
0.19390108030578823, [(97,138),Y]-
0.19488080754024045, [(132,187),X]+
0.1951353467039603, [(16,90),X]+
0.19661851362129096, [(83,102),X]+
0.19719426038859356, [(122,128),X]+
0.19803674605517552, [(24,198),X]+
0.19803674605517552, [(24,186),X]+
0.19817266193332142, [(23,127),Y]+
0.19830988868019234, [(13,184),Y]-
0.19830988868019234, [(22,184),Y]-
0.19849762682396413, [(81,156),X]+
0.19880545321861995, [(117,162),X]+
0.20022863415064923, [(47,105),X]+
0.2002355781080837, [(35,145),Y]+
0.2008190420122167, [(91,97),Y]+
0.20128671983697263, [(100,168),Y]-
0.20146777756992476, [(30,116),Y]+
0.20179080698718838, [(120,187),X]-
0.20226812781904058, [(175,195),Y]+
0.20291712846174595, [(52,157),Y]-
0.2045756088876417, [(89,180),X]-
0.2050529228650643, [(25,196),Y]-
0.2051884790248948, [(109,120),Y]+
0.20535868331744714, [(30,116),Y]-
0.2055913797165133, [(116,131),X]-
0.20564508390752773, [(28,102),X]+
0.20567492294465703, [(145,190),Y]+
0.20628078613646916, [(152,173),X]+
0.2080378239477727, [(11,186),X]+
0.20808756033012085, [(16,179),X]+
0.2080895089580746, [(85,164),Y]-
0.20926509117825567, [(115,175),Y]+
0.20926509117825567, [(80,175),Y]+
0.20973276917061254, [(134,158),X]-
0.2118008608895115, [(89,180),X]+
0.2119226613671272, [(51,108),X]+
0.2119635622233722, [(86,143),X]+
0.21374159816751948, [(56,82),X]+
0.21374159816751948, [(82,160),X]+
0.2139231040510609, [(134,137),X]-
0.21511615928766503, [(77,156),X]-
0.21562369620970437, [(13,156),Y]+
0.21562369620970437, [(13,76),Y]+
0.215774317558215, [(32,45),X]+
0.21595105924977062, [(82,198),X]-
0.2163692002777152, [(105,198),X]+
0.216745635313086, [(120,187),X]+
0.21677688776896925, [(147,178),Y]-
0.21788263377029782, [(5,167),X]+
0.21821759326607792, [(27,139),Y]+
0.21832255920324908, [(0,191),Y]+
0.21836429524876327, [(21,177),Y]+
0.21865068090273837, [(25,196),Y]+
0.21946505471769243, [(31,65),X]-
0.2205946621609951, [(12,75),X]+
0.22207908096502518, [(36,53),X]+
0.22239925042251515, [(109,162),X]-
0.22239925042251515, [(85,109),X]-
0.22239925042251515, [(109,126),X]-
0.2231700142140709, [(109,198),Y]-
0.22365582758454242, [(14,79),X]-
0.22424238678783376, [(141,182),Y]+
0.22485827438285494, [(87,166),Y]-
0.22492905141951589, [(30,196),X]-
0.22612057092876933, [(79,125),Y]+
0.22720873448418832, [(36,53),X]-
0.22782234027839282, [(18,137),X]+
0.22784001203276907, [(10,120),Y]+
0.22855194504766654, [(29,50),Y]+
0.22855194504766654, [(29,50),Y]-
0.229897238255572, [(62,171),Y]+
0.2303846741287541, [(39,90),Y]-
0.23165614016190053, [(51,176),Y]-
0.23188171491978707, [(149,187),X]+
0.2320686972518562, [(83,102),X]-
0.23219905788118234, [(145,160),Y]+
0.23294429620560256, [(17,64),Y]+
0.23462387785289276, [(55,104),Y]+
0.2348263574849698, [(8,173),Y]-
0.23676789629817482, [(18,77),Y]-
0.2376116341960576, [(73,140),Y]-
0.2376568958477312, [(41,116),X]+
0.23813296423986002, [(67,174),X]+
0.23828833395377497, [(15,62),X]+
0.23855481065860695, [(129,160),Y]-
0.23859620621601835, [(161,183),Y]+
0.242436219622429, [(17,64),Y]-
0.2436539814443438, [(14,179),X]+
0.24416776935983686, [(69,164),Y]-
0.24416776935983686, [(69,75),Y]-
0.24416776935983686, [(69,75),Y]+
0.24556005488224658, [(38,62),Y]+
0.24570377712458563, [(192,194),Y]+
0.24864319088225306, [(27,139),Y]-
0.2500096084041576, [(16,46),X]-
0.25012745723020985, [(0,72),Y]-
0.25020250925474424, [(99,175),X]+
0.25027459779970523, [(91,105),X]+
0.25057224648319604, [(40,141),Y]+
0.2521464104132223, [(13,187),Y]+
0.25247668600931605, [(157,162),X]+
0.25315319818854776, [(107,115),X]+
0.25390745853578983, [(49,191),X]-
0.2543639754921285, [(6,156),X]-
0.2546069072669156, [(122,128),X]-
0.25510669514811346, [(87,166),Y]+
0.25529698494839753, [(60,145),Y]+
0.25664293920577336, [(52,157),Y]+
0.2571863881050956, [(36,115),Y]+
0.25737242278579514, [(60,104),X]-
0.2578408542215028, [(13,187),Y]-
0.25795661516268975, [(121,144),Y]+
0.25807461660699726, [(40,99),X]+
0.2582515228472469, [(6,80),Y]+
0.2584228621390195, [(24,188),X]+
0.25961050705680333, [(116,118),Y]-
0.26056199228891574, [(138,179),Y]-
0.26056199228891574, [(164,179),Y]-
0.26269982146831883, [(101,145),Y]+
0.2637529939704076, [(50,166),X]+
0.26418186085047934, [(10,42),Y]-
0.26721245056809173, [(99,175),X]-
0.26791223367190525, [(20,189),Y]+
0.2689409920898338, [(82,155),Y]+
0.26975062408699235, [(2,58),Y]+
0.26975062408699235, [(2,51),Y]+
0.2706156917227123, [(144,168),X]-
0.27190490027147285, [(174,195),X]+
0.27307775333527945, [(58,84),X]-
0.274042861988199, [(47,105),X]-
0.27737660593157987, [(14,46),X]-
0.27814823346321793, [(55,156),X]+
0.27928387261538157, [(14,179),X]-
0.2808167857416465, [(50,166),X]-
0.2808167857416465, [(50,166),X]+
0.2808167857416465, [(3,166),X]+
0.2816852394947789, [(57,140),X]+
0.2817692611385961, [(101,145),Y]-
0.282188742929118, [(6,62),Y]+
0.2865111035589732, [(2,79),Y]-
0.2865893602086679, [(74,133),Y]-
0.28996416566014344, [(84,152),X]-
0.28996416566014344, [(152,173),X]-
0.28996416566014344, [(152,173),X]+
0.29102963693666206, [(15,30),Y]-
0.29214013287950213, [(79,144),Y]-
0.2925162180742306, [(11,29),Y]-
0.2925162180742306, [(11,29),Y]+
0.2925162180742306, [(29,50),Y]+
0.292775853586332, [(68,188),Y]+
0.29303476929981576, [(47,105),X]+
0.29399157716599567, [(8,174),X]+
0.2942940925370606, [(67,146),Y]+
0.29639558732819193, [(51,158),X]-
0.2966599023899799, [(10,148),Y]-
0.2988274235289065, [(24,91),X]+
0.29894431099922847, [(149,187),X]-
0.2993166658141367, [(146,184),X]-
0.2999203106562411, [(39,90),Y]+
0.2999877592943589, [(58,121),Y]-
0.2999877592943589, [(121,144),Y]-
0.3001619133025093, [(16,29),X]+
0.3004353459688998, [(173,198),Y]-
0.301383870613233, [(23,141),X]-
0.3021708183934495, [(76,106),X]+
0.3033119172118685, [(18,77),Y]+
0.3069446104042139, [(135,144),Y]-
0.3076930971191628, [(33,88),X]-
0.3082401207749313, [(152,173),X]-
0.3095790920887845, [(62,189),Y]-
0.31147934076566575, [(58,139),X]-
0.3114863252197748, [(12,104),X]-
0.31347408364738466, [(66,184),X]+
0.3154241889816351, [(7,136),X]-
0.31673108930083693, [(4,76),X]+
0.32055227704960776, [(34,120),Y]+
0.32091001630950355, [(161,183),Y]-
0.3220280013636597, [(135,144),Y]+
0.32273354984240493, [(19,118),Y]-
0.32435854315034796, [(121,176),Y]-
0.3252613519045045, [(55,128),X]-
0.325888294177073, [(43,188),X]-
0.3263629936426022, [(70,197),X]-
0.32693730513244473, [(93,116),Y]-
0.3279771561639794, [(80,171),Y]+
0.3305351551086379, [(106,125),X]+
0.3305351551086379, [(4,125),X]+
0.3318673620263144, [(108,134),X]+
0.3329163000328463, [(65,141),Y]+
0.3393360995706997, [(25,140),X]-
0.33973145938687954, [(124,171),X]+
0.33973145938687954, [(171,199),X]+
0.34181192699221485, [(15,30),Y]+
0.34181192699221485, [(15,30),Y]-
0.34248245791306103, [(7,171),X]+
0.3433583001386585, [(1,178),Y]+
0.34364747361500597, [(82,185),Y]+
0.34418450540070183, [(73,151),Y]+
0.34832527993316575, [(10,184),X]-
0.3503433996876744, [(55,128),X]+
0.35080914549643155, [(147,178),Y]+
0.3538919882729541, [(25,140),X]+
0.359424849541999, [(8,197),X]-
0.3628757758515632, [(126,131),Y]+
0.36362671448818196, [(0,20),X]-
0.3636618884636744, [(129,160),Y]+
0.3642247309823203, [(52,114),Y]+
0.36640220759808245, [(124,178),X]+
0.36640220759808245, [(178,199),X]+
0.36668514984663125, [(107,181),Y]-
0.36855480272203645, [(67,146),Y]-
0.3688573473635732, [(28,50),X]+
0.3688573473635732, [(28,50),X]-
0.36927452609591244, [(36,94),Y]+
0.37306501096485056, [(27,139),Y]+
0.3731717810543708, [(63,111),X]-
0.37579725763503324, [(104,187),Y]-
0.37720622653844044, [(73,151),Y]-
0.3776411338194818, [(125,135),Y]+
0.3789871672289778, [(10,42),Y]+
0.37939465113372095, [(50,92),X]-
0.3800603021764783, [(147,195),X]-
0.3800603021764783, [(67,147),X]-
0.38056623069723083, [(107,138),X]+
0.3813117335416038, [(62,71),Y]-
0.3820676659538994, [(79,94),X]-
0.3861374850026826, [(65,141),Y]-
0.38774200346749593, [(68,86),Y]+
0.38833574600230863, [(64,106),X]-
0.3902955409038245, [(103,173),X]-
0.3937957759002957, [(51,121),X]+
0.398878842574504, [(91,106),Y]+
0.39905997916527064, [(84,103),X]-
0.3991315330110986, [(68,188),Y]-
0.4003826904282075, [(136,199),X]+
0.40203611179120463, [(57,153),X]+
0.4043294281029681, [(121,176),Y]+
0.4043294281029681, [(121,176),Y]-
0.4052289108106916, [(68,188),Y]+
0.4082521956475298, [(46,94),X]-
0.41068734615756314, [(44,66),X]+
0.4117397186999911, [(43,188),X]+
0.4121723272354407, [(4,125),X]-
0.4121723272354407, [(4,125),X]+
0.4139443475158159, [(105,186),X]+
0.4139443475158159, [(105,186),X]-
0.4158494613397741, [(62,80),Y]+
0.41659258872830873, [(23,127),Y]-
0.41906542364906735, [(40,48),Y]+
0.41906542364906735, [(40,48),Y]-
0.41994442526634057, [(81,156),X]-
0.420791678362048, [(72,140),X]-
0.42108937261753737, [(19,118),Y]+
0.42143073486926746, [(2,169),X]+
0.4218531882698237, [(71,185),X]-
0.4233146421467409, [(64,142),X]+
0.42416197270437417, [(116,124),Y]+
0.42468742772029694, [(60,132),Y]+
0.4276483529628114, [(19,188),X]+
0.42773569039216397, [(81,154),X]-
0.43196740271373874, [(59,198),X]-
0.4320799839471456, [(14,179),X]+
0.4320799839471456, [(16,46),X]+
0.4320799839471456, [(16,79),X]+
0.4331480050364258, [(79,163),Y]+
0.4331480050364258, [(135,163),Y]+
0.43435273432923444, [(22,88),X]-
0.4375690194432339, [(18,42),X]-
0.4375690194432339, [(18,158),X]-
0.437984373584377, [(132,187),X]-
0.43950254778202447, [(85,138),X]+
0.4448856889672354, [(190,191),X]-
0.4453935128860023, [(12,96),X]+
0.4467095101852951, [(69,81),X]-
0.4480288850449429, [(33,33),X]+
0.44945784091485536, [(104,187),Y]+
0.45347329856716057, [(40,78),X]+
0.45430700936972646, [(36,115),Y]-
0.45430700936972646, [(36,115),Y]+
0.45813010117285213, [(42,110),X]-
0.45857262489957723, [(148,183),Y]-
0.4594590639830911, [(74,184),X]+
0.4594590639830911, [(74,151),X]+
0.4594590639830911, [(74,95),X]+
0.4594590639830911, [(74,176),X]+
0.4608992432239053, [(64,106),X]+
0.4614993817829832, [(116,131),X]+
0.46154303924634704, [(92,102),X]-
0.46826105273618607, [(15,20),X]+
0.46826105273618607, [(0,20),X]+
0.4687103317456981, [(5,147),Y]+
0.4750220890746499, [(90,101),X]-
0.47704325562019345, [(108,185),Y]+
0.4794064066959258, [(121,137),Y]-
0.4804792789624202, [(7,171),X]-
0.4828418412965831, [(123,125),Y]+
0.48345000025021334, [(81,133),X]-
0.48429815996358433, [(6,171),Y]-
0.4843806992220863, [(31,155),X]-
0.48542312140703503, [(40,78),X]-
0.48729895469619366, [(7,141),X]-
0.4890310599740086, [(107,172),Y]+
0.49173310320366165, [(88,166),Y]+
0.49257432239189186, [(16,29),X]-
0.49468089896559403, [(101,145),Y]+
0.49468089896559403, [(101,145),Y]-
0.49468089896559403, [(60,145),Y]-
0.49517796114019025, [(8,197),X]+
0.49517796114019025, [(8,166),X]+
0.4960217007200311, [(64,116),X]+
0.4971673808013818, [(75,98),X]+
0.49741527021065546, [(94,179),X]+
0.49741527021065546, [(94,179),X]-
0.49827561104308665, [(148,183),Y]+
0.5064770867145338, [(6,62),Y]-
0.5105143802873454, [(88,138),Y]+
0.5116340406899872, [(3,108),Y]+
0.5123840860902651, [(26,81),X]-
0.5160929944058439, [(42,120),Y]+
0.5183523274325124, [(106,167),X]+
0.5186593561278361, [(133,133),Y]+
0.5261421136968423, [(66,74),X]+
0.5287751941928787, [(12,150),X]-
0.5287751941928787, [(12,96),X]-
0.5358107145497225, [(64,76),X]+
0.5366896330433748, [(14,148),Y]+
0.536989464106122, [(53,115),Y]+
0.536989464106122, [(53,115),Y]-
0.5436739387401563, [(53,189),X]-
0.5450248792871298, [(7,141),X]+
0.5464570953119614, [(14,94),X]-
0.5464570953119614, [(94,94),X]+
0.5464570953119614, [(16,79),X]-
0.5578777277192005, [(10,111),Y]-
0.56005175676548, [(52,107),Y]-
0.5623975724058589, [(36,44),X]-
0.567500281304071, [(9,153),X]+
0.5677976502635987, [(34,173),Y]-
0.570025489952654, [(2,143),X]+
0.570688660372255, [(111,183),Y]-
0.5717375275683328, [(57,72),X]+
0.5717375275683328, [(72,140),X]+
0.5801304153555147, [(42,102),Y]+
0.5825627805848596, [(104,104),X]+
0.5850479247698551, [(29,101),X]-
0.586225852511215, [(15,127),X]+
0.5886127605506773, [(40,177),Y]+
0.5894903550148842, [(44,187),Y]-
0.5894903550148842, [(44,187),Y]+
0.5906230866688132, [(8,114),X]+
0.594711931107611, [(108,185),Y]-
0.5985046301050094, [(19,93),Y]-
0.5985046301050094, [(19,118),Y]-
0.6001227153031274, [(48,81),X]-
0.6001227153031274, [(48,81),X]+
0.6040574376483492, [(72,190),Y]+
0.6043549392451116, [(29,90),X]-
0.6083648613110159, [(90,136),Y]-
0.6164599666420061, [(22,57),X]+
0.6201236625992991, [(46,138),Y]-
0.6254033855541135, [(143,163),X]+
0.6328763365214776, [(118,196),X]-
0.6341641564628493, [(55,55),Y]+
0.6497468916535671, [(9,57),X]+
0.6498997125498625, [(3,108),Y]-
0.6507942140116053, [(13,156),Y]-
0.6560732503387324, [(4,167),X]+
0.6609427626831021, [(89,114),X]+
0.6629650447459026, [(103,106),Y]-
0.6766232843070842, [(131,176),Y]-
0.6813491426046097, [(3,92),X]-
0.6832725960283983, [(75,98),X]-
0.6832725960283983, [(75,98),X]+
0.6846915297495079, [(24,91),X]-
0.6944015502830021, [(57,194),X]+
0.6982421381618982, [(172,193),Y]+
0.7061239544989182, [(47,176),Y]-
0.706675733827896, [(62,171),Y]-
0.7125445437537244, [(2,169),X]-
0.7148078282226111, [(10,131),X]+
0.7170355913588604, [(192,196),X]-
0.720553937637071, [(71,185),X]+
0.7299765859325776, [(42,158),X]-
0.7302585677347679, [(132,146),Y]-
0.7367384298452686, [(29,90),X]+
0.7404712381444808, [(188,198),X]+
0.7415272553155381, [(29,101),X]+
0.7542354334855282, [(5,147),Y]-
0.7542354334855282, [(5,147),Y]+
0.7611386259326792, [(39,143),X]+
0.7628545818244664, [(188,198),X]-
0.7742525081281888, [(62,171),Y]+
0.7796386350913856, [(122,175),Y]+
0.7796386350913856, [(16,175),Y]+
0.7809838420840185, [(87,119),X]-
0.7851058877567825, [(9,153),X]-
0.7851058877567825, [(22,153),X]-
0.7923231085655259, [(3,50),X]-
0.7938625371761403, [(36,157),Y]+
0.7986856688253156, [(4,64),X]-
0.7986856688253156, [(4,64),X]+
0.801306457522217, [(147,153),Y]+
0.8056593903596099, [(33,33),X]-
0.8286042697474554, [(22,76),Y]+
0.8374862565937398, [(100,143),Y]+
0.8379894070396324, [(77,133),X]-
0.8379894070396324, [(6,133),X]-
0.8394598575389037, [(135,163),Y]-
0.8476849623499907, [(46,79),X]-
0.8476849623499907, [(79,79),X]+
0.8541751514199644, [(51,137),X]-
0.859136199804393, [(110,126),Y]-
0.8600875850682179, [(15,53),X]+
0.8708163927683631, [(64,142),X]-
0.8708163927683631, [(123,123),X]+
0.8765213576840081, [(44,95),X]+
0.8806504427638796, [(103,103),X]+
0.8811960519263172, [(27,96),Y]+
0.8811960519263172, [(27,96),Y]-
0.8940402852757229, [(58,58),X]+
0.9003632702710535, [(54,186),Y]+
0.9003632702710535, [(54,186),Y]-
0.9197724314577486, [(93,185),X]+
0.9335411235207373, [(119,130),X]-
0.962537856154569, [(63,122),X]-
0.9773011902229863, [(3,102),X]-
0.9960736751100591, [(10,120),Y]-
0.9996476493260216, [(113,126),X]-
