marco:(-10.0,10.0),(-10.0,10.0)
timeIntervals:0.0-1.0
framesPerSecond:1000
2.7902321384450297 -5.630464065249143
12 3.626724705755923 7.77233895870893 3.9914177452277477 6.974341874829356 4.5001569722774475 7.689173853535104 5.3735892387989725 7.606008748361279 5.008896199327148 8.404005832240852 5.517635426376847 9.118837810946602 4.644203159855323 9.202002916120426 4.279510120383498 10.0 3.770770893333798 9.285168021294252 2.8973386268122727 9.368333126468077 3.262031666284098 8.570336042588504 2.7532924392343983 7.855504063882756
