areaTotal:400.0
tiempoTotalSimulado:1.0
areaOcupadaInicial:20.000000000000004
eventosSimples:9
eventosMultiples:0
0.0
[(0,2), (1,3), (1,4), (3,4)]
[(0,1), (0,3), (1,3), (2,4)]
0.16886866388219032, [(0,2),X]-
0.27579781410435195, [(2,4),X]+
0.33817767413042715, [(1,3),X]-
0.36154439108854164, [(2,3),X]+
0.6544652719910482, [(1,3),Y]-
0.6741897752680414, [(1,2),X]+
0.677929761172976, [(3,4),X]-
0.8332893183538782, [(2,3),X]-
0.9851654879555957, [(2,4),X]-
