marco:(-10.0,10.0),(-10.0,10.0)
timeIntervals:0.0-1.0
framesPerSecond:1000
1.8253534517898513 -1.6607372690227415
20 3.8270456593944266 -2.5654169022683817 3.5198001801893257 -3.002812033954039 3.6025845891020585 -3.256928765141777 3.4666714321719625 -3.3574227567269643 3.2479738663291338 -3.2038000171244136 2.7397404039536584 -3.369368834949879 3.177135535639316 -3.67661431415498 3.4312522668270535 -3.5938299052422473 3.531746258412241 -3.7297430621723433 3.3781235188096903 -3.948440628015172 3.543692336635156 -4.456674090390647 3.8509378158402567 -4.01927895870499 3.768153406927524 -3.7651622275172523 3.90406656385762 -3.664668235932065 4.122764129700449 -3.8182909755346155 4.630997592075924 -3.65272215770915 4.193602460390267 -3.345476678504049 3.939485729202529 -3.428261087416782 3.8389917376173415 -3.292347930486686 3.992614477219892 -3.073650364643857
0.6557767288995698 1.4038120266841014
4 6.500044410659172 3.36761793210725 5.690649821326221 2.780352746046862 6.27791500738661 1.9709581567139098 7.087309596719561 2.558223342774298
1.6546554270144482 -3.229969846523025
5 -4.5694722880442775 6.6637378443544515 -5.2489864327883025 6.318058007660025 -5.130206790192286 5.564980708235158 -4.377282789152358 5.445233177729034 -4.030729808160138 6.124302433232252
2.9340692000679356 2.2410106609961247
3 8.771267624828512 1.644345536674325 7.8141486229810635 0.4639539520461368 9.314957222606168 0.22526037431553392
-1.8883719981624252 1.698127866226736
12 -4.12018931796232 -8.857211294322775 -4.460939017529447 -8.58091483764121 -4.529843918207746 -9.014160962139039 -4.9394985184531714 -9.171110629955304 -4.598748818886045 -9.447407086636868 -4.667653719564344 -9.8806532111347 -4.257999119318918 -9.723703543318434 -3.9172494197517915 -10.0 -3.8483445190734926 -9.56675387550217 -3.4386899188280666 -9.409804207685905 -3.7794396183951937 -9.133507751004341 -3.7105347177168944 -8.70026162650651
0.0688849489074034 -1.3675383781254826
20 -2.648137890461404 -8.066593499815855 -2.9593099248882204 -8.501203958393374 -2.8788173517852576 -8.756055909737357 -3.0156300079710543 -8.85532184386793 -3.2329352372598144 -8.699735826654523 -3.742639139947779 -8.860720972860449 -3.3080286813702595 -9.171893007287265 -3.0531767300262773 -9.091400434184303 -2.9539107958957027 -9.2282130903701 -3.109496813109111 -9.44551831965886 -2.9485116669031854 -9.955222222346823 -2.637339632476369 -9.520611763769304 -2.717832205579332 -9.26575981242532 -2.581019549393535 -9.166493878294748 -2.363714320104775 -9.322079895508155 -1.8540104174168102 -9.16109474930223 -2.28862087599433 -8.849922714875413 -2.543472827338312 -8.930415287978375 -2.6427387614688866 -8.793602631792579 -2.487152744255478 -8.576297402503819
-1.3213145725294808 0.63449388068932
4 -7.86160077904084 -7.137704018559771 -8.670995368373791 -7.72496920462016 -8.083730182313403 -8.53436379395311 -7.274335592980451 -7.947098607892722
-0.616177813445602 -0.880496254568369
4 7.671864527665272 7.0004315949032945 6.86246993833232 6.413166408842906 7.449735124392709 5.603771819509954 8.25912971372566 6.191037005570343
-0.3475263266550506 0.016232034259791757
20 -7.9384831837880885 2.716540743315389 -8.249655218214905 2.2819302847378693 -8.169162645111943 2.027078333393887 -8.305975301297739 1.9278123992633127 -8.523280530586499 2.083398416476721 -9.032984433274464 1.922413270270795 -8.598373974696944 1.6112412358439787 -8.34352202335296 1.6917338089469416 -8.244256089222388 1.5549211527611446 -8.399842106435795 1.3376159234723848 -8.23885696022987 0.8279120207844199 -7.927684925803053 1.2625224793619396 -8.008177498906015 1.517374430705922 -7.871364842720219 1.6166403648364962 -7.65405961343146 1.461054347623088 -7.144355710743494 1.622039493829014 -7.5789661693210135 1.9332115282558302 -7.833818120664996 1.8527189551528673 -7.933084054795571 1.9895316113386643 -7.777498037582163 2.206836840627424
-0.2187811471896673 -1.0280486067155068
6 6.007875454638432 -7.071869554205403 5.428536363082822 -7.293829903041116 5.331090118029601 -7.906532448151529 5.812982964531988 -8.29727464442623 6.392322056087599 -8.075314295590516 6.4897683011408205 -7.462611750480104
-2.982708644670568 1.4742434416747148
6 2.636223100875133 0.44515530524604763 2.0568840093195235 0.22319495641033466 1.9594377642663017 -0.3895075887000785 2.4413306107686896 -0.7802497849747788 3.0206697023242994 -0.558289436139066 3.1181159473775213 0.05441310897134699
0.347291992710763 0.9297513914049431
4 6.792075812495256 7.154140321422378 7.468861149104087 7.988803215368505 5.730843874437258 7.322922168861366 7.176522413944422 6.150695580037265
-1.601556014286447 -0.9455730345623555
3 -9.005240929229581 9.267474535459861 -9.96235993107703 8.087082950831674 -8.461551331451926 7.848389373101071
-0.2911832378837427 2.3016886843006645
20 8.973061782031067 -7.083982675771007 8.661889747604251 -7.518593134348526 8.742382320707213 -7.773445085692509 8.605569664521417 -7.872711019823083 8.388264435232657 -7.717125002609675 7.878560532544692 -7.878110148815601 8.313170991122211 -8.189282183242417 8.568022942466195 -8.108789610139455 8.667288876596768 -8.245602266325252 8.51170285938336 -8.462907495614012 8.672688005589286 -8.972611398301975 8.983860040016102 -8.538000939724457 8.90336746691314 -8.283148988380473 9.040180123098937 -8.1838830542499 9.257485352387697 -8.339469071463308 9.76718925507566 -8.178483925257382 9.332578796498142 -7.867311890830566 9.077726845154158 -7.947804463933529 8.978460911023586 -7.810991807747731 9.134046928236993 -7.593686578458972
-2.634893017023013 0.5206937557911232
5 8.775524877041265 4.206752689080557 8.096010732297241 3.861072852386131 8.214790374893257 3.1079955529612637 8.967714375933184 2.9882480224551395 9.314267356925406 3.6673172779583574
-4.101663951696751 -1.2081009345070584
6 3.6969252274879145 -5.260776246269402 3.117586135932305 -5.4827365951051155 3.0201398908790833 -6.095439140215528 3.5020327373814713 -6.486181336490229 4.0813718289370815 -6.264220987654516 4.178818073990303 -5.651518442544103
0.0012185567484871889 -2.551992840261032E-4
4 -0.7669983012319257 2.2515251211576714 -0.09021296462309447 3.0861880151037977 -1.8282302392899235 2.4203069685966585 -0.38255169978275916 1.248080379772558
-0.006890297748328401 0.05588482266832574
12 5.853234454933191 -5.051997733523713 5.5124847553660645 -4.775701276842147 5.443579854687766 -5.208947401339977 5.03392525444234 -5.365897069156241 5.374674954009467 -5.642193525837807 5.305770053331168 -6.075439650335636 5.715424653576593 -5.918489982519372 6.05617435314372 -6.1947864392009375 6.125079253822019 -5.761540314703108 6.5347338540674444 -5.604590646886844 6.193984154500318 -5.328294190205278 6.262889055178617 -4.895048065707448
2.3658986200530614 0.6402049851249233
20 -1.0888694654179465 -2.317574507200563 -1.4000414998447628 -2.7521849657780826 -1.3195489267418 -3.007036917122065 -1.4563615829275969 -3.1063028512526394 -1.6736668122163567 -2.950716834039231 -2.1833707149043216 -3.1117019802451567 -1.7487602563268019 -3.422874014671973 -1.4939083049828195 -3.3423814415690103 -1.3946423708522453 -3.479194097754807 -1.5502283880656536 -3.696499327043567 -1.3892432418597276 -4.206203229731532 -1.0780712074329113 -3.7715927711540123 -1.1585637805358742 -3.51674081981003 -1.0217511243500772 -3.4174748856794555 -0.8044458950613174 -3.573060902892864 -0.2947419923733525 -3.412075756686938 -0.7293524509508721 -3.1009037222601217 -0.9842044022948546 -3.1813962953630845 -1.0834703364254288 -3.044583639177288 -0.9278843192120205 -2.8272784098885277
0.5860580669331696 -0.2993584886679609
12 -7.977710766341688 6.08646343478806 -8.318460465908814 6.362759891469626 -8.387365366587114 5.929513766971796 -8.79701996683254 5.772564099155532 -8.456270267265413 5.496267642473966 -8.525175167943711 5.063021517976137 -8.115520567698287 5.219971185792401 -7.774770868131159 4.943674729110835 -7.70586596745286 5.376920853608665 -7.296211367207435 5.533870521424929 -7.636961066774561 5.810166978106495 -7.568056166096262 6.2434131026043245
