marco:(-10.0,10.0),(-10.0,10.0)
timeIntervals:0.0-1.0
framesPerSecond:1000
-0.979296246899074 -19.793490021459352
4 9.14298335641218 2.876762607618416 10.0 9.142983356412179 3.7337792512062373 10.0 2.8767626076184163 3.7337792512062364
