areaTotal:400.0
tiempoTotalSimulado:1.0
areaOcupadaInicial:8.000000000000004
eventosSimples:5
eventosMultiples:0
0.0
[(1,4), (2,3)]
[(1,2), (1,3)]
0.20323426036038886, [(1,2),Y]-
0.22146955292390963, [(1,3),Y]-
0.2350563410529383, [(2,4),X]+
0.26068768568523504, [(2,3),X]-
0.47102220487607777, [(1,4),X]-
