areaTotal:400.0
tiempoTotalSimulado:1.0
areaOcupadaInicial:40.0
eventosSimples:30
eventosMultiples:0
0.0
[(0,1), (0,5), (0,6), (1,2), (1,5), (1,6), (2,5), (2,6), (3,4), (3,7), (3,8), (3,9), (4,7), (4,8), (4,9), (5,6), (7,8), (7,9), (8,9)]
[(0,2), (0,5), (0,9), (1,4), (2,9), (3,6), (3,8), (5,7), (5,9), (6,8)]
9.856493865389568E-4, [(1,7),Y]+
0.012602053834512753, [(7,9),Y]+
0.04615230787829445, [(0,1),X]-
0.060263562108307474, [(0,6),X]-
0.09016118128384254, [(0,5),X]-
0.0978632039265016, [(2,9),Y]-
0.10552323472836449, [(5,7),Y]-
0.10552323472836449, [(7,9),Y]-
0.12373510287927679, [(3,8),X]-
0.1653602588872922, [(1,4),Y]-
0.1678884122410799, [(0,6),Y]+
0.1690725619864893, [(2,5),Y]+
0.1690725619864893, [(2,9),Y]+
0.19372732302471077, [(0,6),Y]-
0.21568234870291242, [(3,4),X]-
0.2313835871428907, [(7,8),X]-
0.2699961368218301, [(8,9),X]-
0.2983591682496071, [(4,7),X]-
0.3254717276166949, [(3,8),Y]-
0.3366768725321431, [(4,9),X]-
0.42844916444403935, [(4,9),X]+
0.4774871302155747, [(2,3),Y]+
0.5007576984456377, [(3,4),X]+
0.5414896500393657, [(1,7),Y]-
0.5752755819529286, [(2,6),X]-
0.6161665479667627, [(2,6),X]+
0.8093942706604003, [(6,8),Y]-
0.9083262549914186, [(0,1),X]+
0.9518573345751055, [(3,4),X]-
0.9518573345751055, [(4,9),X]-
