areaTotal:400.0
tiempoTotalSimulado:1.0
areaOcupadaInicial:20.00000000000005
eventosSimples:398
eventosMultiples:0
0.0
[(0,3), (0,30), (0,35), (0,73), (0,85), (1,23), (1,58), (1,97), (2,14), (2,20), (2,31), (2,39), (2,50), (2,61), (2,94), (3,30), (3,73), (3,85), (4,8), (4,28), (4,43), (4,44), (4,91), (5,10), (5,12), (5,17), (5,32), (5,37), (5,55), (5,56), (5,60), (5,65), (5,75), (6,19), (6,40), (6,41), (6,57), (6,77), (6,79), (6,92), (6,93), (7,9), (7,16), (7,46), (7,98), (8,28), (8,43), (8,44), (8,91), (9,81), (9,98), (10,12), (10,17), (10,32), (10,37), (10,60), (10,62), (10,65), (10,75), (11,29), (11,34), (11,38), (11,49), (11,62), (11,64), (11,67), (11,87), (11,96), (12,17), (12,32), (12,37), (12,55), (12,56), (12,60), (12,65), (12,75), (13,27), (14,20), (14,31), (14,39), (14,50), (14,61), (14,94), (15,21), (15,25), (15,27), (15,48), (15,52), (15,59), (15,70), (15,71), (15,80), (15,83), (15,95), (16,46), (16,98), (17,32), (17,37), (17,55), (17,60), (17,62), (17,65), (17,75), (18,24), (18,26), (18,53), (18,66), (18,76), (18,84), (18,86), (18,89), (19,33), (19,36), (19,40), (19,47), (19,57), (19,63), (19,68), (19,77), (19,97), (20,24), (20,26), (20,31), (20,39), (20,50), (20,61), (20,82), (20,94), (21,27), (21,48), (21,52), (21,70), (21,80), (21,83), (21,95), (22,44), (22,72), (22,91), (23,58), (24,26), (24,53), (24,66), (24,82), (24,84), (24,86), (24,89), (25,59), (25,70), (25,71), (25,80), (26,31), (26,50), (26,53), (26,66), (26,82), (26,84), (26,86), (26,89), (27,48), (27,52), (27,59), (27,70), (27,71), (27,80), (27,83), (27,95), (28,43), (28,91), (29,38), (29,60), (29,62), (29,64), (29,67), (29,87), (30,73), (30,85), (31,39), (31,50), (31,61), (31,82), (31,94), (32,37), (32,55), (32,56), (32,60), (32,65), (32,75), (33,36), (33,47), (33,57), (33,63), (33,68), (33,77), (34,38), (34,49), (34,64), (34,67), (34,78), (34,87), (34,96), (35,72), (35,85), (36,47), (36,57), (36,58), (36,63), (36,68), (36,77), (36,97), (36,99), (37,60), (37,62), (38,49), (38,64), (38,67), (38,87), (38,96), (39,50), (39,61), (39,94), (40,41), (40,57), (40,77), (40,79), (40,92), (40,93), (41,57), (41,77), (41,79), (41,92), (41,93), (42,74), (42,90), (43,55), (43,56), (43,65), (44,72), (44,91), (45,51), (45,88), (45,92), (46,54), (47,57), (47,58), (47,63), (47,68), (47,77), (47,97), (47,99), (48,52), (48,59), (48,70), (48,71), (48,80), (48,83), (48,95), (49,64), (49,67), (49,69), (49,78), (49,87), (49,96), (50,61), (50,82), (50,94), (51,74), (51,88), (52,59), (52,70), (52,71), (52,80), (52,83), (52,95), (53,66), (53,76), (53,82), (53,84), (53,86), (53,89), (54,69), (54,78), (55,56), (55,65), (55,75), (56,65), (56,75), (57,68), (57,77), (58,63), (58,97), (58,99), (59,70), (59,71), (59,80), (59,83), (59,95), (60,62), (60,65), (60,75), (61,94), (63,68), (63,77), (63,97), (63,99), (64,67), (64,78), (64,87), (64,96), (65,75), (66,82), (66,84), (66,86), (66,89), (67,87), (67,96), (68,77), (69,78), (70,71), (70,80), (70,83), (70,95), (71,80), (71,83), (72,91), (73,90), (76,81), (76,89), (79,92), (79,93), (80,83), (80,95), (81,98), (82,84), (82,86), (83,95), (84,86), (84,89), (86,89), (87,96), (92,93), (97,99)]
[(0,1), (0,2), (0,4), (0,38), (0,40), (0,49), (0,51), (0,65), (0,67), (0,88), (0,93), (0,97), (1,2), (1,38), (1,40), (1,51), (1,57), (1,65), (1,71), (1,85), (1,88), (1,93), (2,38), (2,40), (2,51), (2,65), (2,67), (2,88), (2,93), (3,15), (3,25), (3,26), (3,27), (3,30), (3,44), (3,54), (3,68), (4,9), (4,49), (4,67), (4,97), (5,21), (5,28), (5,62), (5,64), (6,24), (6,37), (6,63), (6,73), (6,95), (6,96), (7,14), (7,41), (7,42), (7,58), (7,99), (8,16), (8,17), (8,21), (8,35), (8,55), (8,62), (8,64), (8,80), (8,94), (9,49), (9,97), (11,41), (11,42), (11,52), (11,56), (11,58), (11,61), (11,83), (11,92), (11,99), (12,13), (12,23), (12,25), (12,44), (12,46), (12,48), (12,54), (12,84), (13,23), (13,25), (13,44), (13,46), (13,48), (13,54), (13,84), (14,41), (14,42), (14,56), (14,58), (14,92), (14,99), (15,26), (15,27), (15,30), (15,68), (16,17), (16,35), (16,55), (16,80), (16,94), (17,21), (17,35), (17,55), (17,62), (17,64), (17,80), (17,94), (18,36), (18,45), (18,47), (18,66), (18,72), (18,78), (18,82), (19,22), (19,33), (19,39), (19,53), (19,59), (19,60), (19,69), (19,71), (19,74), (19,79), (19,85), (19,98), (20,29), (20,87), (20,89), (21,55), (21,62), (21,64), (22,33), (22,39), (22,53), (22,59), (22,60), (22,69), (22,74), (22,79), (22,98), (23,44), (23,46), (23,48), (23,77), (23,84), (24,37), (24,45), (24,63), (24,66), (24,73), (24,75), (24,95), (24,96), (25,26), (25,27), (25,30), (25,44), (25,48), (25,54), (25,68), (25,84), (26,27), (26,30), (26,68), (27,30), (27,44), (27,54), (27,68), (27,84), (28,52), (28,61), (28,62), (29,47), (29,72), (29,78), (29,87), (29,89), (30,68), (31,43), (31,86), (31,90), (32,33), (32,50), (32,74), (32,79), (32,81), (32,91), (32,98), (33,39), (33,50), (33,60), (33,74), (33,79), (33,91), (33,98), (34,76), (35,55), (35,80), (35,94), (36,45), (36,47), (36,66), (36,72), (36,78), (36,82), (37,63), (37,73), (37,75), (37,95), (37,96), (38,51), (38,65), (38,67), (38,88), (38,93), (39,50), (39,53), (39,59), (39,60), (39,69), (39,74), (39,79), (39,98), (40,53), (40,57), (40,65), (40,69), (40,71), (40,85), (40,88), (40,93), (41,42), (41,56), (41,58), (41,83), (41,92), (41,99), (42,56), (42,58), (42,92), (42,99), (43,70), (43,86), (44,46), (44,48), (44,54), (44,84), (45,66), (45,72), (45,75), (45,82), (46,48), (46,54), (46,77), (46,84), (47,72), (47,78), (47,82), (47,87), (47,89), (48,54), (48,84), (49,67), (49,97), (50,60), (50,74), (50,79), (50,91), (50,98), (51,65), (51,67), (51,93), (52,56), (52,61), (52,83), (52,92), (53,57), (53,59), (53,60), (53,69), (53,71), (53,74), (53,79), (53,85), (53,98), (54,68), (54,84), (55,62), (55,64), (55,80), (55,94), (56,58), (56,83), (56,92), (56,99), (57,65), (57,69), (57,71), (57,85), (57,88), (58,92), (58,99), (59,60), (59,69), (59,71), (59,74), (59,79), (59,85), (59,98), (60,69), (60,74), (60,79), (60,98), (61,83), (61,92), (62,64), (63,73), (63,75), (63,95), (63,96), (65,69), (65,71), (65,85), (65,88), (65,93), (66,72), (66,82), (67,93), (67,97), (69,71), (69,74), (69,79), (69,85), (69,98), (71,85), (71,88), (71,98), (72,78), (72,82), (72,87), (73,95), (73,96), (74,79), (74,98), (75,95), (75,96), (78,82), (78,87), (78,89), (79,91), (79,98), (80,94), (81,91), (83,92), (83,99), (85,88), (86,90), (87,89), (88,93), (92,99), (95,96)]
3.520745828023697E-5, [(2,40),Y]-
3.794731353807272E-4, [(28,44),X]+
0.0015847344487297027, [(69,79),Y]-
0.0016879224155219356, [(9,16),X]+
0.0020709746742907397, [(53,76),X]-
0.002463682008151725, [(10,75),X]-
0.003579536917764076, [(51,88),Y]+
0.003914066118924357, [(66,75),Y]+
0.006832388056335914, [(65,67),Y]+
0.006965176534821563, [(46,54),Y]-
0.007530919047903673, [(19,57),Y]+
0.008543993721675788, [(31,82),X]-
0.009461106227905539, [(32,74),Y]-
0.009502027987383374, [(28,62),Y]-
0.01163582132762288, [(19,97),X]-
0.012470969738746606, [(22,44),X]-
0.012693203759891754, [(17,56),X]+
0.013916558608851985, [(64,80),Y]+
0.01512143868729521, [(32,98),Y]-
0.015352767576044821, [(66,75),Y]-
0.01675167050194358, [(12,56),X]-
0.01675167050194358, [(17,56),X]-
0.017233302550830405, [(11,42),Y]-
0.018444549799969994, [(34,69),X]+
0.019070253222760174, [(65,69),Y]-
0.020699186828006123, [(11,28),Y]+
0.02123787169408209, [(33,40),X]+
0.024122084653353304, [(11,62),X]-
0.027060625502377398, [(78,89),Y]-
0.028249182045210142, [(5,62),X]+
0.031775968332815846, [(61,92),Y]-
0.032648896739220536, [(7,92),Y]+
0.03316544295310573, [(25,26),Y]-
0.03398521453124633, [(57,93),X]+
0.034046103179554935, [(20,24),X]-
0.03473282902386635, [(42,51),X]+
0.03953787867517573, [(19,97),X]+
0.04023888951595083, [(11,42),Y]+
0.04038932315427393, [(14,56),Y]-
0.040926872584507994, [(20,53),X]+
0.040926872584507994, [(20,24),X]+
0.0421750374695187, [(27,71),X]-
0.042351929827286736, [(10,65),X]-
0.04313118660457564, [(64,69),X]+
0.043144416513426265, [(47,82),Y]-
0.043389842480433365, [(11,78),X]+
0.045111100443156825, [(88,92),X]+
0.045254645121210094, [(30,35),X]+
0.04544823194417065, [(50,81),Y]+
0.046906660268712624, [(27,71),X]+
0.04743233754993021, [(36,57),X]-
0.04807268240103446, [(47,89),Y]-
0.04875200854771983, [(72,87),Y]-
0.0503224424732977, [(16,64),Y]+
0.055034303342032465, [(11,69),X]+
0.05719185157317079, [(64,94),Y]+
0.05720830239859981, [(16,46),X]-
0.057722529953162, [(16,46),X]+
0.058810583156244614, [(22,91),X]-
0.06023091493738312, [(22,50),Y]+
0.06096506212289021, [(5,64),Y]-
0.06156111200453297, [(37,75),Y]-
0.0622323386699155, [(49,67),X]-
0.06251037979085741, [(75,96),Y]-
0.06252955127455624, [(52,56),Y]-
0.06322177442156153, [(30,54),Y]+
0.06328952070852757, [(78,82),Y]-
0.06392105709573917, [(77,93),X]+
0.06426949753683134, [(57,79),X]+
0.06446153910116889, [(1,99),X]+
0.06547325466207736, [(34,69),X]-
0.06547325466207736, [(34,78),X]-
0.06679686134054162, [(47,89),Y]+
0.06734820887248003, [(75,96),Y]+
0.06734820887248003, [(37,75),Y]+
0.0686056762283477, [(53,79),Y]-
0.06904561001432713, [(29,72),Y]-
0.06905548299660347, [(76,90),Y]+
0.0705518708592147, [(11,69),X]-
0.07355929602805561, [(0,97),Y]-
0.07370230605942528, [(18,82),X]+
0.07696841210595172, [(57,93),Y]+
0.07698777815803032, [(20,29),Y]-
0.07835219489935165, [(19,40),Y]+
0.07912924867452417, [(26,31),X]-
0.07973966246719268, [(73,90),X]-
0.08023744110003221, [(47,57),X]-
0.08068021815667484, [(44,68),Y]+
0.08190102363169739, [(52,92),Y]-
0.08221657868842308, [(16,64),Y]-
0.08240471191919425, [(60,75),X]-
0.08341280960175709, [(5,52),Y]+
0.08440515293640984, [(19,93),X]+
0.08664167388259049, [(64,69),X]-
0.08711235640138713, [(0,49),Y]-
0.08724790487686715, [(29,96),X]+
0.08785138514764787, [(57,68),X]-
0.08852835460802984, [(74,91),Y]+
0.0887245529491787, [(35,72),X]-
0.08975967830541821, [(5,61),Y]+
0.08989590845258967, [(56,61),Y]+
0.09122179471055045, [(56,61),Y]-
0.09122179471055045, [(56,61),Y]+
0.09362444458115146, [(79,81),Y]+
0.09366010097759238, [(40,92),X]-
0.09418388887079086, [(57,68),X]+
0.09566231674684754, [(43,75),X]+
0.09810467845212843, [(44,72),X]-
0.09833179702322989, [(46,78),X]+
0.09896163901397194, [(41,77),X]-
0.10115326808884795, [(65,85),Y]-
0.10165754821918513, [(3,44),Y]-
0.10165754821918513, [(44,68),Y]-
0.10325182572426857, [(29,34),X]+
0.10434751245450838, [(24,72),Y]+
0.10557215902463192, [(5,56),X]-
0.10759090250500543, [(73,85),X]+
0.10799018734882175, [(19,40),Y]-
0.10799018734882175, [(19,57),Y]-
0.11150732609712802, [(79,81),Y]-
0.11150732609712802, [(50,81),Y]-
0.11265742598688111, [(38,40),Y]+
0.11337797915168228, [(44,46),Y]-
0.11447653030587164, [(10,29),X]+
0.11615886108029409, [(23,99),X]+
0.11651956503069422, [(50,53),X]+
0.11670264785269659, [(77,79),X]+
0.11670264785269659, [(19,79),X]+
0.11714383867431967, [(20,47),Y]+
0.11714383867431967, [(20,47),Y]-
0.11955525262576763, [(59,79),Y]-
0.11999537722825421, [(23,54),Y]+
0.12126657872543867, [(23,97),X]+
0.12153813509535202, [(41,77),X]+
0.12153813509535202, [(19,41),X]+
0.12184774892200254, [(59,85),Y]-
0.12326088315168363, [(64,94),Y]-
0.12370425828762015, [(20,87),Y]-
0.12419932030640209, [(0,97),Y]+
0.12478624243900613, [(86,90),Y]-
0.12649940565274578, [(34,78),X]+
0.12749584249530646, [(63,77),X]-
0.1287699069006267, [(65,67),Y]-
0.13062670713968907, [(18,45),Y]-
0.13167739621651958, [(15,25),X]-
0.13369981457731123, [(49,54),X]+
0.13432491331200166, [(71,95),X]+
0.1343806860321987, [(78,96),X]+
0.1343806860321987, [(78,87),X]+
0.1349750704083928, [(33,59),Y]+
0.1349750704083928, [(59,79),Y]+
0.13644007364631602, [(71,93),Y]+
0.1403808493755722, [(20,32),Y]+
0.14227152556425035, [(12,62),X]+
0.14323649916900527, [(41,61),Y]+
0.14641405756501708, [(18,45),Y]+
0.14741394109461337, [(29,64),X]-
0.14741394109461337, [(29,34),X]-
0.14741394109461337, [(29,96),X]-
0.14754724402652342, [(12,25),Y]-
0.1493993159741755, [(2,97),Y]+
0.14999812387700145, [(10,26),Y]+
0.15264587880793698, [(47,72),Y]-
0.1556505705507384, [(29,96),X]+
0.16048108399727673, [(74,91),Y]-
0.16056307956162277, [(10,26),Y]-
0.1607365605342788, [(28,83),Y]+
0.1612094233875973, [(0,49),Y]+
0.1612094233875973, [(2,4),Y]+
0.16127306492862836, [(33,40),X]-
0.1614076310673111, [(73,75),Y]+
0.16626866282242733, [(55,62),Y]-
0.1679845474043083, [(60,71),Y]+
0.1685390869824271, [(22,91),Y]+
0.1685390869824271, [(22,32),Y]+
0.16910746334325902, [(50,60),Y]-
0.16910746334325902, [(39,50),Y]-
0.16928154681022095, [(28,43),X]-
0.17053453438116678, [(72,78),Y]-
0.17438009802298685, [(27,84),Y]-
0.17493421657368438, [(20,87),Y]+
0.17493421657368438, [(20,87),Y]-
0.17640083036267326, [(2,88),Y]-
0.1789883342067333, [(51,67),Y]-
0.18127584592336177, [(34,67),X]-
0.18131383820848251, [(22,69),Y]-
0.1842799869164727, [(69,74),Y]-
0.1843623002326215, [(28,83),Y]-
0.18445881116237467, [(31,43),Y]-
0.18518640166320358, [(8,16),Y]-
0.18539587502533778, [(36,47),Y]-
0.18996004592423044, [(65,71),Y]-
0.18996004592423044, [(71,93),Y]-
0.19175042810554926, [(60,71),Y]-
0.19181672879266853, [(1,71),Y]-
0.19224157226214822, [(7,41),Y]-
0.192521588170513, [(61,99),Y]+
0.1934303867121581, [(42,45),X]+
0.1935484802651532, [(5,21),Y]-
0.19590477582059884, [(34,67),X]+
0.1969775706633559, [(5,11),Y]+
0.19720904464807637, [(39,53),X]+
0.19720904464807637, [(26,39),X]+
0.19720904464807637, [(39,82),X]+
0.19756464500364665, [(32,89),Y]+
0.19995304623087298, [(36,47),Y]+
0.20566265142412574, [(5,56),X]+
0.2094434352158968, [(34,90),Y]+
0.21226886003558681, [(18,76),X]-
0.21266760718004557, [(5,11),Y]-
0.21859124449515513, [(85,98),Y]+
0.21859124449515513, [(59,85),Y]+
0.22444917815751603, [(57,92),X]+
0.22444917815751603, [(40,92),X]+
0.22961197382835766, [(5,62),X]-
0.22965822786976484, [(31,76),Y]+
0.22973566289411573, [(45,74),X]+
0.23041946151294052, [(28,72),X]+
0.23816085254836097, [(36,77),X]-
0.23901941765089965, [(4,72),X]+
0.23970427740650646, [(74,88),X]+
0.24223678465052534, [(7,41),Y]+
0.2433304948572359, [(20,84),X]+
0.24456259954731593, [(52,56),Y]+
0.2482516820850772, [(57,65),Y]-
0.2515140564313522, [(30,73),X]-
0.25350628388614727, [(0,35),X]-
0.25420015159807524, [(70,97),Y]+
0.2546371113976049, [(74,90),X]+
0.25528796654297536, [(32,43),X]+
0.256063233585686, [(70,97),Y]-
0.2582450551425542, [(26,89),X]-
0.26014392199036734, [(41,88),X]+
0.2625113245028277, [(10,32),X]-
0.2660929783115138, [(47,77),X]-
0.2670084010180019, [(12,75),X]-
0.27244484530084845, [(3,25),Y]-
0.2731522426331957, [(23,25),Y]+
0.2731522426331957, [(12,25),Y]+
0.27432563869355264, [(4,43),X]-
0.2745024415066929, [(14,26),X]+
0.2878820303848116, [(8,56),X]+
0.2956142070031769, [(15,68),Y]-
0.2959054865175609, [(13,27),Y]+
0.2959054865175609, [(27,48),Y]+
0.2976877869708378, [(42,83),Y]+
0.3000282635456551, [(20,32),Y]-
0.30247694163986033, [(9,81),X]-
0.3127129419095064, [(67,93),Y]-
0.3127129419095064, [(67,93),Y]+
0.3156010682628207, [(51,92),X]+
0.31768241848102685, [(25,59),X]-
0.31867556294895455, [(3,54),Y]-
0.32044852383521116, [(8,28),X]-
0.3204850706753815, [(18,29),Y]+
0.32146336319382457, [(33,97),X]+
0.32219108627896553, [(35,72),X]+
0.32219167786376096, [(5,62),Y]-
0.32513101876224765, [(25,80),X]-
0.3282764115230699, [(18,87),Y]+
0.3333090445139086, [(85,93),Y]+
0.3341638398407705, [(41,45),X]+
0.334407674220418, [(1,2),Y]-
0.3348528484571294, [(76,98),X]+
0.34144372491489244, [(25,59),X]+
0.34178197023356305, [(71,93),Y]+
0.34623196874551876, [(23,77),Y]-
0.3473686334267428, [(12,55),X]-
0.3499492992597196, [(34,67),X]-
0.3499492992597196, [(34,67),X]+
0.3518644307652968, [(61,99),Y]-
0.3518644307652968, [(41,52),Y]+
0.3557034203822315, [(2,26),X]+
0.35694927160942513, [(30,54),Y]-
0.3583095771773942, [(40,53),Y]-
0.35833764260912404, [(23,47),X]+
0.3634163547812928, [(31,86),Y]-
0.37406073443639737, [(23,77),Y]+
0.3814122671232496, [(13,46),Y]-
0.38145755097093365, [(22,28),X]+
0.38299675915787923, [(45,63),Y]+
0.3840619358768329, [(20,87),Y]+
0.3840619358768329, [(18,87),Y]-
0.3840619358768329, [(18,29),Y]-
0.3840619358768329, [(18,29),Y]+
0.38527490419202776, [(22,53),Y]-
0.3859873511537758, [(26,68),Y]-
0.3947643877865656, [(36,57),X]+
0.3947643877865656, [(47,57),X]+
0.3947643877865656, [(47,57),X]-
0.39879253714317103, [(31,34),Y]+
0.3998638819464442, [(30,73),X]+
0.4043361442510369, [(21,80),Y]+
0.4061663015753762, [(46,98),X]+
0.4068367517936029, [(12,65),X]-
0.41153180796664407, [(6,95),Y]-
0.421342067295738, [(30,72),X]+
0.42277542685018776, [(28,44),X]-
0.42376480147650364, [(46,69),X]+
0.4240053746556094, [(81,91),Y]-
0.4277917094364496, [(81,89),Y]+
0.4308911791122956, [(55,62),Y]+
0.4308911791122956, [(55,62),Y]-
0.43126732334670087, [(27,84),Y]+
0.43915381425944316, [(53,57),Y]-
0.44070432223120437, [(50,94),X]-
0.44121908480166194, [(31,86),Y]+
0.44121908480166194, [(31,43),Y]+
0.4428231025329268, [(39,82),X]-
0.4428231025329268, [(50,82),X]-
0.4438672333690668, [(29,36),Y]+
0.4438672333690668, [(29,66),Y]+
0.4450734950168728, [(33,53),Y]+
0.4450734950168728, [(22,53),Y]+
0.4451369612317846, [(20,84),X]-
0.4498140549101102, [(23,63),X]+
0.45372712720592473, [(46,48),Y]-
0.4558271069126972, [(15,27),Y]-
0.4599195169197366, [(26,27),Y]-
0.4624070873905964, [(15,27),Y]+
0.4624070873905964, [(15,68),Y]+
0.46619288362800365, [(23,36),X]+
0.4689877168979792, [(50,82),X]+
0.472485815587789, [(1,63),X]+
0.4791980352790055, [(12,44),Y]-
0.4803723152446083, [(45,96),Y]+
0.4819198723492719, [(4,43),X]+
0.4819198723492719, [(43,44),X]+
0.4819198723492719, [(43,91),X]+
0.4827661368006198, [(36,99),X]-
0.4831333987171324, [(43,70),Y]-
0.4871168727095208, [(8,75),X]+
0.4903761504560284, [(41,51),X]+
0.4986851011563678, [(38,57),Y]+
0.5020282895329515, [(11,28),Y]-
0.5066966289396212, [(34,90),Y]-
0.5066966289396212, [(76,90),Y]-
0.5068340688475532, [(12,32),X]-
0.5097401448168111, [(1,63),X]-
0.5097401448168111, [(1,99),X]-
0.514572279634625, [(31,50),X]-
0.5194656953749417, [(90,90),Y]+
0.5233066006239758, [(30,72),X]-
0.5252812762370959, [(36,58),X]-
0.5263592696447725, [(59,85),Y]-
0.5370171173906383, [(81,98),X]-
0.5370171173906383, [(76,98),X]-
0.5496703419351172, [(76,77),Y]+
0.5499298444542642, [(81,89),X]+
0.5596502556930492, [(86,89),X]-
0.569321463247912, [(50,94),X]+
0.5766399619260447, [(51,90),X]+
0.5791927342200237, [(31,39),X]-
0.5831959090055654, [(31,61),X]-
0.5897675833457608, [(14,31),X]-
0.627936632966468, [(8,55),X]+
0.6290437431322404, [(29,66),Y]-
0.6322414710422439, [(12,32),X]+
0.6322414710422439, [(12,65),X]+
0.6331960763713733, [(9,46),X]+
0.642679636727765, [(71,88),Y]-
0.642679636727765, [(71,93),Y]-
0.6444434774500101, [(90,90),Y]-
0.6476099631923292, [(74,92),X]+
0.6478488620868403, [(77,84),Y]+
0.6506732513795058, [(26,30),Y]-
0.6602436054040183, [(38,78),X]+
0.6649150587711287, [(41,74),X]+
0.6716109101384997, [(12,75),X]+
0.6719702748094931, [(45,90),X]+
0.6733493236020163, [(39,50),Y]+
0.6982323755579669, [(74,92),X]-
0.7096950233139351, [(32,87),Y]+
0.7135396979231315, [(16,76),X]+
0.7135396979231315, [(76,98),X]+
0.7237932992242019, [(10,10),Y]+
0.7276253547460609, [(59,71),Y]-
0.7314798234852856, [(8,65),X]+
0.7580776391180855, [(16,76),X]-
0.7584202118606549, [(20,31),X]-
0.7767236904118491, [(8,32),X]+
0.7919350712825763, [(8,16),Y]+
0.8103804503910729, [(60,65),X]-
0.8103804503910729, [(60,65),X]+
0.8103804503910729, [(60,75),X]+
0.8269829782826973, [(23,27),X]+
0.8274173522599698, [(26,30),Y]+
0.8301788262846512, [(30,54),Y]+
0.8425482550995557, [(2,31),X]-
0.8935337404615136, [(13,15),X]+
0.9082940242915831, [(9,67),Y]+
0.9082940242915831, [(9,67),Y]-
0.927822050098656, [(41,74),X]-
0.9289114309928095, [(70,70),Y]+
0.9463684931906166, [(46,76),Y]+
0.9589028373301577, [(10,32),X]+
0.9628947123622092, [(8,32),X]-
0.9628947123622092, [(8,65),X]-
