marco:(-10.0,10.0),(-10.0,10.0)
timeIntervals:0.0-1.0
framesPerSecond:1000
4.009535855272046 26.975296504197214
4 6.919339479068572 -1.0342875877115691 10.0 2.6540103289919514 2.184849526012388 -0.21050627450091064 8.57316891119333 -5.5463668176257475
10.392846183058774 4.309374852702904
4 -5.273120617808775 1.5086702627539381 -2.159369954282132 5.169075646447446 -10.0 2.375054746571909 -3.6599918991441935 -3.0181196047575405
