areaTotal:400.0
tiempoTotalSimulado:1.0
areaOcupadaInicial:3.9999999999999916
eventosSimples:2
eventosMultiples:0
0.0
[(0,1), (2,4)]
[(0,4)]
0.08500847197626109, [(2,4),X]-
0.4937108786090458, [(0,4),Y]-
