areaTotal:400.0
tiempoTotalSimulado:1.0
areaOcupadaInicial:4.0000000000000036
eventosSimples:10
eventosMultiples:0
0.0
[(1,4), (1,6), (2,5), (2,7), (3,8), (4,6), (5,7)]
[(0,7), (1,2), (2,3), (4,5)]
0.1721106294729551, [(0,7),Y]-
0.1729816849290331, [(4,6),X]-
0.22912713202993995, [(1,4),X]-
0.23611497937281345, [(2,5),X]-
0.25116764760080723, [(5,7),X]-
0.25149769261073757, [(1,2),Y]-
0.40848855538400786, [(4,5),Y]-
0.8379071559190072, [(3,6),X]+
0.8752792563423812, [(1,3),X]+
0.976090844337758, [(3,8),X]-
