marco:(-10.0,10.0),(-10.0,10.0)
timeIntervals:0.0-1.0
framesPerSecond:1000
6.922748950574193 3.6193510144073024
20 7.353176369454706 3.1045156007729853 6.6258376804955885 3.310445207609405 6.325264231073286 3.0812886140766835 6.127655585069192 3.2158013650235215 6.230620388487401 3.5794707095030804 5.772307201421959 4.180617608347687 5.566377594585539 3.453278919388569 5.7955341881182605 3.1527054699662656 5.6610214371714225 2.955096823962172 5.297352092691863 3.058061627380382 4.696205193847257 2.599748440314939 5.423543882806375 2.3938188334785195 5.724117332228678 2.622975427011241 5.921725978232772 2.488462676064403 5.818761174814562 2.124793331584844 6.277074361880005 1.5236464327402373 6.4830039687164245 2.2509851216993555 6.253847375183703 2.551558571121659 6.388360126130541 2.7491672171257524 6.7520294706101005 2.6462024137075426
1.6445582608089941 1.1189124520511278
12 9.598419676094576 -7.162717576502352 9.807172023759392 -6.578489336167996 9.196839352189151 -6.689818620157801 8.795259028283727 -6.216919663813251 8.58650668061891 -6.801147904147607 7.97617400904867 -6.912477188137413 8.377754332954094 -7.385376144481963 8.169001985289277 -7.96960438481632 8.779334656859518 -7.858275100826514 9.180914980764943 -8.331174057171065 9.38966732842976 -7.746945816836709 10.0 -7.635616532846902
0.5220662586385224 -0.23891946826491367
4 9.034606263700649 -7.48979108884553 7.871391906121945 -6.6854700345874924 7.067070851863907 -7.848684392166197 8.230285209442611 -8.653005446424235
-5.176545632783633 -2.2154259726971772
6 -3.5411179798802426 8.60008662203147 -4.109038320329474 9.268866739726015 -4.972179062023513 9.111423356418346 -5.267399463268321 8.285199855416131 -4.699479122819089 7.616419737721586 -3.8363383811250507 7.773863121029255
-0.05273072994908809 5.497711229285209
3 -7.857194647108724 7.084128680133624 -9.881020638060054 7.807268024843114 -9.49536468557884 5.693013631485301
4.561486325975633 1.7893547536388679
6 9.69341889257425 9.331219882305454 9.125498552125018 10.0 8.26235781043098 9.842556616692331 7.967137409186172 9.016333115690117 8.535057749635403 8.347552997995571 9.398198491329442 8.50499638130324
-3.0324543547233596 -1.5063127198341848
12 -7.397227836321024 -0.7396220565497184 -7.188475488656207 -0.1553938162153623 -7.798808160226448 -0.2667231002051679 -8.200388484131873 0.2061758561393825 -8.40914083179669 -0.37805238419497345 -9.01947350336693 -0.48938166818477896 -8.617893179461506 -0.9622806245293295 -8.826645527126322 -1.5465088648636856 -8.216312855556081 -1.4351795808738799 -7.814732531650657 -1.9080785372184303 -7.6059801839858405 -1.3238502968840744 -6.9956475124156 -1.212521012894269
0.5393443320685491 0.1964874686704306
5 -6.357468616082595 2.6287122680589317 -7.137443731112796 3.373095814856012 -8.086420119650946 2.861322565451874 -7.892944667258446 1.800645755990059 -6.82439387315297 1.6568846860679995
1.862744522318869 1.6200060656838486
4 3.4263237621840865 -4.415274328455794 4.857384844327357 -4.926611062842671 3.1536238229796623 -2.920270709759034 2.26796261924524 -5.398941212765678
2.143281898156645 1.0577353211272555
5 -6.154966636062874 3.8313673848021264 -6.934941751093076 4.575750931599207 -7.883918139631225 4.063977682195069 -7.6904426872387255 3.003300872733254 -6.62189189313325 2.8595398028111942
-3.939700561082299 -3.9685448163027517
5 8.196301826336398 -3.2219465489112906 7.416326711306198 -2.47756300211421 6.467350322768048 -2.989336251518348 6.660825775160548 -4.050013060980163 7.729376569266024 -4.193774130902223
-6.232715234679467 0.7359394420028167
3 -2.3230426408046614 4.074977706271181 -4.346868631755992 4.798117050980671 -3.9612126792747775 2.683862657622858
1.2023351985454964 -0.8586477269063704
4 2.0188518119084993 1.2003034627290319 3.44991289405177 0.6889667283421551 1.746151872704075 2.695307081425792 0.8604906689696528 0.21663657841914852
-4.335250186683854 -4.919353836944033
3 -4.864296023318717 -2.725436224855481 -6.888122014270047 -2.002296880145991 -6.502466061788833 -4.116551273503804
5.819268677500025 2.1199303368654228
3 6.519832309160041 -3.01430224165986 4.49600631820871 -2.29116289695037 4.881662270689925 -4.405417290308183
-3.9511138809726396 -2.5489464870498146
20 3.630275264981074 5.4520860787214165 2.9044628546649287 5.663332182731972 2.6022206899658626 5.436381049808681 2.4056015772720745 5.5723361220434615 2.5112246292773523 5.935242327201535 2.0573223634307696 6.539726656599667 1.8460762594202136 5.813914246283521 2.073027392343505 5.511672081584455 1.9370723201087239 5.315052968890667 1.5741661149506512 5.420676020895945 0.969681785552519 4.966773755049362 1.6954941958686645 4.755527651038806 1.9977363605677305 4.982478783962097 2.1943554732615187 4.8465237117273166 2.088732421256241 4.483617506569243 2.5426346871028236 3.8791331771711115 2.75388079111338 4.604945587487257 2.526929658190088 4.907187752186323 2.6628847304248695 5.103806864880111 3.025790935582942 4.998183812874833
0.663821046235258 -5.501008876896361
5 1.9040719874837824 -4.686409094419801 1.124096872453581 -3.9420255476227206 0.17512048391543222 -4.453798797026859 0.36859593630793175 -5.5144756064886735 1.4371467304134071 -5.658236676410733
1.8603334336085313 0.48746197079997816
3 -4.011690243819222 6.61350326725967 -6.0355162347705535 7.33664261196916 -5.649860282289339 5.222388218611347
-3.392552170169546 1.3682134569403224
12 -3.592960660888248 1.5652905451587529 -3.384208313223431 2.1495187854931093 -3.9945409847936717 2.0381895015033034 -4.3961213086990965 2.511088457847854 -4.604873656363913 1.926860217513498 -5.215206327934154 1.8155309335236924 -4.8136260040287295 1.342631977179142 -5.022378351693547 0.7584037368447858 -4.412045680123305 0.8697330208345914 -4.010465356217881 0.396834064490041 -3.8017130085530644 0.9810623048243969 -3.1913803369828235 1.0923915888142024
0.37072417693179277 5.2644226661403195
4 -1.2377819671553993 5.711619129093776 -2.400996324734104 6.515940183351814 -3.2053173789921416 5.35272582577311 -2.0421030214134372 4.548404771515072
