areaTotal:400.0
tiempoTotalSimulado:1.0
areaOcupadaInicial:3.999999999999988
eventosSimples:9
eventosMultiples:0
0.0
[(2,9), (3,7)]
[(2,9), (3,5), (3,6), (5,6)]
0.24961379428752503, [(4,8),X]+
0.28764678789551024, [(3,5),Y]-
0.3890179770263721, [(1,6),X]+
0.4122361792463191, [(5,7),Y]+
0.46069254743645205, [(2,9),X]-
0.69679162738701, [(5,6),Y]-
0.746993244681827, [(6,7),Y]+
0.746993244681827, [(5,6),Y]+
0.7483011897356542, [(1,8),Y]+
