areaTotal:400.0
tiempoTotalSimulado:1.0
areaOcupadaInicial:7.9999999999999805
eventosSimples:21
eventosMultiples:0
0.0
[(2,4), (2,9), (3,4), (5,8)]
[(1,6), (2,8), (5,7)]
0.05383091618960006, [(3,5),Y]+
0.05861234985327005, [(4,9),X]+
0.17344289795320014, [(5,7),Y]-
0.27761978782065183, [(3,9),X]+
0.2954760814488244, [(2,6),X]+
0.4966543361949336, [(4,6),X]+
0.5037332814440924, [(0,7),Y]+
0.5178848527596088, [(2,6),X]-
0.5321282520697452, [(2,2),X]+
0.5937524557969187, [(2,9),Y]+
0.6031312199765398, [(3,7),X]+
0.6035274886469411, [(7,9),X]+
0.6038422233741, [(7,9),X]-
0.6038422233741, [(3,7),X]-
0.6479717464395888, [(2,2),X]-
0.6479717464395888, [(2,3),X]+
0.8088080019657905, [(8,9),Y]+
0.8273650849746742, [(3,5),Y]-
0.8838293518587738, [(8,9),Y]-
0.8838293518587738, [(2,9),Y]-
0.9629516827182389, [(7,7),X]+
