marco:(-10.0,10.0),(-10.0,10.0)
timeIntervals:0.0-1.0
framesPerSecond:1000
-0.29262754108962086 2.7903245976429885
20 5.060577733604003 6.215932679435671 4.827340766037113 6.460649314027429 4.659483021930343 6.440769517378201 4.613983595119452 6.537508204512417 4.736341912415331 6.654126688295862 4.6965823191168745 6.989842176509402 4.451865684525116 6.756605208942513 4.471745481174344 6.588747464835742 4.375006794040129 6.543248038024851 4.2583883102566835 6.6656063553207305 3.9226728220431433 6.625846762022274 4.155909789610033 6.381130127430516 4.323767533716803 6.401009924079744 4.369266960527694 6.304271236945528 4.246908643231815 6.187652753162083 4.2866682365302715 5.851937264948543 4.53138487112203 6.085174232515432 4.511505074472802 6.253031976622203 4.608243761607017 6.298531403433094 4.7248622453904625 6.176173086137214
0.07346141682295698 -0.04002422987638343
12 -5.644565271364907 5.078204809445254 -5.437424173907706 5.262792462434765 -5.70085231935017 5.349888088505734 -5.757139367335433 5.621571367566214 -5.964280464792634 5.436983714576702 -6.227708610235099 5.524079340647671 -6.171421562249836 5.2523960615871905 -6.378562659707036 5.06780840859768 -6.1151345142645726 4.980712782526711 -6.0588474662793095 4.709029503466231 -5.851706368822108 4.8936171564557425 -5.5882782233796435 4.8065215303847735
1.3950347101931546 2.7198586173032666
3 10.0 -5.30972206947722 9.360569613144545 -4.592164259214322 9.058861514200668 -5.504706123314307
-2.150651855351389 1.1116786805320662
4 5.371765720089613 -1.8393773501211967 5.823911282731842 -2.346767343651462 5.585105562791729 -1.1941128098994853 4.706280314745267 -1.9772518968126436
1.632625201964332 0.6156979620067276
12 -4.334614702611722 3.783090040769839 -4.127473605154521 3.967677693759351 -4.390901750596985 4.0547733198303195 -4.447188798582248 4.3264565988907995 -4.6543298960394495 4.141868945901288 -4.917758041481914 4.228964571972257 -4.861470993496651 3.957281292911776 -5.0686120909538515 3.7726936399222644 -4.805183945511388 3.685598013851296 -4.748896897526125 3.413914734790816 -4.541755800068923 3.5985023877803273 -4.278327654626459 3.5114067617093587
-1.2296417919568774 -0.9523120894354106
5 6.82568443167827 -2.9578764238444846 6.683190438439436 -2.4972365744474025 6.201062842497974 -2.4904108735000987 6.045585594530709 -2.9468322077147047 6.431622966751105 -3.2357418063972103
-0.09730650017954082 -0.16436018726743973
12 2.525862654355029 -4.78492225229273 2.7346576782551844 -4.602207518659989 2.4720245653334456 -4.512743090595046 2.4181864763118623 -4.240563928897361 2.209391452411707 -4.423278662530103 1.9467583394899681 -4.33381423446516 2.0005964285115514 -4.605993396162844 1.791801404611396 -4.788708129795585 2.0544345175331347 -4.878172557860528 2.108272606554718 -5.150351719558213 2.3170676304548734 -4.967636985925471 2.579700743376612 -5.057101413990414
-0.6261208446094956 1.6872070265695176
4 -5.772605775575159 9.356682883782986 -5.325047909686399 8.845241614395386 -5.553463576686118 10.0 -6.439305840352961 9.22480703695357
2.9165118914136237 0.4326940194084508
20 -1.623118153786854 3.2884386601671713 -1.860589346855569 3.52904860748489 -2.028074683703271 3.5062431144527193 -2.0752550468921136 3.6021732179549066 -1.954950073233254 3.720908814489264 -2.000561059297595 4.055879488184668 -2.2411710066153137 3.8184082951159533 -2.218365513583143 3.650922958268251 -2.3142956170853304 3.6037425950794084 -2.433031213619688 3.7240475687382677 -2.7680018873150916 3.678436582673927 -2.530530694246377 3.4378266353562084 -2.3630453573986747 3.460632128388379 -2.315864994209832 3.3647020248861916 -2.4361699678686914 3.245966428351834 -2.3905589818043507 2.9109957546564305 -2.149949034486632 3.148466947725145 -2.1727545275188027 3.3159522845728473 -2.0768244240166154 3.36313264776169 -1.9580888274822579 3.2428276741028306
0.419462705088192 0.33196497034579264
20 3.082933806933032 6.986366864839128 2.8454626138643175 7.226976812156846 2.6779772770166153 7.204171319124677 2.6307969138277727 7.300101422626863 2.751101887486632 7.418837019161221 2.705490901422291 7.753807692856625 2.4648809541045726 7.51633649978791 2.4876864471367433 7.348851162940208 2.391756343634556 7.301670799751365 2.2730207471001984 7.4219757734102245 1.9380500734047945 7.376364787345884 2.1755212664735093 7.135754840028166 2.3430066033212116 7.158560333060335 2.390186966510054 7.062630229558149 2.269881992851195 6.943894633023791 2.3154929789155356 6.608923959328387 2.556102926233254 6.846395152397102 2.5332974332010836 7.013880489244804 2.629227536703271 7.061060852433647 2.7479631332376284 6.940755878774787
0.13212262498611127 -0.33917719557763887
12 -0.800384688896072 -6.103130209219701 -0.5915896649959166 -5.92041547558696 -0.8542227779176552 -5.830951047522017 -0.9080608669392385 -5.558771885824332 -1.116855890839394 -5.741486619457074 -1.3794890037611327 -5.652022191392131 -1.3256509147395494 -5.924201353089815 -1.534445938639705 -6.106916086722556 -1.2718128257179662 -6.196380514787499 -1.217974736696383 -6.468559676485184 -1.0091797127962274 -6.285844942852442 -0.7465465998744887 -6.375309370917385
0.0110939495867549 0.018579125036836088
5 -4.632290145898881 -6.736707602918754 -4.774784139137715 -6.276067753521672 -5.256911735079177 -6.269242052574368 -5.412388983046442 -6.725663386788974 -5.026351610826046 -7.01457298547148
-0.49002749545259616 -0.26456316978018213
20 -1.4168038269957932 2.897515224244573 -1.6542750200645082 3.1381251715622915 -1.82176035691221 3.115319678530121 -1.8689407201010528 3.2112497820323083 -1.7486357464421933 3.3299853785666658 -1.794246732506534 3.6649560522620694 -2.034856679824253 3.427484859193355 -2.0120511867920823 3.2599995223456526 -2.1079812902942696 3.21281915915681 -2.226716886828627 3.3331241328156693 -2.561687560524031 3.2875131467513286 -2.3242163674553162 3.04690319943361 -2.156731030607614 3.0697086924657806 -2.1095506674187714 2.9737785889635933 -2.2298556410776307 2.8550429924292358 -2.18424465501329 2.520072318733832 -1.9436347076955713 2.7575435118025466 -1.9664402007277417 2.925028848650249 -1.8705100972255546 2.9722092118390915 -1.7517745006911971 2.851904238180232
-0.0534063805788037 1.4319988392488208
12 -1.4554746660857596 6.7579743669120305 -1.2466796421856041 6.9406891005447715 -1.5093127551073429 7.0301535286097145 -1.5631508441289261 7.3023326903073995 -1.7719458680290816 7.119617956674658 -2.0345789809508203 7.209082384739601 -1.980740891929237 6.9369032230419165 -2.1895359158293926 6.7541884894091755 -1.9269028029076538 6.6647240613442325 -1.8730647138860705 6.3925448996465475 -1.664269689985915 6.575259633279289 -1.4016365770641763 6.485795205214346
-0.47861169726684166 3.8571443909688607
20 -4.973576781927319 -5.609059258097224 -5.211047974996034 -5.368449310779505 -5.378533311843736 -5.391254803811675 -5.425713675032578 -5.2953247003094885 -5.305408701373719 -5.176589103775131 -5.351019687438059 -4.841618430079727 -5.591629634755778 -5.079089623148442 -5.568824141723608 -5.246574959996144 -5.664754245225795 -5.293755323184986 -5.783489841760153 -5.173450349526127 -6.118460515455556 -5.219061335590467 -5.880989322386841 -5.459671282908186 -5.713503985539139 -5.436865789876016 -5.666323622350297 -5.532795893378203 -5.786628596009156 -5.651531489912561 -5.741017609944816 -5.986502163607964 -5.500407662627097 -5.749030970539249 -5.523213155659267 -5.581545633691547 -5.4272830521570805 -5.534365270502705 -5.308547455622723 -5.654670244161564
1.8255309595724671 1.5731937106101543
4 -0.05569844436430205 -4.856754473586823 -0.33482123718511114 -4.28922432766688 -0.902351383105054 -4.568347120487689 -0.6232285902842449 -5.135877266407632
-1.3285718297970976 1.4253258453756603
4 -6.961872969369571 9.223639590836362 -7.24099576219038 9.791169736756306 -7.808525908110322 9.512046943935497 -7.529403115289513 8.944516798015552
-0.2557754219096519 1.7039989912481759
6 4.196474782031586 -7.960915188864541 4.120336226365014 -7.575995726996336 3.7489169161428264 -7.449473919476941 3.453636161587212 -7.707871573825751 3.529774717253785 -8.092791035693956 3.9011940274759724 -8.21931284321335
0.7553239926991314 -0.10684470947152899
20 8.120396040006202 -3.264206431764672 7.882924846937486 -3.0235964844469536 7.715439510089785 -3.0464019774791242 7.668259146900942 -2.950471873976937 7.788564120559801 -2.8317362774425794 7.742953134495461 -2.4967656037471757 7.502343187177742 -2.7342367968158903 7.525148680209912 -2.9017221336635926 7.429218576707726 -2.948902496852435 7.310482980173368 -2.828597523193576 6.975512306477964 -2.8742085092579166 7.212983499546679 -3.114818456575635 7.380468836394381 -3.0920129635434646 7.4276491995832234 -3.187943067045652 7.307344225924364 -3.3066786635800094 7.3529552119887045 -3.641649337275413 7.593565159306423 -3.4041781442066985 7.570759666274253 -3.2366928073589962 7.66668976977644 -3.1895124441701537 7.785425366310798 -3.309817417829013
-1.7740056244116205 -0.031723943387525336
3 -2.452978640959884 -5.062851271045591 -3.085921044846528 -4.3395640915203355 -3.3958349146036726 -5.2493518821811875
0.0761901610716778 0.03571010387403587
4 -2.8523604909626954 2.42113992733948 -2.404802625073935 1.9096986579518807 -2.633218292073654 3.0644570435564953 -3.5190605557404973 2.289264080510064
0.3662638429693938 -1.406396679789396
4 -4.5360039784010455 8.539065953368576 -4.815126771221855 9.10659609928852 -5.382656917141797 8.827473306467711 -5.103534124320988 8.259943160547767
-0.474207070702474 -3.1911656864329316
12 7.3355594061963725 -9.32244975810733 7.5443544300965275 -9.13973502447459 7.281721317174789 -9.050270596409646 7.227883228153206 -8.778091434711962 7.01908820425305 -8.960806168344703 6.756455091331312 -8.87134174027976 6.810293180352895 -9.143520901977444 6.60149815645274 -9.326235635610185 6.864131269374479 -9.415700063675128 6.9179693583960615 -9.687879225372813 7.1267643822962174 -9.505164491740071 7.389397495217955 -9.594628919805015
0.14699352835688945 2.472966074716447
4 -2.574882646461103 5.20257119873854 -2.854005439281912 5.770101344658483 -3.4215355852018545 5.4909785518376735 -3.142412792381046 4.923448405917731
-2.792809936858002 0.17741768930039106
12 -5.6575428871551035 -7.0208920158929455 -5.448747863254948 -6.8381772822602045 -5.711380976176687 -6.7487128541952615 -5.76521906519827 -6.4765336924975765 -5.974014089098426 -6.659248426130318 -6.236647202020164 -6.569783998065375 -6.182809112998581 -6.8419631597630595 -6.391604136898736 -7.0246778933958005 -6.128971023976997 -7.1141423214607435 -6.075132934955414 -7.3863214831584285 -5.8663379110552585 -7.203606749525687 -5.603704798133521 -7.29307117759063
-0.29137718718930994 -0.6187501081158332
6 3.691318466413485 -2.4451899640696486 3.615179910746912 -2.060270502201444 3.2437606005247246 -1.9337486946820495 2.94847984596911 -2.19214634903086 3.024618401635683 -2.5770658108990645 3.3960377118578706 -2.7035876184184593
-3.6461264306218366 -0.894850898837039
4 7.446123152708186 -0.6672984637667163 7.893681018596946 -1.1787397331543157 7.665265351597227 -0.02398134754970116 6.779423087930384 -0.7991743105961322
-2.5065781143294164 -0.667100692125006
6 -1.468496780187372 -3.152832832109277 -1.544635335853945 -2.7679133702410725 -1.9160546460761325 -2.641391562721678 -2.211335400631747 -2.8997892170704884 -2.135196844965174 -3.284708678938693 -1.7637775347429867 -3.411230486458088
0.3446079959045874 0.6985510891309833
4 -1.3849345111047722 -4.11459253748983 -0.9373766452160117 -4.6260338068774285 -1.165792312215731 -3.4712754212728143 -2.051634575882574 -4.246468384319245
1.773415325743353 0.6134187207049102
6 5.905040023166311 -4.561735481116253 5.828901467499739 -4.176816019248048 5.457482157277552 -4.050294211728653 5.162201402721937 -4.308691866077464 5.23833995838851 -4.693611327945669 5.609759268610697 -4.820133135465063
-2.3055731773289856 -1.102049562294701
12 -3.5741794103123157 -7.556062875815757 -3.36538438641216 -7.373348142183016 -3.628017499333899 -7.283883714118073 -3.681855588355482 -7.011704552420388 -3.8906506122556377 -7.1944192860531295 -4.153283725177376 -7.1049548579881865 -4.099445636155793 -7.377134019685871 -4.308240660055948 -7.559848753318612 -4.0456075471342094 -7.649313181383555 -3.9917694581126266 -7.92149234308124 -3.782974434212471 -7.738777609448498 -3.5203413212907324 -7.828242037513441
-2.065694651165116 -2.6299332184355975
20 5.875613030757777 -9.61779817451171 5.638141837689062 -9.377188227193992 5.47065650084136 -9.399993720226163 5.423476137652518 -9.304063616723976 5.543781111311377 -9.185328020189619 5.498170125247037 -8.850357346494214 5.257560177929318 -9.08782853956293 5.280365670961488 -9.25531387641063 5.1844355674593015 -9.302494239599474 5.0656999709249435 -9.182189265940615 4.73072929722954 -9.227800252004956 4.968200490298255 -9.468410199322674 5.135685827145957 -9.445604706290503 5.182866190334799 -9.54153480979269 5.06256121667594 -9.660270406327047 5.10817220274028 -9.995241080022453 5.348782150057999 -9.757769886953737 5.325976657025829 -9.590284550106036 5.421906760528016 -9.543104186917192 5.5406423570623735 -9.663409160576052
-1.3945453427216827 -0.1950940066252122
5 -8.643452825045685 -5.098309922241706 -8.785946818284518 -4.637670072844624 -9.26807441422598 -4.63084437189732 -9.423551662193246 -5.087265706111926 -9.03751428997285 -5.376175304794431
1.1139565730443797 1.0609283695944325
5 -1.376723877534526 -3.871880608714445 -1.5192178707733603 -3.411240759317363 -2.001345466714822 -3.404415058370059 -2.1568227146820873 -3.860836392584665 -1.7707853424616908 -4.149745991267171
0.2995526735613607 0.3934741316687305
5 8.531973084537281 9.532534449655614 8.389479091298448 9.993174299052697 7.907351495356986 10.0 7.751874247389721 9.543578665785395 8.137911619610117 9.254669067102888
2.0679015796365356 -1.7204951756441813
4 -1.8954325494901478 -2.1694718706291374 -2.174555342310957 -1.6019417247091947 -2.7420854882308996 -1.8810645175300038 -2.462962695410091 -2.4485946634499465
1.790138999539256 -0.7307856111071207
6 2.7143712060729936 0.3298686475446656 2.6382326504064206 0.7147881094128703 2.266813340184233 0.8413099169322649 1.9715325856286188 0.5829122625834546 2.047671141295192 0.19799280071524983 2.4190904515173792 0.0714709931958552
-1.479300040525607 2.510432395448563
4 4.11893656710003 -6.131693714279874 3.8398137742792207 -5.564163568359931 3.272283628359278 -5.84328636118074 3.551406421180087 -6.410816507100683
-1.2915213678365463 0.634339097003457
3 -5.944909645094147 -8.117007332307033 -6.577852048980791 -7.393720152781778 -6.887765918737935 -8.303507943442629
0.12879566738579531 -0.04136528993528213
6 -4.929807929370726 6.220603935765458 -5.005946485037299 6.605523397633663 -5.377365795259486 6.7320452051530575 -5.6726465498151 6.473647550804247 -5.596507994148528 6.088728088936042 -5.225088683926341 5.962206281416647
0.8881732139361219 2.35463589494344
12 -8.91340710981894 1.0419275450528431 -8.704612085918784 1.2246422786855846 -8.967245198840523 1.3141067067505277 -9.021083287862107 1.5862858684482117 -9.229878311762262 1.4035711348154705 -9.492511424684 1.4930355628804135 -9.438673335662417 1.2208564011827292 -9.647468359562572 1.0381416675499877 -9.384835246640833 0.9486772394850448 -9.33099715761925 0.6764980777873605 -9.122202133719094 0.8592128114201019 -8.859569020797355 0.7697483833551588
1.4485000494470346 -0.38729107056257345
5 5.439671144597679 -0.9154392196082759 5.297177151358845 -0.45479937021119365 4.815049555417383 -0.44797366926388965 4.6595723074501185 -0.9043950034784957 5.045609679670514 -1.1933046021610014
-0.36209637421048424 0.8823384913307172
20 0.9479848420028738 4.678735706549138 0.7105136489341588 4.9193456538668565 0.5430283120864569 4.896540160834687 0.49584794889761424 4.992470264336873 0.6161529225564736 5.111205860871231 0.5705419364921329 5.446176534566635 0.3299319891744142 5.20870534149792 0.3527374822065845 5.041220004650218 0.2568073787043974 4.9940396414613755 0.13807178217003996 5.114344615120235 -0.196898891525364 5.068733629055894 0.04057230154335095 4.828123681738176 0.20805763839105293 4.850929174770346 0.25523800157989557 4.754999071268159 0.1349330279210362 4.636263474733801 0.18054401398537695 4.3012928010383975 0.4211539613030956 4.5387639941071125 0.3983484682709253 4.706249330954814 0.4942785717731124 4.753429694143657 0.6130141683074699 4.633124720484798
-1.9476449556225872 -0.9436390362020562
6 3.5403399371649074 5.687848058466408 3.4642013814983343 6.072767520334613 3.092782071276147 6.199289327854008 2.7975013167205325 5.940891673505198 2.8736398723871055 5.555972211636993 3.245059182609293 5.429450404117598
1.0643437273343097 2.423064368210263
4 -2.0965095386517945 6.748297226943663 -1.648951672763034 6.236855957556064 -1.8773673397627533 7.391614343160678 -2.7632096034295963 6.616421380114247
-2.175506058765089 0.5785736100468993
3 -5.8038332438556735 9.276712820474746 -6.4367756477423175 10.0 -6.746689517499462 9.09021220933915
-1.2612448480967606 1.8427987105247166
20 0.30375622603569785 0.8735755946935317 0.0662850329669829 1.1141855420112505 -0.10120030388071907 1.0913800489790801 -0.1483806670695617 1.1873101524812673 -0.028075693410702346 1.3060457490156248 -0.0736866794750431 1.6410164227110287 -0.31429662679276177 1.4035452296423137 -0.29149113376059144 1.2360598927946118 -0.38742123726277855 1.188879529605769 -0.506156833797136 1.3091845032646285 -0.84112750749254 1.2635735172002878 -0.603656314423825 1.022963569882569 -0.436170977576123 1.0457690629147394 -0.3889906143872804 0.9498389594125523 -0.5092955880461397 0.8311033628781948 -0.463684601981799 0.49613268918279085 -0.2230746546640803 0.7336038822515059 -0.2458801476962507 0.9010892190992078 -0.14995004419406358 0.9482695822880504 -0.0312144476597061 0.8279646086291911
1.507471044357652 -0.7646964452573277
4 6.936509705135091 8.754747125081987 7.384067571023851 8.243305855694388 7.155651904024132 9.398064241299002 6.269809640357289 8.622871278252571
0.5442967278847188 -0.46703339796007737
5 9.577194510371623 6.587413661176313 9.43470051713279 7.0480535105733955 8.952572921191328 7.054879211520699 8.797095673224062 6.598457877306093 9.183133045444459 6.309548278623588
1.4374319546139873 1.4086137735791053
4 -3.891454885819769 2.639892047459015 -4.170577678640578 3.2074221933789575 -4.738107824560521 2.9282994005581484 -4.4589850317397115 2.360769254638206
-0.10995593149481533 0.15991672440135182
4 -3.441420440748204 7.704320475209251 -2.9938625748594436 7.192879205821652 -3.2222782418591627 8.347637591426265 -4.1081205055260055 7.572444628379834
1.2030482819536124 1.6164500861876983
6 -7.852365792348813 6.712980411513258 -7.928504348015386 7.097899873381463 -8.299923658237573 7.224421680900858 -8.595204412793187 6.966024026552048 -8.519065857126614 6.581104564683843 -8.147646546904427 6.454582757164448
-0.12219779539396644 0.21735559648193425
20 10.0 -1.588539701808277 9.762528806931284 -1.3479297544905582 9.595043470083583 -1.3707352475227286 9.54786310689474 -1.2748051440205415 9.668168080553599 -1.156069547486184 9.622557094489258 -0.8210988737907801 9.38194714717154 -1.058570066859495 9.40475264020371 -1.226055403707197 9.308822536701523 -1.2732357668960397 9.190086940167166 -1.1529307932371802 8.85511626647176 -1.198541779301521 9.092587459540477 -1.4391517266192397 9.260072796388178 -1.4163462335870693 9.307253159577021 -1.5122763370892565 9.186948185918162 -1.631011933623614 9.232559171982503 -1.9659826073190179 9.473169119300222 -1.7285114142503029 9.45036362626805 -1.561026077402601 9.546293729770237 -1.5138457142137582 9.665029326304595 -1.6341506878726177
-0.07885031215115072 0.646019238793879
20 5.396313379926641 -1.4707761092257285 5.158842186857926 -1.2301661619080098 4.9913568500102246 -1.2529716549401801 4.944176486821382 -1.157041551437993 5.064481460480241 -1.0383059549036355 5.018870474415901 -0.7033352812082316 4.778260527098182 -0.9408064742769466 4.801066020130352 -1.1082918111246485 4.705135916628166 -1.1554721743134913 4.586400320093808 -1.0351672006546317 4.251429646398404 -1.0807781867189725 4.488900839467119 -1.3213881340366913 4.656386176314821 -1.298582641004521 4.703566539503663 -1.394512744506708 4.583261565844804 -1.5132483410410655 4.6288725519091445 -1.8482190147364694 4.869482499226863 -1.6107478216677544 4.846677006194693 -1.4432624848200526 4.94260710969688 -1.3960821216312098 5.061342706231238 -1.5163870952900693
0.22814904458542531 0.2830214660513267
20 10.0 -1.7887621719174003 9.762528806931284 -1.5481522245996815 9.595043470083583 -1.5709577176318519 9.54786310689474 -1.4750276141296648 9.668168080553599 -1.3562920175953073 9.622557094489258 -1.0213213438999034 9.38194714717154 -1.2587925369686184 9.40475264020371 -1.4262778738163202 9.308822536701523 -1.473458237005163 9.190086940167166 -1.3531532633463035 8.85511626647176 -1.3987642494106443 9.092587459540477 -1.639374196728363 9.260072796388178 -1.6165687036961927 9.307253159577021 -1.7124988071983798 9.186948185918162 -1.8312344037327373 9.232559171982503 -2.166205077428141 9.473169119300222 -1.9287338843594262 9.45036362626805 -1.7612485475117243 9.546293729770237 -1.7140681843228815 9.665029326304595 -1.834373157981741
-0.4478232277036331 -1.932792968546008
6 2.3867454422712187 -6.644347476513274 2.3106068866046456 -6.259428014645069 1.9391875763824582 -6.132906207125674 1.6439068218268438 -6.391303861474484 1.7200453774934168 -6.776223323342689 2.0914646877156042 -6.902745130862084
-1.1910754102820298 -2.3229602819173176
5 8.393217987992927 -0.37288414957942195 8.250723994754093 0.0877556998176603 7.768596398812631 0.0945814007649643 7.613119150845367 -0.3618399334496417 7.999156523065762 -0.6507495321321476
-0.08967153363650401 -2.4348752432791754
12 5.478538429733861 -7.5636237342031025 5.687333453634016 -7.3809090005703615 5.424700340712278 -7.291444572505418 5.370862251690695 -7.0192654108077335 5.162067227790539 -7.201980144440475 4.899434114868801 -7.112515716375532 4.953272203890384 -7.3846948780732165 4.744477179990229 -7.5674096117059575 5.0071102929119675 -7.6568740397709005 5.06094838193355 -7.9290532014685855 5.269743405833706 -7.746338467835844 5.532376518755444 -7.835802895900787
-1.1368527567075941 1.869863246032328
6 1.6976386179429217 -4.68167461674666 1.6215000622763487 -4.296755154878455 1.2500807520541612 -4.17023334735906 0.9547999974985468 -4.4286310017078705 1.0309385531651198 -4.8135504635760755 1.402357863387307 -4.94007227109547
-1.5383418465959167 0.5628182173539295
12 0.6948610382541123 5.342327412711068 0.9036560621542676 5.525042146343809 0.641022949232529 5.614506574408752 0.5871848602109457 5.886685736106437 0.37838983631079026 5.703971002473695 0.11575672338905157 5.793435430538638 0.1695948124106348 5.521256268840954 -0.039200211489520576 5.338541535208213 0.22343290143221808 5.24907710714327 0.2772709904538014 4.976897945445585 0.4860660143539568 5.159612679078327 0.7486991272756955 5.070148251013384
2.972664197806822 -1.4860734443264414
4 2.7813302376159257 -5.414553367691585 3.228888103504686 -5.925994637079184 3.000472436504967 -4.77123625147457 2.114630172838124 -5.546429214521002
-2.871517442724283 1.5250491612529393
3 7.677774852443118 -4.782746395465599 7.044832448556474 -4.059459215940345 6.73491857879933 -4.969247006601196
-2.313810821916225 0.10006944458723731
3 -5.925619595661521 -2.4311068794340667 -6.558561999548165 -1.707819699908812 -6.86847586930531 -2.617607490569663
2.5643110044554676 0.11518000649067638
12 -0.9349672071245276 -0.7009103077359188 -0.7261721832243723 -0.5181955741031774 -0.9888052961461109 -0.4287311460382345 -1.0426433851676942 -0.15655198434055018 -1.2514384090678496 -0.33926671797329155 -1.5140715219895884 -0.24980228990834857 -1.4602334329680051 -0.5219814516060329 -1.6690284568681606 -0.7046961852387743 -1.4063953439464218 -0.7941606133037172 -1.3525572549248386 -1.0663397750014014 -1.143762231024683 -0.8836250413686602 -0.8811291181029444 -0.9730894694336032
0.04458074353282617 -0.14092048259726092
20 8.902288111518072 -6.251279389103132 8.664816918449356 -6.010669441785414 8.497331581601655 -6.033474934817583 8.450151218412811 -5.937544831315397 8.57045619207167 -5.818809234781039 8.52484520600733 -5.483838561085635 8.28423525868961 -5.72130975415435 8.307040751721782 -5.888795091002052 8.211110648219595 -5.935975454190895 8.092375051685238 -5.815670480532035 7.757404377989833 -5.861281466596376 7.994875571058548 -6.101891413914094 8.16236090790625 -6.079085920881925 8.209541271095093 -6.175016024384111 8.089236297436234 -6.293751620918469 8.134847283500575 -6.628722294613873 8.375457230818293 -6.391251101545158 8.352651737786122 -6.223765764697456 8.44858184128831 -6.176585401508613 8.567317437822666 -6.2968903751674725
-0.6361283822189625 -1.8667400745402776
12 -0.7097791713586457 3.541433562286864 -0.5009841474584903 3.7241482959196053 -0.7636172603802289 3.8136127239845483 -0.8174553494018122 4.085791885682233 -1.0262503733019677 3.903077152049491 -1.2888834862237064 3.992541580114434 -1.2350453972021231 3.72036241841675 -1.4438404211022786 3.5376476847840084 -1.1812073081805399 3.4481832567190653 -1.1273692191589566 3.1760040950213813 -0.9185741952588011 3.3587188286541227 -0.6559410823370624 3.2692544005891797
-0.18811165071141736 -0.24480221530837057
20 9.35569335131461 -2.6065982325998296 9.118222158245894 -2.365988285282111 8.950736821398193 -2.3887937783142816 8.90355645820935 -2.2928636748120943 9.023861431868209 -2.174128078277737 8.978250445803868 -1.839157404582333 8.737640498486149 -2.0766285976510477 8.76044599151832 -2.24411393449875 8.664515888016133 -2.2912942976875925 8.545780291481776 -2.1709893240287332 8.21080961778637 -2.216600310093074 8.448280810855087 -2.4572102574107926 8.615766147702788 -2.434404764378622 8.662946510891631 -2.5303348678808093 8.542641537232772 -2.649070464415167 8.588252523297113 -2.9840411381105705 8.828862470614832 -2.746569945041856 8.80605697758266 -2.5790846081941536 8.901987081084847 -2.531904245005311 9.020722677619204 -2.6522092186641704
3.0101886821643085 0.33440297136659497
20 6.798537129924941 5.973346039288612 6.561065936856226 6.21395598660633 6.393580600008524 6.191150493574161 6.346400236819681 6.287080597076347 6.4667052104785405 6.405816193610705 6.4210942244142 6.740786867306109 6.180484277096482 6.503315674237394 6.203289770128651 6.335830337389692 6.107359666626465 6.288649974200849 5.988624070092107 6.4089549478597085 5.653653396396703 6.363343961795368 5.891124589465418 6.12273401447765 6.05860992631312 6.145539507509819 6.105790289501963 6.049609404007633 5.985485315843103 5.930873807473275 6.031096301907444 5.595903133777871 6.271706249225162 5.833374326846586 6.248900756192993 6.000859663694288 6.344830859695179 6.048040026883131 6.463566456229537 5.927735053224271
-2.1992783967933356 -0.7222573442507862
3 9.982393242735796 -3.494800393912543 9.349450838849153 -2.7715132143872885 9.039536969092007 -3.6813010050481396
-2.508704391659532 0.35426605225167723
3 -5.067202996886572 -8.807264904962512 -5.700145400773216 -8.083977725437258 -6.010059270530361 -8.993765516098108
0.3027402529546662 -3.6608383892642906
20 -8.750325230984593 3.0902115536592283 -8.98779642405331 3.330821500976947 -9.15528176090101 3.3080160079447762 -9.202462124089854 3.4039461114469636 -9.082157150430994 3.522681707981321 -9.127768136495336 3.8576523816767248 -9.368378083813054 3.62018118860801 -9.345572590780883 3.452695851760308 -9.44150269428307 3.4055154885714654 -9.560238290817427 3.5258204622303246 -9.895208964512832 3.480209476165984 -9.657737771444117 3.2395995288482653 -9.490252434596416 3.262405021880436 -9.443072071407572 3.1664749183782486 -9.563377045066431 3.047739321843891 -9.51776605900209 2.7127686481484874 -9.277156111684372 2.950239841217202 -9.299961604716543 3.1177251780649042 -9.204031501214356 3.164905541253747 -9.085295904679999 3.0446005675948875
-0.04070321559740164 -0.025473205965292907
6 8.732428843214358 5.90331897194534 8.656290287547785 6.288238433813545 8.284870977325598 6.41476024133294 7.9895902227699835 6.156362586984129 8.065728778436556 5.771443125115924 8.437148088658743 5.64492131759653
0.4268178164537524 -0.20957359674941492
4 -6.4256527130109005 -9.63668488539362 -6.70477550583171 -9.069154739473676 -7.272305651751652 -9.348277532294485 -6.993182858930843 -9.91580767821443
0.22115973009167797 0.8809727685747178
3 1.146595171270901 9.276712820474746 0.5136527673842571 10.0 0.2037388976271125 9.09021220933915
-0.16735111601492697 0.962816507206434
6 -7.5750771332593825 -5.958424358488931 -7.651215688925955 -5.573504896620726 -8.022634999148142 -5.446983089101331 -8.317915753703756 -5.705380743450141 -8.241777198037184 -6.090300205318346 -7.870357887814997 -6.216822012837741
-2.3215096151611236 -2.3803379723916933
20 9.819290902872712 0.6139980664573639 9.581819709803996 0.8546080137750827 9.414334372956295 0.8318025207429123 9.367154009767452 0.9277326242450994 9.487458983426311 1.046468220779457 9.44184799736197 1.3814388944748608 9.201238050044251 1.1439677014061458 9.224043543076423 0.9764823645584438 9.128113439574236 0.9293020013696013 9.009377843039879 1.0496069750284607 8.674407169344473 1.00399598896412 8.911878362413189 0.7633860416464011 9.07936369926089 0.7861915346785715 9.126544062449733 0.6902614311763844 9.006239088790874 0.5715258346420269 9.051850074855215 0.236555160946623 9.292460022172934 0.47402635401533794 9.269654529140762 0.6415116908630399 9.36558463264295 0.6886920540518825 9.484320229177307 0.5683870803930232
0.015572471916149074 -0.8738270478184403
4 -7.013964551588467 -0.4514194567775071 -7.293087344409276 0.11611068914243572 -7.8606174903292185 -0.16301210367837338 -7.581494697508409 -0.7305422495983163
-1.4674523557355912 -0.7614643235922854
4 -2.838594721779204 -5.625253255377478 -2.3910368558904436 -6.136694524765077 -2.6194525228901626 -4.981936139160463 -3.505294786557006 -5.7571291022068944
1.0277250410232486 -2.2894725880648092
12 0.9020144971112778 1.304311820254508 1.1108095210114333 1.4870265538872496 0.8481764080896945 1.5764909819521926 0.7943383190681113 1.8486701436498767 0.5855432951679558 1.6659554100171354 0.3229101822462171 1.7554198380820785 0.3767482712678003 1.4832406763843942 0.16795324736764494 1.3005259427516527 0.4305863602893836 1.2110615146867096 0.4844244493109669 0.9388823529890254 0.6932194732111223 1.1215970866217668 0.9558525861328611 1.0321326585568238
-1.3669905828148294 0.5700653127145926
5 -5.654777352796307 9.414473368276894 -5.797271346035141 9.875113217673977 -6.279398941976603 9.88193891862128 -6.434876189943868 9.425517584406675 -6.048838817723472 9.136607985724169
2.100622387526319 0.033344881923673644
5 7.73577535308029 0.5406264932140166 7.5932813598414555 1.0012663426110988 7.111153763899994 1.0080920435584029 6.955676515932729 0.5516707093437968 7.341713888153125 0.26276111066129093
2.446900385839441 1.8926834797694072
12 3.1229591519479456 -1.2424015593120679 3.331754175848101 -1.0596868256793264 3.0691210629263623 -0.9702223976143834 3.015282973904779 -0.6980432359166991 2.8064879500046236 -0.8807579695494405 2.543854837082885 -0.7912935414844975 2.597692926104468 -1.0634727031821818 2.3888979022043126 -1.2461874368149233 2.6515310151260514 -1.3356518648798663 2.7053691041476347 -1.6078310265775504 2.91416412804779 -1.4251162929448091 3.176797240969529 -1.5145807210097522
-0.49729688342938366 0.344666492023065
12 5.505446839016434 0.7387580659622835 5.714241862916589 0.9214727995950249 5.4516087499948505 1.010937227659968 5.397770660973268 1.283116389357652 5.188975637073112 1.1004016557249108 4.926342524151374 1.1898660837898538 4.980180613172957 0.9176869220921694 4.771385589272802 0.734972188459428 5.03401870219454 0.6455077603944851 5.087856791216123 0.3733285986968008 5.296651815116279 0.5560433323295422 5.559284928038017 0.4665789042645992
-0.05905191053817328 -0.004050363558216895
6 -5.310857669133801 8.84903133028653 -5.386996224800375 9.233950792154735 -5.758415535022562 9.360472599674129 -6.053696289578177 9.102074945325318 -5.9775577339116035 8.717155483457114 -5.6061384236894165 8.59063367593772
2.3478289360274767 -0.3356311395000928
20 -5.643713702561047 -2.074352406431292 -5.881184895629762 -1.8337424591135734 -6.0486702324774635 -1.8565479521457438 -6.095850595666306 -1.7606178486435566 -5.975545622007447 -1.6418822521091991 -6.021156608071787 -1.3069115784137952 -6.261766555389506 -1.5443827714825102 -6.238961062357336 -1.711868108330212 -6.334891165859522 -1.7590484715190549 -6.45362676239388 -1.6387434978601954 -6.788597436089284 -1.6843544839245361 -6.551126243020569 -1.924964431242255 -6.383640906172867 -1.9021589382100845 -6.336460542984025 -1.9980890417122716 -6.456765516642884 -2.116824638246629 -6.411154530578544 -2.451795311942033 -6.170544583260825 -2.2143241188733183 -6.193350076292995 -2.046838782025616 -6.097419972790808 -1.9996584188367734 -5.97868437625645 -2.1199633924956327
-1.0079600569360314 0.7246090026089571
6 1.509348270237123 4.944757870782147 1.43320971457055 5.329677332650352 1.0617904043483626 5.456199140169747 0.7665096497927482 5.1978014858209365 0.8426482054593212 4.8128820239527315 1.2140675156815084 4.686360216433337
-0.7300708707449988 0.8193771872717754
6 4.338597135130765 -3.2696567798434093 4.262458579464193 -2.8847373179752047 3.8910392692420053 -2.7582155104558104 3.595758514686391 -3.0166131648046206 3.671897070352964 -3.401532626672825 4.043316380575151 -3.52805443419222
0.8989758042509745 1.7982062437460529
4 10.0 4.59699482108432 9.720877207179191 5.164524967004263 9.153347061259247 4.8854021741834535 9.432469854080056 4.317872028263511
1.6371472406888001 -1.6500466606184965
4 -6.253653033330508 -0.3838751999979415 -5.806095167441748 -0.8953164693855408 -6.034510834441467 0.25944191621907364 -6.9203530981083095 -0.5157510468273574
-0.9477193266891109 0.5998271090022861
4 -4.961295061225803 2.9044803490499493 -4.513737195337042 2.39303907966235 -4.742152862336762 3.5477974652669646 -5.627995126003604 2.7726045022205335
-0.04911763682360046 -0.846566355789833
5 -1.4959494961714652 -3.973996878213425 -1.6384434894102995 -3.513357028816343 -2.120571085351761 -3.5065313278690393 -2.2760483333190265 -3.9629526620836453 -1.89001096109863 -4.251862260766151
-0.2673172325959304 -3.313231309982913
4 5.348660735818719 6.329756060405241 5.796218601707479 5.8183147910176425 5.5678029347077596 6.973073176622257 4.681960671040917 6.197880213575825
2.9016223630385674 1.4481685775117155
4 -7.624864775240261 6.910542680342012 -7.1773069093515005 6.399101410954413 -7.40572257635122 7.553859796559027 -8.291564840018063 6.778666833512595
-0.19072708005399233 -0.7617661988317804
3 -2.1702869775537943 1.4023036054601745 -2.8032293814404383 2.125590784985429 -3.1131432511975827 1.2158029943245778
0.6179714589601328 3.09252078742578
12 2.9914116710308374 3.4246581752393617 3.200206694930993 3.607372908872103 2.937573582009254 3.696837336937046 2.883735492987671 3.9690164986347303 2.6749404690875154 3.786301765001989 2.4123073561657766 3.875766193066932 2.46614544518736 3.6035870313692477 2.2573504212872044 3.4208722977365063 2.519983534208943 3.331407869671563 2.5738216232305264 3.059228707973879 2.782616647130682 3.2419434416066206 3.0452497600524207 3.1524790135416776
0.29016748076620225 1.0140874300583025
3 -6.477307878470979 -7.5129437208300445 -7.110250282357623 -6.78965654130479 -7.420164152114768 -7.699444331965641
-2.464734741916535 -0.26482526775371834
4 -3.2613273698615437 7.39099031344869 -2.8137695039727832 6.879549044061091 -3.0421851709725023 8.034307429665704 -3.9280274346393456 7.259114466619273
1.4823103344213393 -1.7063640097992172
4 -3.6580943537242145 7.675264044353521 -3.9372171465450236 8.242794190273464 -4.504747292464966 7.9636713974526545 -4.225624499644157 7.396141251532712
-2.219696138617197 0.5132046643441625
5 9.973900188653243 5.640599577816985 9.83140619541441 6.101239427214067 9.349278599472948 6.108065128161371 9.193801351505682 5.651643793946765 9.579838723726079 5.3627341952642595
0.03785340301146118 0.4937538848027616
4 -3.5590701387697354 -2.8768593571914742 -3.111512272880975 -3.3883006265790736 -3.339927939880694 -2.233542240974459 -4.225770203547537 -3.00873520402089
