marco:(-10.0,10.0),(-10.0,10.0)
timeIntervals:0.0-1.0
framesPerSecond:1000
-0.38815109815483345 1.3326925619044085
4 -6.9230614621468325 5.324136681868085 -8.04913933759613 4.468596724634295 -7.193599380362341 3.3425188491849966 -6.067521504913042 4.1980588064187865
0.7034671029821831 1.4851519181041049
5 9.202019994957498 9.345073512681536 8.265868099133192 8.810201871300976 8.485274413923621 7.754584083539391 9.557026869634774 7.63704805295432 10.0 8.620024578911583
-2.1509617713572764 -3.526387065694675
5 -2.3414081101771327 -3.6473258936019843 -3.2775600060014387 -4.182197534982545 -3.0581536912110088 -5.237815322744129 -1.9864012354998575 -5.355351353329199 -1.5434281051346301 -4.372374827371937
2.241204727205704 -1.308840222065385
4 0.2994484588919981 -1.9175289963383229 1.1982256323307392 -0.6921308286948542 -1.2111660707575187 -1.751864215620535 0.9112858151027738 -3.3085919446995797
1.3755168931366848 -4.373813883667435
20 7.2510329045697475 9.59413985371949 6.841279344701694 8.958899275982182 6.972449507836201 8.604425678713767 6.785999382102054 8.454828861379381 6.4683790932334 8.659705641313407 5.7594318986965725 8.397365315044393 6.394672476433881 7.9876117551763395 6.749146073702295 8.118781918310846 6.898742891036682 7.9323317925767 6.693866111102655 7.614711503708046 6.956206437371669 6.905764309171218 7.365959997239723 7.541004886908526 7.234789834105216 7.89547848417694 7.421239959839363 8.045075301511327 7.738860248708017 7.8401985215773005 8.447807443244844 8.102538847846315 7.812566865507536 8.51229240771437 7.458093268239122 8.381122244579862 7.308496450904735 8.567572370314007 7.513373230838762 8.885192659182662
3.287639849768631 1.919168765790067
12 6.864863084789501 -1.2967874685777243 6.364596377711505 -0.9298632240134154 6.296964014193398 -1.5465690232927032 5.729064943597294 -1.7963505780076818 6.22933165067529 -2.163274822571991 6.161699287157182 -2.7799806218512786 6.729598357753286 -2.5301990671362997 7.229865064831282 -2.8971233117006086 7.29749742834939 -2.280417512421321 7.865396498945493 -2.030635957706342 7.365129791867497 -1.6637117131420331 7.432762155385605 -1.0470059138627454
4.587969249302201 -5.2599559085954235
20 -5.47196585866628 7.790233100843718 -5.881719418534334 7.15499252310641 -5.750549255399827 6.800518925837996 -5.936999381133973 6.650922108503608 -6.2546196700026275 6.8557988884376355 -6.963566864539455 6.593458562168621 -6.328326286802147 6.1837050023005675 -5.973852689533733 6.314875165435074 -5.824255872199346 6.128425039700928 -6.029132652133373 5.810804750832274 -5.766792325864358 5.101857556295446 -5.357038765996305 5.737098134032754 -5.488208929130812 6.091571731301168 -5.301758803396665 6.241168548635556 -4.984138514528011 6.0362917687015285 -4.275191319991183 6.298632094970543 -4.9104318977284915 6.7083856548385965 -5.264905494996905 6.57721549170409 -5.414502312331293 6.763665617438236 -5.209625532397266 7.08128590630689
1.4470221863327988 -0.7054812332196129
5 7.0780419125467535 10.0 6.1418900167224475 9.46512835861944 6.361296331512878 8.409510570857856 7.4330487872240285 8.291974540272784 7.876021917589256 9.274951066230047
0.2879900814968528 0.5542542505510699
6 4.270313850638355 3.297453322062725 3.467183282942269 2.9442088597541645 3.3715366771996136 2.0720551544192563 4.079020639153044 1.5531459113929078 4.88215120684913 1.9063903737014678 4.977797812591786 2.778544079036376
-0.46117262052787755 6.827012653477681
3 7.605918040411197 -0.9336610437928776 6.334855172182774 -2.6666357517814103 8.471186727530974 -2.9009211314800716
