marco:(-10.0,10.0),(-10.0,10.0)
timeIntervals:0.0-1.0
framesPerSecond:1000
1.3466724240775245 -3.815114249524874
5 0.3723263376842205 4.185690955905617 0.8747141062051651 1.8277370220715754 3.272507918340901 1.5768883455224212 4.252038223734022 3.7798092712161577 2.459627433341799 5.392137954372423
-9.518684468875005 10.128037273616947
12 4.486325004445832 -2.9191652400824837 3.8458501808923833 -4.149731328390191 5.2317890861792264 -4.08911575191798 5.977253167912622 -5.259066263753475 6.61772799146607 -4.028500175445768 8.003666896752915 -3.9678845989735576 7.258202815019518 -2.7979340871380614 7.898677638572967 -1.5673679988303544 6.512738733286124 -1.6279835753025653 5.767274651552729 -0.45803306346706973 5.126799827999281 -1.6885991517747765 3.7408609227124368 -1.7492147282469876
