areaTotal:400.0
tiempoTotalSimulado:1.0
areaOcupadaInicial:3.999999999999985
eventosSimples:52
eventosMultiples:0
0.0
[(0,16), (1,2), (1,10), (2,10), (3,15), (4,14), (7,18), (11,19), (13,17)]
[(0,1), (0,4), (0,10), (1,2), (1,6), (2,6), (2,17), (4,7), (4,10), (5,14), (6,17), (11,14), (15,16)]
0.019122513792897686, [(4,7),Y]-
0.05384002970554812, [(1,10),Y]+
0.06450762383465865, [(2,17),Y]-
0.06953526647796014, [(4,7),X]+
0.08065549620548117, [(5,11),Y]+
0.10658618885180085, [(4,18),X]+
0.14387515843875198, [(16,17),X]+
0.16615579211516268, [(7,18),Y]+
0.1842334204758899, [(2,17),Y]+
0.2162923230492431, [(4,14),X]-
0.21742884877596858, [(0,9),X]+
0.23071806500580416, [(1,4),Y]+
0.2443658355221778, [(13,19),Y]+
0.24729740405063555, [(5,13),X]+
0.2727109892922198, [(3,15),X]-
0.27698744867037955, [(0,2),Y]+
0.28369000696522684, [(0,2),Y]-
0.300435277194518, [(10,14),X]+
0.30322699233478023, [(1,10),X]-
0.3193285717655128, [(0,16),X]-
0.3546563677859756, [(11,14),Y]-
0.4170273121656837, [(4,8),X]+
0.4480808741242356, [(1,4),Y]-
0.4480808741242356, [(1,10),Y]-
0.46516589729165864, [(4,7),X]-
0.46948619112311507, [(0,1),Y]-
0.5045264997982448, [(5,11),Y]-
0.5314951481747194, [(2,14),X]+
0.5434462736075026, [(1,17),Y]+
0.5438540601816929, [(4,18),X]-
0.5438540601816929, [(18,18),X]+
0.5958685276853734, [(11,19),X]-
0.6243190276854031, [(1,14),X]+
0.6256382427929853, [(9,14),Y]+
0.6258238437361686, [(2,10),X]-
0.626707698213387, [(13,17),X]-
0.6341610565708923, [(0,4),Y]-
0.6349675784625929, [(6,11),X]+
0.6518947936908206, [(4,7),X]+
0.6572570791563633, [(5,9),Y]+
0.6972391895392276, [(15,16),Y]-
0.7040205850359208, [(7,8),X]+
0.7159408545132503, [(13,19),Y]-
0.7188680875262332, [(7,10),X]+
0.7334584924694448, [(13,17),X]+
0.7465946432529516, [(9,14),Y]-
0.7465946432529516, [(14,14),Y]+
0.7573322921549153, [(10,14),X]-
0.8235761124707165, [(10,14),X]+
0.8551791844074084, [(2,14),X]-
0.8998828540622387, [(9,14),Y]+
0.9514290342644872, [(11,13),Y]+
