marco:(-10.0,10.0),(-10.0,10.0)
timeIntervals:0.0-1.0
framesPerSecond:1000
1.36236092651413 0.5527457335866548
4 0.11651787936505614 -6.785877713116402 0.39144025271110083 -6.629616109919141 0.23517864951384057 -6.354693736573096 -0.03974372383220412 -6.510955339770357
0.010611752264057063 -0.09390783777867502
5 4.932442225928747 6.455877873853298 5.1588505360418715 6.538719163993833 5.150027802728086 6.779645629159664 4.918166743553368 6.845705083280982 4.783691461629625 6.645605606040388
1.6145394645498632 0.06743602681886636
3 0.333306355684454 7.590383576045298 0.6784269028557612 7.924796368258795 0.216256655862732 8.056473133370384
1.4209263903369982 0.4616071938921096
12 8.950648650178282 -8.407070578693137 9.04718530798074 -8.50669829909925 9.085197115872338 -8.37328124084282 9.219745581566395 -8.339491902992501 9.123208923763936 -8.239864182586388 9.161220731655535 -8.106447124329957 9.026672265961478 -8.140236462180276 8.93013560815902 -8.040608741774163 8.892123800267422 -8.174025800030593 8.757575334573366 -8.207815137880912 8.854111992375824 -8.307442858287025 8.816100184484226 -8.440859916543456
-0.13810743143906273 -0.2033498783867641
12 4.357297573353693 -8.665659853690212 4.453834231156152 -8.765287574096325 4.491846039047749 -8.631870515839895 4.626394504741805 -8.598081177989576 4.529857846939347 -8.498453457583462 4.567869654830944 -8.365036399327032 4.433321189136888 -8.39882573717735 4.3367845313344295 -8.299198016771237 4.298772723442832 -8.432615075027668 4.164224257748776 -8.466404412877987 4.260760915551234 -8.5660321332841 4.222749107659637 -8.69944919154053
0.7688794422564008 1.3507837451478428
20 -7.422683232601664 1.4499216259653185 -7.308557666817329 1.5746083686681172 -7.324194694163148 1.657664617792691 -7.277488350157567 1.683658084025097 -7.215144978806168 1.6265953011329293 -7.04903248055702 1.657869355824567 -7.173719223259819 1.7719949216089024 -7.256775472384393 1.7563578942630835 -7.282768938616799 1.803064238268664 -7.225706155724631 1.8654076096200634 -7.256980210416269 2.031520107869211 -7.371105776200604 1.9068333651664122 -7.355468748854785 1.8237771160418383 -7.402175092860366 1.7977836498094324 -7.464518464211765 1.8548464327016 -7.630630962460913 1.8235723780099624 -7.505944219758114 1.709446812225627 -7.42288797063354 1.7250838395714458 -7.396894504401134 1.6783774955658655 -7.453957287293302 1.616034124214466
-0.9687802465118114 -0.3508632891646961
5 9.445703044786569 3.013631466459385 9.672111354899695 3.09647275659992 9.66328862158591 3.3373992217657515 9.43142756241119 3.4034586758870686 9.296952280487448 3.203359198646475
0.4376815243509491 0.7205697880847642
4 -4.459722752400375 -7.353498209478338 -4.183404294886465 -7.199718789408118 -4.3371837149566845 -6.923400331894208 -4.613502172470595 -7.077179751964428
0.8198945902928869 -1.2906684345480504
3 2.4581086742323803 3.952621895323181 2.803229221403688 4.2870346875366785 2.3410589744106587 4.418711452648267
-0.46074000175597185 0.4539152895070301
20 -8.949175971596677 -9.792213946288488 -8.835050405812343 -9.667527203585689 -8.850687433158162 -9.584470954461116 -8.80398108915258 -9.558477488228709 -8.741637717801181 -9.615540271120876 -8.575525219552034 -9.584266216429238 -8.700211962254834 -9.470140650644904 -8.783268211379406 -9.485777677990724 -8.809261677611813 -9.439071333985142 -8.752198894719646 -9.376727962633742 -8.783472949411284 -9.210615464384595 -8.897598515195618 -9.335302207087395 -8.881961487849798 -9.418358456211967 -8.92866783185538 -9.444351922444374 -8.99101120320678 -9.387289139552207 -9.157123701455927 -9.418563194243845 -9.032436958753127 -9.53268876002818 -8.949380709628555 -9.51705173268236 -8.923387243396148 -9.563758076687941 -8.980450026288315 -9.626101448039341
0.5857517743025652 -0.3602975125295878
6 -7.239239538540143 6.059457735171313 -7.0489592735591176 6.10724307502284 -6.9952024593085 6.2959232882610054 -7.131725910038907 6.436818161647644 -7.322006175019932 6.389032821796118 -7.37576298927055 6.200352608557953
-0.39286646815539994 0.10234170381449766
20 -0.4270336089948019 -3.7727276945182204 -0.3129080432104665 -3.6480409518154215 -0.32854507055628535 -3.564984702690848 -0.28183872655070485 -3.538991236458442 -0.21949535519930558 -3.5960540193506096 -0.0533828569501581 -3.564779964658972 -0.1780695996529567 -3.4506543988746365 -0.2611258487775304 -3.4662914262204554 -0.2871193150099365 -3.419585082214875 -0.2300565321177688 -3.357241710863476 -0.26133058680940646 -3.191129212614328 -0.3754561525937419 -3.315815955317127 -0.35981912524792303 -3.3988722044417004 -0.4065254692535035 -3.4248656706741065 -0.4688688406049028 -3.367802887781939 -0.6349813388540503 -3.3990769424735765 -0.5102945961512517 -3.513202508257912 -0.42723834702667796 -3.497565480912093 -0.4012448807942719 -3.5442718249176735 -0.4583076636864396 -3.6066151962690727
-0.32669682152855467 0.21321193053069262
6 -8.361311648701244 -9.334722665381605 -8.17103138372022 -9.286937325530078 -8.117274569469602 -9.098257112291913 -8.25379802020001 -8.957362238905272 -8.444078285181035 -9.0051475787568 -8.497835099431652 -9.193827791994964
-0.14659717229513944 -0.6537533990173988
6 5.156881477070619 1.4841215607214275 5.347161742051644 1.5319069005729538 5.400918556302262 1.7205871138111193 5.264395105571855 1.8614819871977586 5.07411484059083 1.8136966473462324 5.020358026340212 1.6250164341080668
0.37005553268029295 0.17246729227115862
4 -7.64246960928847 1.9903115851524604 -7.3661511517745595 2.1440910052226805 -7.519930571844779 2.420409462736591 -7.796249029358689 2.266630042666371
-1.5445127645721304 0.5083359372144828
3 -4.405737611688468 -3.6113192777806913 -4.06061706451716 -3.276906485567194 -4.52278731151019 -3.1452297204556046
0.37333802596118876 0.5260587480064061
20 -6.127051112095522 9.418401518096108 -6.012925546311187 9.543088260798907 -6.028562573657005 9.62614450992348 -5.981856229651425 9.652137976155887 -5.919512858300026 9.59507519326372 -5.753400360050878 9.626349247955357 -5.8780871027536765 9.740474813739691 -5.961143351878251 9.724837786393872 -5.987136818110657 9.771544130399453 -5.930074035218489 9.833887501750853 -5.9613480899101265 10.0 -6.075473655694462 9.8753132572972 -6.059836628348643 9.792257008172628 -6.106542972354224 9.766263541940221 -6.168886343705623 9.823326324832388 -6.3349988419547705 9.79205227014075 -6.210312099251972 9.677926704356416 -6.127255850127398 9.693563731702236 -6.1012623838949915 9.646857387696654 -6.15832516678716 9.584514016345254
1.5166047754876002 0.9201144206585209
20 9.186446095460875 -6.982762657079126 9.30057166124521 -6.858075914376328 9.28493463389939 -6.775019665251754 9.331640977904971 -6.749026199019347 9.393984349256371 -6.806088981911516 9.560096847505518 -6.774814927219878 9.435410104802719 -6.6606893614355425 9.352353855678146 -6.676326388781361 9.326360389445739 -6.6296200447757805 9.383423172337906 -6.567276673424382 9.352149117646269 -6.401164175175234 9.238023551861934 -6.525850917878032 9.253660579207754 -6.608907167002607 9.206954235202172 -6.634900633235013 9.144610863850772 -6.577837850342845 8.978498365601626 -6.609111905034482 9.103185108304425 -6.723237470818818 9.186241357428997 -6.707600443472999 9.212234823661404 -6.75430678747858 9.155172040769237 -6.816650158829979
-0.2491479659314283 0.10632233966799343
20 -3.1490937777142127 2.02991625747028 -3.0349682119298773 2.1546030001730787 -3.050605239275696 2.237659249297652 -3.0038988952701158 2.2636527155300583 -2.9415555239187166 2.2065899326378906 -2.775443025669569 2.2378639873295283 -2.9001297683723677 2.3519895531138637 -2.983186017496941 2.336352525768045 -3.0091794837293473 2.3830588697736252 -2.9521167008371796 2.4454022411250245 -2.9833907555288173 2.6115147393741722 -3.0975163213131527 2.4868279966713733 -3.081879293967334 2.4037717475468 -3.1285856379729142 2.3777782813143937 -3.1909290093243134 2.4348410642065614 -3.357041507573461 2.4035670095149237 -3.2323547648706623 2.2894414437305883 -3.149298515746089 2.305078471076407 -3.1233050495136827 2.258372127070827 -3.1803678324058504 2.1960287557194276
0.1479205209209796 0.04458044553074633
12 -1.407961948603949 -6.470658657336987 -1.3114252908014903 -6.570286377743099 -1.2734134829098929 -6.436869319486669 -1.1388650172158368 -6.403079981636351 -1.2354016750182952 -6.303452261230238 -1.1973898671266978 -6.170035202973808 -1.3319383328207537 -6.203824540824126 -1.4284749906232124 -6.1041968204180135 -1.4664867985148098 -6.237613878674444 -1.6010352642088659 -6.271403216524762 -1.5044986064064074 -6.371030936930874 -1.5425104142980048 -6.504447995187305
-0.4311707394342562 -0.006293064619314386
3 -6.612986835342107 8.836350078094231 -6.267866288170799 9.170762870307728 -6.730036535163829 9.302439635419317
1.026011003301262 -0.5276966760812247
4 -6.649429037632591 -2.909684160058363 -6.373110580118681 -2.755904739988143 -6.5268900001889 -2.4795862824742323 -6.8032084577028105 -2.6333657025444523
-0.2859701635150645 0.06444817919713625
5 -7.199569400164492 0.21767891142375903 -6.973161090051368 0.3005202015642937 -6.9819838233651526 0.5414466667301254 -7.213844882539871 0.6075061208514423 -7.348320164463614 0.40740664361084883
-0.39865417678300435 0.1337393329941442
6 0.7445214724405879 7.063244323974767 0.9348017374216131 7.111029663826294 0.988558551672231 7.299709877064459 0.8520351009418237 7.440604750451098 0.6617548359607984 7.3928194105995715 0.6079980217101805 7.204139197361407
0.4916587524863396 -0.14960864549739583
5 7.344020317632457 -2.497646761911918 7.5704286277455815 -2.414805471771383 7.561605894431796 -2.1738790066055516 7.3297448352570775 -2.1078195524842345 7.195269553333335 -2.307919029724828
-0.6366976753415508 -1.1280217911299668
4 -6.610030865266861 -4.757805650479849 -6.854067944498504 -4.994271203569541 -6.283227149555429 -4.850915184014962 -6.69279750174665 -4.4282305638550445
0.58536874366662 1.4734657704063021
20 -4.671739787205019 7.546094321877158 -4.557614221420684 7.670781064579956 -4.5732512487665025 7.753837313704531 -4.526544904760922 7.779830779936937 -4.464201533409523 7.722767997044769 -4.298089035160375 7.754042051736406 -4.4227757778631736 7.868167617520742 -4.505832026987748 7.852530590174923 -4.531825493220154 7.899236934180504 -4.474762710327986 7.9615803055319025 -4.506036765019624 8.12769280378105 -4.620162330803959 8.003006061078251 -4.60452530345814 7.9199498119536775 -4.651231647463721 7.893956345721271 -4.71357501881512 7.9510191286134395 -4.8796875170642675 7.919745073921802 -4.755000774361469 7.805619508137466 -4.671944525236895 7.821256535483285 -4.645951059004489 7.774550191477704 -4.703013841896657 7.712206820126306
0.41337137715745365 -0.21396762459793212
20 4.5592333364418804 -10.0 4.673358902226216 -9.8753132572972 4.657721874880397 -9.792257008172628 4.704428218885978 -9.766263541940221 4.766771590237377 -9.823326324832388 4.932884088486524 -9.79205227014075 4.808197345783726 -9.677926704356416 4.725141096659152 -9.693563731702236 4.699147630426745 -9.646857387696654 4.756210413318914 -9.584514016345254 4.724936358627276 -9.418401518096108 4.6108107928429405 -9.543088260798907 4.626447820188759 -9.62614450992348 4.5797414761831785 -9.652137976155887 4.51739810483178 -9.59507519326372 4.351285606582632 -9.626349247955357 4.47597234928543 -9.740474813739691 4.559028598410005 -9.724837786393872 4.585022064642411 -9.771544130399453 4.527959281750243 -9.833887501750853
-0.7453099513464179 0.2166358427674735
3 6.12823428854026 1.5986469643374153 6.473354835711568 1.9330597565509127 6.011184588718538 2.064736521662502
0.06015023108899475 -0.02809201221496063
4 4.628103078427879 9.327216410790903 4.904421535941789 9.480995830861124 4.750642115871569 9.757314288375035 4.474323658357659 9.603534868304815
0.9952377446948923 -0.4943580665339721
12 9.730903068611887 4.3248096342538425 9.827439726414346 4.22518191384773 9.865451534305944 4.3585989721041605 10.0 4.3923883099544785 9.903463342197542 4.492016030360591 9.94147515008914 4.625433088617021 9.806926684395084 4.591643750766703 9.710390026592625 4.691271471172816 9.672378218701027 4.557854412916385 9.537829753006971 4.524065075066067 9.63436641080943 4.424437354659955 9.596354602917831 4.2910202964035244
-0.2386296693454847 -0.18597011504564642
6 6.837214777987037 -2.408199109151405 7.027495042968062 -2.360413769299879 7.08125185721868 -2.1717335560617133 6.944728406488273 -2.030838682675074 6.754448141507248 -2.0786240225266 6.70069132725663 -2.2673042357647657
1.3691929582373783 1.2057135896892974
4 -2.3219204290667577 -6.327603257739991 -2.5659575082984007 -6.564068810829683 -1.995116713355325 -6.420712791275104 -2.4046870655465473 -5.998028171115187
0.3040098047437426 0.27695648124927386
6 -9.843663790012059 9.39497967829731 -9.653383525031034 9.442765018148837 -9.599626710780417 9.631445231387001 -9.736150161510825 9.772340104773642 -9.92643042649185 9.724554764922114 -9.980187240742467 9.53587455168395
0.7526319894670164 0.3620879925527761
12 -6.417639472694183 7.558729231927217 -6.3211028148917245 7.459101511521104 -6.283091007000127 7.592518569777535 -6.148542541306071 7.626307907627853 -6.245079199108529 7.725935628033965 -6.207067391216932 7.8593526862903955 -6.341615856910988 7.8255633484400775 -6.438152514713447 7.92519106884619 -6.476164322605044 7.7917740105897595 -6.6107127882991 7.7579846727394415 -6.514176130496642 7.658356952333329 -6.552187938388239 7.524939894076899
1.5907264696936843 0.18063454511994925
4 -7.780116306038323 2.3351960894403394 -8.024153385269967 2.0987305363506477 -7.453312590326891 2.2420865559052268 -7.862882942518112 2.6647711760651442
0.0075512917043591655 -0.8890883249253558
5 6.362315495045409 7.860672543224295 6.5887238051585335 7.94351383336483 6.579901071844748 8.184440298530662 6.34804001267003 8.250499752651978 6.213564730746287 8.050400275411384
0.6340561234125559 -0.22438496851116324
6 3.0794225094912795 0.946046189564437 3.2697027744723046 0.9938315294159633 3.3234595887229226 1.1825117426541287 3.1869361379925154 1.323406616040768 2.9966558730114903 1.2756212761892418 2.9428990587608723 1.0869410629510763
4.5760334762640835E-4 0.02397552090207931
20 6.152104344474343 5.628381720379233 6.266229910258678 5.753068463082031 6.250592882912859 5.836124712206606 6.29729922691844 5.862118178439012 6.359642598269839 5.805055395546844 6.525755096518987 5.836329450238481 6.401068353816188 5.950455016022817 6.318012104691614 5.934817988676998 6.292018638459208 5.981524332682579 6.349081421351376 6.043867704033977 6.317807366659738 6.209980202283125 6.203681800875403 6.085293459580327 6.219318828221222 6.002237210455752 6.172612484215641 5.976243744223346 6.110269112864242 6.033306527115514 5.944156614615094 6.002032472423877 6.068843357317893 5.887906906639541 6.151899606442467 5.90354393398536 6.177893072674873 5.856837589979779 6.120830289782705 5.7944942186283805
1.9078531229738422 0.03152925156335965
4 -6.22234493151113 -0.5373961772133473 -6.466382010742773 -0.7738617303030393 -5.895541215799698 -0.6305057107484602 -6.305111567990919 -0.2078210905885426
-0.07046893282573877 0.2649656526333413
20 2.079308272596424 -4.846162554435724 2.1934338383807592 -4.721475811732925 2.1777968110349404 -4.638419562608351 2.2245031550405208 -4.612426096375945 2.28684652639192 -4.669488879268113 2.4529590246410677 -4.638214824576475 2.328272281938269 -4.52408925879214 2.2452160328136954 -4.539726286137959 2.2192225665812892 -4.493019942132378 2.276285349473457 -4.430676570780979 2.2450112947818193 -4.264564072531831 2.130885728997484 -4.38925081523463 2.1465227563433027 -4.472307064359204 2.0998164123377223 -4.49830053059161 2.037473040986323 -4.441237747699442 1.8713605427371753 -4.47251180239108 1.996047285439974 -4.586637368175415 2.0791035345645477 -4.571000340829596 2.105097000796954 -4.617706684835177 2.048034217904786 -4.680050056186576
0.5592809083724114 -1.1462387081868872
5 3.6526749161852523 -1.6596839110266792 3.8790832262983765 -1.5768426208861444 3.8702604929845923 -1.3359161557203127 3.6383994338098735 -1.2698567015989959 3.503924151886131 -1.4699561788395894
-0.6302317191553835 -0.7411216896823811
6 -3.381534287645397 -1.9343258625577842 -3.192703933135412 -1.8810988472215058 -3.1443847033292602 -1.6909534555420982 -3.2848958280330938 -1.5540350791989685 -3.473726182543079 -1.607262094535247 -3.5220454123492306 -1.7974074862146545
0.3740315483873401 -0.6720021372437123
5 1.8907189109483993 -8.760960879230412 2.114656262204778 -8.671655420535515 2.0989221709858015 -8.431081438954086 1.8652606165740033 -8.371704000222769 1.736583925302356 -8.57558070650333
-0.3014816770826809 -0.12067999617702238
4 5.647372765661858 -5.898632285462462 5.410223181345722 -6.142004692478148 5.9767142448756765 -5.982323646469313 5.555180870764176 -5.571568517439925
0.06415576346049609 0.03639168749720656
12 0.5107089188337343 1.41995526160723 0.6100652879439634 1.3231393492259513 0.6442321430016045 1.4575924450938327 0.7777553671694747 1.4952296285804354 0.6783989980592454 1.592045540961714 0.7125658531168865 1.7264986368295954 0.5790426289490161 1.6888614533429926 0.47968625983878693 1.7856773657242713 0.44551940478114593 1.65122426985639 0.3119961806132757 1.6135870863697872 0.411352549723505 1.5167711739885086 0.37718569466586394 1.3823180781206272
0.18467823405090247 -0.5366556495879812
20 -8.691793291872521 4.11056420623289 -8.581293461442984 4.238475175451609 -8.599307900001609 4.32104839838904 -8.553366853950877 4.348371706111702 -8.489411369341518 4.293121790896933 -8.324264923466655 4.329150668014185 -8.452175892685375 4.439650498443722 -8.534749115622805 4.421636059885096 -8.562072423345466 4.467577105935829 -8.506822508130698 4.531532590545189 -8.54285138524795 4.696679036420051 -8.653351215677487 4.568768067201332 -8.635336777118862 4.486194844263901 -8.681277823169594 4.458871536541239 -8.745233307778953 4.514121451756008 -8.910379753653816 4.478092574638756 -8.782468784435096 4.367592744209219 -8.699895561497666 4.385607182767845 -8.672572253775005 4.339666136717112 -8.727822168989773 4.275710652107752
0.23139432972925814 0.019128629906598867
4 2.699785094172547 8.299167773109074 2.9715759879277384 8.460814641534524 2.8099291195022897 8.732605535289716 2.5381382257470984 8.570958666864266
0.03537364699502169 -0.2752843404700667
6 -0.32788887802989874 7.658105657483731 -0.13905852351991366 7.711332672820009 -0.09073929371376199 7.901478064499417 -0.2312504184175954 8.038396440842547 -0.4200807729275805 7.985169425506268 -0.4684000027337322 7.795024033826861
0.4562456640313838 1.211165224397038
3 -4.033607383693282 7.036411662732036 -3.6982272252422597 7.380592221441003 -4.163986411798459 7.498949679230356
0.6400970616786248 -0.9414186584439984
5 -1.656177949101268 0.3248194577002589 -1.432240597844889 0.4141249163951564 -1.447974689063866 0.6546988979765855 -1.681636243475664 0.7140763367079024 -1.8103129347473113 0.5101996304273415
0.1556696065972249 0.02097944550567592
4 -0.7428003152635922 -10.0 -0.4710094215084011 -9.83835313157455 -0.6326562899338499 -9.566562237819358 -0.9044471836890411 -9.728209106244808
-0.22307426105883132 0.906189071087334
3 -2.976979184637959 -5.984479750022245 -2.6415990261869364 -5.640299191313277 -3.1073582127431356 -5.521941733523924
0.6816574834972008 0.7342673575634437
5 2.1269655651252766 6.918743900907137 2.3509029163816555 7.008049359602035 2.335168825162679 7.248623341183464 2.101507270750881 7.3080007799147815 1.9728305794792336 7.10412407363422
0.14230393135493427 -0.5309876286721957
3 -4.223245960357791 -2.351775247286252 -3.8878658019067682 -2.0075946885772837 -4.353624988462967 -1.889237230787932
-0.001717561490680413 0.1417908657871138
5 -1.078677155641614 -2.968738992161737 -0.854739804385235 -2.8794335334668393 -0.870473895604212 -2.6388595518854103 -1.1041354500160099 -2.5794821131540933 -1.2328121412876571 -2.783358819434654
-0.08540781874580045 -0.01736655266661736
6 -1.2067900395038254 -4.196279073032692 -1.0179596849938402 -4.143052057696415 -0.9696404551876886 -3.952906666017007 -1.110151579891522 -3.8159882896738773 -1.298981934401507 -3.8692153050101554 -1.3473011642076589 -4.059360696689563
-0.7008104406122244 -0.7231998592458398
4 0.29105447034850385 8.339685539692821 0.562845364103695 8.501332408118271 0.4011984956782462 8.773123301873463 0.12940760192305498 8.611476433448013
-0.311284720116248 0.5822899295889787
20 -6.583985728082867 7.752921150063427 -6.47348589765333 7.880832119282146 -6.491500336211955 7.963405342219577 -6.445559290161222 7.9907286499422385 -6.381603805551863 7.93547873472747 -6.216457359677001 7.9715076118447215 -6.34436832889572 8.082007442274259 -6.426941551833151 8.063993003715634 -6.4542648595558125 8.109934049766366 -6.399014944341044 8.173889534375725 -6.4350438214582955 8.339035980250587 -6.545543651887833 8.211125011031868 -6.527529213329207 8.128551788094438 -6.57347025937994 8.101228480371777 -6.6374257439893 8.156478395586545 -6.802572189864161 8.120449518469293 -6.674661220645443 8.009949688039756 -6.592087997708012 8.02796412659838 -6.56476468998535 7.982023080547648 -6.620014605200119 7.918067595938289
0.9367595466256445 0.28638096281596703
12 -1.848416637444323 4.459624713307852 -1.7490602683340937 4.362808800926573 -1.7148934132764526 4.497261896794455 -1.5813701891085823 4.534899080281058 -1.6807265582188116 4.631714992662336 -1.6465597031611707 4.766168088530217 -1.7800829273290408 4.728530905043614 -1.87943929643927 4.825346817424893 -1.9136061514969112 4.6908937215570115 -2.0471293756647815 4.6532565380704085 -1.9477730065545522 4.55644062568913 -1.981939861612193 4.421987529821249
0.37266698475277277 -1.094620189894312
6 -7.011101133861693 -6.834417956338158 -6.822270779351708 -6.7811909410018805 -6.773951549545556 -6.591045549322472 -6.914462674249389 -6.4541271729793435 -7.103293028759374 -6.507354188315621 -7.151612258565526 -6.6974995799950285
-0.4097307981525097 0.010438680272033353
12 -2.514475092343577 4.766077724408948 -2.4151187232333475 4.66926181202767 -2.3809518681757065 4.803714907895551 -2.247428644007836 4.841352091382154 -2.3467850131180654 4.938168003763432 -2.3126181580604244 5.072621099631314 -2.4461413822282947 5.034983916144711 -2.545497751338524 5.131799828525989 -2.579664606396165 4.997346732658108 -2.7131878305640353 4.959709549171505 -2.613831461453806 4.8628936367902265 -2.647998316511447 4.728440540922345
0.6170999178843816 0.20753643229357624
12 -4.350841622058495 -8.698514050983116 -4.2514852529482665 -8.795329963364395 -4.217318397890626 -8.660876867496514 -4.083795173722756 -8.62323968400991 -4.183151542832984 -8.526423771628632 -4.148984687775344 -8.391970675760751 -4.282507911943214 -8.429607859247353 -4.381864281053443 -8.332791946866074 -4.4160311361110836 -8.467245042733955 -4.549554360278954 -8.504882226220559 -4.450197991168725 -8.601698138601837 -4.484364846226366 -8.736151234469718
-0.3294296320508384 0.4186324202054219
5 6.5623436872485446 8.322697389767967 6.7862810385049235 8.412002848462864 6.770546947285947 8.652576830044293 6.536885392874149 8.71195426877561 6.4082087016025016 8.50807756249505
1.015198935412149 -0.4305216591630013
20 8.133038106127113 0.10958669824426637 8.24353793655665 0.23749766746298484 8.225523497998026 0.32007089040041553 8.271464544048758 0.34739419812307726 8.335420028658117 0.29214428290830835 8.50056647453298 0.3281731600255604 8.37265550531426 0.4386729904550983 8.29008228237683 0.4206585518964723 8.262758974654169 0.46659959794720546 8.318008889868937 0.5305550825565647 8.281980012751685 0.6957015284314261 8.171480182322147 0.5677905592127076 8.189494620880772 0.4852173362752769 8.14355357483004 0.4578940285526152 8.079598090220681 0.5131439437673841 7.914451644345819 0.47711506665013204 8.042362613564539 0.36661523622059417 8.124935836501969 0.38462967477922017 8.15225914422463 0.338688628728487 8.097009229009862 0.27473314411912775
-1.2863921282105664 -0.19395292677146825
20 5.798054131839663 -6.632457252118002 5.908553962269201 -6.504546282899283 5.890539523710575 -6.421973059961852 5.936480569761308 -6.39464975223919 6.000436054370668 -6.449899667453959 6.165582500245529 -6.413870790336707 6.0376715310268105 -6.30337095990717 5.955098308089379 -6.321385398465796 5.927775000366718 -6.275444352415063 5.9830249155814865 -6.211488867805703 5.946996038464235 -6.0463424219308415 5.836496208034697 -6.17425339114956 5.854510646593323 -6.256826614086991 5.80856960054259 -6.284149921809653 5.7446141159332305 -6.228900006594884 5.579467670058369 -6.264928883712136 5.7073786392770876 -6.375428714141673 5.789951862214519 -6.357414275583047 5.81727516993718 -6.40335532163378 5.762025254722412 -6.46731080624314
-0.0898199607102052 -1.2809150051666682
6 -0.07654865646266762 -0.49544524667055556 0.11228169804731747 -0.4422182313342773 0.16060092785346913 -0.25207283965486965 0.020089803149635738 -0.11515446331174017 -0.16874055136034935 -0.16838147864801836 -0.2170597811665011 -0.358526870327426
0.02350680863940377 0.060316092152871835
3 -9.869620971894824 -6.78836913740345 -9.534240813443802 -6.444188578694482 -10.0 -6.3258311209051294
-0.6967173341485874 0.26574440746841616
6 -1.3859559774044583 -6.23947245480571 -1.197125622894473 -6.186245439469432 -1.1488063930883214 -5.996100047790024 -1.289317517792155 -5.859181671446895 -1.47814787230214 -5.912408686783173 -1.5264671021082918 -6.10255407846258
-0.1031337344395717 0.18045052916558676
4 3.9414507686421305 -1.6775495313680517 4.213241662397322 -1.515902662942603 4.051594793971873 -1.2441117691874117 3.779803900216682 -1.4057586376128606
-0.4632427773928547 0.8714705332393294
4 -8.409489561128062 -6.513386377641713 -8.13769866737287 -6.351739509216264 -8.29934553579832 -6.079948615461073 -8.571136429553512 -6.241595483886522
0.015503078198196634 -0.02430735527957305
4 -4.42327508669261 -2.860690544592514 -4.151484192937419 -2.6990436761670655 -4.313131061362868 -2.427252782411874 -4.584921955118059 -2.5888996508373228
0.7150153898403381 0.3378839864513542
4 -1.6209502171211625 6.846940575448272 -1.8580998014372994 6.603568168432586 -1.291608737907344 6.763249214441421 -1.7131421120188444 7.174004343470809
-0.6469536965074904 -1.3620404598058116
12 -9.222802726460827 6.772894279227062 -9.123446357350597 6.6760783668457835 -9.089279502292957 6.810531462713665 -8.955756278125087 6.848168646200268 -9.055112647235315 6.944984558581546 -9.020945792177674 7.0794376544494275 -9.154469016345544 7.041800470962825 -9.253825385455775 7.138616383344103 -9.287992240513415 7.004163287476222 -9.421515464681285 6.966526103989619 -9.322159095571056 6.86971019160834 -9.356325950628698 6.735257095740459
-0.3921341323388357 -0.4824382753026934
6 -6.3984618513842975 0.3607874116405553 -6.209631496874312 0.41401442697683355 -6.16131226706816 0.6041598186562411 -6.301823391771993 0.7410781949993707 -6.490653746281978 0.6878511796630925 -6.5389729760881306 0.49770578798368487
-0.23553963117306664 0.1706432635601327
5 2.149374496613561 2.0314244559696304 2.3733118478699398 2.120729914664528 2.3575777566509633 2.361303896245957 2.1239162022391653 2.420681334977274 1.9952395109675178 2.216804628696713
-0.8304502637896776 -0.7271290643177307
12 -2.7757933202635408 -4.04763177734536 -2.6764369511533115 -4.144447689726638 -2.6422700960956704 -4.009994593858757 -2.5087468719278 -3.972357410372154 -2.6081032410380294 -3.8755414979908753 -2.5739363859803883 -3.7410884021229944 -2.7074596101482586 -3.778725585609597 -2.806815979258488 -3.6819096732283185 -2.840982834316129 -3.8163627690962 -2.9745060584839993 -3.8539999525828024 -2.87514968937377 -3.950815864964081 -2.909316544431411 -4.085268960831963
0.8859012311001508 0.6643013261016109
6 9.554023542290155 8.987356455089017 9.74285389680014 9.040583470425297 9.791173126606292 9.230728862104703 9.65066200190246 9.367647238447834 9.461831647392474 9.314420223111554 9.413512417586322 9.124274831432148
-0.7784590570582497 -0.21421347750383585
5 -3.1315918302444867 4.370306694026168 -2.907654478988108 4.459612152721066 -2.9233885702070843 4.700186134302495 -3.1570501246188822 4.759563573033812 -3.2857268158905297 4.555686866753251
-1.3818185972822528 -0.2407843323518618
4 -4.834771890972539 -3.080812746628715 -4.562980997217348 -2.9191658782032666 -4.724627865642797 -2.647374984448075 -4.996418759397988 -2.809021852873524
-0.4366646287561115 1.4133674039230453
3 -8.274885106363593 9.476687007904896 -7.939504947912571 9.820867566613865 -8.40526413446877 9.939225024403216
0.48981431611955495 -0.6792124272426056
6 4.5856289400376475 -5.763699383650519 4.774459294547633 -5.7104723683142415 4.822778524353785 -5.520326976634833 4.682267399649952 -5.3834086002917045 4.493437045139967 -5.436635615627982 4.4451178153338144 -5.62678100730739
0.2945615588880693 0.25997094813901633
12 8.585158093241052 -9.586769445916381 8.684514462351283 -9.68358535829766 8.718681317408922 -9.54913226242978 8.852204541576793 -9.511495078943176 8.752848172466564 -9.414679166561898 8.787015027524205 -9.280226070694017 8.653491803356335 -9.317863254180619 8.554135434246104 -9.22104734179934 8.519968579188465 -9.35550043766722 8.386445355020594 -9.393137621153825 8.485801724130823 -9.489953533535102 8.451634869073182 -9.624406629402984
-0.9156970570831611 -0.11156447299441324
20 2.4811519921079714 7.016704673438332 2.5916518225375094 7.14461564265705 2.573637383978883 7.227188865594481 2.6195784300296165 7.254512173317143 2.683533914638976 7.199262258102374 2.8486803605138373 7.235291135219626 2.7207693912951187 7.345790965649163 2.638196168357688 7.3277765270905375 2.610872860635026 7.3737175731412705 2.666122775849795 7.43767305775063 2.630093898732543 7.602819503625492 2.519594068303005 7.474908534406773 2.5376085068616314 7.392335311469342 2.491667460810898 7.36501200374668 2.4277119762015387 7.420261918961449 2.262565530326677 7.3842330418441975 2.3904764995453958 7.27373321141466 2.4730497224828265 7.291747649973286 2.5003730302054885 7.245806603922553 2.4451231149907193 7.181851119313193
0.30161411432547647 -0.36856307576059594
5 -5.537016612228886 8.517656903388922 -5.313079260972507 8.606962362083818 -5.328813352191483 8.847536343665247 -5.562474906603281 8.906913782396565 -5.691151597874929 8.703037076116004
-0.3872586143030151 -0.8108910709379232
5 -0.7982299592402223 5.436737320695651 -0.5742926079838433 5.526042779390549 -0.5900266992028202 5.766616760971978 -0.8236882536146182 5.825994199703295 -0.9523649448862653 5.622117493422734
0.20822423790389774 -0.03313267838820725
5 6.796145281286689 0.40069955528380163 7.020082632543068 0.49000501397869917 7.004348541324092 0.7305789955601283 6.770686986912294 0.7899564342914451 6.642010295640646 0.5860797280108843
0.09740804581656606 -0.16482497721245512
4 -8.813528906256968 -5.737479803575966 -8.541738012501776 -5.575832935150517 -8.703384880927226 -5.304042041395326 -8.975175774682418 -5.465688909820775
0.748399154640489 -0.1402752744371115
6 -0.11245691183973738 -7.914073234222555 0.0763734426702477 -7.8608462188862775 0.12469267247639937 -7.670700827206869 -0.015818452227434027 -7.5337824508637405 -0.20464880673741911 -7.587009466200018 -0.25296803654357086 -7.777154857879426
0.03256367414426378 -0.019196347498535802
12 -2.0790387814722204 -9.49653504381819 -1.9796824123619912 -9.593350956199469 -1.94551555730435 -9.458897860331588 -1.8119923331364798 -9.421260676844984 -1.911348702246709 -9.324444764463706 -1.8771818471890682 -9.189991668595825 -2.0107050713569383 -9.227628852082427 -2.1100614404671676 -9.130812939701148 -2.1442282955248086 -9.265266035569029 -2.277751519692679 -9.302903219055633 -2.1783951505824497 -9.39971913143691 -2.2125620056400908 -9.534172227304792
0.9163469952670482 0.0815272115497418
20 8.300170874333432 -0.3223273168832159 8.41067070476297 -0.19441634766449745 8.392656266204344 -0.11184312472706676 8.438597312255077 -0.084519817004405 8.502552796864435 -0.13976973221917394 8.667699242739298 -0.10374085510192187 8.539788273520578 0.006758975327616004 8.457215050583148 -0.01125546323101003 8.429891742860487 0.034685582819723185 8.485141658075255 0.09864106742908244 8.449112780958004 0.2637875133039438 8.338612950528466 0.13587654408522531 8.356627389087091 0.053303321147794624 8.310686343036359 0.02598001342513287 8.246730858427 0.0812299286399018 8.081584412552138 0.045201051522649735 8.209495381770857 -0.06529877890688814 8.292068604708287 -0.0472843403482621 8.319391912430948 -0.09322538639899532 8.26414199721618 -0.15718087100835457
-0.1853130085427769 -0.2700696662503328
20 5.15112685351817 6.661121167058953 5.261626683947707 6.7890321362776715 5.243612245389081 6.871605359215103 5.289553291439814 6.898928666937764 5.353508776049174 6.843678751722996 5.5186552219240355 6.879707628840247 5.390744252705317 6.990207459269785 5.308171029767886 6.972193020711159 5.280847722045224 7.018134066761892 5.336097637259993 7.082089551371252 5.300068760142741 7.247235997246113 5.189568929713204 7.1193250280273945 5.2075833682718295 7.036751805089963 5.1616423222210965 7.009428497367302 5.097686837611737 7.0646784125820705 4.932540391736875 7.028649535464819 5.060451360955594 6.918149705035281 5.143024583893025 6.936164143593907 5.170347891615687 6.890223097543174 5.115097976400918 6.8262676129338145
0.1832711323774587 -1.3014976237654474
3 5.148127340212228 -6.065522916032878 5.483507498663251 -5.72134235732391 5.017748312107051 -5.602984899534557
0.3340046108831942 -0.4200394401588875
3 8.9638361437192 4.01972282857604 9.299216302170223 4.363903387285007 8.833457115614024 4.48226084507436
-0.017584769569700422 0.8459599809760968
20 -9.025492470471619 4.927872426239132 -8.914992640042081 5.05578339545785 -8.933007078600706 5.138356618395282 -8.887066032549974 5.165679926117943 -8.823110547940615 5.110430010903174 -8.657964102065753 5.146458888020426 -8.785875071284472 5.2569587184499635 -8.868448294221903 5.238944279891338 -8.895771601944563 5.284885325942071 -8.840521686729796 5.3488408105514305 -8.876550563847047 5.513987256426292 -8.987050394276585 5.386076287207573 -8.96903595571796 5.303503064270142 -9.014977001768692 5.276179756547481 -9.07893248637805 5.331429671762249 -9.244078932252913 5.295400794644998 -9.116167963034194 5.18490096421546 -9.033594740096763 5.202915402774086 -9.006271432374103 5.156974356723353 -9.06152134758887 5.093018872113993
-0.5277340011630063 -0.042345693317772874
4 -7.462507130376839 -8.222213203741616 -7.699656714692975 -8.465585610757302 -7.13316565116302 -8.305904564748467 -7.5546990252745205 -7.895149435719079
0.060856484478540786 0.03935126692612093
3 1.2610997725607505 8.53822394031582 1.5964799310117728 8.882404499024789 1.1307207444555738 9.00076195681414
0.5645796338383521 0.4191119103493966
6 5.280400220716167 -8.393066884506888 5.4692305752261525 -8.339839869170609 5.517549805032305 -8.149694477491202 5.3770386803284715 -8.012776101148072 5.188208325818486 -8.066003116484351 5.139889096012334 -8.256148508163758
-0.16024482964372597 0.6010603629584008
6 0.8069904616946268 -6.669689452498152 0.9958208162046119 -6.616462437161874 1.0441400460107637 -6.426317045482466 0.9036289213069302 -6.289398669139337 0.7147985667969451 -6.342625684475615 0.6664793369907933 -6.532771076155022
-0.5617673542705712 -0.5712445856916608
3 -6.129355691078442 6.490052994037409 -5.793975532627419 6.834233552746377 -6.259734719183618 6.95259101053573
1.4165049285091371 0.7429521813159948
4 4.591797529668494 -4.404085068671824 4.354647945352357 -4.64745747568751 4.921139008882312 -4.487776429678675 4.499605634770812 -4.077021300649287
0.490205073626387 0.3680156213201606
12 -7.487245888060383 -8.930383192857589 -7.387889518950154 -9.027199105238868 -7.353722663892514 -8.892746009370986 -7.220199439724643 -8.855108825884383 -7.319555808834872 -8.758292913503105 -7.285388953777232 -8.623839817635224 -7.418912177945102 -8.661477001121826 -7.518268547055331 -8.564661088740547 -7.552435402112971 -8.699114184608428 -7.685958626280842 -8.736751368095032 -7.586602257170613 -8.83356728047631 -7.6207691122282535 -8.96802037634419
-0.003934954773924525 -0.06654315035919717
4 3.5831915934009806 1.1032924633071834 3.854982487156172 1.2649393317326323 3.6933356187307234 1.5367302254878235 3.421544724975532 1.3750833570623746
-0.26604769908250003 1.9946275553235604
20 4.243759536357606 3.206956863572753 4.354259366787144 3.3348678327914714 4.336244928228518 3.417441055728902 4.382185974279251 3.444764363451564 4.446141458888611 3.389514448236795 4.611287904763472 3.425543325354047 4.4833769355447535 3.536043155783585 4.400803712607322 3.5180287172249587 4.373480404884661 3.563969763275692 4.4287303200994295 3.6279252478850514 4.392701442982178 3.793071693759913 4.28220161255264 3.6651607245411943 4.300216051111266 3.5825875016037636 4.254275005060533 3.5552641938811016 4.190319520451173 3.610514109095871 4.025173074576312 3.5744852319786187 4.1530840437950305 3.4639854015490807 4.235657266732462 3.481999840107707 4.262980574455123 3.4360587940569736 4.2077306592403545 3.3721033094476143
-0.07536320099443349 0.028127625869370343
20 1.825612217685439 -4.471063332228142 1.936112048114977 -4.343152363009423 1.918097609556351 -4.260579140071992 1.9640386556070841 -4.233255832349331 2.0279941402164434 -4.288505747564099 2.193140586091305 -4.252476870446848 2.0652296168725863 -4.14197704001731 1.9826563939351556 -4.159991478575936 1.9553330862124938 -4.114050432525203 2.0105830014272628 -4.050094947915843 1.9745541243100106 -3.8849485020409817 1.8640542938804727 -4.0128594712597 1.8820687324390988 -4.0954326941971315 1.8361276863883655 -4.122756001919793 1.7721722017790063 -4.067506086705024 1.607025755904145 -4.103534963822276 1.7349367251228633 -4.2140347942518135 1.817509948060294 -4.196020355693188 1.8448332557829559 -4.241961401743921 1.789583340568187 -4.30591688635328
1.1777724114159298 -0.491484342500279
5 4.11212422776658 8.365365947072508 4.336061579022959 8.454671405767405 4.320327487803983 8.695245387348834 4.086665933392185 8.754622826080151 3.9579892421205374 8.55074611979959
0.5768198506898636 -0.36727413339810316
5 -2.515976497202347 -9.839265291569557 -2.292039145945968 -9.74995983287466 -2.3077732371649446 -9.509385851293231 -2.5414347915767426 -9.450008412561914 -2.67011148284839 -9.653885118842474
-0.4343921987201094 -1.2534363460116853
6 8.005793382122013 -3.1810506510597887 8.194623736631998 -3.1278236357235105 8.24294296643815 -2.9376782440441027 8.102431841734317 -2.800759867700973 7.913601487224332 -2.8539868830372512 7.86528225741818 -3.044132274716659
1.6777682081502148 -0.6835641601846433
20 8.374790488401906 -6.598125296161701 8.485290318831444 -6.470214326942982 8.467275880272819 -6.387641104005551 8.513216926323551 -6.36031779628289 8.57717241093291 -6.415567711497658 8.742318856807772 -6.379538834380407 8.614407887589053 -6.269039003950869 8.531834664651623 -6.287053442509495 8.504511356928962 -6.241112396458762 8.55976127214373 -6.177156911849402 8.523732395026478 -6.012010465974541 8.41323256459694 -6.139921435193259 8.431247003155566 -6.222494658130691 8.385305957104833 -6.249817965853352 8.321350472495475 -6.194568050638583 8.156204026620612 -6.230596927755835 8.284114995839332 -6.3410967581853726 8.366688218776762 -6.323082319626747 8.394011526499423 -6.36902336567748 8.338761611284655 -6.4329788502868395
0.45015593815457 0.7932219809487512
5 4.161133863414603 -3.444816745850316 4.385071214670982 -3.3555112871554185 4.369337123452006 -3.1149373055739895 4.135675569040208 -3.0555598668426724 4.00699887776856 -3.2594365731232333
-0.3995773723662171 -1.0270185608349387
12 -9.434598060265587 8.873522109725767 -9.335241691155357 8.776706197344488 -9.301074836097717 8.91115929321237 -9.167551611929847 8.948796476698973 -9.266907981040076 9.045612389080251 -9.232741125982434 9.180065484948132 -9.366264350150304 9.14242830146153 -9.465620719260535 9.23924421384281 -9.499787574318175 9.104791117974928 -9.633310798486045 9.067153934488324 -9.533954429375816 8.970338022107047 -9.568121284433458 8.835884926239165
0.09219049687657113 0.08080650349613146
5 5.717246421627694 9.215299732726379 5.941183772884073 9.304605191421276 5.925449681665096 9.545179173002705 5.691788127253298 9.604556611734022 5.563111435981651 9.400679905453462
0.5343857131669978 -0.8171195027882712
12 0.2727460555529669 -3.9408981177881426 0.37210242466319615 -4.037714030169421 0.40626927972083715 -3.9032609343015396 0.5397925038887074 -3.865623750814937 0.4404361347784781 -3.7688078384336583 0.47460298983611915 -3.6343547425657774 0.3410797656682489 -3.67199192605238 0.2417233965580196 -3.5751760136711015 0.2075565415003786 -3.709629109538983 0.07403331733250837 -3.7472662930255853 0.17338968644273764 -3.844082205406864 0.13922283138509664 -3.978535301274745
-0.23292293655002247 -0.6009824641279603
12 1.370548299904343 7.381433885721309 1.4699046690145723 7.284617973340031 1.5040715240722133 7.419071069207912 1.6375947482400837 7.456708252694515 1.5382383791298544 7.553524165075793 1.5724052341874952 7.687977260943675 1.4388820100196251 7.650340077457072 1.3395256409093959 7.74715598983835 1.3053587858517548 7.612702893970469 1.1718355616838845 7.575065710483866 1.2711919307941137 7.4782497981025875 1.237025075736473 7.343796702234706
0.4268834430760497 0.4632353701101265
5 1.5576580892920247 -3.779967275377211 1.7815954405484036 -3.6906618166823133 1.7658613493294266 -3.4500878351008843 1.5321997949176287 -3.3907103963695673 1.4035231036459814 -3.594587102650128
0.9781742075397647 0.11421670973827154
3 -6.964842854387944 8.48781316468072 -6.629462695936922 8.831993723389688 -7.095221882493121 8.95035118117904
-0.6861163632815596 1.0877349299890406
6 -8.620425469261585 5.982136384013004 -8.4315951147516 6.035363399349282 -8.383275884945448 6.22550879102869 -8.523787009649281 6.362427167371819 -8.712617364159266 6.309200152035541 -8.760936593965418 6.119054760356134
0.12430613529515455 1.5431763769852125
3 5.531103887766547 -4.042270913102406 5.86648404621757 -3.6980903543934383 5.400724859661371 -3.5797328966040864
1.0170957087953634 0.29618721666457165
4 4.855563059562625 8.951564793459573 5.127353953317816 9.113211661885023 4.965707084892367 9.385002555640215 4.693916191137176 9.223355687214765
0.2311954390250186 0.17758956281960667
3 -6.516878001649832 -4.531828023589222 -6.18149784319881 -4.187647464880254 -6.647257029755009 -4.069290007090902
0.12782029041728799 0.5578587263484946
4 -5.065752945957064 -1.727318637235407 -4.793962052201873 -1.5656717688099582 -4.955608920627322 -1.293880875054767 -5.227399814382513 -1.4555277434802159
1.029018357765007 -1.5005461992875748
20 -1.342146659897061 4.837447357937046 -1.2316468294675231 4.965358327155765 -1.2496612680261492 5.047931550093196 -1.203720221975416 5.075254857815858 -1.1397647373660567 5.020004942601089 -0.9746182914911954 5.0560338197183405 -1.1025292607099137 5.166533650147878 -1.1851024836473445 5.148519211589252 -1.2124257913700063 5.194460257639985 -1.1571758761552373 5.258415742249345 -1.1932047532724894 5.423562188124206 -1.3037045837020274 5.295651218905488 -1.2856901451434013 5.213077995968057 -1.3316311911941345 5.185754688245395 -1.3955866758034938 5.241004603460164 -1.560733121678355 5.204975726342912 -1.4328221524596367 5.094475895913375 -1.350248929522206 5.1124903344720005 -1.3229256217995442 5.0665492884212675 -1.3781755370143132 5.002593803811908
-0.9616807329574727 0.6280253885846625
4 -6.647944059791621 -3.0094507988834804 -6.37615316603643 -2.847803930458032 -6.537800034461879 -2.5760130367028404 -6.80959092821707 -2.737659905128289
-0.11149487472658534 -0.04505664678274067
12 -6.768102008409452 6.1699876605820005 -6.668745639299223 6.073171748200722 -6.634578784241582 6.2076248440686035 -6.501055560073712 6.245262027555206 -6.600411929183941 6.342077939936485 -6.5662450741263 6.476531035804366 -6.69976829829417 6.438893852317763 -6.799124667404399 6.535709764699042 -6.83329152246204 6.40125666883116 -6.96681474662991 6.363619485344557 -6.867458377519681 6.266803572963279 -6.901625232577322 6.132350477095398
0.7960160681998667 -0.2530724779105033
5 0.7871780093082511 -5.827059012238002 1.0111153605646301 -5.737753553543104 0.9953812693456532 -5.497179571961675 0.7617197149338553 -5.437802133230358 0.6330430236622081 -5.641678839510919
0.1862886296092786 0.16834742839809808
5 2.8037615790164647 -1.3157024617186162 3.0276989302728436 -1.2263970030237186 3.011964839053867 -0.9858230214422894 2.778303284642069 -0.9264455827109725 2.6496265933704217 -1.1303222889915334
-0.5260566465681586 0.6907140635861335
6 -0.4436815554929203 4.2502332481441405 -0.25485120098293523 4.303460263480418 -0.20653197117678357 4.4936056551598265 -0.347043095880617 4.630524031502955 -0.5358734503906021 4.5772970161666775 -0.5841926801967539 4.38715162448727
0.23444837536076812 0.9191437301644236
6 3.037872035531811 -6.515777662459665 3.226702390041796 -6.462550647123387 3.275021619847948 -6.272405255443979 3.1345104951441143 -6.13548687910085 2.945680140634129 -6.188713894437128 2.8973609108279774 -6.378859286116535
-0.8566036610483629 -1.0765697850415696
4 -3.032931786253304 7.925966432756923 -3.2700813705694407 7.682594025741237 -2.703590307039485 7.8422750717500715 -3.1251236811509857 8.25303020077946
0.013382427747304783 -0.27726733814292015
6 -3.3625940288123677 6.82424848900065 -3.1737636743023825 6.877475504336927 -3.125444444496231 7.067620896016336 -3.2659555692000644 7.204539272359464 -3.4547859237100496 7.151312257023187 -3.503105153516201 6.961166865343779
0.6086404178657672 1.0930768677912768
4 2.2927485332867135 -5.748699381832031 2.564539427041905 -5.587052513406582 2.4028925586164562 -5.315261619651391 2.131101664861265 -5.47690848807684
-1.5571996974170212 -1.0472398343147795
20 -6.499318366060296 4.727661851908412 -6.388818535630758 4.85557282112713 -6.406832974189384 4.9381460440645615 -6.360891928138651 4.965469351787223 -6.296936443529291 4.910219436572454 -6.13178999765443 4.946248313689706 -6.259700966873148 5.0567481441192434 -6.342274189810579 5.038733705560618 -6.369597497533241 5.084674751611351 -6.314347582318472 5.14863023622071 -6.350376459435724 5.313776682095572 -6.460876289865261 5.185865712876853 -6.442861851306636 5.103292489939422 -6.488802897357369 5.0759691822167605 -6.552758381966728 5.131219097431529 -6.71790482784159 5.095190220314278 -6.589993858622871 4.98469038988474 -6.50742063568544 5.002704828443366 -6.4800973279627785 4.956763782392633 -6.535347243177547 4.892808297783273
0.5039190523218996 -0.11933374556328409
5 -5.100915351051542 4.730624101057802 -4.876977999795163 4.819929559752699 -4.89271209101414 5.060503541334128 -5.126373645425938 5.119880980065446 -5.255050336697585 4.916004273784885
0.3451233631900518 0.2395452735061865
3 5.628551087779408 2.186787305410526 5.96393124623043 2.530967864119494 5.498172059674231 2.649325321908846
0.053217383039740974 0.04164947453706592
3 -3.3354891197956977 -6.815526460756982 -3.000108961344675 -6.471345902048014 -3.465868147900874 -6.352988444258662
1.1384416806149957 -1.0139198883925469
12 -4.799409407785956 -6.240482439279225 -4.700053038675727 -6.337298351660503 -4.6658861836180865 -6.202845255792622 -4.532362959450216 -6.165208072306019 -4.631719328560445 -6.06839215992474 -4.597552473502804 -5.933939064056859 -4.731075697670675 -5.971576247543462 -4.8304320667809035 -5.8747603351621835 -4.864598921838544 -6.009213431030065 -4.9981221460064145 -6.046850614516668 -4.898765776896186 -6.143666526897946 -4.932932631953826 -6.278119622765828
-1.047209118099325 0.7716685262072901
3 -7.228583875639715 -1.6114369378825284 -6.893203717188692 -1.2672563791735603 -7.358962903744891 -1.1488989213842085
0.680354176023471 0.2529041112370455
6 -1.5309475294793766 -10.0 -1.3421171749693914 -9.94677298466372 -1.2937979451632398 -9.756627592984314 -1.4343090698670733 -9.619709216641184 -1.6231394243770583 -9.672936231977463 -1.6714586541832102 -9.86308162365687
1.1081936798829957 0.4141576972140824
3 -6.016745778440688 7.977736999014635 -5.681365619989665 8.321917557723603 -6.147124806545865 8.440275015512954
-0.6737597877524429 -1.1238798485996973
12 5.749269096586176 -4.826229049970932 5.848625465696405 -4.92304496235221 5.882792320754046 -4.788591866484329 6.016315544921916 -4.750954682997726 5.916959175811687 -4.654138770616448 5.951126030869328 -4.519685674748566 5.817602806701458 -4.557322858235169 5.718246437591229 -4.460506945853891 5.684079582533588 -4.594960041721772 5.550556358365718 -4.632597225208375 5.649912727475947 -4.7294131375896535 5.615745872418306 -4.863866233457535
-0.23081396824005546 1.362473202668253
3 8.988900458209867 2.7109318450421966 9.32428061666089 3.0551124037511648 8.858521430104691 3.1734698615405166
0.7617804968618628 0.036529386836506014
3 1.6278931302738162 -10.0 1.9632732887248385 -9.655819441291031 1.4975141021686396 -9.53746198350168
-0.5479670691428408 -1.2436765919570956
3 5.994905481206552 -8.860459658291262 6.330285639657575 -8.516279099582293 5.864526453101376 -8.397921641792943
0.2618298968782481 -0.025422812578332548
3 -2.5561076823142015 -5.079756127920369 -2.2207275238631787 -4.735575569211401 -2.686486710419378 -4.617218111422049
0.2917148940745311 1.2671597820454836
5 -4.083339392783018 8.077926505070206 -3.8594020415266392 8.167231963765103 -3.8751361327456157 8.407805945346531 -4.108797687157414 8.467183384077849 -4.237474378429061 8.263306677797289
-0.15986486710446415 0.01697541607808212
12 5.45205456167034 5.126973737887758 5.551410930780569 5.030157825506479 5.585577785838209 5.1646109213743605 5.71910101000608 5.2022481048609635 5.619744640895851 5.299064017242242 5.6539114959534915 5.433517113110123 5.520388271785621 5.39587992962352 5.421031902675392 5.492695842004799 5.386865047617752 5.358242746136917 5.253341823449881 5.320605562650314 5.35269819256011 5.223789650269036 5.31853133750247 5.089336554401155
-0.5533552522124391 -0.13315689884665569
12 -1.328617480783421 7.150347152587459 -1.2292611116731917 7.053531240206181 -1.1950942566155507 7.187984336074062 -1.0615710324476804 7.225621519560665 -1.1609274015579096 7.322437431941943 -1.1267605465002688 7.456890527809825 -1.260283770668139 7.419253344323222 -1.3596401397783682 7.5160692567045 -1.3938069948360092 7.381616160836619 -1.5273302190038796 7.343978977350016 -1.4279738498936503 7.2471630649687375 -1.4621407049512911 7.112709969100856
0.8538456757731366 -0.6373952415203948
5 -6.505668941137277 5.866848811699238 -6.281731589880898 5.956154270394135 -6.297465681099874 6.196728251975564 -6.531127235511672 6.256105690706882 -6.65980392678332 6.05222898442632
0.3773566398957601 -1.2720041886322424
4 -9.762850415683863 -8.533251958025108 -10.0 -8.776624365040794 -9.433508936470044 -8.616943319031959 -9.855042310581544 -8.206188190002571
0.36805756105098264 0.9081744390202181
6 3.200101416747627 -6.271899009469787 3.3889317712576124 -6.218671994133509 3.437251001063764 -6.028526602454101 3.2967398763599305 -5.891608226110972 3.1079095218499453 -5.94483524144725 3.0595902920437936 -6.134980633126657
0.011915654624758014 -0.14637285984648415
5 -8.695432501077569 0.31995981212474256 -8.47149514982119 0.4092652708196401 -8.487229241040167 0.6498392524010692 -8.720890795451965 0.7092166911323861 -8.849567486723611 0.5053399848518252
-0.25541062567078854 -1.279530180031817
3 -4.125845091962023 -4.355468150573644 -3.790464933511 -4.011287591864677 -4.256224120067199 -3.8929301340753244
-0.0014055139615463676 -0.038394948938587546
5 -9.57809763965605 4.5223417428022925 -9.35416028839967 4.61164720149719 -9.369894379618648 4.852221183078619 -9.603555934030446 4.911598621809937 -9.732232625302093 4.707721915529375
0.10826037330641856 -0.2200841080993315
5 -3.1422739429775755 -3.5955688404809756 -2.9183365917211965 -3.506263381786078 -2.934070682940173 -3.265689400204649 -3.167732237351971 -3.206311961473332 -3.2964089286236185 -3.410188667753893
-1.1861761768789854 1.0634005711229007
20 2.229165606676439 -5.168098289189427 2.339665437105977 -5.040187319970708 2.3216509985473506 -4.957614097033277 2.367592044598084 -4.930290789310615 2.4315475292074433 -4.985540704525384 2.596693975082305 -4.9495118274081324 2.4687830058635862 -4.839011996978595 2.3862097829261555 -4.857026435537221 2.3588864752034935 -4.811085389486488 2.4141363904182627 -4.747129904877128 2.3781075133010106 -4.581983459002267 2.2676076828714726 -4.709894428220985 2.285622121430099 -4.792467651158416 2.2396810753793654 -4.819790958881078 2.175725590770006 -4.764541043666309 2.0105791448951447 -4.800569920783561 2.1384901141138632 -4.911069751213098 2.221063337051294 -4.8930553126544725 2.248386644773956 -4.9389963587052055 2.193136729559187 -5.002951843314565
0.9766609957948904 -0.8070159596427019
12 9.73295355166426 -6.00672661976041 9.83230992077449 -6.103542532141688 9.86647677583213 -5.969089436273807 10.0 -5.931452252787204 9.900643630889771 -5.834636340405925 9.934810485947413 -5.700183244538044 9.801287261779542 -5.737820428024647 9.701930892669312 -5.641004515643369 9.667764037611672 -5.77545761151125 9.534240813443802 -5.813094794997853 9.63359718255403 -5.909910707379131 9.599430327496389 -6.044363803247013
-0.3348429234394799 0.9162640259514645
12 2.3763647147244513 -3.177047538589921 2.4757210838346806 -3.2738634509711995 2.5098879388923216 -3.139410355103318 2.643411163060192 -3.1017731716167156 2.5440547939499627 -3.0049572592354368 2.5782216490076038 -2.870504163367556 2.4446984248397334 -2.9081413468541584 2.345342055729504 -2.81132543447288 2.311175200671863 -2.9457785303407613 2.177651976503993 -2.983415713827364 2.277008345614222 -3.0802316262086427 2.242841490556581 -3.2146847220765236
1.2102493835227124 0.19876057683947124
5 9.049313722334533 -4.179944519754488 9.273251073590913 -4.090639061059591 9.257516982371936 -3.8500650794781617 9.023855427960138 -3.7906876407468446 8.895178736688491 -3.9945643470274055
0.017680703435887977 0.11340322055741534
4 -5.821756134501834 -2.6490714302036 -6.058905718817971 -2.892443837219286 -5.492414655288016 -2.732762791210451 -5.913948029399516 -2.322007662181063
0.35903898178382687 -0.6710035160544927
3 6.310749102060464 -2.5390628486001017 6.646129260511486 -2.1948822898911335 6.180370073955287 -2.0765248321017817
0.16408729111403364 1.3019833592522148
3 -7.573891510290249 2.9503296898628264 -7.238511351839226 3.2945102485717945 -7.704270538395425 3.4128677063611463
0.04844272917977477 -0.11020714645748295
5 0.4307365001605474 -0.17314890127488247 0.6546738514169264 -0.08384344257998494 0.6389397601979494 0.15673053900144415 0.4052782057861515 0.21610797773276105 0.2766015145145043 0.012231271452200208
-0.0350946958960465 -0.19407376041967625
20 -3.9764530631384716 6.616754195684939 -3.8659532327089337 6.744665164903657 -3.88396767126756 6.8272383878410885 -3.8380266252168265 6.85456169556375 -3.774071140607467 6.799311780348981 -3.6089246947326057 6.835340657466233 -3.7368356639513243 6.9458404878957705 -3.819408886888755 6.927826049337145 -3.846732194611417 6.973767095387878 -3.791482279396648 7.037722579997237 -3.8275111565139 7.202869025872099 -3.938010986943438 7.07495805665338 -3.9199965483848116 6.992384833715949 -3.965937594435545 6.9650615259932875 -4.029893079044904 7.020311441208056 -4.195039524919766 6.984282564090805 -4.067128555701047 6.873782733661267 -3.9845553327636165 6.891797172219893 -3.9572320250409545 6.84585612616916 -4.012481940255723 6.7819006415598
-0.1609873691743923 0.1566101986045679
5 -6.719250547503439 -0.260054117922757 -6.49531319624706 -0.17074865922785948 -6.511047287466036 0.06982532235356961 -6.744708841877834 0.1292027610848865 -6.873385533149482 -0.07467394519567433
0.7562572327870388 0.4141655330400975
3 7.251655458789952 -3.9057966719535546 7.587035617240975 -3.5616161132445865 7.121276430684776 -3.4432586554552347
0.4128187824696083 -0.0477626702236563
4 7.2151742469114755 4.073216624431985 7.486965140666666 4.234863492857434 7.325318272241217 4.506654386612625 7.053527378486026 4.345007518187176
0.9325984466908093 0.5168981649402733
3 5.4318631419054375 0.5038990431252479 5.76724330035646 0.848079601834216 5.301484113800261 0.9664370596235679
-0.04328541363094708 0.06619975337727642
4 -7.594832414363046 2.7978856918222643 -7.831981998679183 2.5545132848065784 -7.265490935149228 2.7141943308154133 -7.687024309260728 3.1249494598448013
0.9037334062126948 -1.226998283258126
12 5.993133849867321 -3.6559357162071215 6.09249021897755 -3.7527516285884 6.12665707403519 -3.6182985327205186 6.2601802982030605 -3.580661349233916 6.160823929092832 -3.4838454368526373 6.194990784150472 -3.3493923409847564 6.061467559982602 -3.387029524471359 5.962111190872373 -3.2902136120900805 5.927944335814733 -3.424666707957962 5.794421111646862 -3.4623038914445643 5.893777480757091 -3.559119803825843 5.8596106256994505 -3.693572899693724
-0.4021514528322453 0.17620833238969677
4 1.1793469922225197 -2.4455676176591696 1.4511378859777109 -2.283920749233721 1.289491017552262 -2.0121298554785296 1.0177001237970709 -2.1737767239039782
-0.0030763287302551226 -0.010781541818098669
3 -8.660811017163327 2.3136319012816653 -8.325430858712306 2.6578124599906334 -8.791190045268504 2.7761699177799852
-0.1806808607386425 0.1349268601669653
6 -3.8002893866336964 3.9169705299308064 -3.611459032123711 3.9701975452670846 -3.5631398023175596 4.160342936946493 -3.703650927021393 4.297261313289622 -3.8924812815313783 4.244034297953344 -3.94080051133753 4.0538889062739365
0.6571618222852421 -0.39260667299070323
3 -6.38670525269506 0.828061424804849 -6.051325094244037 1.1722419835138171 -6.517084280800236 1.290599441303169
-1.830424039287265 -0.5892647428787912
20 -8.197515342519058 -9.006796391035214 -8.08701551208952 -8.878885421816495 -8.105029950648145 -8.796312198879065 -8.059088904597413 -8.768988891156404 -7.995133419988053 -8.824238806371172 -7.829986974113192 -8.78820992925392 -7.95789794333191 -8.677710098824383 -8.040471166269342 -8.695724537383008 -8.067794473992002 -8.649783491332276 -8.012544558777234 -8.585828006722917 -8.048573435894486 -8.420681560848054 -8.159073266324024 -8.548592530066774 -8.141058827765399 -8.631165753004204 -8.18699987381613 -8.658489060726865 -8.25095535842549 -8.603239145512097 -8.416101804300352 -8.639268022629349 -8.288190835081632 -8.749767853058886 -8.205617612144202 -8.731753414500261 -8.178294304421541 -8.777694460550993 -8.23354421963631 -8.841649945160352
0.5603034822689338 -0.23685274769792164
6 3.5938527790235875 -6.1943093570340855 3.7826831335335727 -6.141082341697808 3.8310023633397243 -5.9509369500183995 3.690491238635891 -5.814018573675271 3.5016608841259056 -5.8672455890115485 3.453341654319754 -6.057390980690956
-0.43681852402528476 0.6547759824646641
4 0.7982288809094624 7.512422029492412 1.0700197746646536 7.674068897917861 0.9083729062392047 7.945859791673052 0.6365820124840136 7.784212923247603
0.9296495405157209 1.377503524718719
4 -3.2819376033634455 5.007397963019658 -3.5190871876795824 4.764025556003972 -2.952596124149627 4.923706602012807 -3.3741294982611274 5.334461731042195
-0.18306721207969873 -0.6013896786584634
6 -9.138761119704292 3.064206555114254 -8.949930765194306 3.1174335704505323 -8.901611535388154 3.30757896212994 -9.042122660091987 3.4444973384730697 -9.230953014601972 3.3912703231367916 -9.279272244408125 3.2011249314573837
0.16227519941801713 -0.11396430434951456
6 -3.1772425999692175 -4.14838368299212 -2.9884122454592323 -4.095156667655842 -2.9400930156530807 -3.905011275976434 -3.080604140356914 -3.7680928996333045 -3.2694344948668994 -3.8213199149695827 -3.317753724673051 -4.01146530664899
-0.7820784231343834 -1.0302638285442638
5 5.987949060203759 -5.687206953510677 6.211886411460138 -5.59790149481578 6.196152320241161 -5.357327513234351 5.962490765829363 -5.297950074503033 5.833814074557716 -5.5018267807835946
-0.08298853861495056 1.753303783251903
4 -2.722194097405806 5.454356572743164 -2.959343681721943 5.210984165727478 -2.3928526181919874 5.370665211736313 -2.814385992303488 5.781420340765701
1.0252389197557883 -0.9916981142968565
3 -7.43874879598626 1.8237578387412938 -7.103368637535238 2.167938397450262 -7.569127824091437 2.2862958552396138
-0.149490657519254 0.449225034978075
5 -6.340260734594853 -3.086034281605518 -6.116323383338474 -2.9967288229106206 -6.132057474557451 -2.7561548413291916 -6.365719028969249 -2.6967774025978746 -6.494395720240896 -2.9006541088784354
0.5729037470404286 -0.7180081305527529
4 -4.518625639443593 -9.742697756226491 -4.246834745688402 -9.581050887801041 -4.408481614113851 -9.30925999404585 -4.680272507869042 -9.470906862471299
-0.06094650998952879 -1.3412527837653279
5 6.1054145324219835 -3.9180120528704228 6.329351883678362 -3.828706594175525 6.313617792459386 -3.588132612594096 6.079956238047588 -3.528755173862779 5.9512795467759405 -3.73263188014334
-0.16259679767038307 0.34386920559297185
4 3.6084627430467395 -8.430477339633162 3.880253636801931 -8.268830471207712 3.7186067683764823 -7.997039577452521 3.446815874621291 -8.15868644587797
0.19442265842117332 0.23501773166967874
4 3.245496332952887 -3.4390454002035122 3.5172872267080786 -3.2773985317780636 3.35564035828263 -3.0056076380228722 3.0838494645274386 -3.167254506448321
0.36991869974971686 -1.9410540536309995
20 -3.933921119304557 8.976975653345116 -3.823421288875019 9.104886622563836 -3.8414357274336455 9.187459845501266 -3.795494681382912 9.214783153223927 -3.7315391967735527 9.159533238009159 -3.5663927508986912 9.19556211512641 -3.69430372011741 9.306061945555948 -3.7768769430548406 9.288047506997323 -3.8042002507775026 9.333988553048055 -3.7489503355627334 9.397944037657414 -3.7849792126799855 9.563090483532276 -3.8954790431095234 9.435179514313557 -3.877464604550897 9.352606291376127 -3.9234056506016306 9.325282983653466 -3.98736113521099 9.380532898868234 -4.152507581085851 9.344504021750982 -4.024596611867133 9.234004191321445 -3.942023388929702 9.25201862988007 -3.91470008120704 9.206077583829337 -3.9699499964218092 9.142122099219979
-0.35474768507040577 0.06813645705063237
12 7.6184611203675745 4.245771826984928 7.717817489477803 4.14895591460365 7.751984344535444 4.283409010471531 7.885507568703314 4.321046193958134 7.786151199593085 4.417862106339412 7.820318054650726 4.552315202207294 7.686794830482856 4.514678018720691 7.587438461372627 4.611493931101969 7.553271606314986 4.477040835234088 7.419748382147116 4.439403651747485 7.519104751257345 4.3425877393662065 7.484937896199704 4.208134643498325
-1.537168681945894 1.2662295692174372
4 2.6606429650557146 6.3726131024008765 2.4234933807395778 6.129240695385191 2.9899844442695334 6.2889217413940255 2.5684510701580328 6.6996768704234135
0.29242997521214403 -0.31016155744150514
4 8.180696207898366 2.347675291835361 8.452487101653558 2.5093221602608096 8.290840233228108 2.781113054016001 8.019049339472916 2.6194661855905523
-0.19688483989121291 -0.2724289798675987
6 4.9091079769952355 9.56938830584572 5.097938331505221 9.622615321182 5.146257561311373 9.812760712861406 5.00574643660754 9.949679089204537 4.8169160820975545 9.896452073868257 4.768596852291402 9.70630668218885
0.06483531896183382 0.032175646388048984
20 1.3954488822158186 1.1060840693794047 1.5059487126453566 1.233995038598123 1.4879342740867305 1.3165682615355538 1.5338753201374637 1.3438915692582156 1.597830804746823 1.2886416540434467 1.7629772506216843 1.3246705311606988 1.635066281402966 1.4351703615902367 1.5524930584655352 1.4171559230316106 1.5251697507428734 1.4630969690823439 1.5804196659576424 1.5270524536917032 1.5443907888403903 1.6921988995665644 1.4338909584108523 1.564287930347846 1.4519053969694784 1.4817147074104153 1.4059643509187452 1.4543913996877535 1.3420088663093859 1.5096413149025225 1.1768624204345246 1.4736124377852704 1.304773389653243 1.3631126073557325 1.3873466125906737 1.3811270459143585 1.4146699203133355 1.3351859998636253 1.3594200050985665 1.271230515254266
0.43618974093480306 0.9057206691958141
4 -1.3118457460702508 6.272324168430757 -1.5489953303863877 6.028951761415071 -0.9825042668564323 6.188632807423906 -1.4040376409679327 6.599387936453294
-1.022467070418071 0.5864411168384928
4 7.478967175743424 0.6134799515841198 7.241817591427288 0.37010754456843387 7.8083086549572425 0.5297885905772687 7.386775280845742 0.940543719606657
-0.20603278828661814 -0.01680980971227992
6 2.0627428054565002 -3.0345886731201346 2.2515731599664854 -2.9813616577838564 2.299892389772637 -2.7912162661044486 2.1593812650688036 -2.654297889761319 1.9705509105588186 -2.707524905097597 1.9222316807526667 -2.897670296777005
-0.995772059044155 -0.20583045705245517
5 -6.467611932839787 -7.90743099855479 -6.2436745815834085 -7.818125539859892 -6.259408672802385 -7.577551558278463 -6.493070227214183 -7.518174119547146 -6.62174691848583 -7.722050825827707
-0.1278283157595845 -0.10173341593429282
4 -2.179257316285605 -9.547891418206358 -1.9074664225304137 -9.386244549780908 -2.0691132909558623 -9.114453656025717 -2.3409041847110537 -9.276100524451167
-0.6232455550256126 0.04090725016903526
12 1.4793456999406875 -5.003223968146957 1.5787020690509168 -5.100039880528235 1.6128689241085579 -4.965586784660354 1.7463921482764282 -4.927949601173751 1.647035779166199 -4.831133688792472 1.6812026342238398 -4.696680592924591 1.5476794100559697 -4.734317776411194 1.4483230409457404 -4.6375018640299155 1.4141561858880993 -4.771954959897797 1.280632961720229 -4.8095921433844 1.3799893308304583 -4.906408055765678 1.3458224757728174 -5.0408611516335595
-1.0955142378445035 0.257432620541179
4 0.5097397922215376 -9.436907408006858 0.7815306859767288 -9.275260539581408 0.61988381755128 -9.003469645826216 0.3480929237960888 -9.165116514251666
