areaTotal:400.0
tiempoTotalSimulado:1.0
areaOcupadaInicial:7.999999999999966
eventosSimples:838
eventosMultiples:0
0.0
[(0,26), (0,63), (0,83), (0,156), (1,54), (1,99), (1,133), (1,138), (2,8), (2,76), (2,81), (2,117), (2,120), (2,149), (2,166), (2,182), (3,6), (3,44), (3,142), (3,172), (3,195), (4,24), (4,53), (4,86), (4,110), (4,119), (4,129), (4,171), (4,181), (5,38), (5,89), (5,105), (5,144), (6,44), (6,142), (6,172), (7,51), (7,54), (7,62), (7,68), (8,76), (8,81), (8,117), (8,120), (8,143), (8,149), (8,166), (8,182), (9,12), (9,16), (9,59), (9,96), (9,126), (9,137), (9,139), (9,168), (9,188), (10,35), (10,60), (10,100), (10,102), (10,107), (10,152), (11,37), (11,52), (11,74), (11,85), (11,89), (12,16), (12,94), (12,126), (12,137), (12,162), (12,192), (13,17), (13,30), (13,43), (13,48), (13,109), (13,159), (14,18), (14,125), (14,155), (14,169), (15,19), (15,58), (15,66), (15,91), (15,106), (16,59), (16,96), (16,126), (16,137), (16,139), (16,168), (16,188), (17,30), (17,43), (17,48), (17,109), (17,159), (18,125), (18,155), (18,169), (18,198), (19,40), (19,41), (19,61), (19,66), (19,106), (19,190), (20,28), (20,47), (20,55), (20,77), (20,111), (20,116), (20,180), (20,186), (21,40), (21,41), (21,132), (21,170), (21,179), (21,190), (22,33), (22,82), (22,108), (22,136), (22,145), (22,153), (22,178), (23,64), (23,157), (24,53), (24,67), (24,86), (24,110), (24,119), (24,129), (24,147), (24,171), (24,181), (25,72), (25,80), (25,81), (25,92), (25,115), (25,117), (25,149), (25,150), (25,182), (26,29), (26,58), (26,63), (26,156), (26,175), (27,88), (27,97), (27,122), (28,55), (28,77), (28,111), (28,116), (28,128), (28,180), (28,186), (29,58), (29,91), (29,106), (29,156), (29,175), (30,43), (30,56), (30,90), (30,109), (30,159), (31,163), (32,118), (32,124), (32,146), (32,151), (32,158), (32,161), (32,164), (32,176), (32,183), (32,194), (33,46), (33,82), (33,108), (33,136), (33,145), (33,153), (33,178), (34,42), (34,112), (34,131), (34,132), (34,177), (35,60), (35,100), (35,102), (35,107), (35,152), (35,165), (36,60), (36,107), (36,108), (36,114), (36,165), (36,187), (37,74), (37,89), (38,65), (38,75), (38,89), (38,105), (38,144), (39,52), (39,85), (39,93), (39,134), (40,41), (40,61), (40,66), (40,179), (40,190), (41,61), (41,179), (41,190), (42,112), (42,131), (42,132), (42,177), (43,48), (43,109), (44,142), (44,172), (45,98), (45,121), (45,150), (45,185), (46,51), (46,145), (46,153), (47,55), (47,103), (47,111), (47,116), (47,167), (47,180), (47,184), (47,186), (47,196), (48,109), (49,70), (49,73), (49,95), (49,113), (49,141), (49,160), (49,174), (49,189), (50,71), (50,79), (50,148), (51,62), (51,68), (52,74), (52,85), (52,93), (53,86), (53,110), (53,119), (53,129), (53,171), (54,62), (54,68), (54,138), (55,111), (55,116), (55,180), (55,186), (56,69), (56,90), (56,159), (57,130), (57,198), (58,91), (58,106), (58,156), (58,175), (59,96), (59,126), (59,137), (59,139), (59,168), (59,188), (60,100), (60,102), (60,107), (60,114), (60,165), (60,187), (61,66), (61,179), (61,190), (62,68), (63,83), (63,156), (64,157), (65,75), (65,123), (66,91), (66,106), (66,190), (67,104), (67,147), (67,181), (69,90), (69,177), (70,73), (70,95), (70,113), (70,141), (70,160), (70,174), (70,189), (71,79), (71,148), (71,164), (72,80), (72,81), (72,92), (72,115), (72,117), (72,149), (72,182), (73,95), (73,101), (73,113), (73,127), (73,141), (73,160), (73,189), (74,85), (75,105), (75,123), (75,144), (76,120), (76,143), (76,166), (76,199), (77,78), (77,111), (77,116), (77,128), (77,180), (77,186), (78,128), (78,130), (79,148), (79,164), (80,92), (80,115), (80,117), (80,149), (80,182), (81,117), (81,120), (81,149), (81,182), (82,108), (82,136), (82,145), (82,153), (82,178), (84,98), (84,101), (84,121), (84,127), (84,185), (85,93), (86,110), (86,129), (86,171), (86,181), (87,141), (87,172), (87,174), (87,195), (88,97), (88,122), (88,135), (89,105), (89,144), (90,159), (91,106), (91,156), (91,175), (92,115), (92,150), (93,134), (94,140), (94,162), (94,192), (95,113), (95,141), (95,160), (95,174), (95,189), (96,126), (96,137), (96,139), (96,168), (96,188), (97,122), (98,115), (98,121), (98,150), (98,185), (99,133), (99,138), (100,102), (100,107), (100,152), (101,113), (101,121), (101,127), (101,160), (101,185), (102,107), (102,152), (102,165), (103,167), (103,184), (103,196), (104,147), (104,181), (105,144), (106,156), (106,175), (107,114), (107,165), (107,187), (108,114), (108,136), (108,178), (108,187), (109,159), (110,119), (110,129), (110,171), (111,116), (111,167), (111,180), (111,184), (111,186), (112,131), (112,132), (112,177), (113,141), (113,160), (113,189), (114,165), (114,187), (115,117), (115,149), (115,150), (115,182), (116,180), (116,186), (117,120), (117,149), (117,182), (118,151), (118,158), (118,161), (118,164), (118,176), (118,183), (118,194), (119,129), (119,171), (120,149), (120,166), (121,127), (121,150), (121,185), (124,143), (124,146), (124,151), (124,158), (124,161), (124,199), (125,155), (125,169), (126,137), (127,160), (127,185), (129,171), (130,198), (131,177), (132,170), (132,177), (133,138), (134,163), (136,145), (136,153), (136,178), (137,139), (137,168), (137,188), (139,168), (139,173), (139,188), (139,191), (140,162), (140,192), (141,160), (141,174), (141,189), (143,166), (143,199), (145,153), (145,178), (146,151), (146,158), (146,161), (146,176), (147,181), (148,164), (148,194), (149,182), (151,158), (151,161), (151,164), (151,176), (151,183), (151,194), (153,178), (154,173), (154,188), (154,191), (155,169), (156,175), (158,161), (158,176), (158,183), (160,189), (161,176), (161,183), (161,194), (162,192), (164,176), (164,183), (164,194), (165,187), (166,199), (167,184), (167,196), (168,173), (168,188), (168,191), (169,198), (172,195), (173,188), (173,191), (174,189), (174,195), (176,183), (176,194), (179,190), (180,186), (183,194), (184,196), (188,191)]
[(0,15), (0,23), (0,32), (0,71), (0,103), (0,130), (1,5), (1,54), (1,63), (1,68), (1,163), (1,165), (2,12), (2,86), (2,117), (2,125), (2,136), (2,177), (3,104), (3,168), (3,179), (3,197), (4,13), (4,22), (4,98), (4,106), (4,123), (4,143), (4,150), (4,184), (4,186), (5,63), (5,68), (5,96), (5,163), (6,20), (6,28), (6,59), (6,66), (6,189), (6,191), (6,195), (7,40), (7,74), (7,90), (7,164), (7,175), (8,50), (9,10), (9,29), (9,115), (9,120), (9,131), (9,149), (9,174), (9,176), (10,29), (10,115), (10,120), (10,131), (10,149), (10,174), (11,92), (11,151), (11,166), (11,167), (11,185), (12,125), (12,177), (13,22), (13,26), (13,98), (13,106), (13,123), (13,143), (13,184), (13,186), (14,79), (14,82), (14,108), (14,134), (14,156), (14,193), (15,23), (15,32), (15,71), (15,103), (15,130), (16,23), (16,71), (16,103), (16,105), (16,146), (17,33), (17,51), (17,95), (17,124), (17,169), (17,172), (18,34), (18,44), (18,122), (18,154), (18,160), (19,42), (19,57), (19,62), (19,101), (19,133), (19,144), (19,199), (20,31), (20,159), (20,189), (20,191), (20,195), (21,38), (21,46), (21,47), (21,196), (22,84), (22,98), (22,106), (22,123), (22,138), (22,143), (22,150), (22,184), (22,186), (23,32), (23,71), (23,103), (23,130), (24,31), (24,35), (24,81), (24,107), (24,159), (24,191), (24,195), (25,26), (25,36), (25,72), (25,89), (25,112), (25,137), (25,152), (26,36), (26,72), (26,89), (26,152), (27,153), (28,59), (28,66), (28,126), (28,189), (29,115), (29,120), (29,128), (29,131), (29,141), (29,149), (29,174), (29,188), (30,53), (30,69), (30,85), (30,93), (30,100), (30,116), (30,157), (30,180), (31,35), (31,81), (31,159), (31,191), (31,195), (32,130), (32,185), (33,51), (33,95), (33,124), (33,169), (33,172), (34,44), (34,122), (34,154), (34,160), (35,81), (35,107), (35,159), (36,72), (36,89), (36,112), (36,137), (36,152), (37,47), (37,49), (37,70), (37,140), (37,190), (37,196), (38,47), (38,49), (38,196), (39,91), (39,120), (39,128), (39,141), (39,142), (39,149), (39,188), (40,74), (40,90), (40,169), (40,175), (41,111), (42,57), (42,62), (42,133), (42,144), (42,199), (43,94), (43,99), (43,118), (43,173), (44,80), (44,110), (44,122), (44,160), (45,155), (45,182), (47,49), (47,70), (47,196), (48,52), (48,64), (48,135), (48,171), (48,187), (48,194), (49,70), (49,140), (49,196), (51,90), (51,95), (51,124), (51,169), (51,172), (52,64), (52,83), (52,119), (52,121), (52,135), (52,171), (52,187), (52,194), (53,69), (53,85), (53,93), (53,100), (53,102), (53,116), (53,180), (54,63), (54,68), (54,163), (54,165), (55,61), (55,78), (55,97), (55,126), (55,147), (55,162), (56,60), (56,67), (56,73), (56,101), (57,101), (57,133), (57,144), (58,69), (58,86), (58,93), (58,116), (58,117), (58,136), (58,157), (58,177), (59,66), (59,126), (59,162), (60,65), (60,67), (60,73), (60,101), (61,65), (61,78), (61,97), (61,147), (62,133), (62,199), (63,68), (63,96), (63,163), (63,165), (64,83), (64,119), (64,121), (64,135), (64,171), (64,187), (64,194), (65,67), (66,126), (66,189), (67,73), (67,101), (68,163), (68,165), (69,85), (69,93), (69,100), (69,116), (69,157), (69,180), (70,140), (70,196), (71,103), (71,130), (72,89), (72,112), (72,137), (72,152), (73,101), (74,90), (74,169), (74,175), (75,77), (75,107), (76,104), (76,179), (77,107), (78,97), (78,147), (78,162), (79,82), (79,108), (79,134), (79,156), (79,193), (80,105), (80,110), (80,122), (81,107), (81,159), (82,108), (82,134), (82,156), (82,193), (83,119), (83,121), (83,155), (83,182), (84,91), (84,138), (84,142), (84,143), (84,150), (85,93), (85,100), (85,102), (85,116), (85,180), (86,117), (86,136), (86,157), (86,177), (87,139), (87,176), (88,145), (88,161), (88,178), (88,183), (88,190), (89,112), (89,137), (89,152), (90,169), (90,175), (91,138), (91,141), (91,142), (91,188), (92,151), (92,166), (92,167), (93,100), (93,116), (93,157), (93,180), (94,99), (94,118), (94,168), (94,173), (95,124), (95,169), (95,172), (97,147), (98,106), (98,123), (98,143), (98,150), (98,184), (98,186), (99,118), (99,173), (100,102), (100,116), (100,157), (100,180), (101,144), (102,180), (103,130), (104,168), (104,179), (104,197), (105,146), (106,123), (106,143), (106,150), (106,184), (106,186), (108,134), (108,156), (108,193), (109,114), (109,164), (110,122), (110,160), (112,137), (113,127), (113,170), (113,192), (113,198), (114,164), (115,120), (115,128), (115,131), (115,141), (115,149), (115,174), (115,176), (116,136), (116,157), (116,180), (117,136), (117,157), (117,177), (118,173), (119,121), (120,128), (120,131), (120,141), (120,149), (120,188), (121,182), (122,154), (122,160), (123,143), (123,184), (123,186), (124,169), (124,172), (125,177), (126,162), (127,170), (127,198), (128,141), (128,142), (128,149), (128,188), (129,148), (131,149), (131,174), (132,158), (132,181), (132,192), (132,198), (133,144), (133,199), (134,156), (134,193), (135,171), (135,187), (135,194), (136,157), (136,177), (137,152), (138,142), (138,143), (138,150), (139,174), (139,176), (140,145), (140,161), (140,190), (141,142), (141,149), (141,188), (142,188), (143,150), (143,184), (143,186), (145,161), (145,178), (145,190), (147,162), (149,188), (150,184), (150,186), (151,166), (151,167), (151,185), (154,160), (155,182), (156,193), (157,177), (157,180), (159,191), (159,195), (161,178), (161,190), (163,165), (166,167), (166,185), (167,185), (168,179), (168,197), (169,172), (170,192), (170,198), (171,187), (171,194), (174,176), (178,183), (178,190), (179,197), (181,192), (181,198), (184,186), (187,194), (189,191), (189,195), (191,195), (192,198)]
3.8502883136354033E-4, [(119,182),Y]+
0.0011131642774444767, [(4,119),X]-
0.0011971807635566085, [(119,182),Y]-
0.0013373937809426058, [(31,163),X]-
0.0029771367828140155, [(137,152),Y]-
0.003304167414191917, [(38,65),X]-
0.0038004665087513928, [(97,162),Y]+
0.004328697658180054, [(29,174),Y]-
0.004864490591946964, [(146,176),X]-
0.004910850224802368, [(48,121),Y]+
0.005739818997420703, [(118,158),X]-
0.007102123142988587, [(84,98),X]-
0.00768990115265437, [(39,149),Y]-
0.007876794589086623, [(72,112),Y]-
0.007979535415450689, [(15,29),X]+
0.008389039927901559, [(148,194),X]-
0.008416675868670022, [(38,70),Y]+
0.009025912019506775, [(63,96),Y]-
0.009431640941784152, [(142,150),Y]+
0.010708055096181338, [(86,125),Y]+
0.012643494723708478, [(101,113),X]-
0.01293761024813911, [(56,69),X]-
0.013412402789150138, [(0,103),Y]-
0.013528454031866692, [(9,176),Y]-
0.013701694383697068, [(117,125),Y]+
0.014664425037712979, [(32,185),Y]-
0.014760519647852651, [(108,134),Y]-
0.016075891728599693, [(9,188),X]-
0.016377427660486256, [(6,31),Y]+
0.018289052558448572, [(8,143),X]-
0.01841102323380102, [(101,133),Y]+
0.018469162731463113, [(59,189),Y]+
0.01862635929960808, [(121,135),Y]+
0.019248045544803756, [(28,126),Y]-
0.019705510200922594, [(166,199),X]-
0.019815122040018836, [(26,58),X]-
0.019889035907504796, [(102,165),X]-
0.020421453374114495, [(66,126),Y]-
0.020684834029161034, [(126,162),X]+
0.021142374979284652, [(128,180),X]+
0.021903993293659142, [(77,186),X]-
0.022163339171247562, [(66,126),Y]+
0.022163339171247562, [(28,126),Y]+
0.0235572968713691, [(16,188),X]-
0.02489835042184967, [(10,141),Y]+
0.025082453147953473, [(20,159),Y]-
0.025381233909426534, [(51,54),X]+
0.025597203963075205, [(9,141),Y]+
0.025746611053928174, [(32,124),X]-
0.025912375287064908, [(46,178),X]+
0.026332220666402506, [(17,159),X]-
0.027395184643763976, [(16,105),Y]-
0.02778921894204156, [(131,141),Y]+
0.0281553377538978, [(37,190),Y]-
0.028727147828946177, [(37,38),Y]+
0.02937541974309408, [(38,65),X]+
0.02983952347502729, [(115,139),Y]+
0.030339082341389243, [(72,137),Y]-
0.03044574826197208, [(24,119),X]-
0.030526099254344238, [(132,177),X]-
0.030903955509815804, [(12,117),Y]+
0.031158844328610963, [(150,185),X]+
0.031182190105126618, [(0,71),Y]-
0.031936289524959326, [(11,92),Y]-
0.032394530612029494, [(92,167),Y]-
0.03290022762147752, [(9,176),Y]+
0.033005254697829056, [(35,195),Y]+
0.033271748368825446, [(109,114),Y]-
0.033312532405155554, [(65,67),Y]-
0.033804798063218844, [(66,162),Y]+
0.03395500737958236, [(8,27),Y]+
0.03419323011475795, [(28,55),X]-
0.03426619628829546, [(69,85),Y]-
0.0350059475705042, [(115,128),Y]-
0.03615212430409404, [(32,146),X]-
0.036679799281099185, [(80,81),X]+
0.03741452741824177, [(167,186),X]+
0.03768436951870091, [(51,90),Y]-
0.038102790033825176, [(65,147),Y]+
0.03817089861015514, [(21,41),X]-
0.03907302693646939, [(15,175),X]+
0.039227858112098904, [(26,123),Y]+
0.03929971520956397, [(99,138),X]-
0.03930218190137891, [(9,141),Y]-
0.039411607555266896, [(21,41),X]+
0.03960731165032585, [(31,157),X]+
0.039672057134945635, [(65,67),Y]+
0.03982333331245242, [(84,98),Y]+
0.04130809789720138, [(108,187),X]-
0.04147047146153162, [(28,186),X]-
0.04182317380987262, [(14,198),X]+
0.04191672152196039, [(64,83),Y]-
0.041936393008338534, [(46,51),X]-
0.04196299693879235, [(40,169),Y]-
0.042928271505709076, [(141,195),X]+
0.04378054894559746, [(9,188),X]+
0.043826048756826094, [(41,158),Y]+
0.044015556720306596, [(39,149),Y]+
0.04502877480140664, [(98,115),X]-
0.04540614696562973, [(7,114),Y]+
0.04577123467095488, [(80,160),Y]+
0.04606503538556054, [(32,124),X]+
0.04606981839257332, [(73,84),X]+
0.046203417651107276, [(108,187),X]+
0.04626291208576768, [(45,83),Y]+
0.04628495345177917, [(22,138),Y]-
0.0467293365787975, [(28,55),X]+
0.04678683402728029, [(3,179),Y]-
0.04724565259294348, [(12,137),X]-
0.04791112362432668, [(61,179),X]-
0.048959221520683466, [(189,195),Y]-
0.049022314727003115, [(170,192),Y]-
0.04986717615384921, [(30,102),Y]+
0.05000330184681116, [(55,61),Y]-
0.050246720513108904, [(4,110),X]-
0.05071354057752827, [(111,184),X]-
0.05208258825630422, [(57,169),X]+
0.05238212670331402, [(168,173),X]-
0.052416577397417806, [(132,198),Y]-
0.05275006469168384, [(4,147),X]+
0.05323095171827517, [(140,145),Y]-
0.054621839070870086, [(22,36),X]+
0.05463952132791174, [(9,12),X]-
0.05483849606729634, [(137,152),Y]+
0.05483849606729634, [(112,152),Y]+
0.05493091992180279, [(128,142),Y]-
0.054970549172617705, [(69,136),Y]+
0.055063869824090665, [(35,191),Y]+
0.05515305325599118, [(158,176),X]-
0.055697925595272105, [(46,136),X]+
0.056023114022376926, [(108,178),X]-
0.056213124695760265, [(1,54),X]-
0.05693361187149929, [(134,156),Y]-
0.05820796015015036, [(124,183),X]+
0.05838163800619803, [(105,110),Y]+
0.058564581844668985, [(168,173),X]+
0.059032750006185845, [(103,130),Y]-
0.05941322471889448, [(19,106),X]-
0.06018311836809802, [(113,192),Y]-
0.06054339400011749, [(4,67),X]+
0.06095631281338893, [(121,194),Y]+
0.06116677267418048, [(167,186),X]-
0.0617047899737771, [(0,83),X]-
0.06172108250646271, [(125,136),Y]+
0.06196851950266086, [(77,78),X]-
0.062040492796503074, [(111,167),X]-
0.06253815035229626, [(76,104),Y]-
0.0632636823703697, [(127,160),X]-
0.06397429854027104, [(146,199),X]+
0.06402811705885929, [(4,110),X]+
0.06414970275120307, [(101,160),X]-
0.06500291325729783, [(101,160),X]+
0.06500291325729783, [(127,160),X]+
0.06506819176206358, [(3,94),Y]+
0.0651674310730084, [(39,138),Y]+
0.06537719050897395, [(111,167),X]+
0.06677921891652921, [(51,90),Y]+
0.06696552367112256, [(53,69),Y]-
0.06748856039068203, [(37,47),Y]-
0.06748856039068203, [(47,70),Y]-
0.06848203399774987, [(12,140),X]+
0.06937116792488503, [(3,94),Y]-
0.06949366497982427, [(37,85),X]+
0.0695161863759024, [(52,83),Y]-
0.06979555077042285, [(124,183),X]-
0.07048412253050035, [(15,156),X]+
0.07131378086974996, [(56,109),X]+
0.07183701259993833, [(31,81),Y]-
0.07480656172665133, [(9,139),Y]+
0.07586500964633633, [(5,163),Y]-
0.07794507869370602, [(3,179),Y]+
0.07803295840290532, [(35,187),X]+
0.07903877986559135, [(91,141),Y]-
0.0791200536186876, [(164,175),Y]+
0.07939504359982247, [(114,175),Y]+
0.0795284864375371, [(164,175),Y]-
0.07972767636443631, [(40,114),Y]+
0.07985671618088767, [(40,114),Y]-
0.08019447807033576, [(40,114),Y]+
0.08023827818248287, [(138,143),Y]-
0.08048781781713749, [(60,61),Y]+
0.08085383737722573, [(69,177),Y]+
0.08200374571493321, [(170,179),X]+
0.0820101410333064, [(25,150),X]-
0.0820517533196528, [(126,147),Y]+
0.08296013951473434, [(78,126),Y]+
0.08314609283216512, [(113,174),X]+
0.08335798870610102, [(97,126),Y]+
0.08401591502279872, [(124,183),X]+
0.08425639592249595, [(36,107),X]-
0.08522667425703447, [(121,155),Y]+
0.0855869989272989, [(67,86),X]+
0.08571226756328244, [(14,27),Y]+
0.08573119666957336, [(105,110),Y]-
0.08600347257922845, [(141,142),Y]-
0.08616431305316365, [(69,177),Y]-
0.08693627616691615, [(78,126),Y]-
0.08693627616691615, [(97,126),Y]-
0.08693627616691615, [(97,126),Y]+
0.08787164383303275, [(92,137),Y]+
0.08884992486713461, [(84,160),X]+
0.08960957560586516, [(108,136),X]-
0.08993472639131278, [(146,151),X]-
0.09005335367142166, [(189,191),Y]-
0.09022889506792559, [(24,104),X]+
0.09041219635201518, [(13,26),Y]-
0.09041219635201518, [(26,123),Y]-
0.09050307351856117, [(13,159),X]-
0.09083137809243896, [(84,186),Y]+
0.09083137809243896, [(84,106),Y]+
0.09104013006438387, [(72,81),X]-
0.09104013006438387, [(80,81),X]-
0.091118847117155, [(84,91),Y]-
0.09129539803350509, [(100,157),Y]-
0.09143451379624086, [(2,143),X]+
0.0931665090162561, [(121,187),Y]+
0.0950674811003141, [(52,119),Y]-
0.09542366259426434, [(11,89),X]-
0.09570015471312544, [(36,82),X]+
0.09591696182421194, [(8,25),X]+
0.09596823007705228, [(84,160),X]-
0.09596823007705228, [(84,160),X]+
0.09612683024662987, [(2,58),Y]+
0.0971727873119172, [(67,133),Y]+
0.09734807728413818, [(76,199),Y]+
0.09770077995094, [(52,134),X]+
0.09796446146836256, [(117,166),X]+
0.0983588000032161, [(14,108),Y]-
0.09868603410971437, [(107,159),Y]+
0.09902092754542358, [(69,85),Y]+
0.1001920908126043, [(73,141),X]-
0.1005821296432497, [(40,66),X]-
0.1010643234924998, [(10,60),X]-
0.10150807260881464, [(121,187),Y]-
0.1017203311588082, [(62,133),Y]-
0.10190016913851221, [(82,153),X]-
0.10324817241304009, [(131,174),Y]-
0.10326556470145021, [(62,133),Y]+
0.10393512179765785, [(8,153),Y]+
0.10395391830216279, [(79,194),X]+
0.10458356473906379, [(98,127),X]+
0.10521718309334951, [(84,106),Y]-
0.10534239229403226, [(134,193),Y]-
0.10673540245924679, [(148,194),X]+
0.10673540245924679, [(71,194),X]+
0.10682152996410207, [(14,193),Y]-
0.109424886858816, [(77,107),Y]-
0.10984611454920358, [(35,152),X]-
0.11081699612331211, [(128,142),Y]+
0.11081699612331211, [(91,128),Y]+
0.11107453538179698, [(3,87),X]+
0.11239537938810996, [(67,86),X]-
0.11338913948429599, [(75,89),X]+
0.11379249510340136, [(80,105),Y]-
0.11398278439024984, [(158,199),X]+
0.11416715626406843, [(18,125),X]-
0.1147594949987319, [(12,117),Y]-
0.1147594949987319, [(12,117),Y]+
0.11485657059424827, [(120,143),X]+
0.11519188991930727, [(9,12),X]+
0.11543375311666385, [(84,121),X]-
0.11591044500167098, [(26,29),X]-
0.11752584054127305, [(62,76),Y]+
0.11808783233143011, [(35,114),X]+
0.11841009454458293, [(18,155),X]-
0.1196979685984353, [(49,87),X]+
0.11988738357985235, [(93,136),Y]+
0.12048927575094337, [(34,44),Y]-
0.12083114042527479, [(113,192),Y]+
0.12083114042527479, [(170,192),Y]+
0.12111338194717927, [(78,162),Y]-
0.12114697306571208, [(42,132),X]-
0.12131196669339278, [(103,146),Y]+
0.12151434277178619, [(58,66),X]+
0.12304047889836735, [(59,126),X]-
0.12316332764638194, [(15,16),Y]+
0.12327067089122884, [(11,93),X]+
0.12342227765845779, [(164,183),X]-
0.12379602613083576, [(59,191),X]+
0.12460688854128073, [(14,153),Y]+
0.12599565595790702, [(140,161),Y]-
0.12654924410373344, [(90,109),X]+
0.1269260880512787, [(15,19),X]-
0.1269323884230197, [(10,128),Y]+
0.1274182873487381, [(35,152),X]+
0.12748333148950586, [(26,175),X]-
0.12833419153038256, [(18,57),X]+
0.13043557712270198, [(11,93),X]-
0.13099893633188422, [(38,140),Y]+
0.13132098388946828, [(157,180),Y]-
0.1316470105831021, [(11,130),Y]+
0.1319962693177604, [(22,84),Y]-
0.1319962693177604, [(22,84),Y]+
0.13201129878086737, [(31,81),Y]+
0.13245250235522216, [(141,195),X]-
0.13353622008305746, [(5,75),X]+
0.13359294480660086, [(14,193),Y]+
0.13468000446297146, [(160,174),X]+
0.1350168207089223, [(138,188),Y]+
0.1367277975626628, [(115,141),Y]-
0.13710777179576233, [(6,195),X]+
0.13820090687347708, [(178,183),Y]-
0.139117314822619, [(56,133),Y]+
0.14172905878437084, [(132,192),Y]-
0.14317834141708835, [(60,102),X]-
0.14428127764944262, [(154,160),Y]-
0.14448842018086883, [(59,189),Y]-
0.14554958161871617, [(87,174),Y]+
0.1457984161149497, [(71,130),Y]-
0.14895310068865525, [(54,138),X]-
0.14974439639676063, [(132,179),X]+
0.14980472764597816, [(137,152),Y]-
0.15009767210505198, [(79,151),X]+
0.15082197509526538, [(54,163),Y]-
0.15185535006782283, [(14,153),Y]-
0.15185535006782283, [(14,27),Y]-
0.15300208649172845, [(99,133),X]-
0.15315464282188085, [(156,183),Y]+
0.15405589100667894, [(58,125),Y]+
0.15418717443843474, [(19,67),Y]+
0.15418717443843474, [(19,56),Y]+
0.1546976584122505, [(11,130),Y]-
0.15558580288912569, [(0,71),Y]+
0.15736156549835018, [(76,124),X]+
0.159305575085813, [(9,139),Y]-
0.15932770723734518, [(146,161),X]-
0.15947210186203825, [(13,159),X]+
0.1606019640758973, [(22,153),X]-
0.16066994697913345, [(115,182),X]-
0.1615999946785622, [(4,104),X]+
0.1623223214669654, [(75,81),Y]+
0.16334031043675826, [(98,142),Y]+
0.1634193793720098, [(87,174),Y]-
0.1637282881212503, [(83,99),X]+
0.16384316253998968, [(93,102),Y]+
0.16408882730594773, [(64,157),X]-
0.16470280623857664, [(128,130),X]+
0.16531802062537296, [(20,66),Y]+
0.16543224023003997, [(42,76),Y]+
0.1654427885754587, [(110,122),Y]-
0.16551853690463983, [(61,97),Y]-
0.16601148329535786, [(21,38),Y]-
0.16615948409737322, [(126,192),X]+
0.16701639583987984, [(2,182),X]-
0.1672633654249717, [(41,132),Y]+
0.1679200037528836, [(102,116),Y]+
0.16831013964702587, [(13,150),Y]+
0.16920818126549592, [(2,157),Y]+
0.17074125225596845, [(93,102),Y]-
0.17134087765633707, [(9,29),Y]-
0.17208612709814172, [(176,183),X]-
0.17251054136538563, [(141,160),X]-
0.17251054136538563, [(160,174),X]-
0.17318654272296852, [(130,198),X]-
0.17427557116389433, [(61,78),Y]-
0.17432299156785006, [(140,190),Y]-
0.1748312536574219, [(2,149),X]-
0.17535748225613187, [(74,114),Y]+
0.17535748225613187, [(74,114),Y]-
0.17561018050411797, [(168,173),Y]+
0.17611845831652487, [(30,48),X]+
0.17615784725141054, [(120,182),X]+
0.17756000704008265, [(50,148),X]-
0.1775880533016123, [(76,117),X]+
0.17778395004983868, [(60,108),X]+
0.1792294827618381, [(10,60),X]+
0.17933147102320504, [(157,180),Y]+
0.17963849613791139, [(65,144),X]+
0.18137179606711196, [(63,96),Y]+
0.18182466963340554, [(20,186),X]-
0.18192117061788118, [(14,193),Y]-
0.1837992339018651, [(112,132),X]-
0.18395429972583857, [(80,92),X]-
0.18403744514973777, [(21,196),Y]-
0.18403744514973777, [(21,47),Y]-
0.18416551311162296, [(33,36),X]+
0.18417088934735482, [(119,171),X]-
0.18519970530647645, [(16,139),X]-
0.1854353099833787, [(84,185),X]-
0.1859419306732138, [(55,167),X]+
0.18617388996338197, [(26,175),X]+
0.18713403008898408, [(137,151),Y]+
0.18840082191282095, [(140,196),Y]+
0.18926778664000687, [(57,78),X]+
0.18969130252964977, [(53,93),Y]-
0.19008218216706443, [(77,111),X]-
0.1909797524926132, [(57,169),X]-
0.19133503560624135, [(183,194),X]-
0.1914412769816323, [(74,169),Y]-
0.1921528271830307, [(180,186),X]-
0.19272395534551373, [(98,123),Y]-
0.19347869349319338, [(75,123),X]-
0.19614295843739563, [(34,177),X]-
0.19658564077932808, [(70,141),X]-
0.19712541143398918, [(63,83),X]-
0.19738751371797525, [(5,37),X]+
0.19758864170531154, [(119,142),X]+
0.19852164939820707, [(36,137),Y]-
0.1991789283549896, [(84,184),Y]+
0.19970826887725604, [(60,108),X]-
0.19983779748994243, [(132,181),Y]-
0.20047704811212583, [(53,93),Y]+
0.20132988563535603, [(126,137),X]-
0.20140361222887546, [(134,163),X]-
0.20446303404113855, [(5,37),X]-
0.2045123318705606, [(16,162),X]+
0.20502662051952067, [(118,183),X]-
0.20527871907196313, [(21,34),X]+
0.2056305162301998, [(161,194),X]-
0.20567613683745303, [(19,91),X]+
0.20579644022044313, [(16,168),X]-
0.20695110852248252, [(120,182),X]-
0.20695110852248252, [(120,149),X]-
0.20732117155069504, [(110,160),Y]-
0.20732117155069504, [(80,160),Y]-
0.20780619360670685, [(27,50),Y]+
0.20852915197908442, [(112,177),X]-
0.20852915197908442, [(42,177),X]-
0.20945747000831488, [(41,158),Y]-
0.20961274371367888, [(155,169),X]-
0.20973715380344768, [(16,59),X]-
0.20991037901885412, [(98,127),X]-
0.21045214968253093, [(16,59),X]+
0.2108835644461678, [(48,187),Y]-
0.21174187276980214, [(102,107),X]-
0.211804239984753, [(45,54),Y]+
0.21232185735408382, [(137,191),X]+
0.212677717645987, [(34,160),Y]-
0.21341693089511607, [(100,187),X]+
0.21608725620302063, [(125,157),Y]+
0.21661297837605756, [(6,24),Y]+
0.2167916839197273, [(84,138),Y]-
0.2171638844393536, [(73,101),Y]-
0.2194008060999248, [(113,141),X]-
0.220891472213295, [(52,119),Y]+
0.220891472213295, [(52,119),Y]-
0.2209668474385871, [(91,190),X]+
0.2211797010339522, [(16,59),X]-
0.22157825354508595, [(141,189),X]-
0.22159359228182812, [(6,35),Y]+
0.22174847038269288, [(10,188),Y]+
0.22223876258701317, [(79,193),Y]-
0.2240133487979858, [(141,189),X]+
0.2240133487979858, [(113,141),X]+
0.2244521843778657, [(57,67),Y]+
0.22478806932940087, [(97,135),X]+
0.2276302060423458, [(64,157),X]+
0.22784962504164966, [(111,132),Y]+
0.2291256987462083, [(44,119),X]+
0.23090208295505416, [(31,64),X]+
0.2318197836045839, [(31,107),Y]+
0.2318675689646887, [(15,130),Y]-
0.23212276435103837, [(6,24),Y]-
0.23212276435103846, [(24,75),Y]+
0.23360782594598103, [(154,168),X]+
0.23442787822235944, [(142,172),X]+
0.23471882687281934, [(7,90),Y]-
0.23809293043711555, [(57,67),Y]-
0.24092975838509934, [(64,125),X]+
0.24106773889650263, [(106,156),X]-
0.2413281134744153, [(67,144),Y]+
0.24197029746813542, [(53,119),X]-
0.2431881502097429, [(98,138),Y]+
0.2431881502097429, [(84,138),Y]+
0.24563883868825714, [(53,93),Y]-
0.24624090244382657, [(142,172),X]-
0.247349353739053, [(91,190),X]-
0.24931218096203445, [(26,83),X]+
0.24931218096203445, [(63,83),X]+
0.24931218096203445, [(0,83),X]+
0.24980751861711492, [(116,186),X]-
0.2520908650124895, [(91,190),X]+
0.2522092638552687, [(84,185),X]+
0.2522092638552687, [(84,121),X]+
0.2522451835291354, [(76,179),Y]-
0.2527386879789354, [(105,146),Y]-
0.2547659398609274, [(76,124),X]-
0.2548223780261521, [(99,138),X]+
0.2557902769054901, [(9,29),Y]+
0.2570582664753093, [(75,159),Y]+
0.2572428603011587, [(43,159),X]+
0.2602318332071235, [(82,178),X]-
0.2604182870910145, [(72,152),Y]-
0.2607096225856436, [(81,120),X]-
0.26182992103446995, [(72,152),Y]+
0.2633309151314632, [(91,150),Y]+
0.2657448222006705, [(108,165),X]+
0.2657448222006705, [(108,165),X]-
0.2667199027713055, [(123,184),Y]-
0.26907477090671367, [(26,175),X]-
0.26915961912578307, [(70,141),X]+
0.2704613874062486, [(79,151),X]-
0.27155491152993544, [(20,47),X]-
0.2718047821130776, [(40,90),Y]-
0.27190457657667894, [(72,150),X]+
0.27190457657667894, [(25,150),X]+
0.27282913191984975, [(137,166),Y]+
0.27302894634754094, [(98,142),Y]-
0.27302894634754094, [(138,186),Y]+
0.2752466520318186, [(6,87),X]+
0.2770349533236338, [(53,119),X]+
0.27750660840952435, [(86,181),X]-
0.2800366102341164, [(16,137),X]-
0.2800366102341164, [(16,137),X]+
0.2807580940743501, [(21,112),X]+
0.2807580940743501, [(21,42),X]+
0.28085017435057874, [(100,114),X]+
0.281014830689875, [(77,116),X]-
0.2810259538848275, [(118,183),X]+
0.2810259538848275, [(176,183),X]+
0.28161303208828997, [(20,35),Y]+
0.28195667081016584, [(69,159),X]+
0.28195667081016584, [(69,109),X]+
0.28330616335375586, [(42,57),Y]-
0.2839926773471338, [(16,192),X]+
0.2847842948758044, [(56,69),X]+
0.2847842948758044, [(30,69),X]+
0.2853510469494668, [(169,172),Y]-
0.28552516310912635, [(42,144),Y]-
0.2857500891168413, [(28,162),Y]+
0.2863039559271792, [(47,70),Y]+
0.28643590753915477, [(90,177),X]+
0.2888843365485245, [(8,76),X]-
0.2888843365485245, [(76,117),X]-
0.29000492734251626, [(76,133),Y]+
0.2911121333685632, [(3,174),X]+
0.29218760397736987, [(94,126),X]+
0.29218760397736987, [(16,94),X]+
0.29235018162497517, [(127,198),Y]-
0.29334686282538447, [(34,131),X]-
0.29334686282538447, [(112,131),X]-
0.29438463524025876, [(91,150),Y]-
0.29438463524025876, [(91,150),Y]+
0.29438463524025876, [(84,91),Y]+
0.2945032801726735, [(106,175),X]-
0.2945032801726735, [(29,106),X]-
0.29570859749638356, [(115,182),X]+
0.2966099022199115, [(33,108),X]-
0.2966099022199115, [(33,36),X]-
0.29681684210439585, [(85,134),X]+
0.29732258115730276, [(22,178),X]-
0.29768811277608265, [(169,172),Y]+
0.29774160728061555, [(15,130),Y]+
0.29867573468964326, [(1,83),X]+
0.2995474931238403, [(75,123),X]+
0.30018936119118056, [(54,155),Y]+
0.30042759401839897, [(111,132),Y]-
0.30114599720161767, [(61,67),Y]+
0.30298307527769514, [(16,146),Y]-
0.30298307527769514, [(103,146),Y]-
0.3046720714311257, [(40,90),Y]+
0.3046720714311257, [(7,90),Y]+
0.3046966167680965, [(34,170),X]+
0.30473733248574447, [(20,189),Y]-
0.30473733248574447, [(20,66),Y]-
0.30531209277021243, [(47,116),X]-
0.3060220300321695, [(20,35),Y]-
0.3062962633165188, [(61,91),X]+
0.3062962633165188, [(61,91),X]-
0.3066562723340237, [(48,187),Y]+
0.3066562723340237, [(48,187),Y]-
0.3067267523346794, [(4,98),Y]-
0.30730769689896204, [(41,66),X]+
0.30730769689896204, [(40,66),X]+
0.30781451189834164, [(85,157),Y]+
0.31216689681372634, [(37,52),X]+
0.3122865888423982, [(18,130),X]+
0.31234839725365265, [(16,139),X]+
0.3125126816171058, [(124,143),X]-
0.3130894082661919, [(89,137),Y]-
0.3148383876504492, [(17,109),X]-
0.315723350913166, [(36,60),X]-
0.31818660127422904, [(97,135),X]-
0.32123471747737403, [(73,101),Y]+
0.32227648616452487, [(28,130),X]+
0.32280983732010654, [(130,198),X]+
0.3237615897481117, [(131,177),X]-
0.32412571040233185, [(60,133),Y]+
0.3259224847199303, [(28,78),X]+
0.32748044945386373, [(24,195),Y]-
0.32828168051928763, [(2,199),X]+
0.32921841568623994, [(112,170),X]+
0.3302754722475352, [(120,143),X]-
0.3302754722475352, [(120,143),X]+
0.3308246515352424, [(88,135),X]-
0.3322247456259386, [(128,138),Y]+
0.3329349909129858, [(146,146),X]+
0.3343490454602106, [(72,117),X]-
0.33843827149702344, [(10,187),X]+
0.338585354439635, [(18,78),X]+
0.3417124834987226, [(119,142),X]-
0.3417124834987226, [(44,172),X]-
0.34353018654945755, [(2,157),Y]-
0.34353018654945755, [(2,136),Y]-
0.3443654027836611, [(19,199),Y]-
0.3443654027836611, [(19,199),Y]+
0.3446150883740765, [(77,130),X]+
0.34671798909569235, [(31,107),Y]-
0.3484112193827786, [(112,151),Y]+
0.35077470054067256, [(183,190),Y]+
0.35104001167354526, [(131,174),Y]+
0.35104001167354526, [(131,174),Y]-
0.35393783357136344, [(18,78),X]-
0.3545445438425627, [(98,106),Y]-
0.35686446125857074, [(87,172),X]-
0.35686446125857074, [(6,87),X]-
0.35882244168270216, [(99,109),Y]+
0.35917471974241877, [(64,155),X]+
0.35940777967000404, [(54,83),Y]+
0.3609001895694292, [(74,89),X]+
0.36129892911540346, [(10,187),X]-
0.3641855798180924, [(155,169),X]+
0.3668180943824, [(33,153),X]-
0.3687410410742221, [(148,194),X]-
0.3689821507964456, [(61,147),Y]-
0.36914543888801904, [(158,181),Y]+
0.36914543888801904, [(158,192),Y]+
0.36943218240470355, [(41,111),Y]-
0.370791468167139, [(151,167),Y]-
0.370791468167139, [(151,167),Y]+
0.3725781039171316, [(48,109),X]-
0.3725781039171316, [(30,48),X]-
0.37288605019428617, [(24,75),Y]-
0.37288605019428617, [(75,159),Y]-
0.37371074366275175, [(13,98),Y]-
0.3750505994177335, [(62,133),X]+
0.37589913197503777, [(148,164),X]-
0.38103661146302115, [(20,35),Y]+
0.38103661146302115, [(20,159),Y]+
0.38244759374716847, [(14,18),X]-
0.38479391002713503, [(23,130),Y]-
0.3868597560649481, [(75,107),Y]-
0.38693081138171015, [(97,122),X]-
0.38909856274231225, [(109,173),Y]+
0.38909856274231225, [(43,109),Y]+
0.38909856274231225, [(109,118),Y]+
0.39276691757238974, [(21,61),X]+
0.3976682570472896, [(82,108),X]-
0.4000080716648117, [(77,116),X]+
0.4031788036458393, [(34,44),Y]+
0.4031788036458393, [(44,154),Y]+
0.40417436700848064, [(73,185),X]+
0.4064352198211718, [(54,155),Y]-
0.40841411660062105, [(149,150),X]+
0.40841411660062105, [(80,150),X]+
0.4094008492539716, [(76,179),Y]+
0.40962436822838433, [(75,107),Y]+
0.4138085661343199, [(13,184),Y]-
0.4140155314760429, [(61,147),Y]+
0.41486287039339526, [(47,196),X]-
0.4153663738019946, [(57,78),X]-
0.4164993672693912, [(55,59),Y]+
0.4169969045078685, [(118,124),X]+
0.4188994851297347, [(23,155),X]+
0.42098317621703896, [(8,166),X]-
0.42155248667151757, [(151,185),Y]-
0.42155248667151757, [(151,185),Y]+
0.4245752511034687, [(146,199),X]-
0.4252486456990546, [(159,177),X]+
0.42670962014868746, [(128,138),Y]-
0.43047012594328854, [(24,173),X]+
0.43245884253160555, [(49,160),X]-
0.43699381570541357, [(2,157),Y]+
0.44056630707803257, [(137,191),X]-
0.44056630707803257, [(59,191),X]-
0.44237179996540377, [(45,92),X]+
0.44443012379177593, [(9,29),Y]-
0.44697809286031664, [(47,184),X]-
0.45128958760502313, [(20,128),X]+
0.45243273287604324, [(55,78),Y]-
0.4526480630413736, [(94,99),Y]-
0.45337009185938226, [(72,152),Y]-
0.45337009185938226, [(26,152),Y]-
0.4536715921582816, [(113,181),Y]+
0.454397088061772, [(82,136),X]-
0.45792975655340606, [(16,103),Y]-
0.45872281319329017, [(126,140),X]+
0.45930868161784166, [(56,177),X]+
0.45930868161784166, [(109,177),X]+
0.4595020412769914, [(26,99),X]+
0.4605612749270227, [(33,178),X]-
0.46346802021984, [(75,77),Y]-
0.46571493879280557, [(62,133),X]-
0.4661093110052024, [(26,99),X]-
0.47330665469653954, [(114,164),Y]-
0.47551755749577473, [(100,157),Y]+
0.47551755749577473, [(100,157),Y]-
0.47912436900419825, [(34,42),X]-
0.47912436900419825, [(34,42),X]+
0.4809859259624886, [(43,94),Y]-
0.4809859259624886, [(94,118),Y]-
0.48754281186293447, [(22,136),X]-
0.4895702653169953, [(82,134),Y]-
0.49317162160325134, [(45,115),X]+
0.5032315148027432, [(31,64),X]-
0.5032315148027432, [(31,64),X]+
0.5048985026108683, [(148,148),X]+
0.5075004747313531, [(22,46),X]+
0.5075004747313531, [(22,136),X]+
0.5075004747313531, [(22,178),X]+
0.5080883949396067, [(88,156),Y]+
0.510511036915869, [(73,133),Y]+
0.5107885899207336, [(12,96),X]+
0.5108288071262994, [(42,179),Y]+
0.5108288071262994, [(42,179),Y]-
0.5137110562111507, [(34,179),X]+
0.5140646186260247, [(83,138),X]+
0.5175315668219361, [(130,180),X]+
0.5176804084347656, [(131,177),X]+
0.5188175277383476, [(163,163),Y]+
0.5191040134606663, [(8,120),X]-
0.5214254144384348, [(24,188),X]+
0.5254573702831707, [(22,108),X]-
0.5265649578009355, [(27,50),Y]-
0.5316431626948853, [(121,194),Y]-
0.5344833691035304, [(35,107),Y]-
0.5402953165327552, [(18,169),X]-
0.5453744015249659, [(157,163),X]+
0.5507269894105153, [(8,166),X]+
0.5576324815224774, [(67,188),X]+
0.5596160244942632, [(12,137),X]+
0.5596160244942632, [(12,139),X]+
0.5596160244942632, [(12,139),X]-
0.5598159122979445, [(13,90),X]+
0.560486597819127, [(46,82),X]+
0.5662232832298755, [(62,76),Y]-
0.5669890005377386, [(29,128),Y]-
0.5731679594931842, [(132,158),Y]-
0.5740967267151886, [(83,156),X]+
0.5770094508854118, [(50,71),X]-
0.5843814304144762, [(158,192),Y]-
0.5872384609950015, [(47,103),X]-
0.590781178812087, [(86,136),Y]-
0.593170386978618, [(22,36),X]-
0.5953540616142398, [(140,190),Y]+
0.595944868772279, [(38,123),X]+
0.5978190709326341, [(148,154),Y]+
0.6024844281564121, [(21,95),Y]+
0.6061660140184416, [(155,157),X]+
0.6090733000137426, [(110,110),Y]+
0.6127156646711438, [(53,119),X]-
0.6128448706506526, [(107,165),X]-
0.6244460284650146, [(147,188),X]+
0.6244460284650146, [(181,188),X]+
0.6244460284650146, [(181,188),X]-
0.640779030608415, [(16,103),Y]+
0.6412463090994485, [(34,148),Y]+
0.6464570531894547, [(63,83),Y]+
0.6480171896353392, [(156,190),Y]+
0.6492801625427563, [(72,89),Y]-
0.6492801625427563, [(72,89),Y]+
0.6519097915953993, [(42,170),X]+
0.6522740998508527, [(82,134),Y]+
0.6544479100575507, [(36,60),X]+
0.6553117462011647, [(136,180),Y]+
0.6566291829806274, [(100,187),X]-
0.6566291829806274, [(107,165),X]+
0.6585423058058221, [(58,106),X]-
0.6707210207109153, [(28,78),X]-
0.6763820029810603, [(42,177),X]+
0.6763820029810603, [(42,177),X]-
0.6767234265091204, [(34,179),X]-
0.6773318449008351, [(39,150),Y]+
0.6773318449008351, [(39,150),Y]-
0.6786261660732111, [(16,192),X]-
0.6798337577077179, [(34,148),Y]-
0.6798337577077179, [(148,154),Y]-
0.6813097586549441, [(46,153),X]-
0.6828055901013742, [(146,146),Y]+
0.6840063057745813, [(47,184),X]+
0.6854393781614369, [(46,95),Y]+
0.6866807194037989, [(1,26),X]+
0.6866807194037989, [(1,63),X]+
0.6942272339165733, [(33,136),X]-
0.7068761345091595, [(58,180),Y]+
0.7124644179791376, [(103,196),X]-
0.7129520292332011, [(143,158),X]+
0.7129520292332011, [(143,158),X]-
0.7129520292332011, [(143,158),X]+
0.7198089171715555, [(46,153),X]+
0.7235491749314052, [(33,82),X]-
0.7235491749314052, [(33,33),X]+
0.7291327633717064, [(87,113),X]+
0.7335570217726507, [(83,165),Y]+
0.7354186681938293, [(150,182),X]+
0.7362557047055073, [(20,130),X]+
0.741885608985115, [(83,138),X]-
0.7468305706285179, [(49,160),X]+
0.7495926841957717, [(132,158),Y]+
0.756911991117407, [(84,106),Y]+
0.756911991117407, [(84,106),Y]-
0.756911991117407, [(106,184),Y]-
0.7571598022714272, [(24,191),X]+
0.7572502169577449, [(135,135),X]+
0.7627369220923588, [(0,16),Y]+
0.7633469856155679, [(18,169),X]+
0.7665281400051456, [(7,178),X]+
0.7704598321311932, [(132,179),X]-
0.782725942764324, [(7,178),X]-
0.7879617889406849, [(196,197),X]+
0.7881898990600315, [(58,106),X]+
0.7922882329178068, [(24,191),X]-
0.7970512470489116, [(24,154),X]+
0.8092326722855248, [(9,94),X]+
0.8092326722855248, [(94,96),X]+
0.8104576869933351, [(181,188),X]+
0.813149907769881, [(1,133),X]-
0.8193249004055858, [(110,119),X]-
0.8193249004055858, [(110,119),X]+
0.81938988811004, [(48,48),X]+
0.8198208841180495, [(30,177),X]+
0.8256116502090007, [(92,112),Y]+
0.8454383354682505, [(99,164),Y]+
0.8471457122747907, [(6,174),X]+
0.8471457122747907, [(6,87),X]+
0.8579920168278102, [(3,119),X]+
0.8666303894523777, [(131,159),X]+
0.8702149717078401, [(87,113),X]-
0.8821876369374532, [(35,107),Y]+
0.8916781833902195, [(172,195),X]-
0.904803858446426, [(153,153),Y]+
0.9092030903782148, [(129,148),Y]-
0.921558116449577, [(7,99),Y]+
0.9339505945373495, [(80,110),Y]-
0.9387230871835456, [(49,160),X]-
0.9461652749832572, [(76,199),X]-
0.9461652749832572, [(76,199),X]+
0.9523707629667637, [(46,82),X]-
0.9523707629667637, [(33,46),X]-
0.9554577978024819, [(55,167),X]-
0.975576955593365, [(78,78),Y]+
0.9822860599602173, [(88,183),Y]-
0.9839187825524864, [(45,165),Y]+
0.9856279558566505, [(44,110),Y]-
0.9858558110761049, [(184,197),X]+
0.9962764170059574, [(7,109),Y]+
0.9982120611054454, [(7,99),Y]-
0.9982120611054454, [(7,99),Y]+
