areaTotal:400.0
tiempoTotalSimulado:1.0
areaOcupadaInicial:20.00000000000001
eventosSimples:9
eventosMultiples:0
0.0
[(0,1), (0,2), (1,2), (3,4)]
[(1,2), (3,4)]
0.07126968702044136, [(3,4),Y]-
0.0934502914861793, [(0,2),Y]+
0.19659662691593482, [(0,1),Y]+
0.2911132940152872, [(0,1),X]-
0.4440196510287437, [(0,2),X]-
0.491435309641492, [(0,3),Y]+
0.6376716638399544, [(3,4),X]-
0.7824586437836528, [(2,2),X]+
0.7881552648548408, [(0,2),Y]-
