marco:(-10.0,10.0),(-10.0,10.0)
timeIntervals:0.0-1.0
framesPerSecond:1000
-0.39146418996052407 -0.5686545176679312
3 -0.6377558176072359 4.056311322281532 -0.3343978488410808 4.075019231208309 -0.5022783576064327 4.328380984136857
-0.0819285258900515 -0.040442964652244145
4 1.7113211326207465 7.139263925870216 1.9070066770612064 7.097946039948489 1.9483245629829324 7.293631584388949 1.7526390185424725 7.334949470310676
0.5090992695955426 -0.3262018165328177
5 -5.796151509500657 -2.608038986180979 -5.653697231723707 -2.662409379220015 -5.557967122375917 -2.5437286855060353 -5.641256938829187 -2.4160095899433434 -5.78846298566184 -2.455755541587184
0.4359271507460149 0.5377799371202331
6 -0.6634739206106631 3.184302502569443 -0.5529045319468271 3.1279960422927076 -0.44885701261807676 3.195598711618137 -0.45537888195316245 3.3195078412203016 -0.5659482706169985 3.375814301497037 -0.6699957899457487 3.308211632171608
-0.8287645979193828 0.33258987050942884
20 -3.6658990496570105 -9.608095229180513 -3.5596775621734427 -9.596030113128453 -3.532637162349196 -9.54992198331941 -3.49956420449892 -9.556924597252149 -3.49353164647289 -9.610035340993932 -3.4013153868548 -9.664116140642424 -3.4133805029068593 -9.557894653158856 -3.4594886327159045 -9.53085425333461 -3.4524860187831656 -9.497781295484334 -3.3993752750413817 -9.491748737458304 -3.3452944753928886 -9.399532477840214 -3.4515159628764565 -9.411597593892274 -3.478556362700703 -9.457705723701318 -3.511629320550979 -9.450703109768579 -3.5176618785770093 -9.397592366026796 -3.609878138195099 -9.343511566378304 -3.5978130221430398 -9.449733053861872 -3.5517048923339947 -9.476773453686118 -3.5587075062667335 -9.509846411536394 -3.6118182500085174 -9.515878969562424
-0.2484046441090355 -0.04870462864529528
5 -6.461918395625098 5.434256833532401 -6.319525413813633 5.37972611166838 -6.223661764187112 5.498298965123356 -6.306807752243777 5.626111740565612 -6.454058448517508 5.586531526530408
-0.27626282717716955 0.07089213021491701
12 -8.641977136842446 -5.649250250288979 -8.637069609682106 -5.736851162192712 -8.56365875815896 -5.68880066305023 -8.485340379475476 -5.728351075811481 -8.490247906635815 -5.640750163907748 -8.41683705511267 -5.5926996647652665 -8.495155433796153 -5.553149252004015 -8.500062960956493 -5.465548340100282 -8.573473812479639 -5.513598839242764 -8.651792191163123 -5.474048426481514 -8.646884664002783 -5.561649338385246 -8.72029551552593 -5.609699837527728
-0.5353932681219268 -0.5776556716900128
4 -9.214985097287197 7.791079747650823 -9.019207024331259 7.7502025394577565 -8.978329816138192 7.945980612413695 -9.174107889094131 7.986857820606762
-0.15631284160538136 0.15611172568776174
6 5.245293128063581 -2.1793789624597015 5.356052041380837 -2.2353116925841165 5.459870663230228 -2.167358025018022 5.452930371762362 -2.0434716273275124 5.342171458445106 -1.9875388972030974 5.238352836595715 -2.055492564769192
-0.41812621108865927 0.7860325481668188
20 0.35316652726410613 8.833130489360276 0.4593536393540215 8.845494495773051 0.4862641704158857 8.89167854253285 0.519356704684138 8.884769033247691 0.525538707890526 8.831675477202733 0.617906801410124 8.777854415079005 0.6055427949973479 8.884041527168922 0.5593587482375489 8.910952058230786 0.5662682575227076 8.944044592499038 0.6193618135676653 8.950226595705425 0.6731828756913937 9.042594689225023 0.5669957636014783 9.030230682812247 0.540085232539614 8.98404663605245 0.5069926982713618 8.990956145337607 0.5008106950649738 9.044049701382566 0.4084426015453758 9.097870763506293 0.42080660795815195 8.991683651416377 0.4669906547179509 8.964773120354513 0.4600811454327922 8.93168058608626 0.4069875893878345 8.925498582879873
0.10897461319685453 0.054080825867115774
12 0.08155373354926855 -1.6675010113675655 0.08651056688034192 -1.755099147149801 0.15989436112637984 -1.7070073356716482 0.2382349887034911 -1.746513659975731 0.23327815537241775 -1.6589155241934954 0.3066619496184556 -1.6108237127153426 0.22832132204134437 -1.57131738841126 0.22336448871027098 -1.4837192526290244 0.14998069446423307 -1.5318110641071772 0.0716400668871218 -1.4923047398030944 0.07659690021819517 -1.57990287558533 0.0032131059721572652 -1.6279946870634827
0.4563172885701242 0.028795493512495527
12 -2.704287811553183 -6.316708454353073 -2.6993309782221098 -6.404306590135309 -2.6259471839760717 -6.356214778657155 -2.5476065563989607 -6.395721102961239 -2.5525633897300337 -6.308122967179003 -2.479179595483996 -6.26003115570085 -2.557520223061107 -6.220524831396768 -2.5624770563921806 -6.132926695614532 -2.6358608506382186 -6.181018507092685 -2.7142014782153296 -6.141512182788602 -2.7092446448842566 -6.229110318570838 -2.7826284391302942 -6.27720213004899
-0.11391274686492338 0.7512796044016414
3 -9.150408692693674 -7.382360297882959 -8.846959849047376 -7.36518932353482 -9.013554770863745 -7.110980403362183
-0.33849273973249344 0.6108623713406248
6 -3.8567848768583572 -7.2756560867153395 -3.745994498853987 -7.331526466345683 -3.6422141417728433 -7.263514374314189 -3.6492241626960706 -7.139631902652352 -3.760014540700441 -7.083761523022008 -3.8637948977815846 -7.151773615053502
0.437204208667014 0.10301870489496066
6 -1.536276369489341 4.57103897599058 -1.4254859914849707 4.515168596360236 -1.3217056344038272 4.58318068839173 -1.328715655327054 4.7070631600535675 -1.4395060333314245 4.762933539683911 -1.543286390412568 4.694921447652417
0.37692841991378606 0.15650192309682437
6 6.388745097468172 -0.7893744822242155 6.499535475472543 -0.8452448618545592 6.603315832553687 -0.7772327698230654 6.59630581163046 -0.653350298161228 6.485515433626089 -0.5974799185308843 6.381735076544945 -0.665492010562378
0.031814790211104345 -0.22516039224205217
5 -7.685650675956717 3.4758087206509813 -7.543074347897661 3.4217591917597137 -7.4476116828771115 3.5406551146643532 -7.5311888392968225 3.668186365034475 -7.67830502766782 3.6281090894863435
-0.7231419794637491 0.11467729953237968
4 5.300213146928375 3.997568628706205 5.4960141969702745 3.9568016224083524 5.536781203268127 4.152602672450253 5.340980153226227 4.193369678748105
0.6209295764198536 -0.8197525870789085
20 3.762205508608361 4.797282596490089 3.8684064717945197 4.809527058377148 3.895368975995544 4.855680782217728 3.9284537111400972 4.84873402446523 3.9345759420836264 4.79563354287215 4.026883389764788 4.741708534470101 4.01463892787773 4.84790949765626 3.968485204037149 4.874872001857285 3.975431961789648 4.907956737001838 4.028532443382727 4.9140789679453665 4.0824574517847765 5.006386415626529 3.9762564885986174 4.9941419537394705 3.949293984397593 4.94798822989889 3.91620924925304 4.954934987651388 3.9100870183095107 5.008035469244468 3.8177795706283493 5.061960477646517 3.830024032515407 4.955759514460358 3.876177756355988 4.928797010259333 3.869230998603489 4.89571227511478 3.81613051701041 4.889590044171252
-0.0810965772160073 -0.6379691005637688
4 -6.572352247975286 9.128289271646874 -6.7869365163569055 9.116389133063848 -6.45475429146302 8.948403913267407 -6.475365936105932 9.320074768609368
0.855318603207641 0.31577347905992087
12 3.7177360066790692 2.1288956925962883 3.7225942179118725 2.0412920318690535 3.7960321079497694 2.0893011965772295 3.8743282092204696 2.0497067005581706 3.8694699979876663 2.1373103612854054 3.9429078880255632 2.1853195259935814 3.864611786754863 2.22491402201264 3.8597535755220598 2.312517682739875 3.786315685484163 2.264508518031699 3.7080195842134627 2.304103014050758 3.712877795446266 2.216499353323523 3.639439905408369 2.168490188615347
-0.09608803844009853 0.09868854406137774
4 4.31293305389402 7.422087918685122 4.5086880839020065 7.381100503219245 4.549675499367884 7.576855533227231 4.353920469359897 7.6178429486931085
0.06760268697654583 0.2112503114538641
6 -7.865782701943349 1.0740151890391378 -7.755055293645388 1.0180201157736573 -7.65119843356173 1.0859153276221636 -7.658068981776033 1.2098056127361505 -7.7687963900739945 1.265800686001631 -7.8726532501576525 1.1979054741531248
0.1352241874474847 -0.2257644331192353
3 -7.100884278998842 -5.375317128215012 -6.797416296381647 -5.358487790836778 -6.963724921388654 -5.10409147734419
-0.3830519341919429 -0.04494369921125577
4 -6.949391189554513 0.3135657972061434 -7.163975457936132 0.3016656586231175 -6.831793233042247 0.13368043882667613 -6.852404877685159 0.5053512941686367
-0.281812287312705 -0.45004859544606596
3 -4.922419924105071 2.635616661543797 -4.618951941487877 2.6524459989220315 -4.785260566494884 2.9068423124146188
-0.061085121504516074 0.2945124928028638
5 -9.98853902960966 -3.2571898127341856 -9.846023641466537 -3.311399821391137 -9.75042718258876 -3.1926114467654987 -9.833860709941286 -3.064986185121547 -9.981021924524216 -3.1048978102281253
-0.1548292089237012 -0.5406891667633545
4 7.447181118774343 -3.53474299160809 7.642936148782329 -3.575730407073966 7.683923564248206 -3.3799753770659797 7.48816853424022 -3.3389879616001035
0.7286660420695299 0.06460118123827502
4 6.528077150400125 -6.580266060158736 6.723946759480386 -6.620702383418223 6.764383082739873 -6.424832774337962 6.568513473659612 -6.384396451078475
-0.021577606263364798 0.03197816340038966
12 -4.4355774744455685 -3.8389791898947427 -4.430472732087021 -3.926568830804201 -4.3571702491303475 -3.878353173787195 -4.2787630238151255 -3.9177271576796477 -4.283867766173674 -3.8301375167701894 -4.210565283216999 -3.7819218597531834 -4.288972508532221 -3.7425478758607307 -4.294077250890768 -3.6549582349512724 -4.367379733847442 -3.7031738919682784 -4.445786959162664 -3.6637999080758257 -4.440682216804116 -3.751389548985284 -4.51398469976079 -3.79960520600229
-0.06168939550422197 0.6309354223318093
3 -3.2327396699291833 -6.366621027466829 -2.9293202533853924 -6.3489376812177225 -3.0963441887329304 -6.0950104316139
-0.13255951175040975 -0.029366432244294156
12 2.455800071688561 -0.7983313345648042 2.460904814047108 -0.8859209754742626 2.5342072970037823 -0.8377053184572567 2.6126145223190034 -0.8770793023497093 2.607509779960456 -0.7894896614402509 2.68081226291713 -0.7412740044232451 2.6024050376019083 -0.7019000205307926 2.597300295243361 -0.6143103796213342 2.523997812286687 -0.6625260366383401 2.445590586971466 -0.6231520527458875 2.450695329330013 -0.7107416936553459 2.3773928463733394 -0.7589573506723517
0.39835101323308575 -0.7301735106537361
4 5.519393438929818 0.2621607050087249 5.304843511948038 0.24965669096191193 5.637497196234525 0.08260702488581345 5.6158396086068905 0.4542183991784493
-1.119517029724667 0.11263319344512317
4 -7.362016749464464 -5.480547646818506 -7.5765666764462445 -5.493051660865319 -7.243912992159757 -5.660101326941417 -7.265570579787392 -5.288489952648781
-0.8027007153738648 -0.6613120746978046
12 -7.712290332774007 -9.912410359090542 -7.70718559041546 -10.0 -7.633883107458786 -9.951784342982995 -7.555475882143564 -9.991158326875448 -7.560580624502112 -9.90356868596599 -7.4872781415454375 -9.855353028948983 -7.565685366860659 -9.815979045056531 -7.570790109219207 -9.728389404147073 -7.64409259217588 -9.776605061164078 -7.722499817491102 -9.737231077271625 -7.717395075132554 -9.824820718181083 -7.790697558089229 -9.87303637519809
-0.04822201706740913 0.5637880423817675
5 8.312729335865274 5.449013687946361 8.45539672738877 5.395204987050935 8.550658491532646 5.514261936400262 8.466866108078342 5.641651878590446 8.319817802961342 5.601326243339538
-0.23940456166544238 -0.5121507069735304
6 -7.6915634125825 0.7022558261174772 -7.580678851153671 0.646572604092111 -7.47701348560072 0.7147598401642902 -7.484232681476598 0.8386302982618354 -7.5951172429054274 0.8943135202872016 -7.698782608458378 0.8261262842150225
-0.1089692702746092 0.6148195993692065
4 -0.44719720735571666 -1.254126460364601 -0.2513275982754557 -1.2945627836240883 -0.21089127501596838 -1.0986931745438273 -0.40676088409622935 -1.05825685128434
0.5261552974323755 0.1741857507030562
4 -3.097182770292025 -8.07836805855738 -2.901313161211764 -8.118804381816867 -2.8608768379522767 -7.922934772736607 -3.0567464470325376 -7.8824984494771195
0.3022065790997579 0.24958517755907078
6 -1.642898228223176 1.2999694632879577 -1.532013666794347 1.2442862412625915 -1.428348301241396 1.3124734773347706 -1.4355674971172743 1.436343935432316 -1.5464520585461035 1.4920271574576822 -1.6501174240990544 1.423839921385503
-0.03537177302981603 -0.8178568469391404
4 -4.451956941540099 -1.578247814615695 -4.256087332459838 -1.6186841378751824 -4.215651009200351 -1.4228145287949214 -4.411520618280612 -1.3823782055354341
0.4250210138325465 -0.09661051131790081
6 -0.04714239248673126 2.0255062356451825 0.06377349317146881 1.9698854347965153 0.16740046251434976 2.038131009035433 0.1601115461990307 2.1619973841230182 0.04919566054083066 2.2176181849716854 -0.05443130880205031 2.1493726107327675
0.5115623860835933 -0.38245206267521226
4 -0.35706441227681474 3.940173035170245 -0.5716072672778958 3.927548261779995 -0.23885961030329556 3.760685859233993 -0.2607263592492529 4.1322849844967475
-0.14089513975235185 -0.04936230865339063
5 7.3538552247428886 -3.399528091354153 7.496552880370395 -3.45325648212277 7.591747617167304 -3.334145932706109 7.5078835444303875 -3.2068031739793215 7.3608579602470705 -3.2472115702816504
0.6168482951245146 0.6796316747411165
3 3.7887114588918704 -1.4149628667358194 4.092120874144643 -1.3971087409854401 3.9249540400560665 -1.1432755425043464
-0.24980995255682484 0.054442250795098804
20 -2.5851077470123314 -3.354178776808832 -2.478955851344288 -3.3415159779613317 -2.4521754021828754 -3.295256380039864 -2.419063553597712 -3.3020727299524184 -2.412732154173962 -3.35514867778644 -2.320212958331027 -3.4087095761092656 -2.3328757571785275 -3.302557680441222 -2.379135355099995 -3.2757772312798097 -2.3723190051874408 -3.2426653826946463 -2.319243057353419 -3.2363339832708964 -2.2656821590305936 -3.1438147874279614 -2.371834054698637 -3.1564775862754617 -2.3986145038600495 -3.202737184196929 -2.431726352445213 -3.195920834284375 -2.438057751868963 -3.1428448864503533 -2.530576947711898 -3.089283988127528 -2.5179141488643975 -3.195435883795571 -2.47165455094293 -3.2222163329569837 -2.478470900855484 -3.255328181542147 -2.531546848689506 -3.261659580965897
0.25882263021536833 -0.8699573828465178
3 -8.892523344801981 8.589546490698488 -8.589113929549207 8.607400616448869 -8.756280763637784 8.861233814929962
0.23470769135774322 0.6173498620144426
4 -2.870765118157337 -3.1392312362058616 -3.085307973158418 -3.151856009596112 -2.7525603161838177 -3.318718412142114 -2.774427065129775 -2.9471192868793588
0.06135093083773975 -0.8995267784419224
12 -0.31607929977902727 -5.272943841121727 -0.3109252576249638 -5.3605305949071544 -0.23764992488880227 -5.312273686576845 -0.15922054999857727 -5.351603532031964 -0.16437459215264066 -5.264016778246536 -0.09109925941647906 -5.215759869916228 -0.16952863430670406 -5.176430024461109 -0.1746826764607675 -5.088843270675681 -0.24795800919692906 -5.13710017900599 -0.32638738408715406 -5.097770333550871 -0.32123334193309067 -5.185357087336299 -0.39450867466925227 -5.233613995666607
0.309175531129723 -0.1973481812631961
4 -8.62306620483309 1.1691488642575019 -8.427242239736978 1.128492072770262 -8.38658544824974 1.3243160378663736 -8.582409413345852 1.3649728293536134
0.42684466030287793 0.8235615275185165
20 2.7350843273361334 6.764414251469816 2.841257453765216 6.776897786740143 2.86811597758581 6.823112097892874 2.9012162690415675 6.816239845831064 2.907458036676731 6.763153282616523 2.9998866589821933 6.709436234975335 2.987403123711866 6.815609361404418 2.941188812559135 6.842467885225012 2.948061064620945 6.875568176680769 3.0011476278354863 6.881809944315933 3.0548646754766744 6.974238566621395 2.9486915490475916 6.961755031351068 2.9218330252269977 6.9155407201983365 2.8887327337712403 6.922412972260147 2.8824909661360767 6.975499535474688 2.7900623438306145 7.0292165831158755 2.8025458791009417 6.923043456686793 2.8487601902536728 6.896184932866199 2.8418879381918627 6.863084641410442 2.7888013749773215 6.856842873775278
0.16186751363215265 -0.006968766147728751
5 2.4790287594765275 2.368196644394683 2.6216354872061878 2.314227374412497 2.7170312154831047 2.4331770104888135 2.6333822902101285 2.5606611985155943 2.4862886829921123 2.5205011236680104
-0.8011098312397971 -0.06303560063483381
3 9.438089282781077 9.728543119026769 9.741528413524753 9.745884889520648 9.574790434358615 10.0
-0.7363905335480591 -0.4096233164914923
5 -5.20972695347168 4.532661580046981 -5.06712022574202 4.478692310064794 -4.971724497465103 4.597641946141111 -5.055373422738079 4.725126134167892 -5.202467029956095 4.684966059320308
-0.04464899139279944 0.22180599347462782
4 -0.4696514560681867 6.191902463514041 -0.27382749097207515 6.151245672026802 -0.23317069948483554 6.347069637122913 -0.42899466458094715 6.3877264286101525
0.5112518219077846 0.3806276630777443
5 -1.1195696746470567 4.895419593069053 -0.9769629469173965 4.841450323086866 -0.8815672186404796 4.960399959163182 -0.9652161439134557 5.087884147189964 -1.112309751131472 5.04772407234238
0.008296491907386511 0.09807570357091433
20 1.8596316496196985 4.307065181050449 1.965804776048781 4.319548716320776 1.992663299869375 4.365763027473507 2.0257635913251324 4.358890775411697 2.032005358960296 4.305804212197156 2.124433981265758 4.252087164555968 2.111950445995431 4.358260290985051 2.0657361348427 4.385118814805645 2.07260838690451 4.418219106261402 2.125694950119051 4.424460873896566 2.1794119977602393 4.516889496202028 2.0732388713311565 4.504405960931701 2.0463803475105626 4.4581916497789695 2.013280056054805 4.46506390184078 2.0070382884196416 4.518150465055321 1.9146096661141796 4.5718675126965085 1.9270932013845066 4.465694386267426 1.9733075125372377 4.438835862446832 1.9664352604754276 4.405735570991075 1.9133486972608864 4.399493803355911
-0.23323155569232384 -0.18979747011698092
4 6.028112757432238 -9.938707762952179 6.223936722528349 -9.979364554439417 6.264593514015589 -9.783540589343305 6.0687695489194775 -9.742883797856067
-0.11575482924874297 0.03899869984201084
20 3.747130036425204 -8.283458134871163 3.853303162854287 -8.270974599600835 3.8801616866748807 -8.224760288448104 3.913261978130638 -8.231632540509915 3.9195037457658017 -8.284719103724456 4.011932368071264 -8.338436151365643 3.9994488328009368 -8.232263024936561 3.9532345216482057 -8.205404501115968 3.9601067737100157 -8.17230420966021 4.013193336924557 -8.166062442025046 4.066910384565745 -8.073633819719584 3.960737258136662 -8.086117354989911 3.9338787343160684 -8.132331666142642 3.900778442860311 -8.125459414080831 3.8945366752251473 -8.07237285086629 3.802108052919685 -8.018655803225103 3.8145915881900123 -8.124828929654186 3.8608058993427434 -8.151687453474779 3.8539336472809334 -8.184787744930537 3.800847084066392 -8.1910295125657
0.09709724480411974 -0.3752144851885974
12 -0.9550367713836847 -5.792867273170483 -0.9499813386388888 -5.8804597739280124 -0.8766517241742583 -5.83228539036513 -0.7982666769648319 -5.871703507559778 -0.8033221097096278 -5.784111006802249 -0.7299924952449972 -5.7359366232393665 -0.8083775424544237 -5.696518506044718 -0.8134329751992196 -5.608926005287189 -0.8867625896638501 -5.657100388850071 -0.9651476368732765 -5.617682271655423 -0.9600922041284806 -5.7052747724129524 -1.0334218185931112 -5.753449155975835
0.41330199628071607 0.7853383428424948
3 -5.565861723733422 4.173249218934726 -5.262432400385308 4.190761751671194 -5.429313360293753 4.4447829875755485
0.1302918599921041 -0.6180085674732244
6 7.916741451979279 8.472681652367806 8.027594648830105 8.416936016427922 8.131298384129575 8.485064883021513 8.12414892257822 8.608939385554988 8.013295725727394 8.664685021494872 7.9095919904279235 8.59655615490128
-0.21942873954251313 0.19629585042237457
6 -4.295397876223824 1.104053891175525 -4.184544679372998 1.048308255235642 -4.080840944073527 1.116437121829233 -4.087990405624883 1.2403116243627073 -4.1988436024757085 1.2960572603025904 -4.302547337775179 1.2279283937089995
0.2388687829693402 0.48991793295530117
12 -0.723443809514916 0.15008238477725877 -0.7183883767701201 0.06248988401972899 -0.6450587623054896 0.11066426758261083 -0.5666737150960632 0.07124615038796292 -0.5717291478408592 0.15883865114549267 -0.4983995333762286 0.20701303470837454 -0.5767845805856551 0.24643115190302245 -0.581840013330451 0.33402365266055223 -0.6551696277950815 0.2858492690976704 -0.7335546750045079 0.32526738629231833 -0.728499242259712 0.23767488553478855 -0.8018288567243426 0.18950050197190668
0.2021199175641433 -0.24415698793232055
12 8.801294291843911 -1.0427315814050195 8.806349724588708 -1.1303240821625493 8.879679339053338 -1.0821496985996675 8.958064386262764 -1.1215678157943154 8.953008953517969 -1.0339753150367856 9.026338567982599 -0.9858009314739038 8.947953520773174 -0.9463828142792559 8.942898088028377 -0.8587903135217261 8.869568473563747 -0.9069646970846079 8.791183426354321 -0.86754657988996 8.796238859099116 -0.9551390806474898 8.722909244634486 -1.0033134642103716
-0.6778785790117479 0.022566134099896218
20 -3.2340916845226904 -1.0888942391506617 -3.127925600205826 -1.076350955314444 -3.101093088445254 -1.030121536436833 -3.067988934766573 -1.036975159717654 -3.061717292848464 -1.090058201876086 -2.969258455093242 -1.1437232253972303 -2.9818017389294598 -1.0375571410803661 -3.028031157807071 -1.010724629319794 -3.02117753452625 -0.977620475641113 -2.968094492367818 -0.9713488337230041 -2.9144294688466736 -0.878889995967782 -3.020595553163538 -0.8914332798039999 -3.04742806492411 -0.9376626986816109 -3.080532218602791 -0.9308090754007898 -3.0868038605209 -0.8777260332423578 -3.179262698276122 -0.8240610097212135 -3.1667194144399042 -0.9302270940380777 -3.120489995562293 -0.9570596057986498 -3.127343618843114 -0.9901637594773308 -3.180426661001546 -0.9964354013954397
0.2950706253497565 -0.517445374716762
4 7.601237367892281 -1.4289057365823616 7.386680435741984 -1.4412889672360694 7.719240026294463 -1.608525875055719 7.697791641640396 -1.2369023674552964
0.17269520113327622 0.09018103873169994
4 -3.9870934255920267 2.3096236737947633 -3.791246611276959 2.269077091662117 -3.7507000291443124 2.4649239059771846 -3.9465468434593802 2.505470488109831
0.9652926342623331 -0.23749657495521168
20 -7.594000954995661 4.865309195383265 -7.487834870678796 4.877852479219483 -7.461002358918225 4.924081898097094 -7.4278982052395435 4.917228274816273 -7.421626563321435 4.864145232657841 -7.329167725566212 4.8104802091366965 -7.34171100940243 4.916646293453561 -7.387940428280041 4.9434788052141325 -7.38108680499922 4.976582958892814 -7.328003762840789 4.9828546008109225 -7.274338739319644 5.075313438566145 -7.3805048236365085 5.062770154729927 -7.40733733539708 5.016540735852316 -7.440441489075761 5.023394359133137 -7.44671313099387 5.0764774012915685 -7.539171968749092 5.130142424812713 -7.5266286849128745 5.023976340495849 -7.480399266035263 4.997143828735277 -7.487252889316085 4.964039675056596 -7.540335931474516 4.957768033138487
0.7186950512116878 -0.26537847248051133
4 -4.5235109215047515 0.9723826359854488 -4.738032152756739 0.9593956087158455 -4.40500321034364 0.7930953137049132 -4.427497401413875 1.1646569855355877
-0.87628447974535 -0.08883956007187498
4 4.592717300294405 0.4727073441313898 4.378196069042417 0.4597203168617865 4.711225011455516 0.29342002185085414 4.688730820385281 0.6649816936815288
-0.20241288605272656 0.5241764813024843
4 5.304896744556562 5.49174391895642 5.090375513304574 5.478756891686817 5.423404455717673 5.312456596675884 5.400910264647438 5.684018268506559
-0.14484725503533938 -0.3913297269225994
20 8.579082219726306 2.9679288258743015 8.685212581963436 2.9807708521936593 8.71191488010683 3.0270756049843186 8.745038191409906 3.020315176656413 8.751459204569585 2.9672499955378484 8.844068710150903 2.913845399251057 8.831226683831545 3.0199757614881864 8.784921931040886 3.0466780596315823 8.791682359368792 3.079801370934657 8.844747540487356 3.0862223840943357 8.898152136774147 3.178831889675654 8.792021774537018 3.1659898633562964 8.765319476393623 3.119685110565637 8.732196165090548 3.1264455388935426 8.725775151930868 3.1795107200121073 8.63316564634955 3.232915316298899 8.646007672668908 3.1267849540617694 8.692312425459567 3.1000826559183734 8.685551997131661 3.0669593446152987 8.632486816013097 3.06053833145562
-0.18989412863173155 -0.2512692285826729
20 -9.185304784066643 1.0501630789123522 -9.079174421829514 1.06300510523171 -9.052472123686119 1.1093098580223693 -9.019348812383043 1.1025494296944638 -9.012927799223364 1.0494842485758988 -8.920318293642046 0.9960796522891074 -8.933160319961404 1.102210014526237 -8.979465072752063 1.1289123126696328 -8.972704644424157 1.1620356239727074 -8.919639463305593 1.1684566371323863 -8.866234867018802 1.2610661427137049 -8.972365229255931 1.248224116394347 -8.999067527399326 1.2019193636036878 -9.032190838702402 1.2086797919315933 -9.03861185186208 1.2617449730501582 -9.1312213574434 1.3151495693369497 -9.118379331124041 1.20901920709982 -9.072074578333382 1.1823169089564243 -9.078835006661288 1.1491935976533496 -9.131900187779852 1.1427725844936707
0.015709722122241653 -0.0603733131139729
12 0.5055497763310131 -0.6607992713685819 0.5108517080120363 -0.7483771972954087 0.5840454508349086 -0.6999966268070997 0.662541125338804 -0.7391939822456176 0.6572391936577809 -0.6516160563187907 0.7304329364806532 -0.6032354858304817 0.6519372619767578 -0.5640381303919638 0.6466353302957346 -0.476460204465137 0.5734415874728623 -0.5248407749534459 0.49494591296896684 -0.48564341951492807 0.50024784464999 -0.573221345441755 0.42705410182711767 -0.621601915930064
0.6893049222184084 -0.20859013991403796
12 6.651772186740588 -7.608676062800797 6.657074118421611 -7.696253988727624 6.730267861244483 -7.647873418239315 6.808763535748379 -7.687070773677832 6.803461604067356 -7.599492847751005 6.876655346890228 -7.551112277262696 6.7981596723863325 -7.511914921824179 6.792857740705309 -7.4243369958973515 6.719663997882437 -7.47271756638566 6.641168323378541 -7.433520210947143 6.6464702550595645 -7.52109813687397 6.573276512236692 -7.569478707362279
-0.8044820917293136 0.18040195333045075
6 5.136617000152525 5.541066750635189 5.247626647623558 5.4856333189648785 5.351138231404512 5.554053777904793 5.343640167714434 5.677907668515018 5.232630520243402 5.733341100185329 5.129118936462447 5.6649206412454145
0.23378328527687955 -0.021622640791174583
3 5.045319780474273 -1.543942213159417 5.348698615127809 -1.5255757830598347 5.181103402757971 -1.2720252203291451
-0.1938246826091188 -0.06472232671217512
12 6.533398438525585 4.695658076642296 6.538700370206608 4.608080150715469 6.61189411302948 4.656460721203778 6.690389787533376 4.61726336576526 6.685087855852353 4.704841291692087 6.758281598675225 4.753221862180396 6.6797859241713295 4.792419217618914 6.674483992490306 4.879997143545741 6.601290249667434 4.831616573057432 6.522794575163538 4.8708139284959495 6.5280965068445616 4.783236002569122 6.454902764021689 4.734855432080813
0.052933498661990576 0.032606121403646174
20 -5.866064118091516 -9.752988732985125 -5.7599337558543855 -9.740146706665767 -5.73323145771099 -9.693841953875108 -5.700108146407915 -9.700602382203014 -5.693687133248236 -9.753667563321578 -5.6010776276669185 -9.807072159608369 -5.613919653986276 -9.70094179737124 -5.660224406776935 -9.674239499227845 -5.65346397844903 -9.64111618792477 -5.600398797330465 -9.63469517476509 -5.546994201043673 -9.542085669183772 -5.653124563280803 -9.55492769550313 -5.679826861424199 -9.60123244829379 -5.712950172727274 -9.594472019965883 -5.719371185886953 -9.541406838847319 -5.81198069146827 -9.488002242560528 -5.799138665148913 -9.594132604797657 -5.752833912358254 -9.620834902941052 -5.759594340686159 -9.653958214244128 -5.812659521804724 -9.660379227403807
-0.4789475915140535 0.022959212522186263
4 -8.803665318017952 1.672474780799062 -9.01818654926994 1.6594877535294588 -8.68515760685684 1.4931874585185265 -8.707651797927076 1.864749130349201
0.16545636757807147 -1.0154386418411472
12 -1.7514325517359834 -4.245735396636013 -1.7461306200549602 -4.33331332256284 -1.6729368772320878 -4.284932752074531 -1.5944412027281925 -4.3241301075130485 -1.5997431344092157 -4.236552181586221 -1.5265493915863433 -4.188171611097912 -1.6050450660902387 -4.148974255659395 -1.610346997771262 -4.061396329732568 -1.6835407405941343 -4.109776900220877 -1.7620364150980297 -4.070579544782359 -1.7567344834170064 -4.158157470709186 -1.8299282262398788 -4.206538041197495
0.04822008180320406 -0.293170256979214
20 3.812327821164329 8.778929358066302 3.9184509383417687 8.791831118764547 3.945127169215703 8.838150893844995 3.9782542804387595 8.831409110336725 3.9847051607878816 8.778347551748006 4.07734471094878 8.724995090000137 4.064442950250536 8.831118207177576 4.0181231751700865 8.857794438051512 4.024864958678357 8.890921549274568 4.077926517267078 8.89737242962369 4.131278979014946 8.990011979784589 4.025155861837506 8.977110219086343 3.9984796309635717 8.930790444005895 3.9653525197405153 8.937532227514165 3.958901639391393 8.990593786102885 3.8662620892304944 9.043946247850753 3.8791638499287386 8.937823130673314 3.9254836250091882 8.911146899799379 3.918741841500917 8.878019788576323 3.8656802829121975 8.8715689082272
0.25591100566598995 -0.6302524544102656
20 1.9283599117035162 5.6777882298155715 2.034483028880956 5.690689990513816 2.0611592597548904 5.737009765594265 2.094286370977947 5.730267982085994 2.100737251327069 5.677206423497274 2.1933768014879678 5.623853961749406 2.1804750407897235 5.729977078926845 2.134155265709274 5.75665330980078 2.140897049217545 5.789780421023837 2.1939586078062647 5.796231301372958 2.2473110695541334 5.888870851533857 2.1411879523766935 5.875969090835612 2.114511721502759 5.829649315755163 2.0813846102797027 5.836391099263434 2.0749337299305806 5.889452657852154 1.9822941797696818 5.942805119600022 1.9951959404679263 5.836682002422583 2.0415157155483756 5.810005771548648 2.0347739320401046 5.7768786603255915 1.9817123734513848 5.77042777997647
0.4097359198437988 0.029665231178052972
12 9.311471191951389 -4.938379835049559 9.316822416802811 -5.0259547628644565 9.38998891659939 -4.977533002294314 9.46850664124739 -5.016686169539069 9.463155416395969 -4.929111241724171 9.536321916192549 -4.880689481154029 9.457804191544549 -4.841536313909274 9.452452966693127 -4.753961386094376 9.379286466896547 -4.802383146664519 9.300768742248547 -4.763229979419764 9.306119967099969 -4.850804907234662 9.232953467303389 -4.899226667804804
-5.898325429159342E-4 0.07701866320256967
12 -7.034095409831147 -1.8323368892769019 -7.028744184979725 -1.9199118170917997 -6.955577685183146 -1.871490056521657 -6.877059960535146 -1.9106432237664122 -6.882411185386567 -1.8230682959515145 -6.809244685589988 -1.7746465353813718 -6.887762410237989 -1.735493368136617 -6.89311363508941 -1.647918440321719 -6.96628013488599 -1.6963402008918618 -7.04479785953399 -1.6571870336471066 -7.039446634682569 -1.7447619614620042 -7.1126131344791474 -1.793183722032147
-0.2146944748353745 0.25162396737168163
5 4.883748092250617 7.373701413325398 5.026566352117912 7.320294433026477 5.121492678152899 7.439619005188589 5.03734211420238 7.566772626776734 4.8904078794735 7.526033314548738
0.25041242399241237 -0.4160167029462607
5 8.679372032052122 -8.792304274262461 8.822190291919416 -8.845711254561381 8.917116617954404 -8.72638668239927 8.832966054003885 -8.599233060811125 8.686031819275005 -8.63997237303912
1.0186497012364355 -0.22403722442370386
12 2.349116357353096 5.931898321831773 2.3544675822045176 5.844323394016875 2.4276340820010964 5.8927451545870175 2.506151806649097 5.853591987342263 2.5008005817976753 5.941166915157161 2.5739670815942546 5.989588675727303 2.4954493569462537 6.028741842972058 2.490098132094832 6.1163167707869555 2.4169316322982533 6.067895010216813 2.338413907650253 6.107048177461568 2.3437651325016744 6.01947324964667 2.270598632705095 5.971051489076528
-0.48324243254142046 -0.48210073644863577
6 -0.32026190486647055 4.436682290033219 -0.20922107378259186 4.3813113499058245 -0.10574801745890151 4.449790060418103 -0.1133157922190899 4.573639711057775 -0.2243566233029686 4.62901065118517 -0.32782967962665893 4.560531940672892
-0.1998238846377482 -0.20886696537651644
6 -3.248881965541275 -7.6183380288445 -3.137841134457396 -7.673708968971894 -3.034368078133706 -7.605230258459616 -3.0419358528938942 -7.481380607819943 -3.152976683977773 -7.426009667692549 -3.256449740301463 -7.494488378204827
0.06147232648808505 0.0602643723694559
4 -8.879874612529303 0.10926617870286215 -9.094388499936873 0.09615840831797845 -8.761266006685236 -0.06995441206420563 -8.783969330965801 0.30159453985481366
-0.052798241433504145 0.05962747069738183
5 -9.882876880569334 2.2280545943722165 -9.74005862070204 2.174647614073296 -9.645132294667052 2.293972186235407 -9.729282858617571 2.421125807823552 -9.876217093346451 2.3803864955955567
0.0050283359910439 -0.6359333940174966
5 -1.7662279393164104 4.397075895317335 -1.6234096794491153 4.343668915018414 -1.5284833534141282 4.462993487180525 -1.6126339173646473 4.5901471087686705 -1.759568152093527 4.549407796540675
0.05153328194063755 0.02343604389503728
5 -2.7994041462390515 -3.8356481086135767 -2.656585886371756 -3.8890550889124973 -2.561659560336769 -3.769730516750386 -2.645810124287288 -3.6425768951622413 -2.792744359016168 -3.6833162073902366
0.04897206474049683 -0.07957437940134843
12 -8.785359889928609 0.9368778696603842 -8.780008665077187 0.8493029418454866 -8.706842165280607 0.8977247024156292 -8.628324440632607 0.858571535170874 -8.633675665484029 0.9461464629857717 -8.56050916568745 0.9945682235559142 -8.63902689033545 1.0337213908006693 -8.644378115186871 1.1212963186155671 -8.717544614983451 1.0728745580454244 -8.796062339631451 1.1120277252901796 -8.790711114780029 1.024452797475282 -8.863877614576609 0.9760310369051394
-0.1495641654920526 -0.7205320512435568
12 -5.1601956730734875 -1.113511798282669 -5.154992340956952 -1.2010956376828692 -5.08174417713367 -1.1527975001855215 -5.0032926811938525 -1.1920832020883743 -5.008496013310388 -1.104499362688174 -4.935247849487107 -1.0562012251908266 -5.013699345426924 -1.016915523287974 -5.01890267754346 -0.929331683887774 -5.092150841366742 -0.9776298213851214 -5.170602337306559 -0.9383441194822689 -5.165399005190023 -1.025927958882469 -5.238647169013305 -1.0742260963798165
0.6584731312179184 0.2690275389200163
12 -4.428670994203751 -6.5255783046416225 -4.423467662087215 -6.613162144041822 -4.350219498263933 -6.564864006544475 -4.271768002324116 -6.604149708447327 -4.276971334440652 -6.5165658690471275 -4.20372317061737 -6.46826773154978 -4.282174666557188 -6.428982029646927 -4.2873779986737235 -6.341398190246728 -4.360626162497005 -6.389696327744074 -4.439077658436823 -6.3504106258412225 -4.433874326320287 -6.437994465241422 -4.507122490143568 -6.48629260273877
-0.3865594197965697 -0.42552487476323736
3 -2.3332680231252483 9.049820260165905 -2.0298687035990497 9.067845131354895 -2.197178359711756 9.321584213961001
-0.225800467943387 -0.028983867773699462
6 9.78546428375564 0.7871886875683065 9.896411453302187 0.7316303151299459 10.0 0.7999341962160553 9.992641377151262 0.9237964497405253 9.881694207604715 0.9793548221788859 9.778105660906904 0.9110509410927766
