areaTotal:400.0
tiempoTotalSimulado:1.0
areaOcupadaInicial:19.999999999999968
eventosSimples:187
eventosMultiples:0
0.0
[(0,4), (0,6), (0,9), (0,33), (0,47), (1,25), (1,41), (1,46), (2,23), (2,31), (3,7), (3,17), (3,19), (3,27), (3,29), (3,30), (3,36), (3,42), (3,43), (4,6), (4,9), (4,16), (4,33), (4,34), (5,18), (5,32), (6,9), (6,33), (6,34), (7,17), (7,27), (7,30), (7,36), (7,42), (7,49), (8,10), (8,40), (9,10), (9,47), (10,47), (11,13), (11,16), (11,34), (12,15), (12,18), (12,32), (12,45), (13,14), (13,22), (13,24), (13,37), (13,38), (14,22), (14,24), (14,37), (14,38), (15,18), (15,32), (15,45), (16,33), (16,34), (17,19), (17,27), (17,30), (17,36), (17,42), (17,43), (17,49), (18,32), (18,45), (19,27), (19,28), (19,29), (19,30), (19,36), (19,42), (19,43), (20,26), (20,48), (21,39), (21,44), (22,24), (22,37), (22,38), (22,39), (23,31), (24,37), (24,38), (24,39), (25,41), (25,46), (26,48), (27,28), (27,29), (27,30), (27,36), (27,42), (27,43), (28,29), (28,42), (28,43), (29,30), (29,42), (29,43), (30,36), (30,42), (30,43), (30,49), (31,35), (33,34), (36,42), (36,43), (37,38), (37,39), (38,39), (39,44), (41,46), (42,43)]
[(0,3), (0,7), (0,19), (0,25), (0,48), (0,49), (1,4), (1,31), (1,45), (2,9), (2,37), (2,40), (2,41), (2,43), (3,19), (3,22), (3,48), (4,39), (4,45), (5,12), (5,29), (5,36), (6,12), (7,19), (7,25), (7,48), (7,49), (8,10), (8,23), (8,27), (8,37), (8,42), (9,25), (9,41), (9,43), (9,49), (10,23), (10,27), (10,37), (10,40), (10,42), (11,15), (11,16), (11,28), (11,30), (11,33), (11,35), (11,38), (11,46), (11,47), (12,29), (12,36), (13,31), (13,34), (14,22), (14,26), (15,16), (15,28), (15,30), (15,33), (15,35), (15,38), (15,46), (15,47), (16,28), (16,30), (16,33), (16,35), (16,38), (16,46), (16,47), (17,26), (17,32), (18,20), (18,21), (18,24), (18,36), (19,25), (19,48), (19,49), (20,21), (20,24), (20,29), (20,36), (21,24), (21,29), (21,36), (23,27), (23,37), (23,40), (24,29), (24,36), (25,43), (25,48), (25,49), (26,32), (27,37), (27,42), (28,30), (28,35), (28,42), (28,46), (29,36), (30,33), (30,35), (30,42), (30,46), (30,47), (33,38), (33,46), (33,47), (35,42), (35,46), (37,40), (38,47), (39,45), (40,41), (41,43), (42,46), (43,48), (43,49), (46,47), (48,49)]
8.78703419943083E-4, [(29,36),X]+
0.0013133956565325913, [(11,13),X]-
0.0018029049536742068, [(12,36),Y]-
0.00646039723816368, [(6,9),X]-
0.006709322353378193, [(9,49),Y]-
0.01245542095669379, [(30,38),Y]+
0.014340451905795793, [(9,25),Y]-
0.019283047242961447, [(17,26),Y]-
0.01943133043840935, [(27,40),Y]+
0.021299126050820353, [(8,9),X]+
0.021919438158732093, [(2,31),X]-
0.023161680554209762, [(33,46),Y]-
0.026994807627456267, [(23,31),X]-
0.03705103669921334, [(43,48),Y]-
0.0373708681677803, [(3,49),X]+
0.04547413841172946, [(42,46),Y]-
0.04738835244336641, [(18,36),Y]-
0.04899471392453615, [(4,47),X]+
0.04918232621582808, [(23,31),X]+
0.04918232621582808, [(2,31),X]+
0.049272432263007905, [(4,16),X]-
0.055142517209796904, [(33,46),Y]+
0.05567827200648767, [(12,29),Y]-
0.0569881034086163, [(20,29),Y]-
0.057396188837832575, [(11,33),X]+
0.05760664538328644, [(40,41),Y]-
0.05886013416954298, [(27,28),Y]+
0.059980493460874626, [(43,49),Y]-
0.06532719259864501, [(17,19),X]-
0.06658365338867858, [(25,43),Y]-
0.07015864035882576, [(4,31),Y]+
0.07190699296999756, [(19,22),Y]+
0.07400543582373992, [(19,36),X]-
0.07765574697280249, [(10,28),Y]+
0.0785923358907041, [(4,31),Y]-
0.08088456480516264, [(27,28),Y]-
0.08353881340160553, [(17,29),X]+
0.08438282667828377, [(14,22),Y]-
0.08768125355186702, [(2,23),Y]+
0.08850759774649364, [(11,28),Y]-
0.09019053969496273, [(4,39),Y]-
0.09029903641954298, [(18,33),Y]+
0.09266790476962264, [(20,36),Y]-
0.1008796911811179, [(0,33),X]-
0.1042867954024371, [(8,40),Y]+
0.10528489887675471, [(17,44),Y]+
0.10702891037903092, [(14,32),Y]+
0.1070442317513798, [(8,40),X]-
0.10909481366052913, [(11,28),Y]+
0.11223249252025437, [(7,43),X]+
0.1222890647430265, [(5,12),Y]-
0.1290350784351143, [(5,18),X]-
0.12935818291790102, [(23,35),X]+
0.13073444805355622, [(9,49),Y]+
0.13073444805355622, [(9,48),Y]+
0.13073444805355622, [(9,48),Y]-
0.13094660812217457, [(20,29),Y]+
0.131235419965378, [(30,42),Y]-
0.13801887159524676, [(3,19),X]-
0.13926446437398513, [(7,43),X]-
0.13940220347868001, [(8,28),Y]+
0.13940220347868001, [(27,28),Y]+
0.14095523157217624, [(27,49),X]+
0.14750278476084921, [(3,48),Y]-
0.14821668202367388, [(12,32),X]-
0.14969364645294236, [(6,11),X]+
0.15040048634399308, [(11,18),Y]+
0.15692217887374477, [(12,44),X]+
0.16122295021207922, [(6,47),X]+
0.16728227086591435, [(19,25),Y]-
0.16950337353977954, [(18,38),Y]+
0.16950337353977954, [(18,47),Y]+
0.17068823953122034, [(4,34),X]-
0.18522641920648858, [(7,36),X]-
0.18783329985544178, [(31,34),Y]+
0.1885161080448944, [(0,22),Y]+
0.19221128594305573, [(0,22),Y]-
0.1936001288137139, [(8,23),Y]-
0.1943182131373449, [(28,48),X]+
0.19484359058230022, [(15,32),X]-
0.19781550638824694, [(10,23),Y]-
0.1983899479812359, [(7,42),X]-
0.20165708346401634, [(4,34),X]+
0.204405882693301, [(4,39),Y]+
0.2054076889107844, [(26,31),X]+
0.21032798644134956, [(15,44),X]+
0.2121359253545358, [(10,23),Y]+
0.2171326489540854, [(40,42),Y]+
0.21805328941284782, [(3,48),Y]+
0.2201481645950759, [(18,47),Y]-
0.223937306176225, [(8,23),Y]+
0.223937306176225, [(8,23),Y]-
0.22403408947352046, [(3,49),X]-
0.22403408947352046, [(3,7),X]-
0.23446122274013312, [(1,13),Y]+
0.24281513982217676, [(10,35),Y]+
0.24359586314759887, [(2,40),Y]-
0.2485531149801467, [(4,39),Y]-
0.2485531149801467, [(39,45),Y]-
0.25105726020702096, [(16,35),Y]-
0.2551602011621271, [(9,37),Y]+
0.2581493624004388, [(37,42),Y]+
0.2640787118060034, [(22,39),X]-
0.26797793888467997, [(8,47),X]+
0.2692957429474728, [(10,30),Y]+
0.2692957429474728, [(30,42),Y]+
0.2709436451425667, [(15,21),X]+
0.2804033626073895, [(31,34),Y]-
0.2843382796537466, [(9,23),Y]+
0.28494893138642596, [(10,46),Y]+
0.28836817349528043, [(8,47),X]-
0.29088936679026894, [(11,20),Y]+
0.30056857719923225, [(17,32),Y]-
0.31146878128496136, [(39,44),X]-
0.3150459551497306, [(20,31),X]+
0.32782701668847014, [(11,20),Y]-
0.3342206744652428, [(2,23),Y]-
0.3342206744652428, [(2,37),Y]-
0.3363068238261843, [(18,33),Y]-
0.3363068238261843, [(18,33),Y]+
0.34365077994037546, [(21,38),X]+
0.35363849865828706, [(28,40),Y]+
0.35580760372938774, [(5,46),X]+
0.3617596826494971, [(44,45),X]+
0.3673753374212107, [(17,40),X]+
0.3733291500615395, [(1,45),Y]-
0.3735899017477805, [(9,40),Y]+
0.37478427600167397, [(4,10),X]+
0.3766256619772628, [(0,9),X]-
0.3792943447740476, [(8,37),Y]-
0.3792943447740476, [(8,37),Y]+
0.3805226527666652, [(10,46),Y]-
0.39548191453141485, [(18,24),Y]-
0.4163408767041046, [(16,16),X]+
0.4346062960337684, [(15,21),X]-
0.43827907056674004, [(22,39),X]+
0.47592331752459505, [(9,27),Y]+
0.48922283737433164, [(2,41),Y]-
0.5026129519411339, [(18,32),X]-
0.5062529849212289, [(18,44),X]+
0.5070829230782633, [(8,30),Y]+
0.5114940384454236, [(10,47),X]-
0.5168167527563686, [(5,24),Y]+
0.527875761514077, [(41,46),X]-
0.5282454623165861, [(17,19),X]+
0.5377091558443244, [(26,48),X]-
0.5408335390500633, [(28,37),Y]+
0.5558225482186, [(9,47),X]-
0.5715665280259352, [(1,31),Y]-
0.5715665280259352, [(1,31),Y]+
0.5745414286386674, [(13,38),X]-
0.5800078866533225, [(18,24),Y]+
0.5897892137828115, [(20,48),X]-
0.6036771143871821, [(21,38),X]-
0.6036771143871821, [(21,38),X]+
0.6090377680822755, [(10,23),Y]-
0.6418432688835622, [(14,38),X]-
0.6456579433928091, [(18,44),X]-
0.6456579433928091, [(44,45),X]-
0.645673078956929, [(1,5),X]+
0.6512019343093358, [(17,26),Y]+
0.6558309384222523, [(3,14),Y]+
0.6692316479647359, [(30,40),Y]+
0.6695283532903632, [(14,38),X]+
0.6695283532903632, [(13,38),X]+
0.6761209558869886, [(5,25),X]+
0.7093381099022522, [(18,29),Y]+
0.7291602684680654, [(28,31),X]+
0.7292684990959046, [(6,12),Y]-
0.8069633255340212, [(5,32),X]-
0.8155890959171355, [(13,34),X]+
0.8205431652201248, [(5,32),X]+
0.8227781967409764, [(48,48),X]+
0.8227781967409764, [(28,48),X]-
0.8250593764719215, [(14,39),X]+
0.8632363630744533, [(3,26),Y]+
0.8654531795636632, [(21,44),X]-
0.8917943266519713, [(21,36),Y]-
0.899856617665173, [(21,38),X]-
0.8998820308823481, [(17,34),Y]+
0.917647665165662, [(13,39),X]+
0.9179605782578705, [(20,28),X]+
0.9179605782578705, [(28,48),X]+
0.9179605782578705, [(26,28),X]+
0.941224694362637, [(6,11),X]-
0.941224694362637, [(4,33),X]-
0.9844654205252665, [(5,41),X]+
