marco:(-10.0,10.0),(-10.0,10.0)
timeIntervals:0.0-1.0
framesPerSecond:1000
-0.012365022591524612 -0.012072754363504268
3 -0.035123478680653575 0.5916721605552412 -0.9910356323660376 0.6916340790040788 -0.5996491163110675 -0.18619108909817716
0.5964731650304782 0.6731265297507232
5 -8.911761100103996 8.782878311044513 -9.335689581006317 9.012613489111708 -9.685181824127724 8.680425619134967 -9.477251428278873 8.245387046771716 -8.999251133228658 8.308706292610736
1.223854928299948 0.03554554652153242
6 9.180601350683302 -1.9247139814345782 8.856930109903253 -1.7029100146625569 8.503006619628499 -1.872315548266498 8.472754370133794 -2.2635250486424607 8.796425610913841 -2.4853290154144823 9.150349101188597 -2.315923481810541
-1.1407275163497093 1.786332873447862
5 4.492978411182744 0.8837696909997748 4.068920688955809 1.1132662207805533 3.7196154760766214 0.7808816886236838 3.9277907042967004 0.34596022063522763 4.405755283831663 0.4095485031382318
1.442191664641743 -2.6882059957077136
3 -0.5384374042853556 9.281410538816887 -1.4967010627356079 9.355513113650286 -1.081743945802043 8.488581154492254
-1.190441858424343 -0.404102968320156
5 -6.984635239969407 -7.947234590618565 -7.4086929621963415 -7.717738060837786 -7.757998175075529 -8.050122592994656 -7.549822946855451 -8.485044060983112 -7.071858367320488 -8.421455778480107
-0.021345183665643558 -0.1472169494950785
4 -0.5666914675409259 -9.403889864753753 -1.1628016027871726 -9.192577994153208 -1.3741134733877174 -9.788688129399455 -0.7780033381414708 -10.0
-1.2124005225884693 -0.7181300667841823
4 4.166579324486214 0.04806081834059095 3.5704691892399674 0.25937268894113574 3.3591573186394226 -0.336737446305111 3.955267453885669 -0.548049316905656
-1.6516429910954182 -0.592547513354562
12 1.3087383329146276 -3.215440470995787 1.330441293859384 -2.9388378365575365 1.0800449052097805 -3.058343838261161 0.8513514775049331 -2.901247205526535 0.8296485165601767 -3.177849839964786 0.5792521279105731 -3.2973558416684106 0.8079455556154203 -3.4544524744030363 0.7862425946706639 -3.7310551088412867 1.0366389833202674 -3.611549107137662 1.2653324110251147 -3.768645739872288 1.2870353719698713 -3.4920431054340373 1.5374317606194747 -3.3725371037304126
1.4238205272405913 -1.2179172224781376
20 0.513747442768835 -0.995509439781972 0.17572364011492386 -0.9904475107915516 0.07229172772258233 -1.1241384531559897 -0.028609220174548936 -1.0888174941934725 -0.026078255679338667 -0.919805592866517 -0.2934601404082152 -0.7129417680818338 -0.29852206939863574 -1.050965570735745 -0.16483112703419747 -1.1543974831280865 -0.20015208599671475 -1.2552984310252178 -0.3691639873236703 -1.2527674665300075 -0.5760278121083534 -1.5201493512588842 -0.23800400945444228 -1.5252112802493045 -0.13457209706210074 -1.3915203378848664 -0.03367114916496948 -1.4268412968473836 -0.03620211366017975 -1.5958531981743391 0.2311797710686968 -1.8027170229590221 0.23624170005911732 -1.464693220305111 0.10255075769467906 -1.3612613079127696 0.13787171665719633 -1.2603603600156383 0.30688361798415187 -1.2628913245108486
0.36384500982355844 -2.477121426541205
4 0.3966748832184024 -3.141132034396872 1.0743281707693457 -3.1927676541094208 0.10256599785415044 -2.528449262563439 0.013130481031710883 -3.7021791865177556
3.2991623298601533 -1.8003763846243708
20 -1.8711723511617868 -5.174563752768406 -2.2092042193646035 -5.170072609815021 -2.312410237006803 -5.303938014210131 -2.4133706831723094 -5.268787484503834 -2.4111251116956165 -5.0997715504024255 -2.6788559204858386 -4.893359515118028 -2.6833470634392245 -5.231391383320844 -2.549481659044113 -5.334597400963044 -2.584632188750411 -5.43555784712855 -2.753648122851819 -5.433312275651857 -2.960060158136218 -5.701043084442079 -2.622028289933401 -5.705534227395464 -2.5188222722912017 -5.571668823000354 -2.4178618261256952 -5.606819352706651 -2.420107397602388 -5.77583528680806 -2.152376588812166 -5.982247322092458 -2.14788544585878 -5.644215453889641 -2.2817508502538915 -5.541009436247442 -2.2466003205475937 -5.4400489900819355 -2.0775843864461856 -5.4422945615586285
1.4061651670557567 -2.5913550933365825
4 -6.401615538178367 -8.829419709600275 -5.72381962123198 -8.879148074971635 -6.697447468951288 -8.217567044257656 -6.7835795243518335 -9.391544009571533
-0.21670739168973177 2.289559192454289
5 -2.9554424301149997 7.093664241953263 -3.3804010563146534 7.321488241962522 -3.728393993493809 6.987730059088843 -3.5185068303157805 6.553632158040249 -3.040796492490308 6.6191030836209075
0.2089452803620027 1.5020254464268967
12 -3.2843186323110243 2.353005894874304 -3.264017112160604 2.629714919251053 -3.513804916802486 2.5089420392483843 -3.743291201293948 2.664878183622464 -3.7635927214443683 2.3881691592457157 -4.01338052608625 2.2673962792430467 -3.7838942415947883 2.1114601348689668 -3.8041957617452087 1.8347511104922178 -3.5544079571033267 1.9555239904948865 -3.3249216726118647 1.7995878461208064 -3.3046201524614442 2.076296870497555 -3.0548323478195623 2.197069750500224
0.8034183548879626 0.35746089608270915
4 -6.370045537505962 -5.46556410309438 -5.692221737875567 -5.51491095716143 -6.666221808102251 -4.853878046291239 -6.751693066540068 -6.0279033058304705
-0.4381832656542144 -0.2938156751052765
6 -1.404050416353542 -5.211091470656167 -1.7287171064291034 -4.9907471670327705 -2.081874215983937 -5.161744616589117 -2.1103646354632093 -5.55308636976886 -1.7856979453876483 -5.773430673392257 -1.4325408358328144 -5.60243322383591
-0.6544041369148126 2.1152254830000654
4 3.651643228774187 3.6491752328153417 4.329467028404582 3.599828378748292 3.355466958177898 4.260861289618482 3.269995699740081 3.086836030079251
1.1005625330735778 1.0597386150837944
20 -6.191663870381073 -6.693159590313415 -6.529698212917471 -6.688858712298423 -6.632828866884386 -6.822782185908483 -6.733809081843806 -6.787688488250346 -6.731658642836311 -6.618671316982148 -6.999505590056433 -6.412410009048315 -7.003806468071425 -6.750444351584713 -6.869882994461364 -6.853575005551629 -6.904976692119502 -6.954555220511049 -7.0739938633877 -6.952404781503553 -7.280255171321532 -7.220251728723675 -6.942220828785135 -7.224552606738667 -6.839090174818219 -7.090629133128607 -6.738109959858799 -7.125722830786744 -6.740260398866295 -7.294740002054942 -6.472413451646172 -7.501001309988775 -6.46811257363118 -7.162966967452377 -6.602036047241241 -7.059836313485461 -6.566942349583104 -6.9588560985260415 -6.397925178314906 -6.961006537533537
0.6716015359308574 1.559921886863324
12 4.971856392586445 0.4317357998541059 4.992002161399087 0.7084562072889347 4.742282374408624 0.5875427511420372 4.512708356230803 0.7433497024299686 4.492562587418161 0.4666292949951397 4.242842800427697 0.3457158388482422 4.4724168186055175 0.18990888756031093 4.452271049792875 -0.0868115198745179 4.701990836783338 0.03410193627237956 4.9315648549611595 -0.12170501501555175 4.951710623773802 0.1550153924192771 5.2014304107642655 0.2759288485661746
-0.5953258709520312 0.9491219697818322
5 6.843533543697877 -7.009631929595754 6.418446752060264 -6.782047157396565 6.070641728750333 -7.116001158304015 6.280773194524458 -7.549980853743023 6.758446605788634 -7.484241055044206
-0.0013622979559740403 0.027354186591849426
6 -4.636144780113757 -7.12255450302876 -4.960811470189319 -6.9022101994053635 -5.313968579744152 -7.07320764896171 -5.3424589992234255 -7.464549402141453 -5.017792309147864 -7.68489370576485 -4.664635199593031 -7.513896256208503
-0.8982809016033194 -1.4249385576554847
20 -3.2393267014868554 1.7658237611057663 -3.577361044023253 1.7701246391207583 -3.680491697990169 1.6362011655106972 -3.781471912949589 1.6712948631688345 -3.779321473942093 1.8403120344370332 -4.047168421162215 2.0465733423708654 -4.051469299177207 1.7085389998344678 -3.9175458255671463 1.6054083458675519 -3.9526395232252836 1.5044281309081318 -4.121656694493482 1.5065785699156278 -4.327918002427315 1.2387316226955052 -3.9898836598909173 1.2344307446805132 -3.886753005924001 1.3683542182905744 -3.785772790964581 1.333260520632437 -3.787923229972077 1.1642433493642383 -3.5200762827519543 0.9579820414304063 -3.5157754047369623 1.2960163839668037 -3.649698878347024 1.3991470379337196 -3.6146051806888866 1.5001272528931398 -3.4455880094206877 1.4979768138856437
2.0925400292341205 1.6942940365911412
6 9.136921080686855 -2.85166234580221 8.81262690085305 -2.630770162351052 8.459181568570033 -2.8011710686609876 8.43003041612082 -3.192464158422081 8.754324595954625 -3.413356341873239 9.107769928237643 -3.2429554355633035
0.9290540114285087 -0.6345353891907761
5 -3.6845918930241797 -7.059248782296791 -4.1092938058702 -6.830946583037461 -4.457662208773269 -7.164312845308375 -4.248263809527863 -7.598646725353643 -3.770480078701313 -7.533713563416324
0.7078773174495506 1.96101579948372
12 -9.270890043559401 -0.20513399305542374 -9.250432804409225 0.07156356251437634 -9.500288536272818 -0.04906872647517729 -9.729687028986232 0.10699654010506915 -9.750144268136408 -0.16970101546473093 -10.0 -0.29033330445428457 -9.770601507286585 -0.446398571034531 -9.79105874643676 -0.7230961266043311 -9.541203014573169 -0.6024638376147775 -9.311804521859754 -0.758529104195024 -9.291347282709578 -0.4818315486252238 -9.041491550845986 -0.3611992596356702
-0.854021558742488 0.3947280669588877
4 7.11357654217042 2.9117230237354286 6.516403611206015 3.120012463034166 6.308114171907278 2.5228395320697614 6.905287102871683 2.314550092771024
0.053983142206275515 0.876520436163302
4 4.233946692159629 -3.411527794183553 4.911714516381032 -3.461637591647573 3.938459137631261 -2.7995087418081015 3.8516664224665926 -3.9734370490949846
-0.09991879606378012 1.4526282099823091
4 4.985263764799653 -4.61936588233354 5.663031589021056 -4.66947567979756 4.689776210271285 -4.007346829958088 4.602983495106617 -5.181275137244971
-0.8644004026658189 0.3293408047381783
12 5.076119823704787 -7.826791233779295 5.096577062854964 -7.550093678209494 4.846721330991373 -7.670725967199048 4.617322838277958 -7.514660700618802 4.596865599127781 -7.791358256188602 4.347009867264189 -7.911990545178155 4.576408359977605 -8.068055811758402 4.555951120827428 -8.344753367328202 4.80580685269102 -8.224121078338648 5.035205345404434 -8.380186344918895 5.055662584554611 -8.103488789349095 5.305518316418203 -7.982856500359541
-3.501668420139759 -0.7955525136034047
20 4.542182036281359 -4.714736358991491 4.204152749065731 -4.710054984171138 4.100871412972901 -4.843862286611283 3.999930764290248 -4.808654945443614 4.002271451700425 -4.6396403018358 3.7346568468201347 -4.43307762965014 3.7299754719997806 -4.771106916865768 3.863782774439926 -4.874388252958598 3.828575433272257 -4.975328901641251 3.6595607896644426 -4.972988214231074 3.4529981174787827 -5.2406028191113645 3.791027404694411 -5.245284193931718 3.894308740787241 -5.111476891491573 3.995249389469894 -5.146684232659242 3.992908702059717 -5.315698876267056 4.260523306940007 -5.5222615484527156 4.265204681760361 -5.184232261237088 4.131397379320216 -5.080950925144258 4.166604720487885 -4.980010276461605 4.335619364095699 -4.982350963871782
-2.573694578822655 -0.20046297945395694
20 8.555994521709891 8.032385757568374 8.217965234494264 8.037067132388728 8.114683898401434 7.903259829948583 8.01374324971878 7.938467171116252 8.016083937128958 8.107481814724066 7.748469332248668 8.314044486909726 7.743787957428314 7.976015199694098 7.877595259868459 7.872733863601268 7.84238791870079 7.771793214918615 7.673373275092976 7.774133902328792 7.466810602907316 7.506519297448502 7.804839890122944 7.501837922628148 7.908121226215774 7.635645225068293 8.009061874898427 7.600437883900624 8.00672118748825 7.43142324029281 8.27433579236854 7.22486056810715 8.279017167188893 7.562889855322778 8.145209864748749 7.666171191415608 8.180417205916418 7.767111840098261 8.349431849524231 7.764771152688084
-0.42871726302150925 -0.98549152038508
20 -6.511619338662245 3.7394290490644586 -6.849660461640245 3.7431591243300137 -6.952564828639868 3.6090616977184804 -7.053604158006713 3.643984832595947 -7.051739120373935 3.813005394084947 -7.319933973597002 4.018814128084191 -7.3236640488625575 3.680773005106191 -7.189566622251023 3.577868638106569 -7.22448975712849 3.476829308739724 -7.393510318617491 3.4786943463725017 -7.5993190526167345 3.2104994931494346 -7.261277929638735 3.2067694178838795 -7.158373562639112 3.340866844495413 -7.057334233272267 3.3059437096179463 -7.059199270905045 3.1369231481289463 -6.791004417681978 2.931114414129702 -6.787274342416422 3.2691555371077023 -6.921371769027957 3.3720599041073243 -6.88644863415049 3.4730992334741693 -6.717428072661489 3.4712341958413915
-1.91293481536041 -0.649113843957542
5 -0.7993067386033512 -5.716803861292924 -1.224777218361889 -5.4899372048276 -1.5720178391735793 -5.824478024788374 -1.3611538653512802 -6.258102278613716 -0.8835921417145409 -6.191555985863314
-0.1864521529479759 0.09101548670445846
20 -1.2187107166878128 6.89072612695208 -1.556751839665813 6.894456202217635 -1.6596562066654352 6.760358775606101 -1.7606955360322798 6.795281910483568 -1.7588304983995022 6.964302471972569 -2.0270253516225694 7.170111205971812 -2.0307554268881245 6.832070082993813 -1.896658000276591 6.72916571599419 -1.9315811351540575 6.628126386627345 -2.1006016966430576 6.629991424260123 -2.306410430642302 6.361796571037056 -1.9683693076643016 6.3580664957715 -1.8654649406646795 6.4921639223830345 -1.764425611297835 6.457240787505568 -1.7662906489306125 6.288220226016567 -1.4980957957075451 6.082411492017323 -1.4943657204419902 6.420452614995323 -1.6284631470535238 6.5233569819949455 -1.5935400121760572 6.6243963113617905 -1.424519450687057 6.622531273729013
-0.2730976184919833 0.8875289456895631
5 8.25839347929507 -4.746033893569033 7.832922999536531 -4.519167237103709 7.4856823787248405 -4.853708057064483 7.69654635254714 -5.287332310889825 8.17410807618388 -5.220786018139423
1.6354752643435726 -0.24836081311394304
6 4.344813217966156 -7.658808398421814 4.019774922686414 -7.439012633254374 3.6669070587673027 -7.610606171585697 3.6390774901279315 -8.001995475084462 3.9641157854076723 -8.2217912402519 4.316983649326784 -8.050197701920577
1.803449729090487 0.619512604717868
3 -3.612804281821936 -2.3397242302158676 -4.571508366177208 -2.2715559872876474 -4.15119175410676 -3.1359022005153228
-0.3918026061868794 0.7546656647113772
5 -3.627794538808824 -5.768197269296573 -4.053392666293321 -5.541570168438345 -4.4004449015004825 -5.876306415354374 -4.189336851245635 -6.309811894073285 -3.7118126656822565 -6.242996767314837
0.2570511627678618 0.325194028476985
6 -4.163137424844079 9.64693000633406 -4.488299403188302 9.866542755561357 -4.841070612186193 9.6947505965841 -4.86867984283986 9.303345688379551 -4.543517864495637 9.083732939152254 -4.190746655497747 9.255525098129509
0.38564802438235335 -2.1279160195223414
6 2.0248939270094506 -2.1779314770746647 1.6997319486652274 -1.9583187278473688 1.3469607396673362 -2.1301108868246237 1.3193515090136683 -2.5215157950291744 1.6445134873578913 -2.7411285442564703 1.9972846963557824 -2.5693363852792155
-0.06475442477765829 0.9160465181536525
5 -8.86619852782052 -1.5920565735385674 -9.291796655305017 -1.365429472680339 -9.638848890512179 -1.7001657195963673 -9.42774084025733 -2.1336711983152785 -8.950216654693952 -2.0668560715568316
2.146673348194381 1.8638434419997467
4 4.079160140730551 -4.218887507556142 4.757093328072665 -4.266708097806182 3.7816073930399954 -3.607869850124295 3.698779701078992 -4.782084574737947
-1.951455689619746 -0.13483050397163565
4 4.629905767643667 -1.2299976578016558 5.307838954985781 -1.2778182480516966 4.3323530199531115 -0.6189800003698093 4.2495253279921075 -1.7931947249834614
-0.3759750966281091 0.8047947105314397
5 -4.6715119253044195 4.94044448575954 -5.097110052788916 5.1670715866177686 -5.444162287996078 4.83233533970174 -5.23305423774123 4.398829860982829 -4.755530052177852 4.4656449877412765
0.3490616345281884 -0.06803400520029003
4 -5.706451345768409 8.975199480978754 -6.3043242953280645 9.181470991820259 -6.510595806169571 8.583598042260602 -5.912722856609915 8.377326531419097
0.49590861254617946 0.1568366814264655
4 -8.358014495199475 -4.910731423879386 -8.955887444759131 -4.70445991303788 -9.162158955600637 -5.3023328625975354 -8.56428600604098 -5.5086043734390415
-0.9120268495549539 0.05495175248994404
4 0.38105131873471976 -5.593335075879379 -0.21682163082493583 -5.387063565037873 -0.42309314166644185 -5.984936514597528 0.17477980789321368 -6.1912080254390345
-2.4841371962151126 0.5360728166346377
4 6.5067090879192016 -0.08064059674141077 7.184642275261316 -0.12846118699145168 6.209156340228646 0.5303770606904358 6.126328648267642 -0.6438376639232164
1.7598228568326457 1.765419547578333
3 3.6112193904664176 0.06261350794974199 2.652592645266803 0.13186084790871777 3.07193606231764 -0.7329579361608288
