areaTotal:400.0
tiempoTotalSimulado:1.0
areaOcupadaInicial:3.999999999999983
eventosSimples:42
eventosMultiples:0
0.0
[(0,2), (0,5), (1,8), (1,11), (2,5), (4,7), (4,11), (4,12), (7,11), (7,12), (8,11), (9,13), (11,12), (13,19), (14,15)]
[(0,9), (0,17), (1,5), (1,12), (1,14), (5,12), (7,8), (8,17), (12,14), (13,15), (14,18)]
0.02355371469183911, [(3,11),Y]+
0.029330036729932847, [(14,18),Y]-
0.05075377621498667, [(0,5),X]-
0.0639136631817437, [(7,11),X]-
0.08555312868939774, [(13,19),X]-
0.11418564158019989, [(4,11),X]-
0.15504477795371394, [(4,11),X]+
0.15504477795371394, [(7,11),X]+
0.17431395782243445, [(14,16),X]+
0.18001095463571135, [(7,8),Y]-
0.2134946018000789, [(2,5),Y]+
0.2449809878595693, [(0,17),Y]-
0.25947032923548585, [(5,12),Y]-
0.322994914800037, [(0,17),Y]+
0.34882726334956865, [(11,16),Y]+
0.3836693204026276, [(14,15),X]-
0.3950047854783671, [(10,18),X]+
0.40685318354944355, [(7,16),Y]+
0.4435633234167207, [(3,11),Y]-
0.4495692979987226, [(1,2),Y]+
0.4566157724036412, [(4,10),X]+
0.45959517624298896, [(2,5),X]-
0.4906980916660407, [(15,16),X]+
0.4906980916660407, [(14,15),X]+
0.5159061673813304, [(13,15),Y]-
0.5414108375413932, [(1,14),Y]-
0.54206463575571, [(7,11),Y]+
0.5701874123947573, [(1,12),Y]-
0.5857275851508464, [(1,14),Y]+
0.5998198575697085, [(4,18),X]+
0.6278899535289211, [(7,16),Y]-
0.7201290541453496, [(10,12),X]+
0.7335685740459964, [(7,10),X]+
0.7335685740459964, [(7,18),X]+
0.7706290273845451, [(1,8),X]-
0.846495850477211, [(11,16),Y]-
0.8474753894645833, [(9,9),Y]+
0.8712733873597724, [(12,18),X]+
0.9008768092162165, [(7,18),X]-
0.9008768092162165, [(12,18),X]-
0.9069526437082737, [(11,16),Y]+
0.9780656065601818, [(10,18),X]-
