areaTotal:400.0
tiempoTotalSimulado:1.0
areaOcupadaInicial:3.999999999999994
eventosSimples:2
eventosMultiples:0
0.0
null
[(1,2), (2,4)]
0.14502699727172752, [(2,4),Y]-
0.8101693299914667, [(0,4),Y]+
