marco:(-10.0,10.0),(-10.0,10.0)
timeIntervals:0.0-1.0
framesPerSecond:1000
-0.6740936176417428 0.12919347414918897
4 -5.617778258937495 -8.581185029303228 -5.348573605669711 -8.22407320555754 -5.7056854294154 -7.9548685522897555 -5.974890082683184 -8.311980376035445
2.2598006251952314 0.8200868534984154
4 -9.69408169566773 -5.648087300925459 -9.862082936794504 -6.098326893426734 -9.220162150208687 -5.568460847357923 -10.0 -5.27747416199172
-2.081356812808012 0.2550706175844968
3 1.487775087658042 -1.0293317235000838 1.7253647213550383 -0.3925967854674456 1.055141272693165 -0.5052055960263264
-0.2374274072792181 0.6527828571974895
6 1.108842263358409 3.990628228418296 1.3228158588870151 4.167250243774566 1.276843504485183 4.44086782091957 1.0168975545547445 4.537863382708305 0.8029239590261383 4.361241367352035 0.8488963134279705 4.08762379020703
0.21586667840808843 -0.12603331517060926
20 2.0609966003350246 -5.9720694606903235 2.130996431409704 -5.743502444713885 2.0605695743415327 -5.646932407491081 2.1044262252615806 -5.585362285805618 2.2187097332497996 -5.6203622013429575 2.4118498076954067 -5.479508487206615 2.183282791718968 -5.409508656131935 2.0867127544961646 -5.479935513200107 2.025142632810701 -5.436078862280059 2.0601425483480407 -5.321795354291839 1.919288834211698 -5.128655279846233 1.8492890031370184 -5.357222295822671 1.9197158602051898 -5.453792333045475 1.875859209285142 -5.515362454730938 1.7615757012969229 -5.480362539193599 1.568435626851316 -5.6212162533299415 1.7970026428277543 -5.691216084404621 1.893572680050558 -5.6207892273364495 1.9551428017360215 -5.664645878256497 1.9201428861986816 -5.778929386244717
0.20998007652831974 -0.35355936207500926
4 3.0171239985917846 1.572442296088858 3.276583444454336 1.936696048235212 2.9123296923079818 2.1961554940977637 2.6528702464454303 1.8319017419514096
-0.45346906053911445 -1.0903721182730124
12 2.7891927707989863 5.457364434755096 2.973002314736778 5.388778215269284 2.9404949511921314 5.5822550595203495 3.091797131585276 5.707145684285602 2.9079875876474848 5.775731903771415 2.8754802241028377 5.969208748022481 2.724178043709693 5.844318123257228 2.540368499771901 5.91290434274304 2.572875863316548 5.719427498491974 2.421573682923403 5.594536873726722 2.6053832268611945 5.5259506542409085 2.6378905904058416 5.3324738099898426
0.43555769039529946 0.5629022231353396
6 -3.550562614218417 8.047482745085922 -3.3365890186898106 8.224104760442192 -3.382561373091643 8.497722337587197 -3.6425073230220812 8.59471789937593 -3.8564809185506874 8.41809588401966 -3.810508564148855 8.144478306874655
-0.2384966886710938 0.31682350933020215
5 -1.8082854900899408 2.0151822164080375 -1.5694701004298723 2.2585215148009756 -1.7271015119139306 2.5608444259314442 -2.0633384715657677 2.50435096219495 -2.1135129294204718 2.167113170333118
1.2327204364288908 1.056139262908876
12 -8.049265325723342 -4.955814321560156 -7.865455781785551 -5.024400541045969 -7.8979631453301975 -4.830923696794903 -7.746660964937052 -4.70603307202965 -7.930470508874844 -4.637446852543837 -7.962977872419491 -4.443970008292771 -8.114280052812637 -4.568860633058025 -8.298089596750428 -4.500274413572212 -8.26558223320578 -4.693751257823278 -8.416884413598925 -4.818641882588531 -8.233074869661134 -4.887228102074344 -8.200567506116487 -5.08070494632541
1.584862640040447 1.5867261400939152
3 -7.200561830683797 -1.8029462190662429 -6.9629721969868 -1.1662112810336045 -7.633195645648674 -1.2788200915924854
-0.3559947288395764 -0.005322413114174931
5 -0.5432038236404192 6.744764761640683 -0.3043884339803506 6.9881040600336215 -0.4620198454644089 7.29042697116409 -0.798256805116246 7.233933507427595 -0.8484312629709501 6.896695715565763
0.02682455895017183 -0.26335830518779685
12 -1.6784219787724257 -3.0660940910152217 -1.4946124348346341 -3.134680310501034 -1.5271197983792808 -2.9412034662499686 -1.3758176179861359 -2.816312841484715 -1.5596271619239277 -2.7477266219989023 -1.5921345254685744 -2.5542497777478363 -1.7434367058617195 -2.67914040251309 -1.927246249799511 -2.6105541830272774 -1.8947388862548644 -2.804031027278343 -2.046041066648009 -2.9289216520435963 -1.8622315227102175 -2.9975078715294092 -1.8297241591655709 -3.190984715780475
-0.9513541482970256 -1.5997734929453784
6 -6.735626930078749 9.452764845709993 -6.521653334550143 9.629386861066262 -6.567625688951975 9.903004438211267 -6.8275716388824135 10.0 -7.04154523441102 9.82337798464373 -6.995572880009187 9.549760407498725
1.2281240123963153 0.6097137766484048
4 2.050607688391343 1.960928733494657 2.3100671342538943 2.3251824856410113 1.9458133821075403 2.5846419315035627 1.6863539362449886 2.2203881793572084
-0.9135652117694427 -1.805605053053718
12 -0.32140256215273133 -8.961656406082968 -0.13759301821493958 -9.03024262556878 -0.1701003817595864 -8.836765781317714 -0.018798201366441447 -8.71187515655246 -0.20260774530423317 -8.643288937066648 -0.23511510884887998 -8.449812092815582 -0.3864172892420249 -8.574702717580836 -0.5702268331798166 -8.506116498095023 -0.5377194696351698 -8.69959334234609 -0.6890216500283148 -8.824483967111343 -0.505212106090523 -8.893070186597155 -0.47270474254587624 -9.086547030848221
-0.03826538728125457 -0.0022156960883174134
20 -4.43011686335641 -7.818376510703097 -4.360117032281731 -7.589809494726659 -4.430543889349902 -7.493239457503855 -4.386687238429855 -7.431669335818392 -4.272403730441635 -7.466669251355731 -4.079263655996028 -7.3258155372193885 -4.307830671972467 -7.255815706144709 -4.40440070919527 -7.3262425632128805 -4.4659708308807335 -7.282385912292833 -4.430970915343394 -7.168102404304613 -4.571824629479737 -6.974962329859006 -4.6418244605544166 -7.203529345835445 -4.571397603486245 -7.300099383058249 -4.615254254406293 -7.361669504743712 -4.7295377623945125 -7.3266695892063725 -4.922677836840119 -7.467523303342715 -4.69411082086368 -7.537523134417395 -4.597540783640877 -7.467096277349223 -4.535970661955414 -7.510952928269271 -4.570970577492753 -7.625236436257491
-0.1516695588652437 -0.8564930264611381
3 7.7502005265668945 -7.518663880743768 7.987790160263891 -6.88192894271113 7.3175667116020175 -6.99453775327001
0.2682399634955341 2.7650864270404156
20 0.7618748474658091 -5.544580704947298 0.8318746785404888 -5.316013688970859 0.7614478214723173 -5.219443651748056 0.805304472392365 -5.157873530062592 0.9195879803805843 -5.192873445599932 1.112728054826191 -5.052019731463589 0.8841610388497526 -4.982019900388909 0.7875910016269493 -5.052446757457081 0.7260208799414857 -5.008590106537033 0.7610207954788255 -4.8943065985488134 0.6201670813424826 -4.701166524103207 0.5501672502678029 -4.929733540079646 0.6205941073359744 -5.026303577302449 0.5767374564159267 -5.087873698987912 0.4624539484277074 -5.052873783450573 0.2693138739821006 -5.193727497586916 0.4978808899585391 -5.263727328661595 0.5944509271813424 -5.193300471593424 0.656021048866806 -5.237157122513471 0.6210211333294662 -5.351440630501691
-0.5555739712628299 0.97500606822175
20 -7.19022825787705 -6.76854331747202 -7.12022842680237 -6.539976301495582 -7.190655283870542 -6.443406264272778 -7.146798632950494 -6.381836142587315 -7.032515124962274 -6.416836058124654 -6.839375050516668 -6.275982343988312 -7.0679420664931065 -6.205982512913632 -7.16451210371591 -6.2764093699818035 -7.226082225401373 -6.232552719061756 -7.191082309864034 -6.118269211073536 -7.331936024000377 -5.9251291366279295 -7.401935855075056 -6.153696152604368 -7.331508998006885 -6.250266189827172 -7.375365648926932 -6.311836311512635 -7.489649156915152 -6.2768363959752955 -7.682789231360759 -6.417690110111638 -7.45422221538432 -6.487689941186318 -7.3576521781615165 -6.417263084118146 -7.296082056476053 -6.461119735038194 -7.331081972013393 -6.575403243026414
