areaTotal:400.0
tiempoTotalSimulado:1.0
areaOcupadaInicial:40.00000000000001
eventosSimples:74
eventosMultiples:0
0.0
[(0,6), (0,13), (0,15), (0,16), (1,13), (1,16), (2,17), (2,19), (3,8), (3,14), (4,6), (4,7), (4,10), (4,12), (4,15), (5,9), (5,10), (5,11), (5,18), (6,7), (6,12), (6,15), (7,10), (7,12), (7,15), (8,17), (9,10), (9,18), (10,12), (10,18), (11,14), (12,15), (13,15), (13,16), (17,19)]
[(0,2), (0,4), (0,6), (0,8), (0,12), (1,3), (1,5), (1,18), (2,6), (2,8), (2,12), (3,5), (3,18), (4,6), (4,8), (4,10), (4,12), (5,18), (6,8), (6,12), (7,14), (7,15), (7,17), (8,12), (9,10), (11,13), (11,16), (13,16), (14,15), (14,17), (15,17), (15,19), (17,19)]
0.004584091207819353, [(0,12),X]+
0.006259008755789374, [(3,11),X]+
0.008681406012594128, [(4,9),Y]+
0.012510247718736715, [(8,14),X]+
0.02432977786031189, [(2,16),Y]+
0.02549637603237621, [(0,4),Y]-
0.03417169185512108, [(10,12),X]-
0.05055988791293381, [(4,6),Y]-
0.0507045980773903, [(11,18),X]+
0.06723953482306091, [(0,16),X]-
0.07674207564904213, [(4,9),Y]-
0.08490247068496103, [(4,12),Y]-
0.09361431035530059, [(0,4),X]+
0.09831547217991936, [(4,10),X]-
0.10231040616232608, [(8,17),X]-
0.10330225888822002, [(5,11),X]-
0.10330225888822002, [(11,18),X]-
0.1075021242489417, [(4,6),Y]+
0.12590373979621028, [(14,19),Y]+
0.13124326686532467, [(13,15),X]-
0.16304952342788467, [(12,16),Y]+
0.16902411731373387, [(0,13),X]-
0.17027989633033677, [(7,15),X]-
0.17039065291452377, [(3,11),X]-
0.1899347171839813, [(0,13),X]+
0.1899347171839813, [(13,15),X]+
0.19299925480432725, [(5,7),X]+
0.19418023034330203, [(13,16),Y]-
0.20781042648398104, [(7,12),X]-
0.21710170215275332, [(0,1),X]+
0.23001344185555325, [(4,7),X]-
0.23474521192542944, [(6,10),Y]+
0.23889459729325563, [(12,16),Y]-
0.24062745521191453, [(12,13),X]+
0.24119611930149312, [(9,9),Y]+
0.2557426362801474, [(1,15),X]+
0.2870923906460271, [(7,9),X]+
0.2870923906460271, [(7,18),X]+
0.2951395293581504, [(6,7),X]-
0.31839391788303, [(7,17),Y]-
0.3200530010673128, [(3,7),Y]+
0.32738276652431997, [(11,16),Y]-
0.32998500319255686, [(7,18),X]-
0.33518290218270436, [(1,16),X]-
0.3449758076974028, [(2,16),Y]-
0.3826408001727246, [(5,7),X]-
0.3826408001727246, [(5,7),X]+
0.40917056755404113, [(12,13),X]-
0.40917056755404113, [(12,13),X]+
0.43443063842082597, [(16,16),Y]+
0.4494647252850449, [(3,7),Y]-
0.4858597811561298, [(8,12),Y]-
0.4940274338430621, [(0,12),Y]-
0.5011564585035143, [(3,5),Y]-
0.5122079669569386, [(7,14),Y]-
0.5328058186339291, [(4,10),X]+
0.5328058186339291, [(4,7),X]+
0.5385549724539218, [(9,18),X]-
0.571091197511833, [(5,18),X]-
0.5824982642208234, [(3,18),Y]-
0.5989336154879966, [(6,15),X]-
0.6138587411497268, [(1,18),Y]-
0.678855484023464, [(4,13),X]+
0.678855484023464, [(4,13),X]-
0.680041763617419, [(10,17),Y]+
0.6868927675765115, [(3,3),X]+
0.6868927675765115, [(3,8),X]-
0.8477215542212799, [(6,15),X]+
0.8633464699745033, [(0,2),Y]-
0.8778325716155205, [(6,10),X]+
0.8778325716155205, [(6,10),X]-
0.8778325716155205, [(4,10),X]-
0.8902055537385272, [(1,18),Y]+
0.9113335193086488, [(10,14),X]+
