marco:(-10.0,10.0),(-10.0,10.0)
timeIntervals:0.0-1.0
framesPerSecond:1000
-0.7867019162027667 -1.0548583506012856
4 3.9703626208499454 1.8782620626954856 4.18787966868905 2.3067786219732 3.490497870653592 1.852379072241488 4.232710323207194 1.4756284938717688
-0.04733541800742204 0.23759171446164754
4 3.1574632780757628 -2.4228148714588618 2.867825728626276 -2.763564178059618 3.208575035227032 -3.0532017275091046 3.498212584676519 -2.7124524209083485
-0.7527756891257374 0.7084305435380175
20 0.41224690333827263 9.492244912411554 0.3229710042443318 9.270495795200626 0.3848878814005205 9.16826070039977 0.3359301999512455 9.110663555145887 0.22505564134578177 9.155301504692858 0.020585451744072614 9.03146775038048 0.24233456895500005 8.94219185128654 0.3445696637558546 9.004108728442727 0.4021668090097388 8.955151046993453 0.35752885946276836 8.844276488387989 0.4813626137751458 8.63980629878628 0.5706385128690866 8.861555415997207 0.5087216357128979 8.963790510798063 0.5576793171621729 9.021387656051946 0.6685538757676366 8.976749706504975 0.8730240653693457 9.100583460817353 0.6512749481584184 9.189859359911294 0.5490398533575638 9.127942482755106 0.4914427081036796 9.17690016420438 0.53608065765065 9.287774722809845
1.0744869760360292 -0.102285978422955
6 -4.598488000629062 3.535428551794194 -4.826772072568219 3.3777376567151562 -4.8043497874538446 3.1011924035969733 -4.553643430400313 2.982338045557828 -4.325359358461156 3.1400289406368658 -4.34778164357553 3.4165741937550482
-1.0258243121870614 0.9703554418194115
20 0.8610008642321366 2.248780293368833 0.7717249651381958 2.027031176157905 0.8336418422943845 1.9247960813570506 0.7846841608451095 1.8671989361031665 0.6738096022396458 1.9118368856501369 0.4693394126379366 1.7880031313377593 0.691088529848864 1.6987272322438187 0.7933236246497186 1.7606441094000074 0.8509207699036028 1.7116864279507322 0.8062828203566323 1.6008118693452686 0.9301165746690098 1.3963416797435595 1.0193924737629505 1.6180907969544869 0.9574755966067618 1.7203258917553415 1.006433278056037 1.7779230370092256 1.1173078366615006 1.7332850874622552 1.3217780262632097 1.8571188417746327 1.1000289090522823 1.9463947408685733 0.9977938142514278 1.8844778637123847 0.9401966689975436 1.9334355451616598 0.984834618544514 2.0443101037671236
0.9425889832932848 -1.4232931393324917
4 -9.26826952168453 -5.873212916744581 -9.062407734859748 -5.438976768547361 -9.747259950677218 -5.912049453784474 -8.995140879516624 -6.26861252790191
-0.05551566301326461 2.6412530796493328
20 9.34945796771862 1.6962382314482902 9.260182068624678 1.4744891142373628 9.322098945780866 1.3722540194365083 9.273141264331592 1.3146568741826241 9.162266705726127 1.3592948237295945 8.957796516124418 1.235461069417217 9.179545633335346 1.1461851703232764 9.281780728136201 1.208102047479465 9.339377873390085 1.1591443660301899 9.294739923843114 1.0482698074247263 9.418573678155491 0.8437996178230172 9.507849577249432 1.0655487350339445 9.445932700093245 1.1677838298347991 9.494890381542518 1.2253809750886833 9.605764940147983 1.1807430255417128 9.810235129749692 1.3045767798540904 9.588486012538764 1.393852678948031 9.486250917737909 1.3319358017918423 9.428653772484026 1.3808934832411175 9.473291722030996 1.491768041846581
-0.02710760628532675 0.018298202037694448
3 -1.3017444976605765 -9.385897349946838 -1.5928770285625422 -10.0 -0.9154822676341757 -9.94507684260258
0.5478568771509821 1.268625565180478
5 4.540394243051489 9.605836745247956 4.279051541444453 9.386869175051835 4.406542739784356 9.070652795294693 4.7466793352319065 9.094187895001456 4.829404113696262 9.424949766305996
0.30193377891089923 -2.0335245294336057
12 -3.7395824767470707 -0.40839070104308595 -3.9158528932289816 -0.322258487445218 -3.9023103700479673 -0.5179792528531499 -4.065038263348864 -0.627567804663214 -3.888767846866953 -0.713700018261082 -3.8752253236859384 -0.909420783669014 -3.712497430385042 -0.7998322318589498 -3.5362270139031313 -0.8859644454568177 -3.5497695370841456 -0.6902436800488858 -3.387041643783249 -0.5806551282388217 -3.56331206026516 -0.4945229146409538 -3.5768545834461745 -0.2988021492330218
-0.19876140913832452 0.5348825773002777
20 -3.0360613865837798 -6.768219838490994 -3.1279520708351143 -6.988898245433492 -3.0672479133335155 -7.091858041216775 -3.1168829593031657 -7.148872494874391 -3.2272221627744146 -7.102927152748723 -3.433141754340981 -7.224335467751921 -3.212463347398483 -7.316226152003256 -3.1095035516152 -7.255521994501657 -3.0524890979575843 -7.3051570404713075 -3.0984344400832513 -7.415496243942556 -2.977026125080054 -7.621415835509122 -2.8851354408287193 -7.400737428566624 -2.945839598330318 -7.297777632783341 -2.896204552360668 -7.240763179125725 -2.785865348889419 -7.286708521251393 -2.579945757322853 -7.165300206248196 -2.8006241642653507 -7.073409521996861 -2.9035839600486337 -7.134113679498459 -2.9605984137062493 -7.084478633528809 -2.9146530715805823 -6.97413943005756
0.1513215901236781 2.8724712180216665
4 -1.4928237151394192 3.5197391408099765 -1.281843741408232 3.951511717938536 -1.9722397224558212 3.4865668691866785 -1.2243876815542043 3.121138835304715
-0.5702863681403301 -0.5240292784994967
20 9.109227344817102 2.2996482246263517 9.017336660565768 2.078969817683854 9.078040818067366 1.9760100219005707 9.028405772097717 1.918995568242955 8.918066568626468 1.9649409103686222 8.7121469770599 1.8435325953654247 8.932825384002399 1.7516419111140902 9.035785179785682 1.812346068615689 9.092799633443297 1.7627110226460387 9.046854291317631 1.6523718191747898 9.168262606320829 1.4464522276082235 9.260153290572163 1.6671306345507213 9.199449133070564 1.7700904303340046 9.249084179040214 1.8271048839916204 9.359423382511462 1.7811595418659532 9.56534297407803 1.9025678568691506 9.344664567135531 1.9944585411204852 9.241704771352248 1.9337543836188864 9.184690317694633 1.9833894295885366 9.2306356598203 2.0937286330597855
-1.4194226296824757 2.4527250866254295
4 -7.039406378384987 -7.986036942548651 -6.8284264046538 -7.554264365420091 -7.518822385701389 -8.01920921417195 -6.770970344799772 -8.384637248053913
0.3463720963836833 -1.307937779898403
6 -8.383983877431424 -5.0025815532467055 -8.614115871113954 -5.157563169497324 -8.594963851162612 -5.434354130375264 -8.34567983752874 -5.5561634750025855 -8.11554784384621 -5.401181858751967 -8.134699863797552 -5.124390897874027
1.281682327220282 -0.7100384175023415
20 6.541639008698264 2.701977920467315 6.449748324446929 2.4812995135248173 6.510452481948528 2.378339717741534 6.460817435978878 2.3213252640839186 6.350478232507629 2.3672706062095856 6.144558640941063 2.245862291206388 6.365237047883561 2.1539716069550536 6.468196843666844 2.2146757644566524 6.52521129732446 2.165040718487002 6.479265955198792 2.0547015150157533 6.600674270201989 1.848781923449187 6.692564954453324 2.069460330391685 6.631860796951726 2.172420126174968 6.681495842921375 2.2294345798325836 6.791835046392625 2.1834892377069166 6.997754637959191 2.304897552710114 6.777076231016693 2.3967882369614486 6.67411643523341 2.33608407945985 6.617101981575794 2.3857191254295 6.663047323701462 2.496058328900749
0.3297324817886819 0.06125839698101736
6 -9.76986800631747 8.161224590504291 -10.0 8.006242974253672 -9.980847980048658 7.729452013375732 -9.731563966414786 7.607642668748411 -9.501431972732256 7.7626242849990295 -9.520583992683598 8.03941524587697
-0.975369836695582 -1.0999442441758085
6 -0.5882034484484292 2.0028239041325544 -0.818335442130959 1.8478422878819352 -0.7991834221796165 1.5710513270039947 -0.5498994085457442 1.4492419823766736 -0.3197674148632144 1.6042235986272928 -0.3389194348145568 1.881014559505233
-0.364077712889164 -0.43612506120986283
6 5.509578366049934 -4.196886795037662 5.2794463723674045 -4.35186841128828 5.2985983923187465 -4.62865937216622 5.5478824059526195 -4.7504687167935415 5.778014399635149 -4.595487100542923 5.758862379683807 -4.318696139664983
-0.04324736065592265 0.02875221619460832
20 6.995224478103576 -0.24523236422536487 6.903333793852241 -0.4659107711678627 6.9640379513538395 -0.5688705669511459 6.91440290538419 -0.6258850206087618 6.80406370191294 -0.5799396784830946 6.598144110346374 -0.7013479934862921 6.818822517288872 -0.7932386777376266 6.921782313072155 -0.7325345202360278 6.978796766729771 -0.782169566205678 6.932851424604103 -0.8925087696769269 7.054259739607301 -1.0984283612434933 7.146150423858636 -0.8777499543009954 7.085446266357037 -0.7747901585177123 7.135081312326687 -0.7177757048600963 7.245420515797936 -0.7637210469857636 7.451340107364502 -0.6423127319825661 7.230661700422004 -0.5504220477312316 7.127701904638721 -0.6111262052328303 7.070687450981105 -0.5614911592631802 7.116632793106773 -0.45115195579193124
-0.01773014984889532 -0.816523196892932
3 6.514970907009587 -0.9511919898038711 6.2166001667698225 -1.561810624239863 6.894596786335438 -1.514897947815471
0.33388139265142425 -0.02567984897818688
20 -6.08893777997189 10.0 -6.180828464223225 9.779321593057501 -6.120124306721626 9.676361797274218 -6.169759352691276 9.619347343616603 -6.2800985561625255 9.66529268574227 -6.486018147729092 9.543884370739072 -6.265339740786594 9.451993686487738 -6.162379945003311 9.512697843989336 -6.105365491345695 9.463062798019687 -6.151310833471363 9.352723594548436 -6.029902518468165 9.14680400298187 -5.93801183421683 9.367482409924369 -5.998715991718429 9.470442205707652 -5.949080945748779 9.527456659365267 -5.83874174227753 9.481511317239601 -5.632822150710964 9.602919632242799 -5.8535005576534616 9.694810316494133 -5.956460353436745 9.634106158992534 -6.013474807094361 9.683741204962184 -5.967529464968693 9.794080408433434
-0.029750206305047957 -0.10833082142804125
4 2.0040541988944347 4.573426604005997 1.7104093069001673 4.236124547377706 2.047711363528459 3.9424796553834383 2.3413562555227263 4.279781712011729
-1.729016472389338 -1.5295734089845447
4 4.799438844158356 -5.1330407796716155 5.010418817889543 -4.701268202543056 4.320022836841954 -5.166213051294914 5.067874877743571 -5.531641085176877
-2.330441998124562 1.153706400687748
4 -7.773024387297715 -7.949231008026947 -7.562044413566528 -7.517458430898388 -8.252440394614117 -7.982403279650246 -7.5045883537125 -8.34783131353221
-0.9518490156954998 0.5017013621562604
4 -1.9282600523689268 -5.6402495942779485 -1.7172800786377396 -5.208477017149389 -2.407676059685329 -5.673421865901247 -1.6598240187837119 -6.03884989978321
0.5289215171077931 1.4974104349313937
3 3.8038655395620142 9.198350407738253 3.5054947993222503 8.587731773302261 4.183491418887865 8.634644449726652
0.27627031979910516 1.3747180620628636
4 8.274007293656927 4.941448572228358 7.98036240166266 4.604146515600068 8.31766445829095 4.3105016236058 8.611309350285218 4.647803680234091
1.9361324827624382 -0.3989984729889786
20 5.680639012477349 -6.954680072773085 5.588748328226014 -7.175358479715583 5.649452485727613 -7.278318275498866 5.599817439757963 -7.335332729156482 5.489478236286714 -7.289387387030814 5.283558644720148 -7.410795702034012 5.5042370516626455 -7.502686386285347 5.607196847445929 -7.441982228783748 5.664211301103545 -7.4916172747533984 5.618265958977877 -7.601956478224647 5.739674273981074 -7.807876069791213 5.831564958232409 -7.587197662848715 5.77086080073081 -7.484237867065432 5.82049584670046 -7.427223413407816 5.9308350501717095 -7.473168755533484 6.136754641738276 -7.3517604405302865 5.916076234795778 -7.259869756278952 5.813116439012495 -7.32057391378055 5.756101985354879 -7.2709388678109 5.802047327480547 -7.160599664339651
-0.7873357523013025 -0.9615009015045282
4 9.363440299686157 3.4494368458789175 9.574420273417344 3.881209423007477 8.884024292369755 3.4162645742556195 9.631876333271371 3.050836540373656
-0.7212271863211215 -0.017071771224246985
3 2.300204110603358 1.5613710594539856 2.001833370363594 0.9507524250179934 2.6798299899292086 0.9976651014423855
2.6634287080272956 0.919765485724849
4 2.607349568319604 4.7146270944654525 2.8183295420507912 5.146399671594012 2.1279335610032017 4.681454822842154 2.875785601904819 4.316026788960191
-0.5417222986741658 -0.20476158304586367
6 2.5498778040723304 5.512604451965573 2.3197458103898008 5.357622835714954 2.338897830341143 5.080831874837014 2.5881818439750153 4.959022530209693 2.818313837657545 5.114004146460312 2.799161817706203 5.390795107338252
1.1476599852694536 -0.9642825107662708
6 3.6248861290951697 -7.695945878796275 3.39475413541264 -7.850927495046894 3.4139061553639825 -8.127718455924834 3.6631901689978545 -8.249527800552155 3.8933221626803842 -8.094546184301537 3.8741701427290423 -7.817755223423596
0.12520427989084423 -0.3696210350186164
5 -4.948593842892773 -0.7231019985998133 -5.20993654449981 -0.9420695687959351 -5.082445346159906 -1.2582859485530775 -4.742308750712356 -1.234750848846314 -4.659583972248 -0.9039889775417741
1.5177099673799288 0.3111035141722537
12 9.647459167036178 3.1164125750179177 9.471188750554267 3.2025447886157856 9.484731273735282 3.006824023207854 9.322003380434385 2.89723547139779 9.498273796916296 2.811103257799922 9.51181632009731 2.6153824923919897 9.674544213398207 2.724971044202054 9.850814629880118 2.638838830604186 9.837272106699103 2.834559596012118 10.0 2.944148147822182 9.82372958351809 3.0302803614200498 9.810187060337075 3.226001126827982
0.08939078745291539 0.6711436167003437
3 -1.3005974101070985 -8.570688751527477 -1.598968150346863 -9.18130738596347 -0.9209715307812482 -9.134394709539079
-0.012312707136376177 -0.0065759514961032115
4 7.890251547205207 8.909235317143466 8.101231520936393 9.341007894272025 7.410835539888804 8.876063045520167 8.15868758079042 8.510635011638204
-1.684904599592931 1.2612949793339299
20 -0.6873608918731295 -6.670713086392392 -0.779251576124464 -6.89139149333489 -0.7185474186228653 -6.994351289118173 -0.7681824645925155 -7.051365742775789 -0.8785216680637644 -7.005420400650121 -1.0844412596303308 -7.1268287156533185 -0.8637628526878329 -7.2187193999046535 -0.7608030569045497 -7.158015242403055 -0.7037886032469338 -7.2076502883727045 -0.7497339453726011 -7.317989491843954 -0.6283256303694036 -7.52390908341052 -0.5364349461180691 -7.303230676468022 -0.5971391036196678 -7.200270880684739 -0.5475040576500176 -7.143256427027123 -0.4371648541787687 -7.189201769152791 -0.23124526261220235 -7.0677934541495935 -0.4519236695547002 -6.9759027698982585 -0.5548834653379834 -7.036606927399857 -0.6118979189955993 -6.9869718814302075 -0.5659525768699321 -6.876632677958958
0.9943320800927997 0.4405352272706683
6 -6.735691546703097 3.7988790362695926 -6.965823540385626 3.6438974200189733 -6.946671520434284 3.367106459141033 -6.697387506800411 3.2452971145137117 -6.467255513117882 3.400278730764331 -6.486407533069224 3.6770696916422714
0.09279138287693191 -0.04976249046961357
3 5.05494126536772 -5.237492544915782 4.756570525127955 -5.848111179351774 5.43456714469357 -5.801198502927382
0.3003857869381278 -1.3452835797405103
3 -0.8413526320233056 6.240894045512468 -1.13972337226307 5.630275411076477 -0.4617267526974552 5.677188087500869
1.4563108581167803 -0.7725020252935226
12 8.838650581575353 -8.295299339369299 8.662380165093442 -8.209167125771431 8.675922688274456 -8.404887891179364 8.51319479497356 -8.514476442989427 8.68946521145547 -8.600608656587296 8.703007734636484 -8.796329421995226 8.865735627937381 -8.686740870185163 9.042006044419292 -8.77287308378303 9.028463521238278 -8.577152318375099 9.191191414539174 -8.467563766565036 9.014920998057264 -8.381431552967166 9.00137847487625 -8.185710787559236
0.3146589600053625 -1.311207390706968
12 -8.169300154095074 7.779063700210555 -8.345570570576985 7.865195913808423 -8.332028047395971 7.66947514840049 -8.494755940696868 7.5598865965904265 -8.318485524214957 7.473754382992559 -8.304943001033942 7.278033617584627 -8.142215107733046 7.387622169394691 -7.965944691251135 7.301489955796823 -7.979487214432149 7.497210721204755 -7.8167593211312525 7.606799273014819 -7.993029737613163 7.692931486612687 -8.006572260794178 7.888652252020619
-0.37551263971945115 0.004106280220483557
4 5.944874035981693 4.907188848805632 5.651229143987425 4.569886792177341 5.988531200615716 4.276241900183074 6.282176092609983 4.613543956811364
-0.8125238702139962 -0.3443594062786184
6 6.216426404764905 -4.6501161459589575 5.986294411082376 -4.805097762209576 6.005446431033718 -5.081888723087516 6.254730444667591 -5.2036980677148374 6.48486243835012 -5.048716451464219 6.465710418398778 -4.771925490586279
-0.4603852083220015 1.4514063235353074
20 1.850745917044485 1.5919847352200887 1.7588552327931506 1.3713063282775908 1.8195593902947493 1.2683465324943075 1.7699243443250992 1.2113320788366917 1.6595851408538502 1.257277420962359 1.4536655492872839 1.1358691059591615 1.6743439562297817 1.043978421707827 1.777303752013065 1.1046825792094257 1.8343182056706808 1.0550475332397755 1.7883728635450136 0.9447083297685266 1.909781178548211 0.7387887382019602 2.0016718627995456 0.9594671451444581 1.9409677052979468 1.0624269409277414 1.990602751267597 1.1194413945853572 2.100941954738846 1.07349605245969 2.306861546305412 1.1949043674628874 2.086183139362914 1.286795051714222 1.9832233435796311 1.2260908942126232 1.9262088899220153 1.2757259401822734 1.9721542320476826 1.3860651436535223
-0.26595019414434545 -0.12143642133786535
4 1.6774275693653349 -5.61162475384544 1.3837826773710673 -5.948926810473731 1.7210847339993587 -6.242571702467998 2.0147296259936263 -5.905269645839708
-0.25379893799922615 1.507181577941038
12 -8.987268029021271 -1.4589671414046619 -9.163538445503182 -1.3728349278067942 -9.149995922322168 -1.568555693214726 -9.312723815623064 -1.67814424502479 -9.136453399141153 -1.764276458622658 -9.12291087596014 -1.95999722403059 -8.960182982659243 -1.850408672220526 -8.783912566177332 -1.9365408858183937 -8.797455089358346 -1.7408201204104619 -8.63472719605745 -1.6312315686003978 -8.81099761253936 -1.5450993550025298 -8.824540135720374 -1.3493785895945978
-0.2735987166811303 -0.460474515777246
4 8.648723104208813 5.098006001785587 8.859703077939999 5.529778578914146 8.16930709689241 5.064833730162288 8.917159137794027 4.6994056962803255
0.6874087579118273 0.9480597640501559
12 -0.2541245046412187 -5.3232772863415345 -0.4303949211231296 -5.237145072743667 -0.41685239794211526 -5.432865838151599 -0.5795802912430117 -5.542454389961663 -0.4033098747611009 -5.628586603559531 -0.3897673515800865 -5.824307368967463 -0.22703945827919 -5.714718817157399 -0.050769041797279146 -5.8008510307552665 -0.06431156497829349 -5.605130265347334 0.098416328322603 -5.49554171353727 -0.07785408815930786 -5.409409499939403 -0.09139661134032223 -5.213688734531471
-0.14186736824411464 -0.08472671716087592
6 8.904647964830811 -5.0057395950958945 8.674515971148281 -5.160721211346513 8.693667991099623 -5.437512172224453 8.942952004733495 -5.5593215168517744 9.173083998416026 -5.404339900601156 9.153931978464684 -5.127548939723216
2.1316822000057747 0.745373550821869
12 6.832099160802718 -3.0174975426695405 6.655828744320807 -2.9313653290716726 6.6693712675018215 -3.1270860944796044 6.506643374200925 -3.2366746462896683 6.682913790682836 -3.322806859887536 6.69645631386385 -3.5185276252954685 6.859184207164747 -3.408939073485404 7.0354546236466575 -3.495071287083272 7.021912100465643 -3.2993505216753403 7.18463999376654 -3.1897619698652764 7.008369577284629 -3.1036297562674084 6.994827054103615 -2.907908990859476
-0.0283580272572126 0.06883237995339551
4 2.8788317954238014 -1.6674271260825186 3.0898117691549887 -1.235654548953959 2.399415788107399 -1.7005993977058167 3.1472678290090164 -2.0660274315877802
0.705036472888397 -0.09892845798916981
3 -8.504164256011688 8.532191448950691 -8.802534996251453 7.921572814514699 -8.124538376685837 7.9684854909390905
-0.7530350596053896 0.18402614367073866
3 -6.4573722191874126 -6.185700626587571 -6.755742959427177 -6.796319261023562 -6.077746339861562 -6.74940658459917
0.1451105307526753 -0.21727274273971223
12 -3.573321479258607 2.752797436957072 -3.749591895740518 2.83892965055494 -3.7360493725595036 2.643208885147008 -3.8987772658604003 2.5336203333369443 -3.7225068493784894 2.4474881197390763 -3.7089643261974747 2.251767354331144 -3.5462364328965785 2.3613559061412084 -3.3699660164146676 2.2752236925433404 -3.383508539595682 2.4709444579512723 -3.220780646294785 2.580533009761336 -3.397051062776696 2.666665223359204 -3.410593585957711 2.8623859887671363
-1.0701395242527685 -0.6832981589326832
5 -0.34067100336861794 1.0640781760053466 -0.602013704975654 0.8451106058092248 -0.47452250663575096 0.5288942260520825 -0.1343859111882007 0.552429325758846 -0.05166113272384487 0.8831911970633858
0.18432170747371765 -0.4296039286853333
6 -5.734030225875341 4.102470165015846 -5.9641622195578705 3.947488548765227 -5.9450101996065285 3.6706975878872865 -5.695726185972656 3.5488882432599653 -5.465594192290126 3.7038698595105846 -5.484746212241468 3.980660820388525
0.08583240602094745 -0.680898965632284
20 8.269182981268989 -8.810270675958646 8.177292297017654 -9.030949082901145 8.237996454519253 -9.133908878684428 8.188361408549603 -9.190923332342043 8.078022205078355 -9.144977990216377 7.872102613511788 -9.266386305219575 8.092781020454286 -9.358276989470909 8.195740816237569 -9.29757283196931 8.252755269895184 -9.34720787793896 8.206809927769518 -9.457547081410208 8.328218242772715 -9.663466672976776 8.42010892702405 -9.442788266034277 8.35940476952245 -9.339828470250994 8.4090398154921 -9.28281401659338 8.519379018963349 -9.328759358719045 8.725298610529917 -9.207351043715848 8.504620203587418 -9.115460359464514 8.401660407804135 -9.176164516966113 8.34464595414652 -9.126529470996463 8.390591296272186 -9.016190267525214
-0.47387997638498125 0.35953123105829343
4 3.7850725493333357 6.739323025613235 3.996052523064523 7.1710956027417945 3.3056565420169335 6.706150753989936 4.053508582918551 6.340722720107974
-0.08976843430131166 2.282433188408162
3 -1.1715216442741616 5.51742382680503 -1.469892384513926 4.906805192369038 -0.7918957649483113 4.95371786879343
-0.37952372048134586 -1.405057187394927
20 -0.6232453847049153 3.1499307846410067 -0.7151360689562498 2.929252377698509 -0.6544319114546511 2.826292581915226 -0.7040669574243013 2.76927812825761 -0.8144061608955502 2.8152234703832772 -1.0203257524621165 2.6938151553800798 -0.7996473455196187 2.6019244711287453 -0.6966875497363355 2.662628628630344 -0.6396730960787196 2.612993582660694 -0.6856184382043868 2.502654379189445 -0.5642101232011894 2.2967347876228787 -0.4723194389498548 2.5174131945653766 -0.5330235964514536 2.6203729903486597 -0.4833885504818034 2.6773874440062753 -0.3730493470105545 2.6314421018806082 -0.16712975544398812 2.7528504168838057 -0.38780816238648597 2.8447411011351402 -0.49076795816976915 2.7840369436335415 -0.5477824118273851 2.8336719896031917 -0.5018370697017178 2.9440111930744406
1.2548704383514717 2.1468178039651584
4 -4.058687324508781 -2.790536804452694 -3.8477073507775934 -2.3587642273241345 -4.538103331825183 -2.823709076075992 -3.7902512909235657 -3.1891371099579557
-0.055431369420964584 -0.1806071603492546
5 0.5018234351766216 -5.632222635890625 0.2404807335695856 -5.851190206086747 0.36797193190948857 -6.16740658584389 0.7081085273570389 -6.143871486137126 0.7908333058213947 -5.813109614832586
-0.2533236653759631 0.13402654259379912
5 -4.045842807350606 7.8332467487987225 -4.307185508957643 7.614279178602601 -4.179694310617739 7.298062798845458 -3.8395577151701894 7.321597898552222 -3.7568329367058335 7.652359769856762
2.094466883394117 -0.18833575016662824
3 -4.522044153689527 8.919178921964015 -4.820414893929292 8.308560287528023 -4.142418274363677 8.355472963952414
-0.4654783748893377 1.033540302098061
12 1.3141416730142212 2.6835866526172114 1.1378712565323106 2.7697188662150793 1.1514137797133248 2.5739981008071475 0.9886858864124284 2.4644095489970836 1.1649563028943393 2.3782773353992157 1.1784988260753535 2.1825565699912834 1.3412267193762502 2.2921451218013478 1.5174971358581608 2.20601290820348 1.5039546126771466 2.4017336736114117 1.666682505978043 2.5113222254214755 1.4904120894961321 2.5974544390193435 1.476869566315118 2.7931752044272757
-1.0926184575554967 -0.3551437313821535
4 -6.890992436836532 -7.562973351802 -7.184637328830799 -7.900275408430291 -6.847335272202509 -8.193920300424558 -6.553690380208241 -7.856618243796268
-0.1311902572961571 -0.10791438891773789
12 0.8062057933523937 6.866169143351479 0.6299353768704828 6.952301356949347 0.6434779000514972 6.7565805915414145 0.4807500067506007 6.646992039731351 0.6570204232325115 6.560859826133483 0.6705629464135259 6.365139060725551 0.8332908397144224 6.474727612535615 1.0095612561963332 6.388595398937747 0.996018733015319 6.58431616434568 1.1587466263162154 6.6939047161557435 0.9824762098343046 6.780036929753611 0.9689336866532903 6.975757695161543
-0.031725302057686984 1.1458470518804698
4 3.85063274404623 1.461394064268715 4.061612717777417 1.8931666413972748 3.371216736729828 1.428221792645417 4.119068777631445 1.0627937587634537
-0.5185166067837457 -1.1560643723628539
4 7.130762638633744 -9.601399694494738 7.341742612364931 -9.16962711736618 6.651346631317342 -9.634571966118036 7.399198672218959 -10.0
-1.1039941244189155 -1.2453901427327894
3 -7.029976389544309 7.736817640349286 -7.328347129784074 7.1261990059132945 -6.650350510218459 7.173111682337686
-0.9263623000489072 -1.1346921124935245
20 7.351197115678111 -3.690064545541878 7.259306431426776 -3.9107429524843758 7.320010588928374 -4.013702748267659 7.270375542958725 -4.070717201925275 7.160036339487475 -4.024771859799607 6.954116747920909 -4.146180174802804 7.174795154863407 -4.238070859054139 7.27775495064669 -4.177366701552541 7.334769404304306 -4.227001747522191 7.288824062178638 -4.33734095099344 7.410232377181836 -4.543260542560006 7.502123061433171 -4.322582135617508 7.441418903931572 -4.219622339834225 7.491053949901222 -4.162607886176609 7.601393153372471 -4.208553228302277 7.807312744939037 -4.087144913299079 7.586634337996539 -3.9952542290477444 7.483674542213256 -4.055958386549343 7.42666008855564 -4.0063233405796925 7.472605430681308 -3.895984137108444
2.051305234142463 1.0049198385349294
12 6.547058032012645 9.037841757551172 6.370787615530734 9.12397397114904 6.384330138711748 8.928253205741107 6.2216022454108515 8.818664653931044 6.397872661892762 8.732532440333175 6.411415185073777 8.536811674925245 6.574143078374673 8.646400226735308 6.750413494856584 8.56026801313744 6.73687097167557 8.755988778545372 6.899598864976467 8.865577330355435 6.723328448494556 8.951709543953305 6.7097859253135415 9.147430309361235
-1.5457132811407859 -0.47898575066867893
5 -3.186842032982831 -1.5808126028638716 -3.448184734589867 -1.7997801730599934 -3.3206935362499643 -2.1159965528171356 -2.980556940802414 -2.0924614531103725 -2.8978321623380583 -1.7616995818058323
0.23499791316642663 -0.8342335143957811
12 -2.6990976578968544 8.761819410856338 -2.8753680743787653 8.847951624454206 -2.861825551197751 8.652230859046274 -3.0245534444986477 8.54264230723621 -2.848283028016737 8.456510093638341 -2.834740504835722 8.26078932823041 -2.672012611534826 8.370377880040474 -2.495742195052915 8.284245666442606 -2.5092847182339293 8.479966431850539 -2.3465568249330326 8.589554983660602 -2.5228272414149435 8.67568719725847 -2.536369764595958 8.871407962666401
0.1198520621809912 -0.09965888567118814
5 3.9113536229082317 8.423655779913606 3.6500109213011958 8.204688209717485 3.7775021196410985 7.888471829960342 4.117638715088649 7.912006929667106 4.200363493553005 8.242768800971646
0.21087136877223625 0.11301443151321414
4 9.363969860073992 10.0 9.070324968079724 9.66269794337171 9.407627024708015 9.369053051377442 9.701271916702282 9.706355108005733
-1.1391785985126988 1.3414420241823546
3 3.705125861854762 4.089134147212451 3.406755121614998 3.478515512776459 4.084751741180613 3.525428189200851
-0.8944248182929986 -2.0933716061784473
3 -4.426469279086275 -0.7836235277934597 -4.72484001932604 -1.3942421622294516 -4.046843399760425 -1.3473294858050595
0.5061482601881396 -0.10412426975141524
6 3.5692330678997606 -7.445943655257866 3.339101074217231 -7.600925271508485 3.3582530941685733 -7.877716232386425 3.6075371078024454 -7.999525577013746 3.837669101484975 -7.8445439607631275 3.818517081533633 -7.567752999885188
-1.6547923679798686 -0.34236165259570894
4 -1.24370172029888 -6.934750964905258 -1.5373466122931476 -7.272053021533549 -1.2000445556648562 -7.565697913527816 -0.9063996636705888 -7.2283958568995255
1.412445720509004 1.5629505036060412
3 -0.6240798056678065 5.588258494467062 -0.9224505459075709 4.97763986003107 -0.24445392634195617 5.024552536455462
-0.6747660189948205 0.7930061005867104
20 -8.783940265189544 -5.154956582450576 -8.875830949440878 -5.375634989393074 -8.81512679193928 -5.478594785176357 -8.86476183790893 -5.535609238833973 -8.975101041380178 -5.489663896708305 -9.181020632946746 -5.611072211711503 -8.960342226004247 -5.702962895962838 -8.857382430220964 -5.642258738461239 -8.800367976563349 -5.691893784430889 -8.846313318689015 -5.802232987902138 -8.724905003685818 -6.008152579468704 -8.633014319434483 -5.787474172526206 -8.693718476936082 -5.684514376742923 -8.644083430966433 -5.627499923085307 -8.533744227495184 -5.673445265210975 -8.327824635928616 -5.5520369502077775 -8.548503042871115 -5.460146265956443 -8.651462838654398 -5.520850423458041 -8.708477292312013 -5.471215377488392 -8.662531950186347 -5.360876174017142
-0.032165902973467324 0.2007683252854659
4 -9.520583992683598 -6.714343278861206 -9.309604018952411 -6.282570701732646 -10.0 -6.747515550484504 -9.252147959098384 -7.112943584366467
-0.027727363109246454 -0.00568872865694075
6 -3.4492425756883116 8.161252063613043 -3.6793745693708413 8.006270447362423 -3.660222549419499 7.729479486484483 -3.410938535785627 7.607670141857162 -3.180806542103097 7.762651758107781 -3.199958562054439 8.039442718985722
2.2143081136693086 -0.1191585712710297
20 2.3007774426481054 6.1498473963394185 2.208886758396771 5.929168989396921 2.2695909158983696 5.8262091936136375 2.2199558699287194 5.7691947399560215 2.1096166664574705 5.815140082081689 1.9036970748909041 5.693731767078492 2.124375481833402 5.601841082827157 2.2273352776166853 5.662545240328756 2.284349731274301 5.612910194359106 2.238404389148634 5.502570990887857 2.3598127041518313 5.2966513993212905 2.451703388403166 5.517329806263788 2.390999230901567 5.620289602047071 2.4406342768712173 5.677304055704687 2.550973480342466 5.6313587135790195 2.7568930719090323 5.752767028582217 2.5362146649665345 5.844657712833552 2.4332548691832514 5.783953555331953 2.376240415525636 5.833588601301603 2.422185757651303 5.943927804772852
-0.4939423905248609 0.47152339408941335
3 8.020372785356216 -8.83882429353898 7.722002045116451 -9.449442927974973 8.399998664682066 -9.402530251550582
-0.5882401148848974 0.4294606341706123
4 0.5340463078190073 2.1712807732566834 0.24040141582473995 1.833978716628392 0.5777034724530313 1.5403338246341245 0.8713483644472987 1.8776358812624159
0.9408968140546013 -0.31570664450052793
12 8.155049338241001 6.714930044505062 7.9787789217590905 6.801062258102929 7.992321444940105 6.605341492694997 7.829593551639208 6.495752940884933 8.005863968121119 6.4096207272870656 8.019406491302133 6.213899961879133 8.18213438460303 6.323488513689197 8.35840480108494 6.23735630009133 8.344862277903927 6.433077065499262 8.507590171204823 6.542665617309326 8.331319754722912 6.628797830907193 8.317777231541898 6.824518596315126
-1.2801917480929261 -1.6791116126021035
4 4.387970279882342 2.7875443429360764 4.59895025361353 3.219316920064636 3.90855427256594 2.7543720713127784 4.656406313467557 2.388944037430815
0.12187058613301731 0.9973346146068786
5 -7.281688108481422 5.739147929424466 -7.543030810088458 5.520180359228345 -7.415539611748555 5.203963979471202 -7.075403016301005 5.227499079177965 -6.992678237836649 5.558260950482506
-1.9314660165270126 1.2875917737149987
12 -9.189815597368517 5.242850541269513 -9.366086013850428 5.328982754867381 -9.352543490669413 5.133261989459449 -9.51527138397031 5.023673437649385 -9.3390009674884 4.937541224051517 -9.325458444307385 4.741820458643585 -9.162730551006488 4.851409010453649 -8.986460134524577 4.765276796855781 -9.000002657705592 4.960997562263714 -8.837274764404695 5.070586114073778 -9.013545180886606 5.156718327671645 -9.02708770406762 5.352439093079577
-0.41213062189102606 -0.42463244269888795
6 3.9529506337713474 -6.212650161387365 3.7228186400888177 -6.367631777637984 3.74197066004016 -6.644422738515924 3.991254673674032 -6.766232083143245 4.221386667356562 -6.611250466892626 4.20223464740522 -6.334459506014686
-0.744296088022078 -0.8649016616805473
20 4.171362846082203 -8.50247140966348 4.079472161830868 -8.723149816605979 4.1401763193324665 -8.826109612389262 4.090541273362817 -8.883124066046877 3.9802020698915674 -8.83717872392121 3.7742824783250013 -8.958587038924408 3.994960885267499 -9.050477723175742 4.097920681050782 -8.989773565674144 4.154935134708398 -9.039408611643793 4.10898979258273 -9.149747815115042 4.230398107585928 -9.35566740668161 4.322288791837263 -9.134988999739111 4.261584634335664 -9.032029203955828 4.311219680305314 -8.975014750298213 4.421558883776563 -9.020960092423879 4.627478475343129 -8.899551777420681 4.406800068400631 -8.807661093169347 4.303840272617348 -8.868365250670946 4.246825818959732 -8.818730204701296 4.2927711610854 -8.708391001230048
0.6985767486817256 -1.4808374812892948
3 2.227142345907468 -0.6531573869963095 1.928771605667704 -1.2637760214323015 2.606768225233319 -1.2168633450079094
-0.7314605884577848 -0.8988073457637902
6 -2.2723875015911505 -4.630253124398686 -2.5025194952736802 -4.7852347406493045 -2.483367475322338 -5.0620257015272445 -2.2340834616884657 -5.183835046154566 -2.003951468005936 -5.028853429903947 -2.023103487957278 -4.752062469026007
-1.288256099971515 1.5479819955853171
4 -4.935505973504135 4.238252628214163 -5.2291508654984025 3.9009505715858714 -4.891848808870112 3.607305679591604 -4.598203916875844 3.9446077362198957
-0.7061289011184707 0.30361829609827046
4 -0.33799697050333 -5.393513658878033 -0.6316418624975974 -5.730815715506323 -0.294339805869306 -6.024460607500591 -6.949138750386163E-4 -5.6871585508723
