marco:(-10.0,10.0),(-10.0,10.0)
timeIntervals:0.0-1.0
framesPerSecond:1000
-5.444144423135154 8.884876978818234
20 -8.656638882338182 -4.382947268247846 -7.793958369322445 -5.014326294918869 -7.282602604749314 -4.858667797713881 -7.086936353511696 -5.134349557016762 -7.402625866847208 -5.565689813524631 -7.091308872437232 -6.588401342670891 -6.459929845766209 -5.725720829655154 -6.615588342971197 -5.214365065082024 -6.339906583668316 -5.018698813844406 -5.908566327160448 -5.3343883271799175 -4.885854798014187 -5.023071332769942 -5.748535311029924 -4.391692306098919 -6.259891075603054 -4.547350803303907 -6.4555573268406725 -4.271669044001026 -6.139867813505161 -3.8403287874931573 -6.451184807915136 -2.817617258346897 -7.08256383458616 -3.6802977713626337 -6.9269053373811715 -4.191653535935764 -7.202587096684052 -4.387319787173382 -7.633927353191921 -4.0716302738378705
