marco:(-10.0,10.0),(-10.0,10.0)
timeIntervals:0.0-1.0
framesPerSecond:1000
0.2583336715353205 0.27161530004090073
4 6.0411395791485525 -9.4407479670749 6.136263009470072 -9.248031713118372 5.8266806923392656 -9.45472678689961 6.16047503563632 -9.619485401206719
0.2094045469956618 0.18667863811950441
6 7.1134653595208075 -2.09559351457491 7.009769886550934 -2.1637349561794452 7.01693436954602 -2.287608590831066 7.127794325510978 -2.3433407838781513 7.231489798480851 -2.275199342273616 7.224325315485766 -2.151325707621995
0.005245649106090102 -0.1665297521368816
4 -3.632874716477454 -2.4659200954309415 -3.765894383883593 -2.6152712523838093 -3.6165432269307254 -2.7482909197899485 -3.483523559524586 -2.5989397628370807
-0.29058024068998733 -0.43687090552752167
6 -2.8626044203737897 4.363907135064374 -2.966299893343663 4.295765693459838 -2.959135410348578 4.1718920588082185 -2.84827545438362 4.116159865761133 -2.744579981413747 4.1843013073656685 -2.751744464408832 4.308174942017288
-0.44297970032144507 -0.3736538881914534
5 3.769261453826646 3.130030648817191 3.651285378777552 3.033433513185837 3.7066981019553746 2.8913814417254406 3.858921123337551 2.9001855690219407 3.897587401244116 3.0476788903928553
-0.026185852784012097 0.35778102640396375
12 -7.6452387196592895 -0.4921539234023975 -7.723628546284154 -0.4527453117684058 -7.718562491774634 -0.5403371988407916 -7.791886263889977 -0.5885204742791856 -7.713496437265113 -0.6279290859131773 -7.708430382755593 -0.715520972985563 -7.63510661064025 -0.667337697547169 -7.556716784015386 -0.7067463091811607 -7.5617828385249055 -0.6191544221087749 -7.488459066409562 -0.5709711466703808 -7.566848893034426 -0.5315625350363892 -7.571914947543946 -0.44397064796400343
0.011369686575791729 -0.5290408498025271
6 -6.382699249361874 9.941742729530464 -6.486394722331747 9.87360128792593 -6.479230239336662 9.74972765327431 -6.3683702833717035 9.693995460227224 -6.26467481040183 9.76213690183176 -6.271839293396916 9.88601053648338
-0.19432558049048848 -0.3409261652240077
12 -0.7055360802327527 6.346220309324804 -0.7839259068576167 6.385628920958795 -0.7788598523480965 6.298037033886409 -0.8521836244634402 6.249853758448015 -0.7737937978385763 6.210445146814024 -0.7687277433290561 6.122853259741638 -0.6954039712137124 6.171036535180032 -0.6170141445888485 6.1316279235460405 -0.6220801990983686 6.219219810618426 -0.548756426983025 6.26740308605682 -0.6271462536078889 6.3068116976908115 -0.632212308117409 6.3944035847631975
0.6071607897585777 0.2231318816018162
5 9.22486337106964 -3.559466491380349 9.106887296020547 -3.656063627011703 9.16230001919837 -3.7981156984720994 9.314523040580545 -3.7893115711755994 9.35318931848711 -3.6418182498046847
0.6003452754554437 -0.12075391844228948
3 7.56664622538685 4.627171680051788 7.430130790175203 4.355621355030228 7.733557987655618 4.373170682639032
0.027147126015234252 0.7518029954977935
4 -8.759028938500002 1.2548924689498175 -8.662497948525214 1.4469075452059734 -8.973584367434833 1.2424832203923675 -8.641004499539958 1.0752866412511117
-0.5182875576188503 -0.13692483895531257
4 -4.557652725652579 6.930912597967691 -4.46112173567779 7.122927674223846 -4.77220815458741 6.918503349410241 -4.439628286692536 6.751306770268985
-0.7435443425771582 0.7285750451321249
12 3.209611677151805 -7.636884276840855 3.1312218505269414 -7.597475665206864 3.1362879050364616 -7.68506755227925 3.0629641329211177 -7.733250827717644 3.1413539595459814 -7.772659439351635 3.1464200140555016 -7.860251326424021 3.2197437861708456 -7.812068050985627 3.2981336127957093 -7.851476662619619 3.293067558286189 -7.763884775547233 3.366391330401533 -7.715701500108839 3.288001503776669 -7.676292888474848 3.282935449267149 -7.588701001402462
-0.8756418333226351 -0.7110066055532788
20 8.1935582863261 3.182660106227734 8.151349956753046 3.0844408192051542 8.17797517269016 3.038091701269159 8.155490745115987 3.0128467481196903 8.106381101604697 3.033950912906217 8.013682865732706 2.980700481031986 8.111902152755286 2.938492151458932 8.15825127069128 2.9651173673960476 8.18349622384075 2.942632939821874 8.162392059054223 2.8935232963105837 8.215642490928454 2.800825060438593 8.257850820501508 2.8990443474611727 8.231225604564393 2.945393465397168 8.253710032138567 2.9706384185466366 8.302819675649857 2.9495342537601097 8.395517911521848 3.002784685634341 8.297298624499268 3.0449930152073947 8.250949506563273 3.0183677992702793 8.225704553413804 3.040852226844453 8.246808718200331 3.089961870355743
0.8086636475621385 -0.21140472634507104
6 -8.337954019547624 -2.7953136048354965 -8.441649492517497 -2.863455046440032 -8.434485009522412 -2.9873286810916526 -8.323625053557453 -3.043060874138738 -8.21992958058758 -2.9749194325342025 -8.227094063582665 -2.851045797882582
-0.31070595434178916 -0.19474614953128744
20 -9.820124579406606 7.795151974714015 -9.86233290897966 7.696932687691435 -9.835707693042545 7.650583569755439 -9.85819212061672 7.625338616605971 -9.90730176412801 7.646442781392498 -10.0 7.593192349518267 -9.90178071297742 7.550984019945212 -9.855431595041425 7.577609235882329 -9.830186641891956 7.555124808308154 -9.851290806678483 7.506015164796865 -9.798040374804252 7.413316928924873 -9.755832045231198 7.511536215947453 -9.782457261168313 7.557885333883449 -9.759972833594139 7.583130287032917 -9.710863190082849 7.56202612224639 -9.618164954210858 7.615276554120621 -9.716384241233438 7.657484883693676 -9.762733359169433 7.630859667756559 -9.787978312318902 7.653344095330734 -9.766874147532375 7.702453738842023
0.1423657841471626 -0.127033326481051
5 -8.988312861705792 0.35464434282877705 -9.106288936754884 0.25804720719742286 -9.050876213577062 0.11599513573702633 -8.898653192194887 0.12479926303352659 -8.85998691428832 0.272292584404441
-0.46258894550453616 -0.8994862684712296
12 1.5627258701239657 7.8915632410208625 1.4843360434991018 7.930971852654854 1.489402098008622 7.843379965582468 1.4160783258932783 7.795196690144074 1.4944681525181422 7.755788078510083 1.4995342070276623 7.668196191437697 1.5728579791430062 7.7163794668760906 1.6512478057678701 7.676970855242099 1.6461817512583499 7.764562742314485 1.7195055233736936 7.812746017752879 1.6411156967488296 7.85215462938687 1.6360496422393096 7.939746516459256
-0.17795482297471332 0.007508276160154241
4 5.498915259396746 0.6167482865319478 5.595446249371535 0.8087633627881037 5.284359830461915 0.6043390379744976 5.616939698356789 0.4371424588332421
-0.6629689948866575 -0.38739369260149414
5 9.809714511145346 -3.495719889782411 9.691738436096253 -3.5923170254137653 9.747151159274075 -3.7343690968741616 9.89937418065625 -3.7255649695776616 9.938040458562817 -3.578071648206747
-0.21420415748051505 0.057364911990501255
4 -9.565190322700984 -8.479931989071082 -9.69412692535447 -8.63282199036671 -9.541236924058841 -8.761758593020195 -9.412300321405356 -8.608868591724567
-0.07039737615164322 -0.7675607216703308
5 2.223501997485177 3.616832550078209 2.108178418129011 3.517083700758261 2.167408265394488 3.3765803695198886 2.3193379035091835 3.3894933846019373 2.35400573649706 3.5379773980582563
0.10199501067937262 -0.08091856652947743
5 0.8725513817713174 3.85390805745588 0.7572278024151518 3.7541592081359325 0.8164576496806286 3.61365587689756 0.9683872877953241 3.6265688919796086 1.0030551207832006 3.7750529054359276
0.3260059281685689 -0.5512648542193386
20 -1.721276052671128 8.716391690025374 -1.7608157166447387 8.617068045300538 -1.7329481579468877 8.571455086293643 -1.7547424216114547 8.545611959273552 -1.8044042439738723 8.565381791260359 -1.8956301619876625 8.509646673864657 -1.7963065172628268 8.470107009891045 -1.7506935582559318 8.497974568588896 -1.7248504312358421 8.476180304924329 -1.7446202632226475 8.426518482561912 -1.6888851458269456 8.335292564548121 -1.6493454818533348 8.434616209272956 -1.6772130405511858 8.480229168279852 -1.6554187768866189 8.506072295299942 -1.6057569545242012 8.486302463313136 -1.514531036510411 8.542037580708838 -1.6138546812352468 8.58157724468245 -1.6594676402421418 8.553709685984598 -1.6853107672622314 8.575503949649166 -1.665540935275426 8.625165772011583
0.524780347449712 -0.22462467322246174
12 -9.477615873660849 -7.5709112360551805 -9.557041663836829 -7.533634602031756 -9.549611280780699 -7.621057671051519 -9.62160668790055 -7.671204106047857 -9.54218089772457 -7.708480740071281 -9.534750514668442 -7.795903809091044 -9.462755107548592 -7.745757374094706 -9.383329317372612 -7.78303400811813 -9.390759700428742 -7.695610939098367 -9.31876429330889 -7.645464504102029 -9.39819008348487 -7.608187870078605 -9.405620466540999 -7.520764801058842
-0.06133663239539473 -0.06485058932218601
3 2.0620181729759155 4.988078396769856 1.9328881248484722 4.712939388737654 2.2357305194401316 4.738678990683482
-0.6413562950814212 0.16953430564068134
12 -1.2534138060955073 -3.439074864405689 -1.3328395962714865 -3.4017982303822643 -1.3254092132153579 -3.4892212994020273 -1.3974046203352084 -3.5393677343983656 -1.317978830159229 -3.57664436842179 -1.3105484471031001 -3.6640674374415525 -1.2385530399832496 -3.613921002445214 -1.1591272498072704 -3.651197636468639 -1.166557632863399 -3.563774567448876 -1.0945622257435486 -3.5136281324525376 -1.173988015919528 -3.4763514984291133 -1.1814183989756568 -3.3889284294093507
0.05750600553744134 -0.6308312115545228
6 3.1482488448851704 -9.733015487018243 3.0464319637077053 -9.803933255494725 3.05694011219931 -9.927568145366752 3.1692651418683795 -9.980285266762298 3.2710820230458446 -9.909367498285816 3.26057387455424 -9.785732608413788
-0.2950091714957669 0.8699902312005213
4 4.687313454781533 -5.360972345977427 4.558376852128047 -5.513862347273054 4.711266853423675 -5.64279894992654 4.840203456077161 -5.489908948630912
0.5529104802546156 -0.5814946308978859
6 0.9657867418486514 -4.9593495382253465 0.8639698606711863 -5.030267306701829 0.8744780091627908 -5.153902196573856 0.9868030388318605 -5.206619317969402 1.0886199200093256 -5.13570154949292 1.078111771517721 -5.012066659620892
-0.4723790484027734 0.007575502085377468
20 -3.5465443353649486 6.200331591232531 -3.5860839993385594 6.101007946507695 -3.5582164406407086 6.055394987500801 -3.580010704305275 6.029551860480711 -3.6296725266676932 6.049321692467516 -3.7208984446814832 5.993586575071815 -3.6215747999566474 5.954046911098203 -3.5759618409497524 5.981914469796054 -3.550118713929663 5.960120206131488 -3.569888545916468 5.91045838376907 -3.5141534285207663 5.81923246575528 -3.4746137645471555 5.918556110480115 -3.5024813232450063 5.96416906948701 -3.48068705958044 5.9900121965071 -3.4310252372180217 5.970242364520295 -3.3397993192042317 6.025977481915996 -3.4391229639290675 6.065517145889608 -3.4847359229359625 6.037649587191757 -3.510579049956052 6.059443850856323 -3.4908092179692467 6.109105673218741
1.0822528767098873 -0.5611930555487302
4 8.051175181529263 -0.4706087860784631 8.142483914215124 -0.2760561277299529 7.837033270682729 -0.48880943315940045 8.174008359689937 -0.646960797346036
0.18124741733711364 0.6721077607914606
12 -2.4536482402557778 -9.229934019457525 -2.5330740304317567 -9.192657385434101 -2.5256436473756283 -9.280080454453865 -2.597639054495479 -9.330226889450202 -2.5182132643194994 -9.367503523473628 -2.5107828812633706 -9.45492659249339 -2.43878747414352 -9.404780157497052 -2.359361683967541 -9.442056791520477 -2.3667920670236695 -9.354633722500713 -2.294796659903819 -9.304487287504376 -2.3742224500797984 -9.26721065348095 -2.3816528331359272 -9.179787584461188
-0.06611181544270711 -1.0481600637464186
4 0.3521350024299217 0.9905569830381129 0.4434437351157823 1.1851096413866231 0.13799309158338693 0.9723563359571756 0.47496818059059587 0.8142049717705401
0.7889706258402922 -0.6072375549215542
12 2.582791565687321 8.106411110000987 2.503365775511342 8.143687744024412 2.5107961585674703 8.056264675004648 2.4388007514476198 8.00611824000831 2.518226541623599 7.968841605984886 2.525656924679728 7.881418536965123 2.5976523317995786 7.931564971961461 2.6770781219755575 7.894288337938037 2.669647738919429 7.9817114069578 2.7416431460392796 8.031857841954137 2.6622173558633 8.069134475977563 2.6547869728071714 8.156557544997325
0.0203264651961462 0.13185205835593547
3 4.068061940269472 -1.1559265105462386 3.938931892142029 -1.4310655185784409 4.241774286733689 -1.4053259166326133
-1.979765080412461E-4 -6.015979033224874E-4
4 -9.72959766631217 -5.284128709137674 -9.858534268965656 -5.437018710433302 -9.705644267670028 -5.565955313086787 -9.576707665016542 -5.41306531179116
-0.1310574881097484 0.4330944396965856
20 -2.5958828499071047 -3.8609544982375197 -2.6354225138807155 -3.9602781429623555 -2.6075549551828647 -4.00589110196925 -2.6293492188474312 -4.03173422898934 -2.6790110412098493 -4.011964397002535 -2.7702369592236393 -4.067699514398236 -2.6709133144988035 -4.107239178371848 -2.6253003554919085 -4.079371619673997 -2.599457228471819 -4.101165883338563 -2.6192270604586243 -4.150827705700981 -2.5634919430629224 -4.242053623714771 -2.5239522790893116 -4.1427299789899354 -2.5518198377871624 -4.097117019983041 -2.530025574122596 -4.071273892962951 -2.4803637517601778 -4.091043724949756 -2.3891378337463878 -4.035308607554055 -2.4884614784712236 -3.9957689435804435 -2.5340744374781186 -4.023636502278294 -2.559917564498208 -4.001842238613728 -2.540147732511403 -3.9521804162513097
-0.17404812630578226 0.364222224209139
4 3.470968093085773 -9.600559488540682 3.5622768257716335 -9.406006830192172 3.256826182239238 -9.618760135621619 3.593801271246447 -9.776911499808255
0.1276926306978629 0.030093083863144004
4 -9.261322058627787 1.8810612045842703 -9.170013325941927 2.0756138629327805 -9.47546396947432 1.862860557503333 -9.138488880467113 1.7047091933166976
-0.113611254348939 0.2263005202753735
12 -2.1949253628285903 6.23465112161326 -2.2743511530045692 6.271927755636685 -2.266920769948441 6.184504686616922 -2.3389161770682914 6.134358251620584 -2.259490386892312 6.097081617597159 -2.252060003836183 6.009658548577397 -2.1800645967163326 6.059804983573735 -2.1006388065403536 6.022528349550311 -2.108069189596482 6.109951418570073 -2.0360737824766315 6.160097853566412 -2.115499572652611 6.197374487589836 -2.1229299557087398 6.284797556609599
-0.45935602149230303 0.5654486201006864
3 -0.13598288718370166 -9.407682695688889 -0.2651129353111452 -9.68282170372109 0.037729459280514355 -9.657082101775263
0.7656549773560293 -0.22348191499657075
5 -1.0704478343363233 -2.4071235319052176 -1.1857714136924888 -2.506872381225165 -1.126541566427012 -2.6473757124635378 -0.9746119283123165 -2.634462697381489 -0.9399440953244401 -2.48597868392517
0.3175614102295289 -0.6853388566570262
6 8.880134258120867 -0.8436487303377795 8.778317376943402 -0.914566498814262 8.788825525435007 -1.0382013886862898 8.901150555104076 -1.0909185100818348 9.00296743628154 -1.0200007416053525 8.992459287789936 -0.8963658517333247
-0.834460329918477 0.46727906313708895
4 6.619087765895852 8.998537726471135 6.710396498581712 9.193090384819644 6.404945855049317 8.980337079390198 6.741920944056526 8.822185715203561
-0.5855776555648312 0.10580818413353359
6 -2.03972106862485 -3.176924499473193 -2.141537949802315 -3.2478422679496757 -2.1310298013107105 -3.3714771578217033 -2.018704771641641 -3.4241942792172484 -1.9168878904641757 -3.353276510740766 -1.9273960389557803 -3.229641620868738
0.6889835345035301 -0.6123896600485442
20 -3.4653483891834953 -7.1420952216033635 -3.504888053157106 -7.241418866328199 -3.4770204944592553 -7.287031825335093 -3.498814758123822 -7.312874952355183 -3.54847658048624 -7.293105120368378 -3.63970249850003 -7.34884023776408 -3.540378853775194 -7.388379901737691 -3.494765894768299 -7.36051234303984 -3.4689227677482095 -7.3823066067044065 -3.488692599735015 -7.431968429066824 -3.432957482339313 -7.523194347080614 -3.393417818365702 -7.423870702355779 -3.421285377063553 -7.378257743348884 -3.3994911133989865 -7.352414616328795 -3.3498292910365683 -7.3721844483156 -3.2586033730227784 -7.316449330919898 -3.357927017747614 -7.2769096669462865 -3.403539976754509 -7.304777225644138 -3.4293831037745988 -7.282982961979571 -3.4096132717877934 -7.2333211396171535
-0.4502426506940204 -0.12611918111939718
4 -4.099058333281866 2.3037740239143076 -4.007749600596006 2.498326682262818 -4.313200244128401 2.28557337683337 -3.9762251551211922 2.127422012646735
0.16443714081017421 0.9327704677780505
4 -9.369474613659573 -4.972794432914 -9.278165880973713 -4.77824177456549 -9.583616524506107 -4.990995079994938 -9.2466414354989 -5.149146444181573
0.657576410174026 0.5141857930570797
20 0.7770999036780899 2.0466625408166563 0.737560239704479 1.9473388960918205 0.7654277984023301 1.9017259370849255 0.7436335347377633 1.875882810064836 0.6939717123753454 1.8956526420516413 0.6027457943615554 1.8399175246559394 0.702069439086391 1.8003778606823286 0.7476823980932861 1.8282454193801796 0.7735255251133757 1.8064511557156127 0.7537556931265702 1.756789333353195 0.8094908105222722 1.6655634153394048 0.8490304744958831 1.7648870600642406 0.821162915798032 1.8105000190711356 0.8429571794625988 1.8363431460912252 0.8926190018250167 1.8165733141044198 0.9838449198388067 1.8723084315001217 0.8845212751139712 1.9118480954737325 0.8389083161070761 1.8839805367758815 0.8130651890869864 1.9057748004404484 0.8328350210737919 1.9554366228028661
-0.4856914662726421 -0.3977348844973567
5 0.4671693269683327 1.2715953862901619 0.351845747612167 1.1718465369702138 0.4110755948776439 1.0313432057318412 0.5630052329923394 1.0442562208138904 0.5976730659802157 1.1927402342702091
-0.28805157610908216 0.38872054193883504
4 -7.254457728363328 -2.8253263089794167 -7.163148995677468 -2.6307736506309065 -7.468599639209863 -2.843526956060354 -7.131624550202654 -3.0016783202469894
0.2712707496223747 -0.15806406489124844
3 -7.368342303466137 7.778783924116754 -7.49747235159358 7.503644916084552 -7.19462995700192 7.52938451803038
-0.2647800155501282 -0.5294092445114936
6 -3.680788493539505 2.914333720944608 -3.78260537471697 2.8434159524681255 -3.7720972262253656 2.719781062596098 -3.659772196556296 2.667063941200553 -3.557955315378831 2.7379817096770354 -3.5684634638704353 2.861616599549063
0.09888035260810328 0.3227417618536735
12 -2.6470337653189406 -8.078242050526251 -2.7264595554949196 -8.040965416502827 -2.719029172438791 -8.12838848552259 -2.7910245795586417 -8.178534920518928 -2.7115987893826623 -8.215811554542354 -2.7041684063265334 -8.303234623562116 -2.632172999206683 -8.253088188565778 -2.552747209030704 -8.290364822589202 -2.5601775920868324 -8.202941753569439 -2.488182184966982 -8.152795318573101 -2.5676079751429612 -8.115518684549675 -2.57503835819909 -8.028095615529914
-0.04532847618846933 -0.2631580180534727
20 8.966793701278549 6.9084553257747645 8.927254037304937 6.809131681049929 8.955121596002789 6.763518722043035 8.933327332338221 6.737675595022945 8.883665509975804 6.75744542700975 8.792439591962014 6.7017103096140485 8.891763236686849 6.662170645640437 8.937376195693744 6.690038204338288 8.963219322713835 6.6682439406737215 8.943449490727028 6.618582118311304 8.99918460812273 6.527356200297514 9.038724272096342 6.626679845022349 9.010856713398491 6.672292804029244 9.032650977063058 6.698135931049333 9.082312799425475 6.678366099062528 9.173538717439266 6.73410121645823 9.07421507271443 6.7736408804318415 9.028602113707535 6.74577332173399 9.002758986687445 6.767567585398557 9.022528818674251 6.8172294077609745
-0.6932420212828707 0.06911269299511434
3 8.038478516650123 6.9625634018268325 7.909348468522679 6.687424393794631 8.212190863114339 6.713163995740459
-0.03656630172396374 0.08219562804001664
3 -2.210455566168638 4.706364353606954 -2.339585614296081 4.431225345574752 -2.0367432197044217 4.45696494752058
-0.2622897960795575 -0.2731289307271032
4 3.9816950623402367 8.687299183755385 3.8527584596867506 8.534409182459758 4.005648460982378 8.405472579806272 4.134585063635864 8.5583625811019
-0.3393755693006283 0.035449064466679905
4 -3.178155747548217 2.886175885485029 -3.307092350201703 2.7332858841894017 -3.1542023489060758 2.6043492815359155 -3.0252657462525896 2.757239282831543
-0.06952100087326449 -0.37808131216375895
6 8.3456222444229 -3.575965088965324 8.243805363245436 -3.6468828574418066 8.25431351173704 -3.7705177473138343 8.36663854140611 -3.8232348687093793 8.468455422583574 -3.7523171002328968 8.45794727409197 -3.628682210360869
0.18963137186259893 -0.2179544385614844
6 3.239611678036198 -8.351390076341097 3.1377947968587327 -8.42230784481758 3.1483029453503373 -8.545942734689607 3.260627975019407 -8.598659856085153 3.362444856196872 -8.52774208760867 3.3519367077052675 -8.404107197736643
-0.6440646368472723 0.7617617203003827
3 -5.755739741390491 -5.380130286628807 -5.884869789517935 -5.655269294661009 -5.582027394926275 -5.629529692715181
0.06999288767444557 0.31817186923192586
20 9.540725370374576 5.3267425964017585 9.501185706400964 5.227418951676923 9.529053265098815 5.181805992670029 9.507259001434248 5.155962865649939 9.457597179071831 5.175732697636744 9.36637126105804 5.1199975802410425 9.465694905782875 5.080457916267431 9.51130786478977 5.108325474965282 9.537150991809861 5.0865312113007155 9.517381159823055 5.036869388938298 9.573116277218757 4.945643470924508 9.612655941192369 5.044967115649343 9.584788382494517 5.090580074656238 9.606582646159085 5.116423201676327 9.656244468521502 5.096653369689522 9.747470386535293 5.152388487085224 9.648146741810457 5.1919281510588355 9.602533782803562 5.164060592360984 9.576690655783471 5.185854856025551 9.596460487770278 5.2355166783879685
-0.797637304028953 0.31000180076562955
5 5.169548665495491 0.7659110925895225 5.054225086139326 0.6661622432695744 5.113454933404803 0.525658912031202 5.2653845715194985 0.538571927113251 5.300052404507374 0.6870559405695696
0.22951324581778446 -0.5198054504676992
12 -0.9215418218923158 -1.3012346593995463 -1.000967612068295 -1.263958025376122 -0.9935372290121663 -1.3513810943958846 -1.065532636132017 -1.4015275293922231 -0.9861068459560376 -1.4388041634156474 -0.9786764628999088 -1.5262272324354103 -0.9066810557800583 -1.476080797439072 -0.827255265604079 -1.5133574314624962 -0.8346856486602078 -1.4259343624427336 -0.7626902415403572 -1.375787927446395 -0.8421160317163365 -1.3385112934229708 -0.8495464147724653 -1.251088224403208
-0.6790899342393916 -0.39248144200934754
20 -0.1639264499684132 -5.361233224070369 -0.20346611394202405 -5.460556868795204 -0.17559855524417306 -5.506169827802099 -0.19739281890873986 -5.532012954822188 -0.24705464127115767 -5.512243122835383 -0.3382805592849477 -5.567978240231085 -0.2389569145601121 -5.6075179042046965 -0.19334395555321707 -5.579650345506845 -0.16750082853312748 -5.601444609171412 -0.18727066051993288 -5.6511064315338295 -0.13153554312423088 -5.7423323495476195 -0.09199587915062005 -5.643008704822784 -0.11986343784847105 -5.59739574581589 -0.09806917418390423 -5.5715526187958 -0.04840735182148641 -5.591322450782605 0.04281856619230365 -5.5355873333869035 -0.05650507853253199 -5.496047669413292 -0.10211803753942703 -5.523915228111143 -0.12796116455951662 -5.5021209644465765 -0.10819133257271121 -5.452459142084159
-0.13244135729956735 0.5704135469519974
3 -9.069410887727505 1.9299816331668773 -9.198540935854949 1.654842625134675 -8.89569854126329 1.6805822270805026
-0.27450147055092267 -0.4869511389557167
4 -3.986992753255994 -2.771952351096438 -4.11592935590948 -2.9248423523920652 -3.9630393546138527 -3.0537789550455514 -3.8341027519603665 -2.900888953749924
-0.3989551353577004 -0.41800863021716783
4 -6.698082704807038 6.7864234399517755 -6.606773972121178 6.980976098300285 -6.912224615653573 6.768222792870838 -6.575249526646363 6.610071428684202
0.0032728759475634858 -0.5479297601194135
3 2.8287554250908604 -7.531937771811022 2.699625376963417 -7.807076779843224 3.0024677715550765 -7.781337177897396
-0.20690247736158682 -0.5867532135221231
3 -3.346537495005607 -6.2328053035621975 -3.47566754313305 -6.507944311594399 -3.1728251485413907 -6.482204709648571
0.10703674593759495 -0.13554563169926215
12 -4.676864444805046 -1.5022499948279886 -4.756290234981026 -1.4649733608045643 -4.748859851924897 -1.552396429824327 -4.820855259044747 -1.6025428648206654 -4.741429468868768 -1.6398194988440897 -4.7339990858126395 -1.7272425678638526 -4.662003678692789 -1.6770961328675142 -4.58257788851681 -1.7143727668909385 -4.5900082715729384 -1.626949697871176 -4.518012864453088 -1.5768032628748374 -4.597438654629068 -1.5395266288514131 -4.604869037685196 -1.4521035598316503
-0.6975697631437966 0.167252894811856
3 -1.3959951329837164 -7.366326397132006 -1.52512518111116 -7.641465405164208 -1.2222827865195003 -7.61572580321838
0.007290442929254263 -0.04614190830558336
12 0.8711895560869906 6.0362019989055655 0.7917637659110113 6.07347863292899 0.79919414896714 5.986055563909227 0.7271987418472895 5.935909128912889 0.8066245320232688 5.898632494889465 0.8140549150793975 5.811209425869702 0.8860503221992481 5.86135586086604 0.9654761123752273 5.824079226842616 0.9580457293190986 5.911502295862379 1.0300411364389492 5.961648730858717 0.9506153462629698 5.998925364882141 0.9431849632068411 6.086348433901904
0.9263386346329265 0.38435702361721796
3 9.201696699577152 3.9525754703127505 9.072566651449709 3.677436462280548 9.375409046041367 3.703176064226376
-0.12374838060096169 -0.12053675053329142
12 -3.4074550538729818 -9.129270666115254 -3.4868808440489607 -9.09199403209183 -3.4794504609928323 -9.179417101111593 -3.551445868112683 -9.22956353610793 -3.4720200779367034 -9.266840170131356 -3.4645896948805746 -9.354263239151118 -3.392594287760724 -9.30411680415478 -3.313168497584745 -9.341393438178205 -3.3205988806408735 -9.253970369158441 -3.248603473521023 -9.203823934162104 -3.3280292636970024 -9.166547300138678 -3.3354596467531312 -9.079124231118916
0.050126595671809104 0.20639544993429962
5 -7.385242321869008 6.751229383679444 -7.5005659012251735 6.651480534359496 -7.441336053959696 6.510977203121123 -7.289406415845001 6.523890218203173 -7.254738582857125 6.672374231659491
-0.05279811387123824 0.028701202721940093
4 -2.4560544195631056 7.567850157136434 -2.5849910222165917 7.414960155840806 -2.4321010209209644 7.28602355318732 -2.303164418267478 7.438913554482948
0.05841454775982771 1.0455518579261815
4 -3.4468492210673274 -6.622563978486369 -3.355540488381467 -6.428011320137859 -3.660991131913862 -6.640764625567306 -3.324016042906653 -6.798915989753942
0.1802429036312236 0.04943121237581189
6 -9.384333355041287 3.5550366943361595 -9.486150236218752 3.484118925859677 -9.475642087727147 3.3604840359876493 -9.363317058058078 3.3077669145921043 -9.261500176880613 3.378684683068587 -9.272008325372218 3.5023195729406145
0.591647578173431 -0.2718029683937645
6 0.10072633372825023 -8.465769149414806 -0.001090547449214857 -8.536686917891288 0.009417601042389673 -8.660321807763316 0.1217426307114593 -8.713038929158861 0.22355951188892437 -8.642121160682379 0.21305136339731992 -8.518486270810351
0.4398729600345243 0.10491797109266338
12 2.38880109566635 -3.8512956113525814 2.309375305490371 -3.8140189773291566 2.3168056885464994 -3.9014420463489197 2.244810281426649 -3.951588481345258 2.3242360716026282 -3.9888651153686823 2.331666454658757 -4.076288184388445 2.4036618617786076 -4.026141749392107 2.4830876519545866 -4.063418383415531 2.475657268898458 -3.9759953143957683 2.5476526760183087 -3.92584887939943 2.4682268858423293 -3.8885722453760057 2.4607965027862004 -3.801149176356243
-0.10020626475286218 -0.1538431303453663
4 0.6866683560984677 2.799264310788491 0.5577317534449813 2.6463743094928636 0.7106217547406088 2.5174377068393774 0.8395583573940952 2.6703277081350048
-0.058353664022389444 -0.9734334711341264
20 2.716052046449787 -7.31955152956109 2.6765123824761763 -7.418875174285925 2.704379941174027 -7.46448813329282 2.6825856775094605 -7.490331260312909 2.6329238551470424 -7.470561428326104 2.5416979371332524 -7.526296545721806 2.641021581858088 -7.5658362096954175 2.686634540864983 -7.537968650997566 2.712477667885073 -7.559762914662133 2.6927078358982675 -7.6094247370245505 2.7484429532939694 -7.7006506550383405 2.78798261726758 -7.601327010313505 2.7601150585697294 -7.555714051306611 2.781909322234296 -7.529870924286521 2.831571144596714 -7.549640756273326 2.922797062610504 -7.493905638877624 2.823473417885668 -7.454365974904013 2.777860458878773 -7.482233533601864 2.7520173318586836 -7.4604392699372974 2.771787163845489 -7.41077744757488
-0.048529445519256476 0.7089036110231625
4 5.0948583337541145 0.5942765118473334 4.965921731100629 0.44138651055170586 5.1188117323962565 0.3124499078982195 5.247748335049742 0.46533990919384705
-0.9782295452049751 -0.32700079782770464
4 -5.415459287560629 -7.887893144506293 -5.324150554874769 -7.693340486157783 -5.629601198407164 -7.906093791587231 -5.292626109399954 -8.064245155773866
-0.034195190357254934 0.029988717123983075
12 -7.794439259584783 2.965004755436973 -7.873865049760762 3.0022813894603977 -7.866434666704634 2.9148583204406346 -7.938430073824484 2.8647118854442963 -7.859004283648504 2.827435251420872 -7.851573900592376 2.7400121824011094 -7.779578493472526 2.7901586173974477 -7.700152703296546 2.752881983374023 -7.707583086352675 2.840305052393786 -7.635587679232825 2.8904514873901244 -7.715013469408804 2.9277281214135487 -7.722443852464933 3.0151511904333113
0.09980458758321101 0.8562935593683687
12 -1.3203764923355235 5.337435056910556 -1.3998022825115026 5.374711690933981 -1.392371899455374 5.287288621914218 -1.4643673065752245 5.23714218691788 -1.3849415163992451 5.1998655528944555 -1.3775111333431163 5.112442483874693 -1.3055157262232657 5.162588918871031 -1.2260899360472866 5.125312284847607 -1.2335203191034152 5.2127353538673695 -1.1615249119835647 5.262881788863708 -1.240950702159544 5.300158422887132 -1.248381085215673 5.387581491906895
0.10041192779053301 0.0084405337600774
4 -3.123277746785185 -8.727440622808658 -3.2522143494386713 -8.880330624104285 -3.099324348143044 -9.009267226757771 -2.9703877454895578 -8.856377225462143
0.938860172994448 0.734408349831111
20 1.6355976497094296 -1.4531963783399982 1.5960579857358188 -1.552520023064834 1.6239255444336698 -1.598132982071729 1.6021312807691028 -1.6239761090918186 1.5524694584066852 -1.6042062771050132 1.461243540392895 -1.659941394500715 1.5605671851177307 -1.6994810584743258 1.6061801441246257 -1.6716134997764749 1.6320232711447153 -1.6934077634410418 1.61225343915791 -1.7430695858034595 1.667988556553612 -1.8342955038172497 1.7075282205272226 -1.734971859092414 1.6796606618293717 -1.689358900085519 1.7014549254939386 -1.6635157730654293 1.7511167478563563 -1.6832856050522347 1.8423426658701465 -1.6275504876565328 1.7430190211453107 -1.588010823682922 1.6974060621384157 -1.615878382380773 1.671562935118326 -1.594084118716206 1.6913327671051315 -1.5444222963537884
-0.4746324237718329 -0.683029349564727
5 5.960078805353059 2.6470141634767574 5.844755225996893 2.54726531415681 5.903985073262371 2.4067619829184372 6.055914711377066 2.419674998000486 6.090582544364942 2.568159011456805
-0.1319368867423549 -0.08731236699242119
4 9.107158451484274 -8.241528232387283 8.978221848830788 -8.394418233682911 9.131111850126416 -8.523354836336397 9.260048452779902 -8.370464835040769
-0.35471202944578434 -0.32164662893441004
5 -1.5276275744086005 -8.38910389104021 -1.642951153764766 -8.488852740360157 -1.5837213064992892 -8.62935607159853 -1.4317916683845937 -8.61644305651648 -1.3971238353967173 -8.467959043060162
-0.0362881892703257 -0.10851974032287513
20 -5.678658052783337 8.596842228823808 -5.718197716756949 8.497518584098973 -5.690330158059098 8.451905625092078 -5.712124421723664 8.426062498071987 -5.761786244086082 8.445832330058794 -5.853012162099872 8.390097212663091 -5.7536885173750365 8.35055754868948 -5.708075558368142 8.378425107387331 -5.682232431348052 8.356630843722764 -5.702002263334857 8.306969021360347 -5.646267145939156 8.215743103346556 -5.606727481965544 8.315066748071391 -5.634595040663395 8.360679707078287 -5.612800776998829 8.386522834098377 -5.563138954636411 8.36675300211157 -5.471913036622621 8.422488119507273 -5.5712366813474565 8.462027783480885 -5.616849640354351 8.434160224783033 -5.642692767374441 8.4559544884476 -5.622922935387636 8.505616310810018
-0.23708881650522798 0.1627471130422879
4 -5.8000825458923995 -7.048865852497257 -5.708773813206539 -6.854313194148747 -6.014224456738934 -7.067066499578194 -5.677249367731726 -7.22521786376483
-0.46423942182991285 0.360487364092128
4 -0.660891415998714 8.55660269108624 -0.5695826833128534 8.75115534943475 -0.8750333268452488 8.538402044005304 -0.5380582378380399 8.380250679818667
0.12515626842496794 -0.5581635315187633
3 -0.9676807219006605 2.700536696544946 -1.096810770028104 2.425397688512744 -0.7939683754364444 2.4511372904585715
0.37022863232144704 0.2886564175215409
4 9.484040076056608 -6.7725366059544045 9.575348808742469 -6.577983947605895 9.269898165210074 -6.790737253035342 9.606873254217282 -6.948888617221978
-0.8488695144772779 -0.0478203673017689
12 6.181535537957622 4.382533763422207 6.102109747781642 4.419810397445631 6.109540130837771 4.3323873284258685 6.037544723717921 4.28224089342953 6.1169705138939 4.244964259406106 6.1244008969500285 4.157541190386343 6.196396304069879 4.207687625382682 6.275822094245858 4.170410991359257 6.26839171118973 4.25783406037902 6.34038711830958 4.307980495375358 6.2609613281336 4.3452571293987825 6.253530945077472 4.432680198418545
0.19531760076471372 0.5312552583025226
5 -6.914843505698809 8.385174247818068 -7.030167085054975 8.28542539849812 -6.970937237789498 8.144922067259747 -6.819007599674802 8.157835082341796 -6.7843397666869265 8.306319095798115
-0.07753504228554856 0.4622812949515135
4 6.598448912161622 -5.773835929903033 6.469512309508136 -5.926725931198661 6.622402310803764 -6.055662533852146 6.75133891345725 -5.902772532556519
0.21420872636077573 -0.49935874817900205
5 -2.0524226064970152 -7.779080090350417 -2.167746185853181 -7.878828939670366 -2.108516338587704 -8.019332270908738 -1.9565867004730084 -8.006419255826689 -1.921918867485132 -7.85793524237037
-0.07873914302295462 0.02999537455684526
20 7.43420335107608 -6.75653585085715 7.394663687102469 -6.855859495581985 7.42253124580032 -6.9014724545888795 7.400736982135753 -6.927315581608969 7.351075159773336 -6.907545749622164 7.259849241759546 -6.963280867017866 7.359172886484381 -7.002820530991477 7.404785845491276 -6.974952972293626 7.430628972511365 -6.996747235958193 7.41085914052456 -7.04640905832061 7.466594257920262 -7.1376349763344 7.506133921893873 -7.038311331609565 7.478266363196022 -6.99269837260267 7.500060626860589 -6.966855245582581 7.549722449223006 -6.986625077569386 7.640948367236796 -6.930889960173684 7.541624722511961 -6.891350296200073 7.4960117635050665 -6.919217854897924 7.470168636484977 -6.897423591233357 7.489938468471782 -6.84776176887094
0.7338475957537665 -0.06249501302143354
6 1.5867361114593752 -8.816391990654308 1.48491923028191 -8.88730975913079 1.4954273787735146 -9.010944649002818 1.6077524084425843 -9.063661770398364 1.7095692896200494 -8.992744001921881 1.6990611411284449 -8.869109112049854
0.15724439184392955 -0.13741722496722564
4 6.675792458671943 -5.270223014094673 6.767101191357803 -5.075670355746163 6.461650547825408 -5.28842366117561 6.798625636832616 -5.446575025362246
-0.09408773369538438 1.3025314475635548
20 -0.1656672781757238 5.689117024479526 -0.20520694214933463 5.589793379754691 -0.17733938345148365 5.5441804207477965 -0.19913364711605044 5.518337293727707 -0.24879546947846826 5.538107125714512 -0.3400213874922583 5.48237200831881 -0.24069774276742267 5.442832344345199 -0.19508478376052765 5.47069990304305 -0.16924165674043806 5.448905639378483 -0.18901148872724347 5.399243817016066 -0.13327637133154147 5.308017899002276 -0.09373670735793063 5.407341543727111 -0.12160426605578163 5.452954502734006 -0.09981000239121482 5.478797629754095 -0.05014818002879699 5.45902779776729 0.04107773798499306 5.514762915162992 -0.058245906739842576 5.554302579136603 -0.10385886574673761 5.526435020438752 -0.1297019927668272 5.548229284103319 -0.1099321607800218 5.597891106465736
0.5390565000348692 -0.136559370422238
4 -8.240270957542101 2.156711713352939 -8.148962224856241 2.351264371701449 -8.454412868388635 2.1385110662720015 -8.117437779381428 1.9803597020853663
-0.5511029995549153 -0.21966014359455582
5 3.8206240287639863 -4.144321720645136 3.7053004494078206 -4.244070569965085 3.7645302966732976 -4.384573901203457 3.916459934787993 -4.371660886121408 3.9511277677758696 -4.223176872665089
0.12708859202204825 -0.632463077181964
20 9.41701452088895 6.065025376316748 9.377474856915338 5.9657017315919125 9.40534241561319 5.920088772585018 9.383548151948622 5.894245645564928 9.333886329586205 5.914015477551733 9.242660411572414 5.858280360156032 9.34198405629725 5.81874069618242 9.387597015304145 5.846608254880271 9.413440142324236 5.824813991215705 9.393670310337429 5.775152168853287 9.449405427733131 5.683926250839497 9.488945091706743 5.7832498955643326 9.461077533008892 5.828862854571227 9.482871796673459 5.854705981591317 9.532533619035876 5.834936149604512 9.623759537049667 5.890671267000213 9.524435892324831 5.930210930973825 9.478822933317936 5.902343372275974 9.452979806297845 5.92413763594054 9.472749638284652 5.973799458302958
-0.29358826564200685 -0.052806498532712576
6 -3.3375043260779904 9.062717407592539 -3.4393212072554555 8.991799639116056 -3.428813058763851 8.868164749244029 -3.3164880290947814 8.815447627848483 -3.2146711479173162 8.886365396324965 -3.2251792964089208 9.010000286196993
-0.06356966157427527 -0.28958590097740067
20 0.10483774608278251 -7.601725073627249 0.06529808210917168 -7.701048718352085 0.09316564080702268 -7.746661677358979 0.07137137714245587 -7.772504804379069 0.02170955478003804 -7.752734972392264 -0.06951636323375202 -7.808470089787965 0.029807281491083623 -7.848009753761577 0.07542024049797866 -7.820142195063726 0.10126336751806826 -7.841936458728292 0.08149353553126285 -7.89159828109071 0.13722865292696484 -7.9828241991045 0.17676831690057568 -7.883500554379665 0.1489007582027247 -7.83788759537277 0.1706950218672915 -7.81204446835268 0.2203568442297093 -7.831814300339485 0.31158276224349934 -7.776079182943784 0.21225911751866372 -7.736539518970172 0.1666461585117687 -7.764407077668023 0.1408030314916791 -7.742612814003457 0.1605728634784845 -7.692950991641039
0.06414604944110432 -0.7818516330152405
4 0.6393226649507047 9.893303919503353 0.5103860622972183 9.740413918207725 0.6632760635928459 9.61147731555424 0.7922126662463322 9.764367316849867
-0.09519469844707665 0.6211568336229962
20 -3.9120554045791764 8.088446804509106 -3.951595068552787 7.98912315978427 -3.9237275098549365 7.943510200777375 -3.945521773519503 7.917667073757285 -3.995183595881921 7.93743690574409 -4.086409513895711 7.881701788348389 -3.9870858691708753 7.842162124374777 -3.9414729101639803 7.870029683072628 -3.9156297831438907 7.848235419408062 -3.935399615130696 7.798573597045644 -3.879664497734994 7.707347679031854 -3.8401248337613834 7.80667132375669 -3.867992392459234 7.852284282763584 -3.8461981287946676 7.878127409783674 -3.7965363064322495 7.858357577796869 -3.7053103884184595 7.91409269519257 -3.8046340331432953 7.953632359166182 -3.8502469921501903 7.925764800468331 -3.87609011917028 7.947559064132897 -3.8563202871834745 7.997220886495315
0.5533574443109031 0.511784784517275
12 3.6972020340796887 -4.537074320377672 3.6177762439037098 -4.499797686354248 3.625206626959838 -4.587220755374011 3.5532112198399877 -4.637367190370349 3.632637010015967 -4.674643824393773 3.640067393072096 -4.762066893413536 3.7120628001919465 -4.711920458417198 3.7914885903679254 -4.749197092440622 3.784058207311797 -4.661774023420859 3.8560536144316475 -4.611627588424521 3.776627824255668 -4.574350954401097 3.7691974411995393 -4.486927885381334
0.1909603699383427 0.7120279320990885
5 4.255628017314954 3.9341875136250493 4.140304437958788 3.8344386643051016 4.199534285224265 3.693935333066729 4.351463923338961 3.7068483481487777 4.3861317563268365 3.8553323616050967
-0.2872004292133152 0.06254691956876463
5 -2.9990774847752277 -4.519026417455091 -3.1144010641313935 -4.61877526677504 -3.0551712168659164 -4.759278598013412 -2.903241578751221 -4.746365582931363 -2.8685737457633445 -4.597881569475044
0.05812921857011626 0.783831682337016
6 8.168961490872745 -0.3212357390366467 8.06714460969528 -0.39215350751312916 8.077652758186884 -0.5157883973851568 8.189977787855954 -0.568505518780702 8.291794669033418 -0.4975877503042196 8.281286520541814 -0.37395286043219195
0.22007966732660006 -0.44825453695397877
4 -4.819041588744933 -2.236666836374381 -4.947978191398419 -2.3895568376700083 -4.795088190102791 -2.5184934403234944 -4.666151587449305 -2.365603439027867
-0.2568482245805311 -0.4193505820187018
5 7.106151654992247 -3.4159300083093815 6.990828075636081 -3.515678857629329 7.0500579229015585 -3.6561821888677017 7.201987561016254 -3.643269173785653 7.23665539400413 -3.494785160329334
0.2328409006275547 -0.10514743213709885
5 -2.8285868558212046 -2.133063500896425 -2.9439104351773704 -2.232812350216373 -2.8846805879118933 -2.3733156814547454 -2.732750949797198 -2.3604026663726967 -2.6980831168093213 -2.2119186529163777
0.049505271554987865 -0.26107079749429524
4 -5.102816936559405 -1.7209222814259473 -5.011508203873545 -1.526369623077437 -5.31695884740594 -1.7391229285068845 -4.979983758398731 -1.89727429269352
0.6546873833305523 -0.40472454802220253
20 2.7027893411048836 0.350325171607602 2.663249677131273 0.2510015268827664 2.6911172358291235 0.20538856787587137 2.669322972164557 0.17954544085578178 2.619661149802139 0.19931527284258718 2.528435231788349 0.14358015544688518 2.6277588765131847 0.10404049147327435 2.6733718355200797 0.13190805017112534 2.6992149625401693 0.11011378650655854 2.679445130553364 0.06045196414414071 2.735180247949066 -0.030773953869649345 2.7747199119226766 0.0685496908551863 2.746852353224826 0.11416264986208133 2.7686466168893924 0.14000577688217092 2.8183084392518105 0.12023594489536552 2.9095343572656005 0.17597106229106751 2.8102107125407647 0.21551072626467835 2.7645977535338697 0.18764316756682736 2.73875462651378 0.20943743123139416 2.7585244585005855 0.259099253593812
0.003823207447027301 0.030872982587548517
4 -2.7027567241059702 4.193597956497065 -2.8316933267594564 4.040707955201437 -2.678803325463829 3.9117713525479516 -2.549866722810343 4.064661353843579
-0.5627516623078975 0.17144765408821586
20 3.54890936930024 3.982257209339925 3.509369705326629 3.8829335646150893 3.53723726402448 3.8373206056081943 3.5154430003599133 3.8114774785881047 3.465781177997495 3.83124731057491 3.374555259983705 3.775512193179208 3.473878904708541 3.7359725292055974 3.519491863715436 3.763840087903448 3.5453349907355256 3.7420458242388817 3.5255651587487202 3.6923840018764635 3.581300276144422 3.6011580838626736 3.620839940118033 3.7004817285875093 3.592972381420182 3.7460946875944043 3.6147666450847487 3.771937814614494 3.6644284674471668 3.7521679826276886 3.7556543854609568 3.8079031000233905 3.656330740736121 3.8474427639970012 3.610717781729226 3.8195752052991505 3.5848746547091364 3.841369468963717 3.6046444866959417 3.891031291326135
0.05773926242680653 -0.10458875834543932
3 -0.15092031980047937 1.0409188019822282 -0.2800503679279229 0.7657797939500259 0.022792026663736642 0.7915193958958536
-0.8300645216816408 -0.1946960434936976
4 -9.036105688998695 3.216730122489169 -9.165042291652181 3.0638401211935418 -9.012152290356553 2.9349035185400556 -8.883215687703068 3.087793519835683
0.8947620146999335 0.4840373875177257
3 3.3536525995095685 2.704481323852763 3.224522551382125 2.429342315820561 3.5273649459737846 2.4550819177663885
-0.49836855027086874 0.5053533710874385
4 7.047667899641539 4.818131021012137 6.918731296988053 4.665241019716509 7.071621298283681 4.536304417063024 7.2005579009371665 4.689194418358651
-0.6934420482063842 0.15531576588686893
6 -9.29502247547791 -5.355133059762974 -9.396839356655375 -5.426050828239456 -9.38633120816377 -5.549685718111483 -9.274006178494702 -5.602402839507029 -9.172189297317237 -5.531485071030547 -9.182697445808842 -5.407850181158519
0.05674788667834007 0.40373292554107576
5 -4.530507743242365 -7.197796065463496 -4.64583132259853 -7.297544914783445 -4.586601475333053 -7.438048246021817 -4.434671837218358 -7.425135230939768 -4.400004004230482 -7.276651217483449
-0.5996184593148052 0.7189415942630575
3 -0.40876736916075873 7.161182591864678 -0.5378974172882023 6.8860435838324765 -0.23505502269654271 6.9117831857783045
-0.07108424322226523 -8.757932837566379E-4
3 5.741396308970134 5.911885490153107 5.6122662608426905 5.6367464821209055 5.91510865543435 5.6624860840667335
-0.10391779676595009 -0.28139554111166115
6 -7.606502946072457 -4.281909225254067 -7.708319827249921 -4.352826993730549 -7.697811678758317 -4.4764618836025765 -7.585486649089248 -4.529179004998122 -7.483669767911783 -4.45826123652164 -7.494177916403387 -4.334626346649612
0.6438136669351398 0.41061294956810523
4 9.823812879852916 -3.316941292157736 9.915121612538776 -3.122388633809226 9.609670969006382 -3.3351419392386736 9.94664605801359 -3.493293303425309
-0.2657029133850478 0.011405414964848344
6 -0.1154916499871952 6.441964189766383 -0.21730853116466028 6.3710464212899005 -0.20680038267305575 6.247411531417873 -0.09447535300398613 6.194694410022327 0.007341528173478953 6.2656121784988095 -0.003166620318125507 6.389247068370837
-0.3095618293958894 -0.16427797811723469
6 -1.6957567274332614 -6.964181887932009 -1.7975736086107266 -7.035099656408491 -1.787065460119122 -7.1587345462805185 -1.6747404304500524 -7.211451667676064 -1.5729235492725873 -7.140533899199582 -1.5834316977641918 -7.016899009327554
-0.29575302338637777 0.6749609715043043
4 9.166187178284513 6.323734773978199 9.037250575631028 6.170844772682571 9.190140576926655 6.041908170029085 9.319077179580141 6.194798171324713
0.09863793642882454 -0.925935311519116
4 -5.964154331570583 4.002916725271621 -5.872845598884723 4.197469383620131 -6.178296242417118 3.984716078190684 -5.841321153409909 3.8265647140040486
-0.6794961740859428 -0.6211768270585801
4 6.993581040266314 8.763329873943302 6.864644437612828 8.610439872647675 7.017534438908456 8.481503269994189 7.1464710415619415 8.634393271289817
-0.4866278450915439 0.04952901876634854
5 -8.113388301427745 -4.552825306376219 -8.228711880783912 -4.6525741556961675 -8.169482033518435 -4.79307748693454 -8.01755239540374 -4.7801644718524905 -7.9828845624158635 -4.631680458396172
7.964565699288695E-4 -0.008321476020390366
12 9.470692515445979 1.1228117041939083 9.391266725269999 1.1600883382173326 9.398697108326129 1.07266526919757 9.326701701206277 1.0225188342012315 9.406127491382257 0.9852422001778072 9.413557874438386 0.8978191311580443 9.485553281558236 0.9479655661543827 9.564979071734216 0.9106889321309584 9.557548688678086 0.9981120011507211 9.629544095797938 1.0482584361470595 9.550118305621957 1.0855350701704838 9.542687922565829 1.1729581391902466
0.03872102174893876 -0.01669338841809661
20 -4.890778657360944 -4.397600697902963 -4.930318321334556 -4.496924342627798 -4.902450762636705 -4.542537301634693 -4.924245026301271 -4.568380428654782 -4.973906848663689 -4.548610596667977 -5.065132766677479 -4.604345714063679 -4.965809121952644 -4.64388537803729 -4.920196162945749 -4.616017819339439 -4.8943530359256595 -4.637812083004006 -4.914122867912464 -4.687473905366423 -4.858387750516763 -4.778699823380213 -4.818848086543151 -4.679376178655378 -4.8467156452410025 -4.6337632196484835 -4.824921381576436 -4.607920092628394 -4.775259559214018 -4.627689924615199 -4.684033641200228 -4.571954807219497 -4.783357285925064 -4.532415143245886 -4.828970244931958 -4.560282701943737 -4.854813371952048 -4.53848843827917 -4.835043539965243 -4.488826615916753
-0.03325504510164358 0.5634760741521768
4 9.317764477417036 4.015806231448906 9.409073210102896 4.210358889797416 9.103622566570502 3.9976055843679683 9.44059765557771 3.839454220181333
-0.008144355456502904 0.09180744423736813
5 4.253841343439199 8.579536273623194 4.1385177640830335 8.479787424303247 4.197747611348511 8.339284093064874 4.349677249463206 8.352197108146923 4.384345082451082 8.500681121603241
-0.1973408445351761 -0.06320267443548468
5 6.499417223256406 -6.760591420111554 6.38409364390024 -6.860340269431503 6.443323491165717 -7.000843600669875 6.595253129280413 -6.987930585587826 6.629920962268288 -6.839446572131507
-0.08188872205418316 0.16304331079083875
4 2.04578966975221 -7.032742869256092 2.137098402438071 -6.838190210907582 1.8316477589056754 -7.050943516337029 2.1686228479128844 -7.209094880523665
-0.033394456360169446 -0.045195822563290314
12 -1.0307075028270316 -0.743068233186819 -1.1101332930030108 -0.7057915991633947 -1.1027029099468821 -0.7932146681831574 -1.1746983170667327 -0.8433611031794958 -1.0952725268907533 -0.8806377372029202 -1.0878421438346244 -0.968060806222683 -1.0158467367147739 -0.9179143712263447 -0.9364209465387947 -0.955191005249769 -0.9438513295949235 -0.8677679362300063 -0.8718559224750729 -0.817621501233668 -0.9512817126510522 -0.7803448672102435 -0.958712095707181 -0.6929217981904807
-0.3937089171086912 -0.6312471748579748
12 -8.05536152255007 -1.6356213444104533 -8.13478731272605 -1.598344710387029 -8.12735692966992 -1.6857677794067916 -8.199352336789772 -1.73591421440313 -8.119926546613792 -1.7731908484265544 -8.112496163557664 -1.8606139174463172 -8.040500756437813 -1.810467482449979 -7.961074966261834 -1.8477441164734032 -7.9685053493179625 -1.7603210474536406 -7.896509942198112 -1.710174612457302 -7.975935732374092 -1.6728979784338778 -7.98336611543022 -1.585474909414115
-0.0555930066004837 0.720847471747454
12 -7.291918445125778 5.338581680273273 -7.371344235301757 5.375858314296697 -7.363913852245629 5.2884352452769345 -7.435909259365479 5.238288810280596 -7.3564834691895 5.201012176257172 -7.349053086133371 5.113589107237409 -7.277057679013521 5.163735542233748 -7.197631888837542 5.126458908210323 -7.20506227189367 5.213881977230086 -7.13306686477382 5.264028412226424 -7.212492654949799 5.3013050462498486 -7.219923038005928 5.388728115269611
0.5393233055509954 0.03062444327603183
6 2.975048994219881 -9.02341410570369 2.8732321130424157 -9.094331874180172 2.88374026153402 -9.2179667640522 2.99606529120309 -9.270683885447745 3.097882172380555 -9.199766116971263 3.0873740238889504 -9.076131227099236
0.17346100388628685 0.16214401852635707
5 -3.300784713505167 4.0659083489276995 -3.416108292861333 3.9661594996077514 -3.356878445595856 3.825656168369379 -3.2049488074811605 3.8385691834514275 -3.170280974493284 3.9870531969077465
0.286371395537449 -0.3746238857382312
6 -3.259285061093376 1.3816030741195906 -3.361101942270841 1.3106853056431083 -3.3505937937792365 1.1870504157710804 -3.238268764110167 1.1343332943755353 -3.1364518829327017 1.2052510628520177 -3.1469600314243062 1.3288859527240453
0.40819552906116396 -0.3748748003535609
12 -5.980506695763261 -2.273533765325607 -6.059932485939241 -2.236257131302182 -6.052502102883112 -2.323680200321945 -6.124497510002962 -2.3738266353182835 -6.045071719826983 -2.411103269341708 -6.037641336770855 -2.4985263383614704 -5.9656459296510045 -2.448379903365132 -5.886220139475025 -2.485656537388557 -5.8936505225311535 -2.398233468368794 -5.821655115411303 -2.3480870333724555 -5.901080905587283 -2.310810399349031 -5.908511288643411 -2.2233873303292686
-0.5320774048085389 -0.31827510998929237
20 7.293253176965097 -7.209438396652705 7.253713512991485 -7.30876204137754 7.281581071689336 -7.354375000384435 7.25978680802477 -7.380218127404524 7.210124985662352 -7.3604482954177195 7.118899067648562 -7.416183412813421 7.2182227123733975 -7.455723076787033 7.263835671380292 -7.427855518089181 7.289678798400382 -7.449649781753748 7.269908966413577 -7.499311604116166 7.325644083809278 -7.590537522129956 7.36518374778289 -7.49121387740512 7.337316189085039 -7.445600918398226 7.359110452749605 -7.419757791378136 7.408772275112023 -7.439527623364941 7.499998193125813 -7.3837925059692395 7.4006745484009775 -7.344252841995628 7.355061589394083 -7.372120400693479 7.329218462373993 -7.350326137028913 7.348988294360798 -7.300664314666495
-0.3545830443220733 -0.12412559915351067
3 9.688451748148708 2.0144827917742014 9.559321700021265 1.7393437837419992 9.862164094612924 1.7650833856878267
-0.8022613000605251 -0.24593485905239068
12 0.46138337468118673 -6.141272858510705 0.38195758450520745 -6.103996224487281 0.3893879675613362 -6.191419293507043 0.31739256044148567 -6.241565728503382 0.39681835061746495 -6.278842362526806 0.4042487336735937 -6.3662654315465685 0.47624414079344424 -6.31611899655023 0.5556699309694235 -6.3533956305736545 0.5482395479132948 -6.265972561553892 0.6202349550331453 -6.215826126557554 0.540809164857166 -6.178549492534129 0.5333787818010373 -6.091126423514367
-0.17472058761163997 1.237742186367079
20 -2.1285711092273343 1.2889357348745398 -2.168110773200945 1.189612090149704 -2.1402432145030943 1.143999131142809 -2.162037478167661 1.1181560041227194 -2.211699300530079 1.1379258361095248 -2.302925218543869 1.0821907187138229 -2.203601573819033 1.0426510547402121 -2.157988614812138 1.070518613438063 -2.1321454877920485 1.0487243497734962 -2.151915319778854 0.9990625274110784 -2.096180202383152 0.9078366093972884 -2.056640538409541 1.007160254122124 -2.084508097107392 1.052773213129019 -2.0627138334428254 1.0786163401491087 -2.0130520110804073 1.0588465081623033 -1.9218260930666173 1.1145816255580052 -2.021149737791453 1.154121289531616 -2.066762696798348 1.126253730833765 -2.0926058238184377 1.148047994498332 -2.0728359918316324 1.1977098168607496
-0.48593333720102255 0.36154921755165964
4 8.552956634852002 1.096937374873896 8.644265367537862 1.2914900332224062 8.338814724005468 1.0787367277929587 8.675789813012676 0.9205853636063231
0.04728230224680463 -0.227262520702702
5 -3.4645637716189004 7.702935745826466 -3.579887350975066 7.603186896506517 -3.520657503709589 7.4626835652681445 -3.368727865594894 7.475596580350194 -3.334060032607017 7.624080593806513
0.07511758754680121 0.04526611141811495
4 1.6730385027378003 -7.180442724628948 1.544101900084314 -7.333332725924576 1.6969919013799415 -7.462269328578062 1.8259285040334279 -7.309379327282434
-0.5961256937361015 0.24321115544463318
4 3.3853663738261166 0.6458161266468461 3.2564297711726304 0.4929261253512185 3.409319772468258 0.36398952269773216 3.538256375121744 0.5168795239933597
-0.0763375068441389 0.015019135405818665
12 -8.957437987720748 5.089697464902158 -9.036863777896729 5.126974098925582 -9.029433394840598 5.0395510299058195 -9.10142880196045 4.989404594909481 -9.02200301178447 4.952127960886057 -9.014572628728342 4.864704891866294 -8.942577221608492 4.914851326862633 -8.863151431432511 4.877574692839208 -8.870581814488641 4.964997761858971 -8.79858640736879 5.015144196855309 -8.87801219754477 5.0524208308787335 -8.885442580600898 5.139843899898496
0.18217631971516335 -0.5184171539932985
4 4.078791333745912 -6.389968237736494 4.170100066431772 -6.195415579387984 3.864649422899377 -6.408168884817432 4.201624511906585 -6.566320249004067
-0.6591031668321762 0.6060982681464505
4 -9.437636557594253 -0.24774437670522947 -9.566573160247739 -0.400634378000857 -9.41368315895211 -0.5295709806543434 -9.284746556298625 -0.3766809793587158
0.34836564496508027 0.0696254129925562
12 1.4715413000999287 1.3171967114354868 1.3921155099239495 1.354473345458911 1.3995458929800781 1.2670502764391485 1.3275504858602276 1.21690384144281 1.406976276036207 1.1796272074193856 1.4144066590923359 1.0922041383996228 1.4864020662121864 1.1423505733959611 1.5658278563881656 1.1050739393725368 1.558397473332037 1.1924970083922994 1.6303928804518875 1.242643443388638 1.550967090275908 1.2799200774120623 1.5435367072197792 1.367343146431825
-0.2888951588324408 0.010009059992653689
4 0.03597234837117333 3.6198856628114413 -0.09296425428231297 3.466995661515814 0.05992574701331456 3.338059058862328 0.18886234966680088 3.490949060157955
-0.15621785603576663 0.12079217382100783
3 -3.0223404441925936 -0.05749951638325401 -3.151470492320037 -0.33263852441545616 -2.8486280977283776 -0.30689892246962847
-0.7176089454439323 -0.5891331525232091
4 0.4372762655241367 -0.69840878276543 0.5285849982099973 -0.5038561244169197 0.22313435467760193 -0.7166094298463672 0.5601094436848109 -0.8747607940330028
0.1945647440823692 0.15281057954826235
4 -5.853128620737237 6.037912428064677 -5.982065223390722 5.88502242676905 -5.8291752220950945 5.756085824115564 -5.700238619441609 5.908975825411192
-0.6569741219979528 -0.0587810196792851
4 -5.905997727256206 -9.718173396050886 -6.034934329909691 -9.871063397346514 -5.882044328614064 -10.0 -5.753107725960578 -9.847109998704372
-0.8691505917456778 0.4250627833085817
4 -5.309945790760436 -7.440757116582555 -5.438882393413921 -7.593647117878183 -5.285992392118294 -7.722583720531668 -5.157055789464808 -7.5696937192360405
0.43164370184117595 -0.6974658135899766
6 -6.857192897488834 7.932125715247311 -6.9590097786662986 7.861207946770829 -6.948501630174694 7.7375730568988015 -6.836176600505625 7.684855935503256 -6.73435971932816 7.755773703979738 -6.744867867819764 7.879408593851766
0.15730515776003065 -0.19933975659105146
6 4.336389759104888 -4.735965073626323 4.234572877927423 -4.806882842102805 4.245081026419028 -4.930517731974833 4.357406056088097 -4.983234853370378 4.459222937265562 -4.912317084893896 4.448714788773958 -4.7886821950218685
0.3754505357849199 0.7063191645042622
6 6.298356684837666 -5.431718678328407 6.196539803660201 -5.502636446804889 6.207047952151806 -5.626271336676917 6.319372981820875 -5.678988458072462 6.4211898629983395 -5.60807068959598 6.410681714506736 -5.484435799723952
-0.38983950904624554 -0.49311671990669914
4 8.899942968925405 9.7468762037144 8.991251701611265 9.94142886206291 8.685801058078871 9.728675556633464 9.022776147086079 9.570524192446827
0.30195024251887576 -0.9181620935751847
12 5.077629970701237 2.3217855642741343 4.998204180525257 2.359062198297559 5.005634563581386 2.271639129277796 4.933639156461536 2.2214926942814577 5.013064946637515 2.1842160602580334 5.020495329693643 2.096792991238271 5.0924907368134935 2.146939426234609 5.171916526989473 2.1096627922111844 5.1644861439333445 2.1970858612309474 5.236481551053195 2.2472322962272857 5.157055760877215 2.28450893025071 5.149625377821087 2.3719319992704726
-0.5100419235359466 -0.08522936861413306
12 -1.9212244622148202 -8.64529503663978 -2.000650252390799 -8.608018402616356 -1.9932198693346708 -8.69544147163612 -2.0652152764545213 -8.745587906632457 -1.985789486278542 -8.782864540655883 -1.978359103222413 -8.870287609675644 -1.9063636961025625 -8.820141174679307 -1.8269379059265833 -8.857417808702731 -1.834368288982712 -8.769994739682968 -1.7623728818628615 -8.71984830468663 -1.8417986720388408 -8.682571670663204 -1.8492290550949697 -8.595148601643443
0.17185066223854206 -0.7630610371736449
3 6.037176685618603 0.976155164457078 5.90804663749116 0.7010161564248758 6.21088903208282 0.7267557583707035
-0.3616951125039699 -0.4613746909144247
4 7.386556526192269 5.122171859116156 7.257619923538783 4.969281857820528 7.410509924834411 4.840345255167042 7.539446527487897 4.99323525646267
0.2893944551631373 -0.4294274490970668
5 -1.1229565265948933 -1.3736604975446307 -1.2382801059510589 -1.4734093468645788 -1.179050258685582 -1.6139126781029514 -1.0271206205708865 -1.6009996630209022 -0.9924527875830101 -1.4525156495645835
0.0937190535046065 -0.11343099591993423
3 0.12206800914709535 -0.008365293327519674 -0.0070620389803481565 -0.2835043013597218 0.2957803556113114 -0.2577646994138941
-0.4574008906130014 0.3004669279548401
20 -8.899271001033949 -5.671858140463474 -8.93881066500756 -5.771181785188309 -8.910943106309709 -5.816794744195204 -8.932737369974276 -5.8426378712152935 -8.982399192336693 -5.822868039228489 -9.073625110350484 -5.87860315662419 -8.974301465625649 -5.918142820597802 -8.928688506618753 -5.8902752618999505 -8.902845379598663 -5.912069525564517 -8.92261521158547 -5.961731347926935 -8.866880094189767 -6.052957265940725 -8.827340430216156 -5.953633621215889 -8.855207988914007 -5.908020662208995 -8.83341372524944 -5.882177535188905 -8.783751902887023 -5.90194736717571 -8.692525984873232 -5.846212249780009 -8.791849629598067 -5.806672585806397 -8.837462588604962 -5.834540144504248 -8.863305715625053 -5.812745880839682 -8.843535883638246 -5.763084058477264
-0.5029969445603544 -0.42793201128799585
12 8.590711394109448 7.401994426601081 8.511285603933468 7.439271060624505 8.518715986989598 7.351847991604743 8.446720579869746 7.301701556608404 8.526146370045726 7.26442492258498 8.533576753101855 7.177001853565217 8.605572160221705 7.227148288561556 8.684997950397685 7.189871654538131 8.677567567341555 7.277294723557894 8.749562974461407 7.327441158554232 8.670137184285426 7.364717792577657 8.662706801229298 7.452140861597419
-0.1554818206854296 0.08871410162714491
4 3.1096033319624365 -1.3729761691984768 2.9806667293089504 -1.5258661704941043 3.1335567306045777 -1.6548027731475907 3.262493333258064 -1.5019127718519631
-0.11021255916645749 -0.09117971348315729
6 8.78809186840501 -6.570504270172189 8.686274987227545 -6.641422038648671 8.69678313571915 -6.765056928520699 8.809108165388219 -6.8177740499162445 8.910925046565684 -6.746856281439762 8.900416898074079 -6.623221391567735
-0.23153534293195416 0.41137246495637414
4 -2.7356379273098734 -1.2277441956838968 -2.8645745299633596 -1.3806341969795244 -2.7116845286677322 -1.5095707996330108 -2.582747926014246 -1.3566807983373832
-0.22298513380046084 -0.3320346533011809
12 -0.16440177390298982 9.846343213166442 -0.2438275640789691 9.883619847189866 -0.23639718102284035 9.796196778170103 -0.3083925881426909 9.746050343173765 -0.2289667979667116 9.70877370915034 -0.22153641491058285 9.621350640130578 -0.14954100779073232 9.671497075126915 -0.07011521761475303 9.63422044110349 -0.07754560067088179 9.721643510123254 -0.005550193551031257 9.771789945119592 -0.08497598372701055 9.809066579143018 -0.09240636678313931 9.89648964816278
-0.44649909272838023 -0.17059861694566655
3 -2.529107701195908 -0.2138867172776081 -2.6582377493233516 -0.48902572530981026 -2.355395354731692 -0.46328612336398256
-0.29910480766971026 -0.04585114065052998
5 7.691360155120091 1.789491299948201 7.576036575763926 1.689742450628253 7.635266423029403 1.5492391193898805 7.7871960611440985 1.5621521344719296 7.821863894131974 1.7106361479282484
0.45903589813494533 -1.1091095080289521
4 -6.874069848983355 7.782240443174789 -6.782761116297495 7.976793101523299 -7.08821175982989 7.764039796093852 -6.751236670822681 7.605888431907216
-0.6486780058316761 0.1963169012904776
20 -9.069080413998773 1.7968890125344958 -9.108620077972384 1.69756536780966 -9.080752519274533 1.651952408802765 -9.1025467829391 1.6261092817826754 -9.152208605301517 1.6458791137694808 -9.243434523315308 1.590143996373779 -9.144110878590473 1.5506043324001682 -9.098497919583577 1.578471891098019 -9.072654792563487 1.5566776274334522 -9.092424624550294 1.5070158050710345 -9.036689507154591 1.4157898870572443 -8.99714984318098 1.51511353178208 -9.02501740187883 1.560726490788975 -9.003223138214263 1.5865696178090647 -8.953561315851847 1.5667997858222593 -8.862335397838056 1.6225349032179612 -8.961659042562891 1.662074567191572 -9.007272001569786 1.634207008493721 -9.033115128589877 1.656001272158288 -9.01334529660307 1.7056630945207056
0.19987862269423315 -0.10097281921874494
3 -2.0530875369581034 7.222648040042971 -2.1822175850855468 6.947509032010769 -1.8793751904938871 6.973248633956597
0.6815321160918986 -0.4192125882343746
6 -0.6331559960014985 3.044181095891247 -0.7349728771789636 2.9732633274147644 -0.7244647286873591 2.8496284375427368 -0.6121396990182895 2.7969113161471917 -0.5103228178408243 2.8678290846236743 -0.5208309663324289 2.991463974495702
0.002272229957453864 2.5552902963338234E-4
4 -3.828766720335965 -4.89315795802999 -3.7374579876501044 -4.69860529968148 -4.0429086311825 -4.9113586051109275 -3.705933542175291 -5.069509969297563
0.6121148437171959 -0.6207210918228454
12 0.5275912017578929 0.631202112802945 0.4481654115819136 0.6684787468263693 0.45559579463804234 0.5810556778066066 0.3836003875181918 0.5309092428102683 0.4630261776941711 0.49363260878684384 0.47045656075029985 0.4062095397670811 0.5424519678701504 0.45635597476341944 0.6218777580461297 0.41907934073999503 0.6144473749900009 0.5065024097597578 0.6864427821098514 0.5566488447560961 0.6070169919338722 0.5939254787795205 0.5995866088777434 0.6813485477992833
0.3437045357192852 0.3446973570930325
6 -1.8021101378282793 -2.7373789474306847 -1.9039270190057445 -2.8082967159071672 -1.89341887051414 -2.931931605779195 -1.7810938408450703 -2.98464872717474 -1.6792769596676052 -2.9137309586982574 -1.6897851081592097 -2.7900960688262297
0.9906790027060867 -0.4262747890187992
4 8.983680903870585 9.094314093019207 9.074989636556445 9.288866751367717 8.769538993024051 9.07611344593827 9.106514082031259 8.917962081751634
-0.026203699937682488 0.2522970140860033
4 -6.085537711402067 -6.467267183442185 -5.994228978716206 -6.272714525093675 -6.299679622248601 -6.485467830523122 -5.962704533241393 -6.643619194709758
0.5522475280544925 -0.5917196576315155
6 -7.9118376584052665 -6.266453076215955 -8.013654539582731 -6.337370844692437 -8.003146391091127 -6.4610057345644645 -7.8908213614220575 -6.51372285596001 -7.789004480244593 -6.442805087483528 -7.799512628736196 -6.3191701976115
