marco:(-10.0,10.0),(-10.0,10.0)
timeIntervals:0.0-1.0
framesPerSecond:1000
3.7079431548973436 4.156847568803603
4 -1.5915975083530012 1.2416366443311273 -3.5915620374930968 1.229725213626272 -3.5796506067882414 -0.7702393155138234 -1.579686077648146 -0.7583278848089684
-3.9751690716264285 -1.7368799210835504
4 -1.949264711922044 8.416929161314577 -3.949255410052603 8.423028947478107 -3.955355196216132 6.423038249347549 -1.9553644980855736 6.416938463184019
