marco:(-10.0,10.0),(-10.0,10.0)
timeIntervals:0.0-1.0
framesPerSecond:1000
0.09602729096491837 -2.883743329991554
20 7.486101584323838 4.30841627853377 5.988980256579861 6.171991724900197 4.794413679710098 6.1322158277125345 4.531634826023548 6.84100059439686 5.463422549206761 7.589561258268848 5.383870754831436 9.978694412008377 3.520295308465009 8.481573084264399 3.5600712056526715 7.2870065073946355 2.851286438968346 7.024227653708086 2.1027257750963577 7.956015376891299 -0.2864073786431698 7.876463582515974 1.2107139491008065 6.012888136149547 2.4052805259705705 6.0526640333372095 2.6680593796571204 5.343879266652884 1.7362716564739071 4.595318602780896 1.8158234508492321 2.206185449041368 3.679398897215659 3.7033067767853445 3.6396230000279965 4.8978733536551085 4.348407766712322 5.160652207341658 5.09696843058431 4.228864484158445
