areaTotal:400.0
tiempoTotalSimulado:1.0
areaOcupadaInicial:4.000000000000001
eventosSimples:3
eventosMultiples:0
0.0
null
[(2,3)]
0.2766719863293081, [(3,4),X]+
0.4049096305801029, [(0,3),Y]+
0.7590589016675404, [(0,2),Y]+
