marco:(-10.0,10.0),(-10.0,10.0)
timeIntervals:0.0-1.0
framesPerSecond:1000
1.5989737113518305 0.380444623670949
4 -8.358376243480723 -8.134812687245777 -8.63561555727604 -8.259369525503024 -8.11188720043722 -8.312630556791662 -8.32762597272891 -7.832437979442643
-0.08637756762915265 1.0521188476437466
3 -2.34942608119147 -3.396098050704379 -1.9551993520032267 -3.224816492636326 -2.3006468970840617 -2.969046909342486
0.10548016942609195 0.5726436769135778
20 -5.0094805929513315 -0.6681138507629043 -4.874868944945633 -0.5992890944732313 -4.862015353059793 -0.5247970083840501 -4.814749383029116 -0.517610746297718 -4.78033700488428 -0.5849165703005671 -4.631352832705917 -0.6106237540722476 -4.70017758899559 -0.4760121060665494 -4.7746696750847715 -0.4631585141807092 -4.781855937171104 -0.41589254415003246 -4.714550113168254 -0.38148016600519596 -4.688842929396574 -0.23249599382683364 -4.823454577402273 -0.3013207501165066 -4.836308169288112 -0.3758128362056878 -4.88357413931879 -0.3829990982920199 -4.917986517463626 -0.3156932742891708 -5.066970689641988 -0.28998609051749036 -4.9981459333523155 -0.4245977385231885 -4.923653847263134 -0.4374513304090287 -4.916467585176802 -0.48471730043970546 -4.983773409179651 -0.519129678584542
0.2760888881534483 0.9634883197119616
6 7.681395751465004 -6.0317210910273795 7.8558049064180775 -6.051046230750935 7.959745545826896 -5.909666041770775 7.889277030282642 -5.748960713067059 7.714867875329569 -5.729635573343503 7.61092723592075 -5.871015762323664
1.01563491561146 -0.3888355229620661
3 0.36940617516801966 3.3024230366213905 0.76305222943837 3.4750349426361975 0.41674290669872005 3.7296364727264253
-0.2141004091652449 0.45398466599083354
4 9.29829131705229 4.170144200310017 9.57796824891763 4.212343889673676 9.535768559553972 4.492020821539017 9.256091627688631 4.449821132175359
0.13603095609341545 0.8332332719101534
3 6.633645132738607 8.771232792165923 7.02758207800166 8.94317978777066 6.681703139072021 9.198365692055335
-0.3161134583592864 -0.30019954574349117
12 -3.737959803988918 -8.541932351118524 -3.6882589815565763 -8.655624195276049 -3.6146493675292297 -8.555736098381898 -3.491338931069541 -8.569539845645274 -3.541039753501883 -8.455848001487748 -3.4674301394745366 -8.355959904593599 -3.590740575934225 -8.342156157330225 -3.640441398366567 -8.228464313172699 -3.7140510123939134 -8.32835241006685 -3.8373614488536023 -8.314548662803475 -3.78766062642126 -8.428240506961 -3.8612702404486066 -8.52812860385515
-0.5239067630989892 0.6924637389128306
4 -4.118689384575572 1.1756130455650546 -3.8390362494808925 1.2179701468789652 -3.881393350794803 1.4976232819736448 -4.161046485889482 1.4552661806597342
1.3007580228907978 -1.0679312987548204
4 -2.6507860989004106 -2.0076724086310556 -2.9292731050023706 -2.129414063386965 -2.4061112301320584 -2.18797840316127 -2.6169739615668033 -1.7056247593449316
-0.6005422679298015 -0.7551201161372176
4 5.421265299357827 7.8125809233099055 5.142778293255867 7.6908392685539955 5.66594016812618 7.632274928779691 5.455077436691435 8.114628572596029
-0.8953964103232499 -0.6772954345909119
4 -8.879362574238321 -8.91114092874393 -8.599709439143641 -8.868783827430018 -8.642066540457552 -8.589130692335338 -8.921719675552232 -8.63148779364925
-0.9287024841540495 0.5443245297191266
4 9.408110419073374 8.660626492896611 9.129623412971414 8.538884838140701 9.652785287841727 8.480320498366398 9.44192255640698 8.962674142182735
-0.6332710391496658 0.19565574068629182
4 0.9551229710653802 -6.561021325759401 1.23477610616006 -6.518664224445491 1.1924190048461494 -6.239011089350812 0.9127658697514699 -6.281368190664722
-1.181413451584552 -0.26002314186384484
20 0.4472115237693929 7.603684921121045 0.5818618890747715 7.672433899151783 0.5947574074540898 7.7469187386831555 0.6420274148487772 7.754078395561839 0.6764019038641463 7.68675321290915 0.8253715829268923 7.660962176150513 0.756622604896154 7.795612541455892 0.682137765364781 7.80850805983521 0.6749781084860973 7.855778067229898 0.7423032911387867 7.890152556245267 0.7680943278974232 8.039122235308014 0.6334439625920445 7.9703732572772745 0.6205484442127263 7.895888417745902 0.5732784368180388 7.8887287608672185 0.5389039478026697 7.956053943519907 0.38993426873992376 7.981844980278544 0.4586832467706621 7.847194614973166 0.533168086302035 7.834299096593847 0.5403277431807187 7.78702908919916 0.47300256052802936 7.75265460018379
-0.19908702622734106 0.08873635453874228
6 4.276604198544839 0.7508805624569461 4.4510457368160425 0.7318499533664231 4.554747496873528 0.873405452439259 4.48400771865981 1.0339915606026182 4.3095661803886065 1.0530221696931412 4.205864420331121 0.9114666706203054
-0.04308537434923764 0.1958070693370666
12 1.0909762680870103 0.5728319743994122 1.1409968449615624 0.4592804483527446 1.2143250627191908 0.559375301661393 1.3376738573513716 0.5459186289233738 1.2876532804768193 0.6594701549700415 1.360981498234448 0.7595650082786899 1.2376327036022672 0.7730216810167091 1.187612126727715 0.8865732070633767 1.1142839089700867 0.7864783537547283 0.9909351143379059 0.7999350264927475 1.0409556912124582 0.6863835004460799 0.9676274734548297 0.5862886471374315
-1.0452364577499536 -0.48524836779835434
6 -4.796086905355858 -2.7224734284598346 -4.621645367084654 -2.741504037550358 -4.517943607027169 -2.599948538477522 -4.588683385240887 -2.439362430314163 -4.76312492351209 -2.4203318212236398 -4.866826683569576 -2.5618873202964756
-0.23237063554871973 -0.05917853301220114
5 -6.887333785050728 0.710013311520608 -6.6716998402768315 0.7091626332083567 -6.604256243625451 0.9139798274647691 -6.778207753345256 1.041414493307873 -6.953159295397834 0.9153562538874842
0.15404162419560932 0.30970490676950396
4 -8.150747879046888 -6.718344161234821 -7.871239380791907 -6.675042897936326 -7.914540644090403 -6.395534399681345 -8.194049142345383 -6.438835662979841
0.260324315495699 0.3982970099644614
4 5.426202718741447 5.103672311838546 5.705711216996427 5.146973575137041 5.6624099536979315 5.426482073392021 5.382901455442951 5.383180810093526
-0.16046553192318025 1.3876795782189455
3 3.843009847163163 -6.039832039068463 4.2362662795009856 -5.866334302582918 3.8893846160364935 -5.6125131102195
-0.23872918861250245 0.6217146268595257
4 2.732189127002051 0.4305517956509829 3.0116976252570318 0.47385305894947793 2.9683963619585367 0.7533615572044583 2.688887863703556 0.7100602939059635
-0.8779300085149072 -0.9952491430552465
3 -3.3255532805547947 8.074655675846161 -2.9322968482169722 8.248153412331707 -3.2791785116814642 8.501974604695125
0.4463214150105396 -0.42190103716305344
12 1.780097995792346 -9.331916467039262 1.830182478224206 -9.445439820574657 1.9034543450927317 -9.345303709685574 2.0268106943931175 -9.358690952331886 1.9767262119612572 -9.245167598796488 2.0499980788297827 -9.145031487907405 1.926641729529397 -9.131644245261091 1.876557247097537 -9.018120891725696 1.8032853802290112 -9.11825700261478 1.6799290309286254 -9.104869759968468 1.7300135133604857 -9.218393113503865 1.6567416464919602 -9.318529224392949
0.21629701493773468 -0.30110937681597766
4 -8.943299660949354 -1.6812461899460922 -8.663791162694373 -1.6379449266475974 -8.707092425992869 -1.358436428392617 -8.986600924247849 -1.4017376916911117
0.260158377342741 -0.4240012357031027
5 -9.303359057880009 -8.964540261864821 -9.087724668451806 -8.96526956856918 -9.020396365653266 -8.76041444553192 -9.194419575547126 -8.633077710020991 -9.36930013689143 -8.759234402496041
-0.8337173404156023 0.5318575115126875
5 -5.5644109447934005 -8.003156264135015 -5.348776555365197 -8.003885570839374 -5.281448252566657 -7.799030447802114 -5.455471462460518 -7.671693712291185 -5.630352023804821 -7.797850404766236
-0.6110802411428191 0.5035876147470111
12 9.730099916962564 1.1537508503365632 9.780184399394424 1.0402274968011662 9.853456266262949 1.1403636076902512 9.976812615563334 1.126976365043939 9.926728133131475 1.2404997185793358 10.0 1.3406358294684206 9.876643650699615 1.3540230721147328 9.826559168267755 1.4675464256501298 9.75328730139923 1.3674103147610448 9.629930952098844 1.380797557407357 9.680015434530704 1.2672742038719602 9.606743567662178 1.1671380929828754
0.1242405276032757 0.5542152493184532
5 9.439145320948288 5.063857605741634 9.654779710376491 5.063128299037274 9.722108013175031 5.2679834220745345 9.54808480328117 5.395320157585464 9.373204241936866 5.269163465110412
-0.7237935377849349 0.3272826417085271
20 -6.902792622065948 -2.833745702541884 -6.768375193528532 -2.7645423950881836 -6.7557312879487865 -2.690014431437107 -6.7084857286421915 -2.6826951820547382 -6.673884074915342 -2.7499038963234463 -6.524828147613188 -2.7751917074829358 -6.594031455066888 -2.6407742789455195 -6.668559418717965 -2.628130373365775 -6.675878668100334 -2.58088481405918 -6.608669953831626 -2.5462831603323295 -6.583382142672137 -2.397227233030176 -6.717799571209553 -2.4664305404838767 -6.730443476789298 -2.540958504134953 -6.777689036095893 -2.548277753517322 -6.812290689822743 -2.481069039248614 -6.961346617124897 -2.4557812280891245 -6.892143309671196 -2.5901986566265407 -6.817615346020119 -2.6028425622062854 -6.81029609663775 -2.6500881215128804 -6.8775048109064585 -2.6846897752397307
0.07721044876593734 1.1616967432269185
6 -4.334764581177737 9.549752569989046 -4.160344574725969 9.530525617392618 -4.056483542114219 9.67196429760988 -4.127042515954237 9.832629930423572 -4.301462522406005 9.85185688302 -4.4053235550177545 9.710418202802737
0.3152793815020017 -0.7495360785808597
12 -0.9320576452486666 -5.474610508394499 -0.8821649163728259 -5.588218266860688 -0.8087240759120202 -5.488206016956986 -0.6853905065753738 -5.501801525519473 -0.7352832354512144 -5.388193767053284 -0.6618423949904086 -5.2881815171495825 -0.785175964327055 -5.274586008587096 -0.8350686932028958 -5.160978250120907 -0.9085095336637015 -5.260990500024609 -1.0318431030003479 -5.247394991462122 -0.9819503741245073 -5.361002749928311 -1.055391214585313 -5.461014999832012
-0.5314078826638253 0.0038621463917772637
12 -4.470898604825977 -9.26815504625318 -4.4210058759501365 -9.381762804719367 -4.347565035489331 -9.281750554815666 -4.224231466152684 -9.295346063378153 -4.274124195028525 -9.181738304911963 -4.200683354567719 -9.081726055008263 -4.324016923904366 -9.068130546445774 -4.373909652780206 -8.954522787979586 -4.447350493241012 -9.054535037883287 -4.570684062577659 -9.0409395293208 -4.520791333701817 -9.15454728778699 -4.594232174162624 -9.25455953769069
0.2932550684451836 -0.06657020603226275
4 7.130580914954219 -9.82010741458988 6.852299875890701 -9.942319142210714 7.375559895246004 -10.0 7.1638829737259515 -9.518003101558927
-0.5699223240113188 -0.9081547012170308
4 3.0982689055777666 -9.276306182301441 3.377850118809124 -9.233476925851178 3.3350208623588617 -8.95389571261982 3.0554396491275044 -8.996724969070083
0.30380640272454124 -0.02053665247431051
4 -0.630889784325367 -3.271538196893487 -0.3513085710940097 -3.2287089404432248 -0.39413782754427207 -2.9491277272118674 -0.6737190407756294 -2.9919569836621296
0.06158556922303251 -0.37138815430570593
5 -8.967937005972868 4.874766767351901 -8.752304155350085 4.873673366859835 -8.684630054299232 5.078414515238225 -8.85843801031449 5.2060449043238215 -9.033531335697921 5.080183674397704
0.6810100116250266 -0.17140166137302196
4 5.789761562809215 4.503642765390425 6.069342776040572 4.546472021840687 6.02651351959031 4.826053235072044 5.746932306358953 4.783223978621782
-0.23124082535805096 -0.703081613719199
12 -4.576625339027176 -0.9509073752002976 -4.526732610151336 -1.0645151336664862 -4.45329176969053 -0.9645028837627845 -4.329958200353883 -0.9780983923252714 -4.379850929229724 -0.8644906338590826 -4.306410088768918 -0.7644783839553808 -4.429743658105565 -0.7508828753928939 -4.479636386981405 -0.6372751169267052 -4.553077227442211 -0.737287366830407 -4.676410796778858 -0.72369185826792 -4.626518067903017 -0.8372996167341088 -4.699958908363823 -0.9373118666378106
1.1869650091868011 -0.4183072073264422
12 -7.5808382440816695 -2.0252799362005964 -7.530945515205829 -2.1388876946667854 -7.4575046747450235 -2.0388754447630832 -7.334171105408377 -2.0524709533255705 -7.384063834284218 -1.9388631948593817 -7.3106229938234115 -1.8388509449556798 -7.433956563160058 -1.825255436393193 -7.483849292035899 -1.7116476779270042 -7.557290132496704 -1.811659927830706 -7.680623701833351 -1.7980644192682191 -7.63073097295751 -1.9116721777344077 -7.704171813418316 -2.0116844276381096
0.0375256314170172 0.010509262446534273
12 -9.465431265675852 -3.107367965561873 -9.415474599571537 -3.2209476234682604 -9.342090063523617 -3.120894052580353 -9.218748861371381 -3.1344201395988325 -9.268705527475698 -3.0208404816924452 -9.195320991427776 -2.9207869108045377 -9.318662193580012 -2.907260823786058 -9.368618859684327 -2.7936811658796707 -9.442003395732247 -2.8937347367675783 -9.565344597884483 -2.8802086497490986 -9.515387931780166 -2.993788307655486 -9.588772467828088 -3.0938418785433934
-1.0945119072332525 0.27152332792588413
20 -9.941871487876135 1.4566735096731336 -9.807376247598329 1.5257254698173466 -9.794648459572672 1.6002391539717329 -9.74739469147491 1.6075052179872162 -9.712868711402802 1.5402575978483128 -9.56384134309403 1.5148020217969993 -9.632893303238243 1.6492972620748059 -9.707406987392629 1.6620250501004625 -9.714673051408111 1.709278818198226 -9.647425431269209 1.7438047982703322 -9.621969855217895 1.8928321665791052 -9.7564650954957 1.8237802064348922 -9.769192883521358 1.749266522280506 -9.81644665161912 1.7420004582650226 -9.850972631691228 1.809248078403926 -10.0 1.8347036544552395 -9.930948039855787 1.700208414177433 -9.856434355701401 1.6874806261517763 -9.849168291685919 1.640226858054013 -9.91641591182482 1.6057008779819066
0.030330631978222493 0.11272425953722569
6 -9.04675959890779 -5.281392204380734 -8.872328798024697 -5.300520980088106 -8.768547391877272 -5.1590238631745695 -8.839196786612938 -4.99839797055366 -9.01362758749603 -4.979269194846288 -9.117408993643457 -5.120766311759824
-0.3174381192542813 -0.3628594461248961
4 -1.810881546195599 5.567583248821586 -1.5313244840771443 5.610569863246294 -1.574311098501852 5.890126925364749 -1.8538681606203067 5.847140310940041
-0.7930669176606904 1.41804982512573
4 0.3654328820312962 -0.4302062622926357 0.08722067500077801 -0.5525746034987998 0.6105130776500556 -0.6099609306209179 0.398564893443055 -0.12808325275818933
0.3087244068719789 -1.1220798509874779
4 -1.2918005869208198 -2.476715587788016 -1.570012793951338 -2.59908392899418 -1.0467203913020604 -2.6564702561162985 -1.258668575509061 -2.1745925782535696
0.7183719632737879 0.3181329046245617
6 -0.32568667896741943 5.935790276228674 -0.15125587808432692 5.916661500521301 -0.04747447193690124 6.058158617434838 -0.11812386667256804 6.218784510055747 -0.29255466755566045 6.23791328576312 -0.3963360737030862 6.096416168849584
1.017726916702668 0.34980754288461263
20 -9.567185794999373 4.119006978495356 -9.432690554721567 4.188058938639569 -9.41996276669591 4.2625726227939555 -9.372708998598148 4.269838686809439 -9.33818301852604 4.202591066670535 -9.189155650217268 4.1771354906192215 -9.258207610361481 4.311630730897028 -9.332721294515867 4.3243585189226845 -9.33998735853135 4.371612287020448 -9.272739738392447 4.406138267092555 -9.247284162341133 4.555165635401328 -9.381779402618939 4.486113675257115 -9.394507190644596 4.411599991102728 -9.441760958742359 4.404333927087245 -9.476286938814466 4.471581547226148 -9.625314307123238 4.497037123277462 -9.556262346979025 4.362541882999655 -9.48174866282464 4.349814094973999 -9.474482598809157 4.302560326876235 -9.541730218948059 4.268034346804129
0.31558263253991364 -0.4086197580164845
5 1.7501646961646662 5.824907081903745 1.9657981280602537 5.823935052442165 2.033356978024849 6.0287142593548895 1.8594772116482365 6.15624679887778 1.6844547561070031 6.030287036061791
0.5387174283642401 -0.04235661347431033
12 2.2574436094467654 4.586509800911236 2.3074002755510805 4.472930143004849 2.3807848115990002 4.572983713892756 2.5041260137512356 4.559457626874277 2.4541693476469204 4.673037284780664 2.52755388369484 4.773090855668572 2.404212681542605 4.7866169426870515 2.3542560154382897 4.900196600593439 2.28087147939037 4.800143029705532 2.1575302772381346 4.813669116724011 2.2074869433424498 4.700089458817624 2.13410240729453 4.600035887929716
0.8082747557045756 -0.08571422879973335
20 8.527750155920947 -6.863681327557891 8.662245396198752 -6.794629367413678 8.67497318422441 -6.720115683259291 8.722226952322172 -6.712849619243808 8.75675293239428 -6.7800972393827115 8.905780300703052 -6.805552815434025 8.836728340558839 -6.671057575156218 8.762214656404453 -6.658329787130562 8.75494859238897 -6.611076019032798 8.822196212527873 -6.576550038960692 8.847651788579187 -6.427522670651919 8.71315654830138 -6.496574630796132 8.700428760275724 -6.571088314950519 8.653174992177961 -6.578354378966002 8.618649012105854 -6.511106758827098 8.469621643797081 -6.485651182775785 8.538673603941294 -6.620146423053591 8.61318728809568 -6.632874211079248 8.620453352111163 -6.680127979177011 8.55320573197226 -6.714653959249118
-0.1806631216112909 0.7976366878194868
3 0.3638328384028625 -9.283863495885353 0.7535952684415886 -9.102652750423093 0.40178094441319423 -8.855713957299931
0.005327573467141449 -0.0012819751998900176
4 8.874046408116524 -6.6491105108915605 8.598442750784393 -6.777245857831793 9.122816702355562 -6.823722606046971 8.900879771209615 -6.346363068795918
-0.6313686833761912 -1.6009220310558883
4 -7.776128464571679 4.18143494861291 -8.05173212190381 4.053299601672678 -7.52735817033264 4.0068228534575 -7.749295101478587 4.484182390708553
-0.5072177987620206 0.7563407872770764
6 -3.005293967078693 5.269774940989219 -2.8305026498883032 5.25428269158416 -2.729690309746563 5.397910287929451 -2.803669286795212 5.5570301336798025 -2.9784606039856016 5.572522383084862 -3.0792729441273425 5.42889478673957
-0.03244400775378963 -0.006489783233992966
6 -6.957197935368578 5.045240871635686 -6.782406618178188 5.029748622230627 -6.681594278036448 5.1733762185759185 -6.755573255085096 5.3324960643262695 -6.9303645722754865 5.347988313731329 -7.0311769124172265 5.204360717386037
0.44043932926909213 -0.3365963732160297
5 -2.1987895934159525 5.089611698786844 -1.9831826792101444 5.093130269376222 -1.919902838102881 5.299271928197972 -2.0964006597017075 5.423155909257719 -2.268762153497361 5.293578761392542
0.6803715078178019 0.060184816107586955
4 0.6245275840635665 -6.691024745489857 0.9031288641754504 -6.642225906159196 0.8543300248447898 -6.363624626047313 0.5757287447329059 -6.412423465377974
0.10809887209780328 -0.06645595002833758
20 -2.1575521908964967 -5.544127658151242 -2.0245240658780994 -5.472289918687696 -2.0133507241579984 -5.397527346841273 -1.9662585127061245 -5.389278837504048 -1.9303396429743511 -5.455792900013248 -1.7808144992815051 -5.478139583453449 -1.8526522387450517 -5.345111458435051 -1.9274148105914748 -5.33393811671495 -1.935663319928699 -5.2868459052630765 -1.8691492574195 -5.250927035531303 -1.8468025739792988 -5.101401891838457 -1.9798306989976966 -5.173239631302004 -1.9910040407177971 -5.248002203148427 -2.0380962521696713 -5.2562507124856515 -2.0740151219014447 -5.189736649976452 -2.223540265594291 -5.167389966536251 -2.151702526130744 -5.300418091554649 -2.0769399542843208 -5.311591433274749 -2.068691444947097 -5.358683644726623 -2.1352055074562957 -5.394602514458397
0.8781265179258203 0.12295152949144662
12 6.804890361459046 -2.4231475493289145 6.85720139779539 -2.535662271280345 6.9284864871369 -2.4341022239390653 7.052082612814753 -2.445056898549216 6.999771576478409 -2.3325421765977854 7.071056665819919 -2.2309821292565055 6.947460540142066 -2.2200274546463548 6.895149503805722 -2.107512732694924 6.823864414464212 -2.209072780036204 6.700268288786359 -2.1981181054260532 6.752579325122703 -2.310632827377484 6.681294235781193 -2.4121928747187638
-0.2967849756386955 -0.05220405553960913
3 -1.399152548428018 -3.7833738397759245 -1.009390118389292 -3.602163094313666 -1.3612044424176866 -3.3552243011905034
0.6754636562984833 0.008576339802668979
20 9.623262308385007 3.8108443214087733 9.756290433403406 3.88268206087232 9.767463775123506 3.9574446327187434 9.81455598657538 3.9656931420559673 9.850474856307153 3.8991790795467685 10.0 3.8768323961065674 9.928162260536453 4.009860521124965 9.853399688690029 4.021033862845066 9.845151179352806 4.06812607429694 9.911665241862003 4.104044944028713 9.934011925302206 4.253570087721559 9.800983800283808 4.181732348258012 9.789810458563707 4.10696977641159 9.742718247111833 4.098721267074365 9.70679937738006 4.165235329583564 9.557274233687213 4.187582013023765 9.62911197315076 4.054553888005367 9.703874544997184 4.043380546285267 9.712123054334407 3.996288334833393 9.64560899182521 3.9603694651016195
0.010791342161126677 -0.06537630181370188
12 2.421791787589481 -1.266689704945827 2.4741661350143263 -1.379174970248495 2.545394058605446 -1.2775748222206127 2.668996329621412 -1.2884599394953986 2.6166219821965666 -1.1759746741927304 2.6878499057876866 -1.0743745261648483 2.564247634771721 -1.0634894088900624 2.5118732873468756 -0.9510041435873945 2.4406453637557557 -1.0526042916152767 2.31704309273979 -1.0417191743404908 2.3694174401646353 -1.154204439643159 2.2981895165735153 -1.255804587671041
-0.299615172662261 -0.8316454210537201
3 6.210592848948175 -9.24499790573214 6.600253238162346 -9.063567844225947 6.248300001280724 -8.81682707907104
0.7278951963715008 -0.5095682827225663
20 3.4572243930792137 -9.747558246484711 3.590212069251152 -9.675645654795005 3.601343335426851 -9.600876806819317 3.6484308974474033 -9.5926017969296 3.6843871932922565 -9.659095635015568 3.8339248892436313 -9.681358167366966 3.7620122975539245 -9.548370491195028 3.6872434495782374 -9.537239225019329 3.678968439688519 -9.490151662998777 3.745462277774488 -9.454195367153924 3.767724810125886 -9.304657671202548 3.6347371339539474 -9.376570262892255 3.6236058677782483 -9.451339110867943 3.576518305757696 -9.45961412075766 3.540562009912843 -9.393120282671692 3.391024313961468 -9.370857750320294 3.462936905651175 -9.503845426492232 3.537705753626862 -9.514976692667931 3.5459807635165803 -9.562064254688483 3.4794869254306113 -9.598020550533336
-0.2868606553512214 0.007267976418539123
12 7.156242478070734 3.7919202868277506 7.20861682549558 3.679435021525083 7.2798447490867 3.7810351695529647 7.403447020102665 3.7701500522781792 7.3510726726778195 3.882635317580847 7.42230059626894 3.9842354656087293 7.298698325252975 3.9951205828835152 7.246323977828129 4.107605848186183 7.175096054237009 4.006005700158301 7.051493783221043 4.016890817433087 7.103868130645889 3.904405552130419 7.032640207054769 3.8028054041025365
0.01627346263482063 -3.2944702766442155E-4
4 -4.348621257864103 -0.2598789686341174 -4.624152761437233 -0.38816939543623874 -4.099752737404553 -0.43435103687030996 -4.321958274750523 0.042883526404196515
0.36773667168022434 -0.4720174019916462
5 3.3305422502643807 1.190400948075723 3.5461471501991793 1.194040854180099 3.6093109719302725 1.400218092052435 3.432743460684629 1.5240027266597345 3.2604549156947487 1.3943286002596962
0.1788556307541961 0.17084519622176148
12 -8.177761922838382 -2.443866072619142 -8.125387575413535 -2.55635133792181 -8.054159651822417 -2.454751189893928 -7.930557380806451 -2.4656363071687135 -7.982931728231296 -2.3531510418660457 -7.911703804640176 -2.2515508938381634 -8.035306075656141 -2.2406657765633775 -8.087680423080988 -2.1281805112607097 -8.158908346672106 -2.2297806592885916 -8.282510617688072 -2.218895542013806 -8.230136270263227 -2.331380807316474 -8.301364193854347 -2.432980955344356
-0.11780705253318198 0.48087588774216933
5 6.0146281479662616 2.7915183052269246 6.230233047901059 2.7951582113313007 6.2933968696321525 3.0013354492036366 6.116829358386509 3.125120083810936 5.944540813396629 2.9954459574108974
-0.29033774818117 1.3383607416380323
3 1.9189115066737379 -7.879896241182972 2.308571895887909 -7.698466179676779 1.9566186590062873 -7.451725414521871
0.0806117548995378 0.3101056745524094
6 3.444111755168812 4.035976825240086 3.6189117631797054 4.020582944762062 3.7196432587419417 4.164267252042207 3.6455747462932853 4.3233454398003754 3.4707747382823917 4.3387393202784 3.3700432427201554 4.195055012998255
-0.36524257775240543 0.056434803865853055
4 2.990763940663614 1.3373662249456846 2.715232437090484 1.2090757981435631 3.239632461123164 1.162894156709492 3.017426923777194 1.6401287199839985
-0.2442181326418477 -1.283989167718935
12 -5.06814515407282 3.969623613483329 -5.015770806647974 3.857138348180661 -4.944542883056854 3.958738496208543 -4.820940612040888 3.9478533789337575 -4.873314959465734 4.060338644236426 -4.802087035874614 4.161938792264308 -4.925689306890579 4.172823909539093 -4.978063654315425 4.285309174841761 -5.049291577906545 4.1837090268138795 -5.17289384892251 4.194594144088665 -5.1205195014976645 4.082108878785997 -5.191747425088785 3.980508730758115
-0.018555740554292103 0.566056060892712
12 -8.85769520849173 -7.661078036029506 -8.805320861066884 -7.7735633013321745 -8.734092937475765 -7.671963153304293 -8.6104906664598 -7.682848270579078 -8.662865013884645 -7.57036300527641 -8.591637090293524 -7.468762857248528 -8.71523936130949 -7.457877739973743 -8.767613708734336 -7.345392474671074 -8.838841632325455 -7.446992622698956 -8.96244390334142 -7.436107505424171 -8.910069555916575 -7.548592770726839 -8.981297479507695 -7.650192918754721
0.4347972955250091 1.177162071146118
4 5.854423465428955 2.020438320500231 5.578891961855825 1.8921478936981098 6.103291985888505 1.8459662522640385 5.8810864485425345 2.323200815538545
-0.23824817823534117 0.18339504706221504
5 2.282853692950519 0.7221778991337648 2.4984585928853176 0.725817805238141 2.561622414616411 0.9319950431104769 2.3850549033707673 1.0557796777177764 2.212766358380887 0.9261055513177381
0.021109420874807504 -0.1790707838555249
5 -2.4066912452723686 -10.0 -2.19108634533757 -9.996360093895625 -2.1279225236064767 -9.790182856023288 -2.3044900348521202 -9.666398221415989 -2.4767785798420006 -9.796072347816027
0.44893892354017967 0.09252683429479107
12 -6.19584165504992 -2.4854532565974643 -6.143467307625074 -2.597938521900132 -6.072239384033954 -2.49633837387225 -5.9486371130179885 -2.5072234911470357 -6.001011460442834 -2.394738225844368 -5.929783536851714 -2.2931380778164856 -6.053385807867679 -2.2822529605416997 -6.105760155292525 -2.169767695239032 -6.176988078883645 -2.2713678432669138 -6.30059034989961 -2.2604827259921283 -6.248216002474765 -2.372967991294796 -6.319443926065885 -2.4745681393226784
0.6579598487430849 -0.7976015810506969
5 9.022744436303485 7.3074485202280375 9.238355175119644 7.310724355922002 9.301867052700517 7.516794642956536 9.125508812918662 7.6408772487213605 8.953001548956498 7.511494229462142
-0.044809950621738884 0.11422337786187357
3 -9.824036797666185 0.6708411418874929 -9.43407060555417 0.8516129736266633 -9.785606700184946 1.0989476867431662
-0.17708242848311548 0.3120520183168942
4 -1.7884341007018183 4.310191973652899 -1.5097780588698102 4.358677129634066 -1.558263214850977 4.637333171466074 -1.836919256682985 4.588848015484907
0.983469414207258 -0.4937672242672171
6 5.263260156367907 2.555031358092211 5.438033921441627 2.5393423364931356 5.5390078952438095 2.682856346162492 5.465208103972272 2.8420593774309246 5.290434338898552 2.857748399030001 5.1894603650963695 2.714234389360644
-0.5068435300542546 -0.11434350466275943
20 -3.238208670907045 1.5050737111384034 -3.1050997544646988 1.5767616405316247 -3.0938422512892836 1.6515115859265292 -3.046740783417258 1.6597070731002612 -3.010896818720647 1.5931526148790882 -2.861396927930838 1.5706376085282576 -2.933084857324059 1.7037465249706034 -3.0078348027189636 1.7150040281460188 -3.0160302898926954 1.7621054960180447 -2.949475831671523 1.7979494607146553 -2.926960825320692 1.9474493515044646 -3.060069741763038 1.8757614221112433 -3.071327244938453 1.8010114767163388 -3.118428712810479 1.7928159895426068 -3.1542726775070897 1.8593704477637798 -3.303772568296899 1.8818854541146104 -3.232084638903678 1.7487765376722646 -3.157334693508773 1.7375190344968492 -3.1491392063350414 1.6904175666248233 -3.215693664556214 1.6545736019282127
0.4346925254980176 0.27140961177362255
5 -5.726744973301002 -2.6271416213033194 -5.511134234484844 -2.6238657856093552 -5.44762235690397 -2.4177954985748213 -5.623980596685826 -2.293712892809997 -5.796487860647989 -2.4230959120692157
-0.1986649967832406 -0.30202184940535554
4 -6.987331454149346 -0.5359910664569227 -7.263079193025248 -0.6638160545272037 -6.7387578978040885 -0.7108831193244313 -6.960157271618701 -0.23327402551913323
-0.5615551940077368 -0.6433011071290392
4 7.543839146953512 2.925956518699466 7.82249518878552 2.9744416746806324 7.774010032804353 3.2530977165126407 7.495353990972345 3.204612560531474
-0.6832019880396278 -0.4259860047110162
6 9.008592205670253 4.791234250812934 9.183365970743973 4.775545229213858 9.284339944546154 4.919059238883215 9.210540153274616 5.078262270151647 9.035766388200898 5.093951291750724 8.934792414398714 4.950437282081367
-0.4665747847311738 -0.11395424911362524
4 7.591355758355977 6.176456486926671 7.315608019480075 6.04863149885639 7.8399293147012346 6.001564434059163 7.6185299408866225 6.479173527864461
-0.045239595139198285 0.49786264457801715
5 -2.1796740360090894 7.652822595411111 -1.9640632971929322 7.656098431105075 -1.9005514196120583 7.86216871813961 -2.0769096593939134 7.986251323904434 -2.2494169233560775 7.856868304645215
-0.40975019700937426 0.36484021157701146
12 -5.133374695879538 1.1910108631346636 -5.081190363021283 1.078437320139301 -5.009790981422406 1.1799170495717748 -4.8862072669652745 1.168823236008886 -4.938391599823531 1.2813967790042486 -4.866992218224654 1.3828765084367227 -4.990575932681787 1.3939703219996114 -5.042760265540042 1.506543864994974 -5.114159647138918 1.4050641355625002 -5.23774336159605 1.416157949125389 -5.185559028737794 1.3035844061300264 -5.25695841033667 1.2021046766975523
0.18976255248153767 -0.14951500012211394
6 -4.364244065834623 -2.4770331107820174 -4.189470300760903 -2.492722132381093 -4.088496326958721 -2.3492081227117363 -4.162296118230258 -2.190005091443304 -4.337069883303978 -2.1743160698442274 -4.438043857106161 -2.3178300795135844
0.18994686190177165 0.017599226443416258
3 -7.142891154939281 -2.4989079017181233 -6.752924962827265 -2.3181360699789533 -7.10446105745804 -2.07080135686245
0.3800428850009294 -0.025890874650490378
12 -9.876416285542868 -4.67680533168896 -9.824231952684611 -4.789378874684322 -9.752832571085737 -4.687899145251849 -9.629248856628605 -4.698992958814737 -9.68143318948686 -4.586419415819375 -9.610033807887984 -4.484939686386901 -9.733617522345115 -4.473845872824012 -9.785801855203372 -4.361272329828649 -9.857201236802247 -4.462752059261123 -9.980784951259379 -4.451658245698234 -9.928600618401124 -4.564231788693597 -10.0 -4.665711518126071
-0.44450755609007436 0.6417988462964945
6 4.434699760368029 -6.916774222189396 4.609482329920982 -6.932364851979347 4.710375496156555 -6.788794021502746 4.636486092839175 -6.629632561236193 4.461703523286222 -6.614041931446241 4.360810357050649 -6.757612761922842
0.17808113620155483 0.4342838568256118
3 -5.749805176723556 8.536034836197324 -5.359940812354242 8.717026171723614 -5.7116160889695395 8.964162947534568
0.003743838513156908 -5.392518835511787E-4
5 1.1609462832628408 8.456463700915535 1.376555143774003 8.459860914688809 1.4399510035134493 8.66596692323839 1.2635229390672862 8.789950228034332 1.091088538930754 8.660470115886183
-0.5440170408679803 0.36378760690279
12 2.6597816337857525 -7.658103340407802 2.7120293319292994 -7.770647488265835 2.7833715739498546 -7.669127580455246 2.9069615141139566 -7.68015182050269 2.8547138159704097 -7.567607672644657 2.926056057990965 -7.466087764834067 2.802466117826863 -7.455063524786624 2.750218419683316 -7.342519376928591 2.6788761776627608 -7.44403928473918 2.5552862374986587 -7.433015044691736 2.6075339356422056 -7.545559192549769 2.5361916936216504 -7.647079100360359
0.3628772538952438 0.15528884769220944
4 -6.576538526672502 -5.434818039293583 -6.852214262461028 -5.562798239980234 -6.32786655380217 -5.609570129350089 -6.549534763754309 -5.132085748550429
