areaTotal:400.0
tiempoTotalSimulado:1.0
areaOcupadaInicial:20.000000000000068
eventosSimples:854
eventosMultiples:0
0.0
[(0,43), (0,47), (0,56), (0,75), (0,101), (0,155), (0,165), (0,181), (1,19), (1,30), (1,32), (1,37), (1,110), (1,120), (1,129), (1,169), (1,176), (2,14), (2,134), (2,147), (2,175), (3,58), (3,66), (3,80), (3,133), (4,11), (4,12), (4,58), (4,89), (4,127), (4,128), (4,133), (4,151), (5,23), (5,40), (5,49), (5,71), (5,82), (5,98), (5,154), (5,163), (6,25), (6,88), (6,147), (6,149), (6,156), (6,167), (6,190), (7,68), (7,76), (7,91), (7,100), (7,116), (7,131), (7,145), (7,188), (7,191), (8,16), (8,26), (8,28), (9,20), (9,59), (9,68), (9,83), (9,91), (9,182), (10,22), (10,52), (10,55), (10,74), (10,124), (10,143), (10,157), (10,172), (10,198), (10,199), (11,12), (11,58), (11,89), (11,127), (11,128), (11,133), (11,151), (11,189), (12,58), (12,89), (12,127), (12,128), (12,133), (12,151), (12,189), (13,21), (13,102), (13,108), (13,125), (13,137), (13,140), (13,159), (13,170), (13,196), (14,134), (14,147), (14,175), (15,19), (15,30), (15,32), (15,48), (15,60), (15,64), (15,66), (15,70), (15,107), (15,110), (15,120), (16,26), (16,90), (16,192), (17,40), (17,45), (17,54), (17,71), (17,93), (17,108), (17,126), (17,154), (17,159), (17,170), (17,196), (18,33), (18,77), (18,88), (18,104), (18,141), (18,149), (18,167), (18,190), (19,30), (19,32), (19,64), (19,70), (19,107), (19,110), (19,120), (19,129), (19,169), (19,176), (20,28), (20,182), (20,184), (21,102), (21,125), (21,137), (21,140), (21,193), (22,52), (22,55), (22,74), (22,124), (22,143), (22,157), (22,172), (22,198), (22,199), (23,40), (23,49), (23,71), (23,82), (23,98), (23,154), (23,163), (24,27), (24,44), (24,67), (24,81), (24,84), (24,87), (24,146), (24,148), (24,161), (24,177), (24,178), (25,88), (25,147), (25,149), (25,156), (25,167), (25,190), (27,44), (27,67), (27,81), (27,87), (27,105), (27,146), (27,148), (27,161), (27,177), (27,178), (28,184), (29,38), (29,39), (29,78), (29,117), (29,180), (30,32), (30,64), (30,70), (30,110), (30,120), (30,129), (30,169), (30,176), (31,97), (31,99), (31,113), (31,121), (31,138), (31,171), (31,183), (31,186), (32,70), (32,110), (32,120), (32,129), (32,169), (32,176), (33,35), (33,77), (33,104), (33,141), (33,190), (34,53), (34,57), (34,79), (34,90), (34,109), (34,173), (34,192), (35,77), (35,84), (36,57), (36,97), (36,113), (36,119), (36,138), (36,171), (36,183), (37,118), (37,129), (37,169), (37,193), (38,39), (38,61), (38,78), (38,96), (38,117), (38,180), (39,61), (39,78), (39,96), (39,180), (40,45), (40,49), (40,71), (40,82), (40,93), (40,126), (40,154), (40,163), (41,115), (41,122), (41,136), (41,166), (41,168), (41,185), (42,46), (42,50), (42,65), (42,72), (42,105), (42,142), (42,179), (43,99), (43,121), (43,152), (43,165), (43,181), (43,186), (44,67), (44,81), (44,87), (44,105), (44,146), (44,148), (44,161), (44,177), (44,178), (44,179), (45,54), (45,71), (45,93), (45,102), (45,108), (45,126), (45,154), (45,159), (45,170), (45,196), (46,50), (46,72), (46,105), (46,142), (46,177), (46,179), (47,56), (47,75), (47,101), (47,103), (47,111), (47,153), (47,155), (47,165), (47,181), (48,60), (48,64), (48,66), (48,70), (48,80), (48,107), (48,110), (49,71), (49,82), (49,98), (49,163), (50,65), (50,72), (50,142), (50,164), (50,179), (50,197), (51,69), (51,85), (51,86), (51,106), (51,135), (51,144), (51,150), (52,55), (52,74), (52,124), (52,143), (52,157), (52,172), (52,198), (52,199), (53,57), (53,79), (53,90), (53,109), (53,119), (53,173), (53,192), (54,71), (54,93), (54,108), (54,126), (54,154), (54,159), (54,170), (54,196), (55,74), (55,124), (55,143), (55,157), (55,172), (55,198), (55,199), (56,75), (56,101), (56,103), (56,111), (56,153), (56,155), (56,165), (56,181), (57,79), (57,109), (57,113), (57,119), (57,173), (58,80), (58,89), (58,127), (58,128), (58,133), (58,151), (59,68), (59,83), (59,91), (59,131), (60,64), (60,66), (60,70), (60,80), (60,107), (60,110), (61,62), (61,76), (61,78), (61,96), (61,100), (61,116), (61,180), (61,188), (61,191), (62,76), (62,78), (62,96), (62,100), (62,116), (62,145), (62,188), (62,191), (63,114), (63,122), (63,132), (63,136), (63,139), (63,168), (63,174), (63,195), (64,66), (64,70), (64,80), (64,107), (64,110), (65,72), (65,94), (65,112), (65,142), (65,150), (65,160), (65,162), (65,164), (65,187), (65,197), (66,70), (66,80), (66,107), (66,110), (67,81), (67,84), (67,87), (67,105), (67,146), (67,148), (67,161), (67,177), (67,178), (68,83), (68,91), (68,131), (68,145), (69,73), (69,85), (69,86), (69,135), (69,144), (69,150), (70,107), (70,110), (70,120), (70,176), (71,82), (71,93), (71,126), (71,154), (72,105), (72,142), (72,177), (72,179), (73,95), (73,123), (73,130), (73,135), (73,144), (73,158), (74,124), (74,143), (74,157), (74,172), (74,198), (74,199), (75,101), (75,103), (75,111), (75,153), (75,155), (75,165), (75,181), (76,96), (76,100), (76,116), (76,145), (76,188), (76,191), (77,88), (77,104), (77,141), (77,149), (77,167), (77,190), (78,96), (78,116), (78,180), (79,90), (79,109), (79,119), (79,173), (79,192), (80,107), (80,133), (81,84), (81,87), (81,105), (81,146), (81,148), (81,161), (81,177), (81,178), (82,93), (82,126), (82,154), (82,163), (83,91), (83,131), (84,87), (84,146), (84,148), (84,161), (84,178), (85,86), (85,94), (85,106), (85,135), (85,144), (85,150), (85,160), (85,162), (85,187), (86,94), (86,106), (86,112), (86,135), (86,144), (86,150), (86,160), (86,162), (86,187), (87,146), (87,148), (87,161), (87,177), (87,178), (88,104), (88,141), (88,149), (88,156), (88,167), (88,190), (89,127), (89,128), (89,133), (89,151), (90,109), (90,173), (90,192), (91,131), (92,128), (92,143), (92,151), (92,189), (92,199), (93,126), (93,154), (93,159), (93,196), (94,106), (94,112), (94,150), (94,160), (94,162), (94,164), (94,187), (94,197), (95,130), (95,135), (95,144), (96,100), (96,116), (96,180), (97,99), (97,113), (97,138), (97,171), (97,183), (97,186), (98,103), (98,163), (99,113), (99,121), (99,138), (99,152), (99,171), (99,183), (99,186), (100,116), (100,145), (100,188), (100,191), (101,103), (101,111), (101,155), (101,165), (101,181), (102,108), (102,125), (102,137), (102,140), (102,159), (102,170), (102,196), (103,111), (103,153), (103,155), (103,165), (103,181), (104,141), (104,149), (104,167), (104,190), (105,142), (105,148), (105,161), (105,177), (105,179), (106,112), (106,150), (106,160), (106,162), (106,164), (106,187), (106,197), (107,110), (108,125), (108,140), (108,159), (108,170), (108,196), (109,119), (109,173), (109,192), (110,120), (110,129), (110,169), (110,176), (111,153), (111,155), (111,165), (111,181), (112,150), (112,160), (112,162), (112,164), (112,187), (112,197), (113,119), (113,138), (113,171), (113,183), (114,122), (114,123), (114,132), (114,139), (114,158), (114,174), (114,195), (115,117), (115,136), (115,166), (115,185), (115,194), (116,145), (116,188), (116,191), (117,166), (117,194), (118,129), (118,169), (118,193), (119,173), (120,129), (120,169), (120,176), (121,152), (121,186), (122,132), (122,136), (122,139), (122,166), (122,168), (122,174), (122,185), (122,195), (123,130), (123,139), (123,158), (124,143), (124,157), (124,172), (124,198), (124,199), (125,137), (125,140), (125,159), (125,170), (125,196), (126,154), (126,159), (126,196), (127,128), (127,133), (127,151), (128,133), (128,151), (128,189), (129,169), (129,176), (129,193), (130,135), (130,158), (131,145), (132,139), (132,174), (132,195), (134,175), (135,144), (135,150), (136,166), (136,168), (136,185), (136,195), (137,140), (137,193), (138,171), (138,183), (138,186), (139,158), (139,174), (139,195), (140,159), (140,170), (140,196), (141,149), (141,167), (141,190), (142,179), (143,157), (143,172), (143,189), (143,198), (143,199), (145,188), (145,191), (146,148), (146,161), (146,178), (147,156), (148,161), (148,177), (148,178), (149,167), (149,190), (150,160), (150,162), (150,164), (150,187), (150,197), (151,189), (152,165), (152,186), (153,155), (155,165), (155,181), (156,167), (156,190), (157,172), (157,198), (157,199), (159,170), (159,196), (160,162), (160,164), (160,187), (160,197), (161,177), (161,178), (162,164), (162,187), (162,197), (164,187), (164,197), (165,181), (166,185), (166,194), (167,190), (168,185), (168,195), (169,176), (170,196), (171,183), (172,198), (172,199), (173,192), (174,195), (177,178), (177,179), (182,184), (185,194), (187,197), (188,191), (189,199), (198,199)]
[(0,3), (0,21), (0,57), (0,91), (0,150), (0,153), (0,177), (0,186), (1,16), (1,26), (1,72), (1,74), (1,78), (1,101), (1,104), (1,162), (1,184), (2,19), (2,23), (2,59), (2,69), (2,82), (2,133), (2,176), (2,196), (3,5), (3,57), (3,61), (3,91), (3,153), (3,186), (4,6), (4,28), (4,29), (4,37), (4,81), (4,83), (4,94), (4,107), (4,110), (4,116), (4,141), (4,165), (4,172), (4,195), (5,14), (5,43), (5,55), (5,57), (5,61), (5,91), (5,135), (5,153), (5,186), (6,28), (6,29), (6,41), (6,54), (6,81), (6,94), (6,107), (6,110), (6,126), (6,165), (6,172), (6,195), (7,11), (7,37), (7,39), (7,83), (7,107), (7,116), (7,131), (7,139), (7,141), (7,162), (8,26), (8,63), (8,74), (8,95), (8,112), (8,127), (8,148), (9,17), (9,31), (9,33), (9,35), (9,58), (9,105), (9,154), (9,168), (9,175), (9,188), (9,192), (10,46), (10,73), (10,75), (10,102), (10,105), (10,156), (10,188), (11,37), (11,39), (11,83), (11,104), (11,116), (11,131), (11,139), (11,141), (11,162), (12,24), (12,49), (12,149), (12,160), (13,20), (13,77), (13,134), (13,170), (13,189), (14,43), (14,55), (14,57), (14,61), (14,89), (14,129), (14,135), (14,140), (15,32), (15,34), (15,60), (15,66), (15,70), (15,93), (15,114), (15,122), (15,136), (15,198), (15,199), (16,26), (16,39), (16,72), (16,74), (16,78), (16,101), (16,104), (16,162), (16,184), (17,31), (17,35), (17,58), (17,105), (17,154), (17,175), (17,188), (17,192), (18,109), (18,117), (18,149), (18,163), (18,169), (18,179), (18,185), (19,23), (19,59), (19,69), (19,82), (19,133), (19,176), (19,196), (20,123), (20,134), (20,155), (20,170), (20,189), (21,25), (21,125), (21,150), (21,177), (22,46), (22,73), (22,77), (22,92), (22,100), (22,102), (22,134), (22,156), (22,164), (22,187), (22,189), (23,59), (23,69), (23,82), (23,133), (23,176), (23,196), (24,36), (24,49), (24,160), (25,68), (25,125), (25,150), (25,177), (25,197), (26,63), (26,72), (26,74), (26,78), (26,95), (26,127), (27,68), (27,71), (27,99), (27,124), (27,197), (28,29), (28,41), (28,54), (28,81), (28,94), (28,107), (28,110), (28,126), (28,165), (28,172), (28,195), (29,37), (29,81), (29,83), (29,107), (29,110), (29,116), (29,141), (29,165), (29,172), (30,42), (30,80), (30,86), (30,145), (30,158), (30,180), (30,191), (31,33), (31,35), (31,58), (31,105), (31,154), (31,168), (31,175), (31,192), (32,34), (32,48), (32,60), (32,66), (32,70), (32,93), (32,114), (32,122), (32,136), (32,198), (32,199), (33,48), (33,58), (33,154), (33,168), (33,175), (34,48), (34,60), (34,66), (34,93), (34,114), (34,122), (34,136), (34,199), (35,58), (35,105), (35,154), (35,175), (35,188), (35,192), (36,38), (36,88), (36,161), (36,178), (37,83), (37,107), (37,110), (37,116), (37,131), (37,139), (37,141), (38,84), (38,88), (38,152), (38,161), (38,178), (39,72), (39,78), (39,101), (39,104), (39,131), (39,139), (39,162), (39,184), (40,53), (40,117), (40,121), (40,142), (40,143), (40,159), (40,183), (41,54), (41,56), (41,81), (41,94), (41,110), (41,126), (41,165), (41,172), (41,195), (42,76), (42,80), (42,86), (42,87), (42,106), (42,119), (42,158), (42,167), (42,191), (42,193), (43,44), (43,55), (43,57), (43,61), (43,89), (43,96), (43,129), (43,135), (43,140), (44,55), (44,89), (44,96), (44,129), (44,135), (44,140), (44,144), (45,64), (45,65), (45,85), (45,103), (45,118), (45,128), (45,157), (45,181), (46,73), (46,77), (46,92), (46,100), (46,102), (46,156), (46,164), (46,187), (47,76), (47,79), (47,87), (47,98), (47,106), (47,138), (47,151), (47,167), (47,173), (47,193), (48,66), (48,122), (48,136), (48,168), (48,199), (49,160), (50,62), (50,67), (50,79), (50,113), (50,115), (50,151), (50,173), (51,90), (51,123), (51,155), (51,194), (52,108), (52,111), (52,120), (52,145), (52,146), (52,147), (52,174), (52,180), (52,190), (53,121), (53,142), (53,143), (53,159), (53,183), (54,56), (54,81), (54,94), (54,110), (54,126), (54,165), (54,172), (54,195), (55,57), (55,61), (55,89), (55,96), (55,129), (55,135), (55,140), (56,94), (56,126), (56,166), (57,61), (57,91), (57,150), (57,153), (57,186), (58,105), (58,154), (58,168), (58,175), (58,188), (58,192), (59,69), (59,82), (59,133), (59,176), (59,196), (60,66), (60,70), (60,93), (60,114), (60,122), (60,130), (60,136), (60,198), (60,199), (61,91), (61,135), (61,153), (61,186), (62,67), (62,79), (62,113), (62,115), (62,151), (62,173), (63,74), (63,95), (63,112), (63,127), (63,148), (64,65), (64,85), (64,103), (64,118), (64,128), (64,157), (64,181), (65,108), (65,111), (65,120), (65,128), (65,147), (65,157), (65,190), (66,70), (66,93), (66,114), (66,122), (66,136), (66,198), (66,199), (67,79), (67,113), (67,115), (67,151), (67,173), (68,71), (68,99), (68,124), (68,197), (69,82), (69,96), (69,133), (69,144), (69,196), (70,93), (70,103), (70,114), (70,122), (70,130), (70,136), (70,198), (70,199), (71,97), (71,99), (71,124), (71,137), (71,171), (71,197), (72,74), (72,78), (72,101), (72,104), (72,162), (72,184), (73,77), (73,92), (73,100), (73,102), (73,134), (73,156), (73,164), (73,187), (73,189), (74,78), (74,95), (74,127), (75,102), (75,105), (75,188), (76,87), (76,98), (76,106), (76,119), (76,138), (76,158), (76,167), (76,193), (77,92), (77,100), (77,102), (77,134), (77,164), (77,170), (77,187), (77,189), (78,101), (78,104), (78,139), (78,162), (78,184), (79,98), (79,113), (79,138), (79,151), (79,173), (80,86), (80,119), (80,145), (80,158), (80,180), (80,191), (81,94), (81,107), (81,110), (81,126), (81,165), (81,172), (81,195), (82,133), (82,144), (82,176), (82,196), (83,107), (83,110), (83,116), (83,131), (83,139), (83,141), (83,165), (84,88), (84,90), (84,152), (84,161), (84,178), (84,194), (85,103), (85,118), (85,157), (85,181), (86,119), (86,145), (86,158), (86,180), (86,191), (87,98), (87,106), (87,119), (87,138), (87,151), (87,158), (87,167), (87,193), (88,152), (88,161), (88,178), (89,96), (89,129), (89,135), (89,140), (90,194), (91,150), (91,153), (91,186), (92,100), (92,102), (92,156), (92,164), (92,187), (92,189), (93,114), (93,122), (93,130), (93,136), (93,198), (93,199), (94,110), (94,126), (94,165), (94,172), (94,195), (95,112), (95,127), (95,148), (96,129), (96,135), (96,140), (96,144), (97,99), (97,124), (97,137), (97,166), (97,171), (98,106), (98,138), (98,151), (98,167), (98,173), (98,193), (99,124), (99,137), (99,171), (99,197), (100,102), (100,156), (100,164), (100,187), (101,104), (101,139), (101,162), (101,184), (102,156), (102,164), (102,187), (103,118), (103,130), (103,181), (104,139), (104,162), (104,184), (105,154), (105,175), (105,188), (105,192), (106,119), (106,138), (106,158), (106,167), (106,193), (107,110), (107,116), (107,131), (107,139), (107,141), (107,165), (107,172), (108,111), (108,120), (108,128), (108,146), (108,147), (108,174), (108,190), (109,117), (109,149), (109,163), (109,169), (109,179), (109,183), (109,185), (110,116), (110,126), (110,141), (110,165), (110,172), (110,195), (111,120), (111,128), (111,147), (111,190), (112,127), (112,148), (113,115), (113,151), (113,173), (114,122), (114,130), (114,136), (114,198), (114,199), (116,131), (116,139), (116,141), (117,143), (117,163), (117,169), (117,179), (117,183), (117,185), (118,157), (118,181), (119,138), (119,158), (119,167), (119,191), (119,193), (120,128), (120,146), (120,147), (120,174), (120,190), (121,142), (121,143), (121,159), (122,136), (122,198), (122,199), (123,155), (123,170), (124,137), (124,171), (124,197), (125,150), (125,177), (126,165), (126,172), (126,195), (127,148), (128,147), (128,157), (128,190), (129,135), (129,140), (130,198), (131,139), (131,141), (132,182), (133,144), (133,176), (133,196), (134,164), (134,170), (134,187), (134,189), (135,140), (136,198), (136,199), (137,166), (137,171), (138,151), (138,167), (138,173), (138,193), (139,141), (139,162), (139,184), (140,144), (142,143), (142,159), (142,183), (143,159), (143,183), (145,146), (145,174), (145,180), (145,191), (146,174), (146,180), (146,190), (147,190), (149,169), (149,179), (149,185), (150,177), (150,186), (151,173), (152,161), (152,178), (153,186), (154,168), (154,175), (154,188), (154,192), (155,194), (156,164), (157,181), (158,167), (158,191), (158,193), (161,178), (162,184), (163,169), (163,179), (163,183), (163,185), (164,187), (164,189), (165,172), (165,195), (166,171), (167,193), (168,175), (169,179), (169,185), (170,189), (172,195), (174,180), (174,190), (175,188), (175,192), (176,196), (179,183), (179,185), (180,191), (183,185), (187,189), (188,192), (198,199)]
1.2446106220479622E-4, [(87,151),Y]-
5.950563767454155E-4, [(15,66),X]-
0.0012175367825821288, [(41,110),Y]-
0.0015311624644167893, [(78,100),X]+
0.0017460453364870779, [(156,187),Y]+
0.0032801651858254716, [(12,36),Y]+
0.0033302732975308853, [(5,154),X]-
0.004040793251024901, [(74,184),Y]+
0.004363925175451518, [(103,157),Y]+
0.0052349124763999355, [(131,191),X]+
0.005812418222844835, [(110,169),X]-
0.005852742331617989, [(52,128),Y]+
0.006136992883638164, [(119,191),Y]-
0.006208499857967982, [(81,83),Y]+
0.006369270368127514, [(14,91),Y]+
0.00647189910758306, [(17,168),Y]+
0.006790621204700215, [(98,119),Y]+
0.009277187077144424, [(131,162),Y]+
0.010342689961560991, [(97,121),X]+
0.010704327930602024, [(177,186),Y]+
0.010881286386802087, [(54,110),Y]-
0.010989443384536468, [(70,103),Y]-
0.011284743874237075, [(36,109),X]+
0.011339642092201372, [(33,149),X]+
0.012072593548175418, [(123,132),X]+
0.012122949539653514, [(107,131),Y]-
0.012392055485602101, [(100,189),Y]+
0.012992930669949299, [(121,138),X]+
0.013247969115510365, [(131,188),X]+
0.01400761057726251, [(121,182),Y]+
0.015751320662702854, [(21,125),X]-
0.015812838226401223, [(53,117),Y]+
0.016034405076581288, [(154,159),X]+
0.01662472766180004, [(51,94),X]+
0.01668652444956387, [(156,190),X]-
0.01687964453042658, [(109,192),X]-
0.016891806209911972, [(152,181),X]+
0.016927061637602433, [(58,151),X]-
0.01720976782755008, [(80,119),Y]-
0.01744098664971307, [(61,135),Y]-
0.018262602296720117, [(21,37),X]+
0.01854118698089044, [(92,134),Y]+
0.01884292587825382, [(1,118),X]+
0.018982391345570226, [(63,123),X]+
0.02038500152509809, [(17,108),X]-
0.020402087825356206, [(33,154),Y]-
0.020974909025482134, [(79,115),Y]+
0.021368279929867798, [(86,112),X]-
0.021629087114225714, [(26,184),Y]+
0.02188566108057619, [(17,170),X]-
0.02219477507285002, [(68,145),X]-
0.02230309104014332, [(33,175),Y]-
0.02281821057365158, [(125,137),X]-
0.02317099165241179, [(7,62),X]+
0.023707533774863235, [(47,76),Y]-
0.023976124246387263, [(43,44),Y]-
0.023993556166064463, [(3,14),Y]+
0.024366349472782753, [(86,119),Y]-
0.025285594940872784, [(12,189),X]-
0.025477221431007953, [(63,136),X]-
0.025587484183774902, [(28,182),X]+
0.02589384693421896, [(117,185),X]+
0.02602145578472677, [(107,195),Y]+
0.02616080907505081, [(6,83),Y]+
0.026795017457434823, [(23,154),X]-
0.02694965334734639, [(36,160),Y]+
0.0271398689182076, [(26,184),Y]-
0.0271398689182076, [(74,184),Y]-
0.027364608172670432, [(115,151),Y]+
0.027397394878902692, [(82,163),X]-
0.02808259151849788, [(30,64),X]-
0.028405706241115818, [(66,70),X]-
0.028485461372173625, [(123,130),X]-
0.028630558818267586, [(43,57),Y]-
0.02867291383346701, [(149,179),Y]-
0.028715124431936166, [(37,137),X]+
0.028973603336152905, [(45,125),X]+
0.02909487575144539, [(147,175),X]+
0.02915899165628146, [(38,61),X]-
0.02926044366261833, [(17,82),X]+
0.02934193269218084, [(134,147),X]+
0.02990864542506983, [(90,152),Y]+
0.029923281310268873, [(68,125),Y]+
0.030161387111917702, [(57,183),X]+
0.030175290488318463, [(118,137),X]+
0.031325326827644426, [(79,115),Y]-
0.03141306430548238, [(0,3),Y]-
0.031666200855139735, [(70,136),Y]-
0.031937151586018696, [(0,111),X]+
0.03204150794357565, [(40,45),X]-
0.03228716065707203, [(33,66),Y]+
0.03271054846902605, [(12,149),Y]-
0.03320529162042909, [(1,110),X]-
0.03379372208996184, [(103,163),X]+
0.03394822203078471, [(103,181),X]-
0.03532656060180158, [(93,108),X]+
0.036332589854761656, [(11,83),Y]-
0.03663789969992921, [(102,189),Y]+
0.03699846123226604, [(61,145),X]+
0.03856101028554274, [(154,196),X]+
0.03925792120259564, [(15,66),X]+
0.03960769498368129, [(123,132),X]-
0.04037241000685277, [(136,194),X]+
0.04133204253953927, [(9,33),Y]-
0.041648461551311564, [(43,99),X]-
0.04175742691423686, [(29,117),X]-
0.04221228938151881, [(66,70),Y]-
0.04240701504533143, [(122,166),X]-
0.04306772913675471, [(19,169),X]-
0.043204267854932164, [(42,167),Y]-
0.04338089408974167, [(87,177),X]-
0.04395718259763724, [(158,167),Y]-
0.043962787475498095, [(120,169),X]-
0.04422496423444791, [(36,97),X]-
0.04478108796014669, [(52,65),Y]+
0.04480026798030145, [(76,78),X]+
0.04727344839693449, [(65,106),X]+
0.04745600053472156, [(54,125),X]+
0.04864591133445337, [(144,196),Y]+
0.04942081716544515, [(124,171),Y]-
0.05062535988297269, [(14,153),Y]+
0.050759820024053985, [(120,169),X]+
0.050759820024053985, [(19,169),X]+
0.05113800762453511, [(114,130),Y]-
0.05158132636470878, [(143,179),Y]+
0.05186878556475462, [(10,188),Y]-
0.051896580289388566, [(150,153),Y]+
0.05227734047642718, [(25,149),X]-
0.05259345737237698, [(63,158),X]+
0.052598989062714714, [(6,149),X]-
0.053061431023799524, [(25,149),X]+
0.053193307810996016, [(36,49),Y]+
0.053503898400924954, [(80,174),Y]+
0.05381150063501769, [(42,164),X]+
0.05409653086568432, [(116,180),X]+
0.054210623174795344, [(103,181),X]+
0.05434917113750889, [(38,96),X]-
0.05440069497744567, [(13,123),Y]+
0.05451888623994258, [(25,147),X]-
0.05457366824458465, [(36,173),X]+
0.05459682844188025, [(47,113),Y]+
0.055179374990485544, [(10,22),Y]+
0.0552476870167989, [(6,147),X]-
0.05577414223578951, [(83,131),Y]-
0.055811154826793614, [(169,193),X]+
0.05613230857500693, [(47,119),Y]+
0.05613230857500693, [(47,76),Y]+
0.056215319549756566, [(140,144),Y]-
0.05734346681483703, [(63,158),X]-
0.05836812563148087, [(97,124),Y]-
0.05894686168697445, [(63,168),X]-
0.05957811058510228, [(1,162),Y]-
0.060245864717868566, [(46,65),X]+
0.060336058603649066, [(85,160),X]-
0.060600072500705024, [(7,62),X]-
0.0607656340960327, [(10,105),Y]-
0.06083408982570906, [(28,83),Y]+
0.06096771027049133, [(66,198),Y]-
0.061544016107797854, [(8,28),X]-
0.061593947388062634, [(40,121),Y]-
0.06173305028836224, [(30,174),Y]+
0.0621603957985995, [(149,185),Y]-
0.0622437926431589, [(20,77),Y]+
0.0624382154599892, [(155,194),Y]-
0.06251867816260721, [(159,182),Y]+
0.06276427433441856, [(34,57),X]-
0.06282554464463365, [(110,126),Y]-
0.0629660680756865, [(43,61),Y]-
0.06312498602012995, [(44,179),X]-
0.06316596761143267, [(101,153),X]+
0.06339101526244731, [(40,98),X]+
0.06420275268998371, [(146,147),Y]+
0.06462019686510033, [(81,116),Y]+
0.06518859737493506, [(27,84),X]+
0.06554968060040121, [(19,60),X]+
0.0659874408082344, [(39,116),X]+
0.0666577921259276, [(10,22),Y]-
0.06674294723398057, [(69,176),Y]+
0.0669408970875755, [(41,115),X]-
0.06725505719734831, [(58,66),X]+
0.06728501985655075, [(40,179),Y]+
0.06750902679690067, [(32,107),X]+
0.06898653759381204, [(85,162),X]-
0.07066679351482978, [(107,120),X]+
0.07082937091326474, [(79,167),Y]+
0.07156522272134665, [(18,183),Y]+
0.07159425973642701, [(83,172),Y]+
0.0718878233506142, [(3,133),X]-
0.07205484169566286, [(86,160),X]-
0.07301729013219542, [(111,146),Y]+
0.073306586303885, [(30,107),X]+
0.073306586303885, [(30,64),X]+
0.07348308755597278, [(35,77),X]-
0.07398437438482348, [(53,119),X]-
0.07420582519120066, [(56,94),Y]-
0.07473042067550378, [(180,190),Y]+
0.07556015872953696, [(36,88),Y]-
0.0757052508160354, [(40,93),X]-
0.07574212893993473, [(32,70),Y]-
0.07627293690322581, [(51,106),X]-
0.07627293690322581, [(51,94),X]-
0.07687508203187743, [(64,128),Y]-
0.07724224836062762, [(158,193),Y]-
0.07727820103485995, [(36,160),Y]-
0.07732393166593506, [(86,162),X]-
0.07776289075625252, [(130,158),X]-
0.07837326804569711, [(18,25),X]+
0.0785931293329011, [(16,26),Y]-
0.0789060404538421, [(113,138),Y]+
0.07898006086594136, [(173,192),X]-
0.0791275945207569, [(169,193),X]-
0.07934317248942692, [(41,81),Y]-
0.07938430624840143, [(64,120),X]+
0.07956597932596067, [(46,77),Y]-
0.07971524724156068, [(25,71),Y]+
0.08154376537736362, [(3,133),X]+
0.08178524149724636, [(1,8),Y]+
0.08246767380445465, [(43,101),X]+
0.08287085255790852, [(1,104),Y]-
0.08290285950929471, [(10,73),Y]-
0.08309581213935686, [(29,195),Y]+
0.08323893162642915, [(0,61),Y]+
0.08323893162642915, [(0,3),Y]+
0.083303758349566, [(45,147),Y]+
0.08383156546528639, [(72,164),X]+
0.08406440700503474, [(43,121),X]-
0.08478683997776068, [(48,114),Y]+
0.08480136443089237, [(30,64),X]-
0.08544170654708345, [(40,126),X]-
0.08551385382336295, [(109,149),Y]-
0.08557580576517393, [(53,119),X]+
0.0859268836722011, [(44,89),Y]-
0.0860585020192922, [(16,139),Y]+
0.08625688148135617, [(33,58),Y]-
0.08629169481043146, [(83,139),Y]-
0.08637447959768027, [(143,179),Y]-
0.08675400687173453, [(46,189),Y]+
0.08675400687173453, [(46,77),Y]+
0.08828067759276788, [(19,60),X]-
0.08828895092181958, [(13,45),X]+
0.08880489414589704, [(158,193),Y]+
0.08979287766384336, [(25,197),Y]-
0.08979287766384336, [(25,71),Y]-
0.09053544827593117, [(95,144),X]-
0.09134423586775695, [(103,130),Y]-
0.09242336504261706, [(40,185),Y]+
0.0933889946001778, [(52,189),X]+
0.09382278010964941, [(69,73),X]-
0.09387132182692345, [(45,140),X]+
0.09395100779080398, [(16,74),Y]-
0.09399811972944734, [(37,81),Y]+
0.09400672100564508, [(98,151),Y]-
0.0942042378808405, [(21,186),Y]+
0.09451840292453936, [(91,191),X]+
0.09491787591849592, [(73,144),X]-
0.09512096060850526, [(11,189),X]-
0.09531491538879051, [(66,198),Y]+
0.09540733219987738, [(13,137),X]-
0.09554966556856469, [(128,146),Y]+
0.09555649899655991, [(28,83),Y]-
0.09567188105156371, [(55,153),Y]+
0.09582801127757182, [(69,73),X]+
0.09686052768876945, [(69,95),X]+
0.0972347339128371, [(58,128),X]-
0.09764523366277725, [(40,185),Y]-
0.09856311407123475, [(22,134),Y]-
0.09856311407123475, [(134,187),Y]-
0.09872736798850426, [(40,121),Y]+
0.09882656929886398, [(3,48),X]+
0.09968165817008358, [(127,148),Y]-
0.10148171695858942, [(12,161),Y]+
0.10153615064388527, [(158,193),Y]-
0.10153615064388527, [(106,158),Y]-
0.1021592576986744, [(82,126),X]-
0.10255462420504682, [(33,58),Y]+
0.10255462420504682, [(9,33),Y]+
0.1026298272686464, [(69,73),X]-
0.10325949185879121, [(156,189),Y]+
0.10349881737350024, [(1,63),Y]+
0.1044412782180751, [(54,81),Y]-
0.1049851975578539, [(36,173),X]-
0.1049851975578539, [(36,109),X]-
0.10506707381853225, [(61,188),X]-
0.10543159085998767, [(155,170),Y]+
0.10711785668396744, [(104,131),Y]+
0.10755528550282557, [(36,138),X]-
0.10761490595184639, [(42,177),X]+
0.10784850671738902, [(117,136),X]+
0.10833697822694105, [(6,190),X]-
0.10833966799729597, [(54,71),X]-
0.10856406195764984, [(11,107),Y]+
0.10880521153761341, [(14,156),X]+
0.10927204104671151, [(46,164),X]+
0.10943132075107621, [(111,146),Y]-
0.10943148274163668, [(0,103),X]+
0.10987550337036785, [(86,174),Y]+
0.1112203804388416, [(8,148),Y]-
0.11191033121504713, [(56,97),Y]+
0.11201381974213985, [(7,59),X]+
0.1125792962425433, [(128,146),Y]-
0.1131088116271636, [(9,28),X]+
0.11402298684566317, [(16,53),X]+
0.11495210962007368, [(1,19),X]-
0.11519880815236919, [(91,188),X]+
0.1154422192781332, [(50,162),X]+
0.11596645746598676, [(128,133),X]-
0.11630043734669604, [(43,99),X]+
0.11642964309067032, [(173,192),X]+
0.11642964309067032, [(109,192),X]+
0.11721571099049359, [(36,88),Y]+
0.11723274058903954, [(10,189),X]+
0.11749347840032846, [(42,145),Y]+
0.11765740569236591, [(42,145),Y]-
0.11863282546483131, [(5,103),X]+
0.11876199095730179, [(92,199),X]-
0.11899556904329137, [(144,150),X]+
0.12162300468047821, [(41,56),Y]-
0.12315912975303693, [(65,142),X]-
0.12373438732264745, [(168,192),Y]+
0.12377842115974676, [(7,110),Y]+
0.123824856691777, [(92,134),Y]-
0.123824856691777, [(73,134),Y]-
0.12394529725484736, [(18,25),X]-
0.12413287053675778, [(70,199),Y]-
0.1241361825694389, [(94,110),Y]-
0.12426110411191844, [(68,177),Y]+
0.12432860520572667, [(152,194),Y]+
0.12438670166945084, [(43,96),Y]-
0.12498120638606436, [(0,5),Y]+
0.12533989352834893, [(88,156),X]-
0.12589674768153042, [(122,139),X]-
0.12609262098979787, [(147,174),Y]+
0.12650096357744303, [(57,79),X]-
0.1268087269845314, [(44,87),X]-
0.12697344195089297, [(38,166),X]+
0.12707063901748733, [(35,168),Y]+
0.12737905941255862, [(37,81),Y]-
0.12737905941255862, [(81,116),Y]-
0.128400843264277, [(30,52),Y]+
0.12856869696833986, [(56,137),Y]+
0.12859957204832134, [(102,193),X]+
0.129835406800435, [(89,96),Y]-
0.13055371578379535, [(142,177),X]+
0.13066254088743776, [(142,164),X]+
0.1307991044640794, [(47,113),Y]-
0.13093486574185878, [(6,190),X]+
0.13099208219596273, [(62,138),Y]+
0.13103655720696927, [(62,138),Y]-
0.13131550577267415, [(7,110),Y]-
0.1314327063954995, [(181,186),X]+
0.1314842218271354, [(65,142),X]+
0.131595950685002, [(17,196),X]-
0.1320170900177777, [(100,180),X]+
0.13226068118249235, [(5,89),Y]+
0.13243432496195434, [(81,126),Y]-
0.13260357625689145, [(95,148),Y]-
0.13439382649430048, [(85,162),X]+
0.13439382649430048, [(86,162),X]+
0.1344802970463488, [(47,151),Y]-
0.1345990503583688, [(38,96),X]+
0.13496248836083458, [(50,197),X]-
0.13496606938276026, [(33,88),X]+
0.13499343412274983, [(65,142),X]-
0.13499343412274983, [(46,65),X]-
0.13534412968035453, [(168,192),Y]-
0.13544182615209951, [(8,28),X]+
0.1355819671405004, [(42,177),X]-
0.1359857263691133, [(50,162),X]-
0.13635609719976777, [(121,132),Y]+
0.13692845479885157, [(66,133),X]+
0.13700066794550933, [(70,114),Y]-
0.13741429379969886, [(68,150),Y]+
0.1382796698031817, [(17,159),X]-
0.1383524445542594, [(13,45),X]-
0.1384595167374743, [(7,59),X]-
0.1384800109564856, [(77,102),Y]-
0.1384800109564856, [(46,77),Y]-
0.13856474717110867, [(171,186),X]+
0.13862853602284292, [(43,96),Y]+
0.13862853602284292, [(43,44),Y]+
0.1388918727473936, [(26,95),Y]-
0.1392922427546647, [(119,183),X]+
0.1393171675481653, [(119,158),Y]-
0.13987766552789072, [(122,139),X]+
0.14124123999379642, [(38,194),X]+
0.14194914664536615, [(13,159),X]-
0.14209066820192082, [(136,194),X]-
0.14293422693055205, [(77,100),Y]-
0.14312115450654858, [(147,157),Y]+
0.14334057727184407, [(52,189),X]-
0.14334759519629525, [(54,140),X]+
0.14339795038011882, [(81,116),Y]+
0.14339795038011882, [(116,165),Y]+
0.1436963926167761, [(48,168),Y]-
0.1442037175789782, [(54,140),X]-
0.14449907767252462, [(36,171),X]-
0.14471725300770352, [(40,93),X]+
0.1471423868676325, [(131,141),Y]-
0.14756095859894428, [(96,145),X]+
0.14894467475111306, [(39,100),X]+
0.14894680911736385, [(13,155),Y]+
0.14955311403731805, [(68,177),Y]-
0.1496234217430383, [(152,161),Y]-
0.14969565304558144, [(86,174),Y]-
0.14990411517997693, [(47,173),Y]-
0.1506166264707311, [(1,63),Y]-
0.1512082761712058, [(68,191),X]+
0.1512631366588434, [(41,195),X]+
0.15319368086105717, [(38,152),Y]-
0.1532751176739993, [(54,56),Y]-
0.1535550749144483, [(38,194),X]-
0.1535550749144483, [(38,117),X]-
0.1535550749144483, [(38,166),X]-
0.15432417492948508, [(58,127),X]-
0.1548273598159212, [(57,177),Y]+
0.15497543973753458, [(164,187),X]-
0.15527693709133675, [(17,54),X]-
0.15606940064692923, [(87,148),X]-
0.15606940064692923, [(84,148),X]-
0.15700089118630564, [(26,95),Y]+
0.15702089740329986, [(11,16),Y]+
0.1571295587249091, [(80,107),X]-
0.15715904207746745, [(70,114),Y]+
0.15715904207746745, [(70,199),Y]+
0.15776706405273494, [(152,178),Y]-
0.15809208037317668, [(73,139),X]+
0.15827187144536586, [(72,139),Y]+
0.15855302591780085, [(18,149),Y]-
0.1587018831822512, [(45,71),X]-
0.15993401324965772, [(20,155),Y]-
0.15993401324965772, [(13,155),Y]-
0.15993401324965772, [(155,170),Y]-
0.16005137117266735, [(29,78),X]-
0.16032474007413194, [(36,171),X]+
0.16032474007413194, [(36,138),X]+
0.16121881425044557, [(14,129),Y]-
0.16181114603336175, [(11,83),Y]+
0.1618120120370551, [(77,100),Y]+
0.1618546713037579, [(98,151),Y]+
0.16204161521248298, [(170,189),Y]-
0.16433051889273573, [(164,187),X]+
0.16442123998416455, [(104,131),Y]-
0.16504147258654076, [(110,169),X]+
0.1673139621650263, [(9,59),X]-
0.16805170302165617, [(131,141),Y]+
0.16853585239973595, [(57,171),X]+
0.16901968643864324, [(6,116),Y]+
0.16973276436294785, [(39,131),Y]-
0.17098572580877758, [(41,166),X]-
0.17103643568431198, [(1,39),Y]+
0.17103643568431198, [(1,104),Y]+
0.17103643568431198, [(1,162),Y]+
0.17140451795880426, [(54,165),Y]-
0.1721813092066423, [(17,54),X]+
0.1721813092066423, [(17,159),X]+
0.17381229905109305, [(41,117),X]+
0.17381229905109305, [(41,166),X]+
0.173999696586501, [(94,107),Y]+
0.1743466627146945, [(9,59),X]+
0.17443313269543032, [(9,75),Y]+
0.17457927481362837, [(103,130),Y]+
0.17457927481362837, [(70,103),Y]+
0.17519171180050735, [(11,83),Y]-
0.17787089921250362, [(16,192),X]-
0.1780346907594369, [(132,148),Y]+
0.1782991078026329, [(21,57),Y]+
0.17850568148384796, [(20,164),Y]+
0.17926598357234885, [(12,38),Y]+
0.1796041560193184, [(62,188),X]-
0.17982566213930196, [(147,174),Y]-
0.17982566213930196, [(147,174),Y]+
0.17998570215577572, [(33,34),Y]+
0.18070089032714506, [(33,34),Y]-
0.18141775111798206, [(17,159),X]-
0.18141775111798206, [(13,196),X]-
0.18170244420984644, [(49,93),X]+
0.18183840254466607, [(88,90),Y]+
0.1820896137197108, [(13,189),Y]-
0.18210151375511507, [(61,150),Y]+
0.18252490726566512, [(55,153),Y]-
0.18255584375670675, [(131,145),X]-
0.18274228569181472, [(72,139),Y]-
0.18274228569181472, [(78,139),Y]-
0.18274228569181472, [(101,139),Y]-
0.1832489023410241, [(32,70),Y]+
0.18461185977089214, [(43,47),X]+
0.1853513672263107, [(116,165),Y]-
0.18561664700080946, [(79,119),X]-
0.18561664700080946, [(79,119),X]+
0.18709106818431734, [(28,110),Y]-
0.18709106818431734, [(28,29),Y]-
0.18761211151013538, [(38,116),X]+
0.18849884019994595, [(86,106),X]-
0.18849884019994595, [(86,162),X]-
0.18937165047217333, [(99,166),Y]+
0.19082805258169674, [(98,113),Y]+
0.19119275350514056, [(121,152),X]-
0.19145124647131384, [(132,159),Y]+
0.19192768323528056, [(147,156),X]-
0.19192768323528056, [(14,156),X]-
0.1921362901774978, [(6,54),Y]-
0.1927212475563373, [(57,138),X]+
0.19338252681307208, [(17,188),Y]-
0.1939380782778801, [(65,72),X]-
0.1946927980055968, [(133,144),Y]-
0.19502823702863076, [(46,77),Y]+
0.1952126505973199, [(56,163),X]+
0.19615718025308718, [(134,170),Y]-
0.19659333885150676, [(56,97),Y]-
0.19679912834514124, [(25,186),Y]+
0.196909030007747, [(23,163),X]-
0.19740837079852, [(156,167),X]-
0.19742452357304457, [(37,102),X]+
0.19802437400849415, [(4,58),X]-
0.19809711483558345, [(41,56),Y]+
0.19896907317945495, [(3,64),X]+
0.19918689790829577, [(38,152),Y]+
0.20156410345822176, [(153,181),X]+
0.20179547025723785, [(51,123),Y]-
0.202507355044073, [(11,58),X]-
0.20288405495718226, [(150,153),Y]-
0.20296269566979383, [(48,93),Y]+
0.20337570736538313, [(125,186),Y]+
0.2043576450160421, [(27,105),X]-
0.2045199096111134, [(38,100),X]+
0.2045199096111134, [(38,61),X]+
0.20457768835052698, [(117,168),X]+
0.20670480445859937, [(158,180),Y]+
0.20807643957274938, [(17,45),X]-
0.2089019735737644, [(43,111),X]+
0.20949137142629615, [(169,179),Y]-
0.20954382868534313, [(142,159),Y]-
0.20975880095501867, [(43,111),X]-
0.21023593341687294, [(48,58),X]+
0.21066942125861887, [(58,89),X]-
0.21147091382605085, [(117,122),X]+
0.21194792952900904, [(50,105),X]+
0.21202879722892856, [(42,193),Y]-
0.21202879722892856, [(106,158),Y]+
0.21487205847377164, [(13,134),Y]-
0.2150147156751376, [(145,190),Y]+
0.216319102450237, [(17,54),X]-
0.2168170381898617, [(117,142),Y]+
0.21846785399222615, [(101,139),Y]+
0.21936060875788654, [(20,83),X]+
0.21955430552222574, [(0,21),Y]-
0.21955430552222574, [(0,177),Y]-
0.22193688141048554, [(34,60),Y]-
0.22263061895133632, [(118,176),X]+
0.22339843233663656, [(76,188),X]-
0.22410562796788133, [(76,98),Y]-
0.22410562796788133, [(47,76),Y]-
0.22518310765266594, [(40,103),X]+
0.2258621057840425, [(49,163),X]-
0.22600800622261746, [(4,92),X]+
0.22756111833282822, [(48,120),X]+
0.23235307952276, [(85,106),X]-
0.23402014749009684, [(20,123),Y]-
0.23448805633942083, [(8,16),X]-
0.23551156022950223, [(20,184),X]-
0.23563809700038757, [(58,64),X]+
0.23632429844547911, [(89,96),Y]+
0.23632429844547911, [(44,89),Y]+
0.23726869664355246, [(34,119),X]+
0.23801270812477468, [(81,126),Y]+
0.23801270812477468, [(41,81),Y]+
0.23819217511443472, [(43,47),X]-
0.2382301309716211, [(20,91),X]+
0.2406050192755458, [(114,195),X]-
0.24082325267997437, [(99,181),X]+
0.240983266223857, [(110,195),Y]-
0.24240325816463673, [(8,16),X]+
0.24308900040080908, [(6,190),X]-
0.2432024445877599, [(35,84),X]-
0.24347437933443905, [(42,197),X]+
0.24452738429676604, [(110,195),Y]+
0.24497038047344732, [(49,149),Y]+
0.24519300063053517, [(2,134),X]-
0.24748605856877223, [(62,78),X]-
0.2479325954245945, [(30,52),Y]-
0.2499061993421772, [(116,162),Y]+
0.2503806234869474, [(87,158),Y]-
0.2503806234869474, [(106,158),Y]-
0.2503806234869474, [(76,158),Y]-
0.2528916255397073, [(112,148),Y]-
0.25351094865665236, [(28,83),X]+
0.2549829513042942, [(169,185),Y]-
0.2552415596292187, [(73,114),X]+
0.2570362623956651, [(107,126),Y]+
0.25721758385239263, [(8,78),Y]+
0.25918306983608796, [(107,131),Y]+
0.26174008524871134, [(51,155),Y]-
0.2624100948835, [(40,163),X]-
0.2624100948835, [(40,103),X]-
0.2624478606516276, [(64,133),X]+
0.2626637097213171, [(17,105),Y]-
0.26322371999315775, [(145,190),Y]-
0.2668543899759215, [(18,179),Y]-
0.2671767833500674, [(94,112),X]-
0.26738241566253074, [(64,103),Y]-
0.2675316658331557, [(48,93),Y]-
0.2678276416912544, [(2,134),X]+
0.26924523864259414, [(58,60),X]+
0.2693328584963838, [(47,173),Y]+
0.2693328584963838, [(47,173),Y]-
0.2700685969936409, [(89,128),X]-
0.2703293715200058, [(73,135),X]-
0.27040181708006394, [(58,89),X]+
0.27040181708006394, [(4,58),X]+
0.27134721353979246, [(57,125),Y]+
0.272200751140954, [(5,82),X]-
0.27311849917064973, [(98,193),Y]-
0.2734585737644445, [(51,90),Y]-
0.2740991534217877, [(122,166),X]+
0.2740991534217877, [(41,115),X]+
0.275545099031186, [(6,54),Y]+
0.27559171609651145, [(70,169),X]+
0.2759263321953597, [(28,83),X]-
0.27729133808057166, [(112,148),Y]+
0.2801037369504841, [(135,150),X]-
0.2823663454186231, [(25,57),Y]+
0.2838111912260279, [(177,178),X]-
0.2842417074423046, [(20,123),Y]+
0.2854984261851129, [(169,183),Y]+
0.2854984261851129, [(169,185),Y]+
0.2867988397158203, [(85,130),Y]+
0.2899813364838263, [(30,118),X]+
0.292570014813696, [(81,141),Y]+
0.29291601066878137, [(54,71),X]+
0.29291601066878137, [(45,71),X]+
0.29361005346377417, [(126,196),X]-
0.29395926586615945, [(40,163),Y]+
0.3005276709053949, [(5,163),X]-
0.3014725109730298, [(55,57),Y]-
0.304059337769779, [(17,192),Y]-
0.3053842502366675, [(58,60),X]-
0.30754972768070143, [(5,140),Y]+
0.3078626966581806, [(128,189),X]-
0.3085823240111317, [(68,197),Y]-
0.3095190830371806, [(98,163),X]-
0.3106033351122452, [(98,163),X]+
0.3109020507831901, [(5,163),X]+
0.3109020507831901, [(5,163),X]-
0.31597192408464336, [(115,151),Y]-
0.3161645340649147, [(96,196),Y]+
0.31744424121673426, [(27,177),X]-
0.31765443456200665, [(92,127),X]+
0.32018955649195013, [(20,155),Y]+
0.3213739834448086, [(31,192),Y]-
0.32160209246196086, [(79,87),Y]+
0.32293823455801834, [(92,143),X]-
0.32307464405533615, [(49,103),X]+
0.32343627506352324, [(38,90),Y]+
0.32383821556661097, [(18,185),Y]-
0.32383821556661097, [(169,185),Y]-
0.3249876982294221, [(35,87),X]+
0.3249876982294221, [(35,84),X]+
0.32557293152271316, [(42,119),Y]-
0.32557293152271316, [(76,158),Y]+
0.3278403757934748, [(153,163),X]+
0.3303017609889441, [(160,160),Y]+
0.3303984264003101, [(91,145),X]+
0.3303984264003101, [(131,145),X]+
0.3303984264003101, [(7,68),X]-
0.3304786601885095, [(31,66),Y]+
0.33363284888438344, [(117,195),X]+
0.3347638968017723, [(5,89),Y]-
0.33647338648835845, [(68,197),Y]+
0.3376244249646706, [(88,194),Y]+
0.3434549275113711, [(33,167),X]+
0.34406701044236043, [(114,122),X]-
0.34406701044236043, [(114,122),X]+
0.3538042142836573, [(23,82),X]-
0.3588654827649069, [(10,75),Y]-
0.35942074795434537, [(13,189),Y]+
0.35942074795434537, [(170,189),Y]+
0.36051613580764635, [(35,104),X]+
0.3624199019223361, [(8,78),Y]-
0.36247377258757457, [(109,179),Y]-
0.36363591796261724, [(9,131),X]+
0.3649368192781943, [(177,178),X]+
0.3668278693116941, [(148,182),Y]+
0.36913984880846284, [(6,167),X]-
0.37558029312552416, [(118,176),X]-
0.3773506724410661, [(51,84),Y]+
0.3773506724410661, [(51,152),Y]+
0.384268852428632, [(171,186),X]-
0.38608902075338675, [(41,166),Y]+
0.38614828119821965, [(101,139),Y]-
0.38793596250018014, [(85,135),X]-
0.3908825052832047, [(0,152),X]+
0.3913128097387462, [(18,183),Y]-
0.39578790870798414, [(19,48),X]+
0.39688575973419843, [(64,103),Y]+
0.39693999881627756, [(80,107),X]+
0.3975152259557854, [(74,78),Y]-
0.39964149361292556, [(8,112),Y]-
0.40206544122986926, [(31,48),Y]+
0.40206544122986926, [(48,58),Y]+
0.4035588308683335, [(62,115),Y]-
0.40677477591242805, [(20,28),X]-
0.40677477591242805, [(9,28),X]-
0.4158222056092096, [(15,176),X]+
0.4167391521984894, [(114,130),Y]+
0.4167391521984894, [(122,130),Y]+
0.4185833971607788, [(76,180),X]+
0.4188732709886328, [(7,16),Y]+
0.4189364339749665, [(86,187),X]-
0.4201296895291206, [(121,148),Y]+
0.42146522738132286, [(139,184),Y]-
0.42146522738132286, [(139,184),Y]+
0.4244629471695599, [(105,178),X]+
0.424928948547267, [(99,181),X]-
0.4275273625675757, [(54,165),Y]+
0.4275273625675757, [(54,165),Y]-
0.43029558990726346, [(30,37),X]+
0.4311055773330534, [(126,159),X]-
0.43151185984271195, [(41,137),Y]+
0.43284753962810646, [(44,196),Y]+
0.43322427068880326, [(7,104),Y]+
0.43526590310417124, [(76,167),Y]-
0.43559050645549263, [(13,137),X]+
0.43564448894081936, [(109,185),Y]-
0.44980435361712434, [(14,89),Y]-
0.45387307576843317, [(73,95),X]-
0.45706583847087273, [(134,134),Y]+
0.45706583847087273, [(13,189),Y]-
0.46734216548163116, [(148,159),Y]+
0.469196100922623, [(36,84),Y]+
0.47229469084542924, [(51,152),Y]-
0.4744738798350864, [(14,186),Y]+
0.477193262705406, [(69,130),X]+
0.48064338614826685, [(71,98),X]+
0.4809821879383215, [(50,65),X]-
0.48814953301089076, [(78,145),X]+
0.48814953301089076, [(62,78),X]+
0.4939779603266985, [(56,98),X]+
0.5018530220059801, [(10,189),X]-
0.5022279271373359, [(13,77),Y]-
0.5072447732074683, [(12,88),Y]+
0.510133497984007, [(14,89),Y]+
0.515310004699983, [(85,130),Y]-
0.5190331445380776, [(76,180),X]-
0.5222406978450115, [(68,150),Y]-
0.523287707633418, [(38,90),Y]-
0.5250558658732105, [(0,5),Y]-
0.5250558658732105, [(0,5),Y]+
0.5257350339063565, [(130,139),X]+
0.5298818335935526, [(11,92),X]+
0.5348883695965677, [(57,138),X]-
0.5350168411325887, [(32,107),X]-
0.5350168411325887, [(30,107),X]-
0.5368286846070036, [(12,92),X]+
0.5379303695488817, [(64,118),Y]-
0.5417766659094415, [(12,92),X]-
0.5417766659094415, [(92,127),X]-
0.5417766659094415, [(92,128),X]-
0.5417766659094415, [(4,92),X]-
0.5441125456294886, [(101,139),Y]+
0.5441125456294886, [(101,139),Y]-
0.5441125456294886, [(139,184),Y]-
0.5452573688075731, [(13,123),Y]-
0.545430528526987, [(10,156),Y]-
0.5513608719871007, [(20,182),X]-
0.5542661299535266, [(79,167),Y]-
0.5553783341449774, [(129,137),X]+
0.5562030549409623, [(92,189),X]-
0.5583666219280065, [(145,146),Y]-
0.5583666219280065, [(145,146),Y]+
0.5593544585536077, [(30,52),Y]+
0.5593544585536077, [(30,52),Y]-
0.567453996547172, [(134,134),Y]-
0.567453996547172, [(134,170),Y]+
0.567453996547172, [(134,170),Y]-
0.567453996547172, [(170,189),Y]-
0.5675009321449614, [(15,48),Y]+
0.578878595469803, [(51,123),Y]+
0.581691806279598, [(147,174),Y]-
0.5844796935371307, [(130,139),X]-
0.5895385612233012, [(139,184),Y]+
0.5895385612233012, [(139,184),Y]-
0.5895385612233012, [(139,184),Y]+
0.5895385612233012, [(11,184),Y]+
0.5972382387364351, [(57,171),X]-
0.5972382387364351, [(57,171),X]+
0.5972382387364351, [(57,171),X]-
0.6025449274647092, [(29,195),Y]-
0.6033825285594705, [(117,132),X]+
0.6045463734413263, [(44,146),X]-
0.6126619424158136, [(90,194),Y]-
0.6144236425301898, [(75,163),X]+
0.6146623750703578, [(92,189),X]+
0.6183170217725106, [(17,126),X]-
0.626217799198312, [(27,44),X]-
0.6349185183520911, [(26,78),Y]-
0.6426932904072368, [(179,185),Y]-
0.6463705505130235, [(98,153),X]+
0.6477785564047915, [(68,125),Y]-
0.6482220466277551, [(185,195),X]+
0.6546965021565792, [(27,44),X]+
0.6590301857198025, [(117,174),X]+
0.6625818649838952, [(51,84),Y]-
0.6657274829379273, [(98,106),Y]-
0.6662628899144741, [(85,135),X]+
0.6756350667389625, [(23,103),X]+
0.6756350667389625, [(40,103),X]+
0.6756350667389625, [(71,103),X]+
0.6809908815168542, [(152,194),Y]-
0.6809908815168542, [(90,90),Y]+
0.6870607926537841, [(44,179),X]+
0.6985828119587494, [(8,53),X]+
0.6998368437651736, [(63,117),X]+
0.7090036409106049, [(51,95),X]+
0.7169281872197222, [(129,196),Y]+
0.7290845851883277, [(92,127),X]+
0.7554050272425584, [(71,171),Y]-
0.7554050272425584, [(71,171),Y]+
0.7691282832759148, [(36,138),X]-
0.7790730360537587, [(5,140),Y]-
0.7969081022756566, [(13,193),X]+
0.7969081022756566, [(13,193),X]-
0.7991766231477148, [(13,13),Y]+
0.8010615612172348, [(21,170),X]+
0.8258212142104662, [(19,48),X]-
0.8258212142104662, [(48,120),X]-
0.8572384939647071, [(81,84),X]-
0.8642895006100171, [(121,148),Y]-
0.8656640698340434, [(101,152),X]+
0.8691657236396929, [(143,182),Y]+
0.8985149704366328, [(69,96),Y]-
0.8993086829343854, [(118,193),X]-
0.9110345282105347, [(149,169),Y]-
0.9133837238641149, [(117,139),X]+
0.9183029961337315, [(102,105),Y]+
0.9211002525786599, [(129,144),Y]+
0.925956138829294, [(94,164),X]-
0.925956138829294, [(94,197),X]-
0.925956138829294, [(94,160),X]-
0.925956138829294, [(65,94),X]-
0.925956138829294, [(65,94),X]+
0.9280216077426597, [(97,183),X]-
0.9281636538660097, [(85,106),X]+
0.9290296535823025, [(51,194),Y]-
0.9294612868696955, [(65,85),X]+
0.9359503403048227, [(54,170),X]-
0.9386443154214306, [(41,174),X]+
0.9515263495772328, [(71,166),Y]+
0.9636872028497395, [(33,87),X]+
0.9746939247440468, [(6,156),X]-
0.9751611787208987, [(72,177),X]-
0.976111099672026, [(34,93),Y]-
0.9762391780611255, [(73,95),X]+
0.9822016590546123, [(17,105),Y]+
0.9947768911178396, [(181,186),X]-
