areaTotal:400.0
tiempoTotalSimulado:1.0
areaOcupadaInicial:19.99999999999998
eventosSimples:55
eventosMultiples:0
0.0
[(0,4), (0,7), (0,13), (0,17), (1,10), (1,11), (1,12), (1,14), (2,14), (3,19), (4,7), (4,13), (5,8), (5,16), (6,15), (6,18), (7,13), (7,17), (8,16), (8,18), (9,17), (10,11), (10,12), (10,14), (11,12), (11,14), (12,14), (16,18)]
[(0,6), (1,18), (3,5), (3,8), (3,9), (3,17), (4,16), (5,8), (5,15), (5,17), (7,13), (7,14), (7,19), (8,17), (10,15), (12,16), (13,14), (13,19), (14,19)]
0.0060356991038829225, [(10,11),Y]+
0.009125184100904451, [(1,13),Y]+
0.048847294900114496, [(8,15),Y]+
0.06110021229341805, [(1,7),Y]+
0.06366005741045083, [(1,14),Y]+
0.06646230327829229, [(1,7),Y]-
0.07035256238532542, [(9,17),Y]+
0.07267914468736437, [(0,4),X]-
0.08059946342911997, [(4,12),Y]+
0.11615267958134376, [(5,18),X]+
0.13582843621687965, [(2,11),X]+
0.1674588933524862, [(6,18),X]-
0.18242959798598515, [(10,11),X]-
0.1848313540709981, [(0,13),X]-
0.18488009414565906, [(7,17),X]-
0.19211607187102903, [(1,11),X]-
0.1934233946071072, [(10,15),Y]-
0.1994548804144761, [(2,11),X]-
0.22069729222462522, [(14,18),Y]+
0.251494291630786, [(0,17),X]-
0.32379662340680193, [(3,15),Y]+
0.32868357795218295, [(8,17),Y]-
0.3290886464221546, [(11,12),X]-
0.3682526412005666, [(3,8),Y]-
0.3682526412005666, [(15,17),Y]+
0.3940788515074436, [(8,11),Y]+
0.445427181035339, [(18,19),X]+
0.4612696476198642, [(10,11),Y]-
0.5078440916633864, [(5,8),Y]-
0.5083524594755087, [(18,19),X]-
0.528418846287096, [(14,18),Y]-
0.5580420129321446, [(6,8),X]+
0.5745928640512717, [(9,9),X]+
0.5757592004982806, [(2,4),Y]+
0.5868624455737813, [(7,14),Y]-
0.6068218892635643, [(0,0),X]+
0.6261760412529855, [(5,18),X]-
0.647102910365081, [(4,16),Y]-
0.6544813272919277, [(8,15),Y]-
0.6806991514517653, [(0,10),Y]+
0.6841746683886729, [(4,12),Y]-
0.7045759206048209, [(5,9),Y]+
0.7181336306210522, [(17,18),Y]+
0.747759697072477, [(18,18),X]+
0.747759697072477, [(16,18),X]-
0.7567580562469175, [(9,15),Y]+
0.7651120896699657, [(9,15),Y]-
0.8005135927186545, [(6,10),Y]+
0.8359314009117216, [(9,15),Y]+
0.8414074561673354, [(4,13),X]-
0.8481195699888096, [(4,12),Y]+
0.8481195699888096, [(4,16),Y]+
0.8872489141941651, [(8,15),X]+
0.9100701010413906, [(19,19),X]+
0.9384770383077777, [(8,11),Y]-
