marco:(-10.0,10.0),(-10.0,10.0)
timeIntervals:0.0-1.0
framesPerSecond:1000
0.4265297721451045 -0.12892439172533074
20 8.195639723303584 7.297029278565532 8.25314614776531 7.3460934901653685 8.250772390463894 7.383815323430009 8.272930738962396 7.392783944463788 8.297462844762313 7.364030732232925 8.372906511291596 7.368778246835758 8.32384229969176 7.426284671297484 8.286120466427118 7.4239109139960675 8.27715184539334 7.446069262494569 8.305905057624203 7.470601368294487 8.30115754302137 7.54604503482377 8.243651118559644 7.496980823223933 8.24602487586106 7.4592589899592925 8.223866527362558 7.450290368925514 8.199334421562641 7.479043581156377 8.123890755033358 7.474296066553544 8.172954966633194 7.416789642091818 8.210676799897836 7.419163399393234 8.219645420931615 7.397005050894733 8.19089220870075 7.372472945094815
0.007478209905932897 -0.10101438194300873
4 0.6021287161350097 9.40350915360551 0.7317381037205408 9.460090127878702 0.6751571294473491 9.589699515464234 0.545547741861818 9.533118541191042
-0.023041897880368072 -0.00889155542917276
20 -4.534983183220525 -1.366258199681084 -4.4788231582268585 -1.3156584239207465 -4.4822150610328935 -1.2780144811951786 -4.4603070759587595 -1.268450550966444 -4.435007188078591 -1.2965305634632776 -4.359719302627455 -1.2897467578512076 -4.410319078387793 -1.233586732857541 -4.4479630211133605 -1.2369786356635757 -4.457526951342095 -1.215070650589442 -4.4294469388452615 -1.1897707627092733 -4.4362307444573315 -1.1144828772581372 -4.492390769450998 -1.1650826530184748 -4.488998866644963 -1.2027265957440427 -4.510906851719097 -1.2122905259727772 -4.536206739599266 -1.1842105134759437 -4.611494625050402 -1.1909943190880137 -4.560894849290064 -1.2471543440816804 -4.523250906564496 -1.2437624412756456 -4.513686976335761 -1.2656704263497793 -4.541766988832595 -1.290970314229948
0.11078100950089258 0.2923653015152524
6 3.8923706678828536 -6.328639600416299 3.979126174676428 -6.315544348216165 4.011163106998936 -6.233864249314671 3.956444532527869 -6.165279402613308 3.869689025734295 -6.178374654813441 3.837652093411787 -6.260054753714936
0.4352041808093797 -0.20125829162241524
6 -2.8153850894388937 9.764552857010452 -2.7286295826453193 9.777648109210585 -2.6965926503228115 9.85932820811208 -2.751311224793878 9.927913054813443 -2.8380667315874524 9.91481780261331 -2.87010366390996 9.833137703711815
-0.5164566847643128 -0.469993264968524
12 9.195777625294927 -7.368019523908879 9.234469500360278 -7.416516334098052 9.257123032453938 -7.358759782276817 9.31846843961295 -7.349500040644755 9.279776564547598 -7.301003230455582 9.302430096641258 -7.243246678634347 9.241084689482246 -7.252506420266409 9.202392814416894 -7.204009610077236 9.179739282323235 -7.261766161898471 9.118393875164223 -7.271025903530533 9.157085750229575 -7.319522713719706 9.134432218135915 -7.377279265540941
0.48646968665081064 -0.07070203920597687
20 9.514883162793842 3.995328782366004 9.57104318778751 4.045928558126342 9.567651284981475 4.0835725008519095 9.589559270055608 4.093136431080644 9.614859157935777 4.0650564185838105 9.690147043386913 4.07184022419588 9.639547267626575 4.128000249189547 9.601903324901008 4.124608346383512 9.592339394672273 4.146516331457646 9.620419407169106 4.171816219337815 9.613635601557037 4.247104104788951 9.55747557656337 4.196504329028613 9.560867479369405 4.158860386303045 9.538959494295272 4.14929645607431 9.513659606415102 4.177376468571144 9.438371720963966 4.170592662959074 9.488971496724304 4.1144326379654075 9.526615439449872 4.117824540771442 9.536179369678607 4.0959165556973085 9.508099357181774 4.07061666781714
-0.23846550547356693 0.22255759868195432
12 5.628212800345441 5.926525054671137 5.666904675410793 5.878028244481964 5.689558207504453 5.935784796303199 5.750903614663465 5.945044537935261 5.7122117395981125 5.993541348124434 5.734865271691772 6.051297899945669 5.673519864532761 6.042038158313607 5.634827989467409 6.09053496850278 5.612174457373749 6.032778416681545 5.550829050214737 6.023518675049483 5.589520925280089 5.97502186486031 5.566867393186429 5.917265313039075
-0.09766818067975311 -0.032959619542135256
12 -1.2563352581001102 7.662556355611102 -1.217643383034758 7.614059545421929 -1.194989850941098 7.671816097243164 -1.133644443782086 7.681075838875226 -1.1723363188474383 7.729572649064399 -1.1496827867537784 7.787329200885634 -1.2110281939127905 7.778069459253572 -1.2497200689781427 7.826566269442745 -1.2723736010718025 7.76880971762151 -1.3337190082308146 7.759549975989448 -1.2950271331654624 7.711053165800275 -1.3176806652591222 7.65329661397904
0.37636348428648786 0.24777199887748305
20 5.3791640299675505 7.1041842100163795 5.435324054961217 7.154783985776717 5.431932152155182 7.192427928502285 5.453840137229316 7.20199185873102 5.479140025109485 7.173911846234186 5.554427910560621 7.180695651846256 5.503828134800283 7.236855676839923 5.466184192074715 7.233463774033888 5.4566202618459805 7.255371759108022 5.484700274342814 7.280671646988191 5.4779164687307444 7.355959532439327 5.4217564437370775 7.305359756678989 5.4251483465431125 7.267715813953421 5.403240361468979 7.258151883724686 5.37794047358881 7.28623189622152 5.302652588137674 7.27944809060945 5.353252363898012 7.223288065615783 5.3908963066235795 7.226679968421818 5.4004602368523145 7.204771983347684 5.372380224355481 7.179472095467515
0.022483771352113557 0.05641902246290274
6 -0.33652955150012 7.127257619123403 -0.24977404470654566 7.140352871323537 -0.21773711238403776 7.222032970225031 -0.27245568685510413 7.290617816926394 -0.35921119364867843 7.277522564726262 -0.3912481259711864 7.195842465824766
0.5383862500545862 -0.49803969220889416
12 -2.3807004432315164 3.9405487696376706 -2.342008568166164 3.8920519594484975 -2.3193550360725044 3.9498085112697328 -2.2580096289134923 3.959068252901795 -2.2967015039788445 4.007565063090968 -2.2740479718851847 4.065321614912203 -2.3353933790441967 4.056061873280141 -2.374085254109549 4.104558683469314 -2.396738786203209 4.046802131648079 -2.458084193362221 4.037542390016017 -2.4193923182968686 3.989045579826844 -2.4420458503905285 3.9312890280056085
0.1876898797311244 0.1681393022429376
6 -7.130771214704466 -6.372233877650508 -7.044015707910892 -6.359138625450375 -7.011978775588384 -6.27745852654888 -7.06669735005945 -6.2088736798475175 -7.153452856853025 -6.22196893204765 -7.1854897891755325 -6.3036490309491455
-0.27989944791902316 0.15223573957078831
4 -1.8471066853199005 5.55683647071459 -1.9658991244359827 5.462061119612962 -1.7056326040552598 5.50134687621336 -1.869788327468459 5.707101416317447
-0.13743445796376147 0.5712682740755302
20 5.875636001799033 0.7638513389524902 5.9317960267927 0.8144511147128276 5.928404123986665 0.8520950574383956 5.950312109060799 0.8616589876671301 5.975611996940968 0.8335789751702967 6.050899882392104 0.8403627807823665 6.000300106631766 0.8965228057760334 5.962656163906198 0.8931309029699984 5.953092233677463 0.9150388880441322 5.981172246174297 0.9403387759243009 5.974388440562227 1.015626661375437 5.91822841556856 0.9650268856150995 5.921620318374595 0.9273829428895315 5.899712333300461 0.917819012660797 5.874412445420292 0.9458990251576305 5.799124559969156 0.9391152195455607 5.849724335729494 0.8829551945518938 5.887368278455062 0.8863470973579287 5.896932208683797 0.8644391122837949 5.868852196186963 0.8391392244036262
0.1448433326785475 0.10424393592466402
4 4.651669053093327 -6.512698659164424 4.781278440678858 -6.4561176848912325 4.724697466405667 -6.326508297305701 4.595088078820136 -6.383089271578893
-0.03235490413214053 -0.02000667006595627
4 -4.119877407432437 8.641149082272715 -4.238669846548519 8.546373731171087 -3.978403326167796 8.585659487771485 -4.142559049580996 8.791414027875573
0.13934558818905635 0.3308002853255355
6 6.3402808145076515 1.3375734758415962 6.427036321301226 1.3506687280417293 6.459073253623734 1.4323488269432247 6.404354679152667 1.500933673644587 6.317599172359093 1.487838421444454 6.285562240036585 1.4061583225429588
-0.12510462719058937 0.2451497237391737
12 1.3646697768786904 -2.969428687126534 1.4033616519440426 -3.0179254973157073 1.4260151840377024 -2.960168945494472 1.4873605911967145 -2.95090920386241 1.4486687161313623 -2.9024123936732367 1.4713222482250221 -2.8446558418520014 1.40997684106601 -2.8539155834840635 1.3712849660006579 -2.8054187732948903 1.348631433906998 -2.8631753251161256 1.287286026747986 -2.8724350667481877 1.3259779018133382 -2.920931876937361 1.3033243697196784 -2.978688428758596
-0.09456016399799709 0.08752131888634206
12 1.1742187011700018 -6.710420227455181 1.212910576235354 -6.758917037644354 1.2355641083290139 -6.701160485823118 1.296909515488026 -6.691900744191057 1.2582176404226737 -6.643403934001884 1.2808711725163335 -6.585647382180649 1.2195257653573215 -6.59490712381271 1.1808338902919693 -6.546410313623538 1.1581803581983094 -6.604166865444773 1.0968349510392974 -6.613426607076835 1.1355268261046496 -6.661923417266007 1.1128732940109898 -6.719679969087243
-0.022435827617321567 -0.8815039576324307
4 7.091339239569262 2.7259122350778124 6.97254680045318 2.631136883976184 7.232813320833903 2.670422640576583 7.068657597420703 2.87617718068067
-0.31590995197232585 -0.32521156465500717
4 5.860982617365703 -4.774726351706676 5.742190178249621 -4.869501702808304 6.002456698630344 -4.830215946207905 5.838300975217145 -4.624461406103818
0.017520572262819077 -0.02233048868368715
12 2.35738453669968 -0.983126563601802 2.396076411765032 -1.031623373790975 2.418729943858692 -0.9738668219697398 2.480075351017704 -0.9646070803376778 2.441383475952352 -0.9161102701485047 2.4640370080460117 -0.8583537183272695 2.4026916008869996 -0.8676134599593316 2.3639997258216474 -0.8191166497701584 2.3413461937279876 -0.8768732015913937 2.2800007865689755 -0.8861329432234557 2.3186926616343277 -0.9346297534126289 2.296039129540668 -0.9923863052338641
0.004987283838754891 0.0729781689148692
3 2.020987418425703 2.040601295034916 2.1889852969310466 2.174633881941511 1.9889107324823183 2.253108019055733
0.5112633685979323 0.4001834853734354
20 -1.8919629940334035 9.2430030455721 -1.8358029690397368 9.293602821332438 -1.8391948718457716 9.331246764058006 -1.8172868867716379 9.340810694286741 -1.7919869988914692 9.312730681789908 -1.716699113440333 9.319514487401976 -1.7672988892006707 9.375674512395644 -1.8049428319262386 9.37228260958961 -1.814506762154973 9.394190594663742 -1.7864267496581396 9.419490482543912 -1.7932105552702096 9.494778367995048 -1.8493705802638762 9.44417859223471 -1.8459786774578415 9.406534649509142 -1.8678866625319752 9.396970719280407 -1.893186550412144 9.42505073177724 -1.96847443586328 9.418266926165172 -1.9178746601029424 9.362106901171504 -1.8802307173773745 9.36549880397754 -1.87066678714864 9.343590818903406 -1.8987467996454734 9.318290931023236
-0.02574351536479721 0.017707619528178925
4 -2.111294779035841 -3.3891165287948466 -1.9816853914503099 -3.3325355545216553 -2.0382663657235014 -3.202926166936124 -2.1678757533090325 -3.2595071412093155
-0.10952850614887286 -0.054781655784014525
20 7.25286596197937 0.526932079404855 7.309025986973037 0.5775318551651923 7.305634084167002 0.6151757978907604 7.327542069241136 0.6247397281194949 7.352841957121305 0.5966597156226614 7.4281298425724405 0.6034435212347312 7.377530066812103 0.6596035462283981 7.339886124086535 0.6562116434223632 7.3303221938578 0.678119628496497 7.358402206354634 0.7034195163766657 7.351618400742564 0.7787074018278016 7.295458375748897 0.7281076260674643 7.298850278554932 0.6904636833418962 7.276942293480798 0.6808997531131618 7.251642405600629 0.7089797656099952 7.176354520149493 0.7021959599979254 7.226954295909831 0.6460359350042585 7.264598238635399 0.6494278378102935 7.274162168864134 0.6275198527361596 7.2460821563673 0.6022199648559909
-0.47160918553667497 -0.07880064408651422
5 -2.6619309992975837 -5.98058120280896 -2.5575869746975965 -5.953433367197937 -2.5511620237958947 -5.845807160101355 -2.6515352103625807 -5.806438341646453 -2.719994202121629 -5.889733280840983
0.20519578150685894 -0.3157065174197613
4 3.979421907131483 8.999734077490045 4.109031294717014 9.056315051763237 4.052450320443823 9.185924439348769 3.922840932858292 9.129343465075577
0.42405422905115203 0.2111441532047347
4 -4.229702760075929 -9.547998515204789 -4.348495199192011 -9.642773866306417 -4.088228678811288 -9.603488109706019 -4.252384402224488 -9.39773356960193
0.21659906726950115 -0.3528662826040008
12 -9.854026033833769 6.341025718161969 -9.815334158768417 6.292528907972796 -9.792680626674757 6.350285459794032 -9.731335219515746 6.359545201426093 -9.770027094581097 6.408042011615266 -9.747373562487438 6.465798563436501 -9.80871896964645 6.45653882180444 -9.847410844711801 6.5050356319936125 -9.87006437680546 6.447279080172377 -9.931409783964472 6.4380193385403155 -9.89271790889912 6.389522528351143 -9.91537144099278 6.3317659765299075
0.3696304044817193 0.1202125115563279
6 -3.8225709267079084 1.5337259907558707 -3.735815419914334 1.5468212429560038 -3.7037784875918263 1.6285013418574992 -3.758497062062893 1.6970861885588615 -3.845252568856467 1.6839909363587284 -3.877289501178975 1.6023108374572332
0.1824530670294621 0.1620792217048317
12 4.935950991848458 8.245312125419225 4.974642866913809 8.196815315230053 4.997296399007469 8.254571867051288 5.058641806166482 8.26383160868335 5.019949931101129 8.312328418872523 5.042603463194789 8.370084970693759 4.981258056035777 8.360825229061696 4.9425661809704255 8.409322039250869 4.919912648876766 8.351565487429633 4.858567241717753 8.342305745797571 4.897259116783106 8.293808935608398 4.874605584689446 8.236052383787163
-0.3251221592435475 0.06821639923599015
3 -7.667677714776547 1.0313556063371474 -7.499679836271203 1.165388193243742 -7.6997544007199314 1.2438623303579641
-7.179286143798158E-5 -0.0017073227775080307
4 -5.356194287470776 5.1019579181462955 -5.474986726586859 5.0071825670446675 -5.2147202062061355 5.046468323645066 -5.378875929619335 5.252222863749153
0.40814891587397073 -0.17657843027249565
4 -5.314964639237825 5.406199297510888 -5.433757078353907 5.31142394640926 -5.173490557973184 5.350709703009659 -5.337646281386384 5.556464243113745
0.1124190591383281 -0.23047095826357522
20 -0.18386957724548397 -4.78122611266821 -0.12770955225181713 -4.730626336907872 -0.13110145505785203 -4.692982394182304 -0.10919346998371823 -4.683418463953569 -0.08389358210354952 -4.711498476450403 -0.008605696652413591 -4.704714670838333 -0.05920547241275102 -4.6485546458446665 -0.09684941513831899 -4.6519465486507015 -0.10641334536705352 -4.6300385635765675 -0.0783333328702201 -4.604738675696399 -0.0851171384822899 -4.529450790245263 -0.14127716347595676 -4.580050566005601 -0.13788526066992185 -4.6176945087311685 -0.15979324574405565 -4.627258438959903 -0.18509313362422436 -4.5991784264630695 -0.26038101907536026 -4.605962232075139 -0.20978124331502285 -4.662122257068806 -0.1721373005894549 -4.658730354262771 -0.16257337036072037 -4.680638339336905 -0.1906533828575538 -4.705938227217074
0.6217297733413725 -0.21700305682879742
4 3.0544331859023686 5.227634785895507 2.9356407467862864 5.132859434793879 3.1959072671670095 5.172145191394278 3.0317515437538103 5.377899731498364
0.016609928452334277 0.015424356197779928
3 -1.5298838621724222 -0.6372645396897595 -1.3618859836670785 -0.5032319527831648 -1.5619605481158068 -0.4247578156689428
0.2680977695857829 -0.4220746873543563
4 3.1032904547174383 5.887055815451227 2.984498015601356 5.792280464349599 3.244764535982079 5.831566220949997 3.08060881256888 6.037320761054084
0.45160534949964576 0.018436202083523614
20 6.3085468773352735 6.142254297789632 6.36470690232894 6.19285407354997 6.3613149995229055 6.230498016275538 6.383222984597039 6.240061946504273 6.408522872477208 6.211981934007439 6.483810757928344 6.218765739619509 6.433210982168006 6.274925764613176 6.395567039442438 6.271533861807141 6.3860031092137035 6.293441846881275 6.414083121710537 6.318741734761444 6.4072993160984675 6.39402962021258 6.351139291104801 6.343429844452242 6.3545311939108355 6.305785901726674 6.332623208836702 6.296221971497939 6.307323320956533 6.324301983994773 6.232035435505397 6.317518178382703 6.282635211265735 6.261358153389036 6.320279153991303 6.264750056195071 6.3298430842200375 6.242842071120937 6.301763071723204 6.217542183240768
7.04273894187229E-4 -0.049595456171069814
3 9.7261936236169 2.147726179533546 9.894191502122244 2.2817587664401406 9.694116937673517 2.3602329035543628
0.12951348753512162 -0.33913951519863594
4 9.162668407505388 2.709432023274963 9.29227779509092 2.766012997548154 9.235696820817727 2.8956223851336853 9.106087433232195 2.839041410860494
-0.3245087844225751 -0.09475326078567463
6 -8.227940725760568 7.568151314725059 -8.141185218966994 7.581246566925192 -8.109148286644485 7.662926665826687 -8.163866861115551 7.73151151252805 -8.250622367909125 7.718416260327917 -8.282659300231634 7.6367361614264215
-0.1475926720690752 0.24857071636441622
4 -1.7084605067657603 1.8919880944605747 -1.5788511191802292 1.9485690687337665 -1.635432093453421 2.0781784563192973 -1.765041481038952 2.021597482046106
0.17443657788001946 -0.4358621891925723
3 3.241031570114693 8.596298702562382 3.4090294486200365 8.730331289468976 3.208954884171308 8.808805426583199
0.37469666766579374 -0.07516797504429426
4 -3.45536860315399 -1.0556688534535237 -3.574161042270072 -1.150444204555152 -3.313894521889349 -1.111158447954753 -3.478050245302548 -0.905403907850666
0.17332239136149616 -0.06193976522474692
12 6.63269896002295 2.7852189269926892 6.671390835088301 2.736722116803516 6.694044367181961 2.7944786686247514 6.755389774340974 2.8037384102568135 6.716697899275621 2.8522352204459867 6.739351431369281 2.909991772267222 6.678006024210269 2.90073203063516 6.6393141491449175 2.949228840824333 6.616660617051258 2.8914722890030977 6.555315209892245 2.8822125473710356 6.594007084957598 2.8337157371818624 6.571353552863938 2.775959185360627
-0.520447707616337 -0.12739079091140934
4 -1.915938218131332 4.327476696415363 -1.786328830545801 4.384057670688554 -1.8429098048189927 4.513667058274085 -1.9725191924045238 4.457086084000894
-0.0014681331325835116 0.007505816665804022
5 4.641450240217499 -10.0 4.745794264817486 -9.972852164388978 4.7522192157191885 -9.865225957292395 4.651846029152503 -9.825857138837494 4.583387037393454 -9.909152078032022
0.2393735103117349 -0.34007662097003744
12 8.478138900819221 -9.28469671531255 8.516830775884573 -9.333193525501724 8.539484307978233 -9.275436973680488 8.600829715137245 -9.266177232048426 8.562137840071893 -9.217680421859253 8.584791372165553 -9.159923870038018 8.523445965006541 -9.16918361167008 8.48475408994119 -9.120686801480907 8.46210055784753 -9.178443353302143 8.400755150688518 -9.187703094934205 8.43944702575387 -9.236199905123378 8.41679349366021 -9.293956456944613
0.35195798638642745 0.6199261778230523
12 0.9507401694504143 2.386703981832312 0.9894320445157665 2.338207171643139 1.0120855766094263 2.3959637234643743 1.0734309837684384 2.4052234650964364 1.0347391087030862 2.4537202752856095 1.057392640796746 2.511476827106845 0.996047233637734 2.5022170854747827 0.9573553585723817 2.550713895663956 0.9347018264787219 2.4929573438427206 0.87335641931971 2.4836976022106585 0.9120482943850621 2.4352007920214853 0.8893947622914022 2.37744424020025
-0.2146393504256597 -0.4529625974255765
4 -4.816760239702715 -5.467145845657582 -4.935552678818797 -5.56192119675921 -4.675286158438074 -5.522635440158811 -4.839441881851274 -5.316880900054724
0.2561079393989514 -0.28574592932881554
4 8.64470779912152 4.02912498239389 8.525915360005436 3.9343496312922617 8.78618188038616 3.973635387892661 8.62202615697296 4.1793899279967475
0.0011885274275335862 0.0032523545208944606
6 1.9992192606379158 5.154789645582211 2.08597476743149 5.167884897782344 2.118011699753998 5.249564996683839 2.0632931252829314 5.318149843385202 1.9765376184893573 5.305054591185069 1.9445006861668492 5.223374492283574
0.06110489014614522 -0.7222242460679006
20 6.554828655799176 -9.6548440511423 6.610988680792843 -9.604244275381962 6.607596777986808 -9.566600332656394 6.629504763060942 -9.55703640242766 6.654804650941111 -9.585116414924492 6.730092536392247 -9.578332609312424 6.679492760631909 -9.522172584318756 6.641848817906341 -9.525564487124791 6.632284887677606 -9.503656502050658 6.66036490017444 -9.478356614170488 6.65358109456237 -9.403068728719353 6.5974210695687034 -9.45366850447969 6.600812972374738 -9.491312447205258 6.5789049873006045 -9.500876377433993 6.553605099420436 -9.47279636493716 6.4783172139693 -9.479580170549228 6.5289169897296375 -9.535740195542896 6.5665609324552054 -9.532348292736861 6.57612486268394 -9.554256277810994 6.5480448501871065 -9.579556165691164
-0.058941362728835066 0.2696123061873726
5 8.695401867764241 -7.426390401102527 8.799745892364228 -7.399242565491505 8.80617084326593 -7.291616358394923 8.705797656699243 -7.252247539940021 8.637338664940195 -7.335542479134551
-0.005958276811240439 -5.66493357133589E-4
12 6.792419067638907 -7.772274512238864 6.8311109427042584 -7.820771322428037 6.853764474797918 -7.763014770606802 6.915109881956931 -7.75375502897474 6.876418006891578 -7.705258218785567 6.899071538985238 -7.647501666964332 6.837726131826226 -7.6567614085963935 6.799034256760875 -7.608264598407221 6.776380724667215 -7.666021150228456 6.715035317508202 -7.675280891860518 6.753727192573555 -7.7237777020496905 6.731073660479895 -7.781534253870926
-0.2559154026299091 -0.6478637447801779
20 -9.77196352182408 6.502137226286576 -9.715803496830413 6.552737002046914 -9.719195399636448 6.590380944772482 -9.697287414562314 6.599944875001217 -9.671987526682145 6.571864862504383 -9.596699641231009 6.578648668116453 -9.647299416991347 6.63480869311012 -9.684943359716915 6.631416790304085 -9.69450728994565 6.653324775378219 -9.666427277448816 6.678624663258388 -9.673211083060885 6.753912548709524 -9.729371108054552 6.703312772949186 -9.725979205248517 6.665668830223618 -9.74788719032265 6.656104899994883 -9.77318707820282 6.684184912491717 -9.848474963653956 6.677401106879647 -9.797875187893618 6.62124108188598 -9.76023124516805 6.624632984692015 -9.750667314939315 6.602724999617881 -9.778747327436148 6.577425111737712
-0.07811413024041443 -0.14484524042371297
3 3.127312678898063 5.1232878035450575 3.2953105574034067 5.257320390451652 3.095235992954678 5.3357945275658745
-0.03604945140201185 -0.003924552905997752
5 5.0953847280158415 -0.22521830264241194 5.199728752615829 -0.19807046703139042 5.206153703517531 -0.09044425993480779 5.105780516950845 -0.051075441479906086 5.037321525191796 -0.13437038067443535
-0.11303960431406712 0.3158927040622032
6 6.5028362387973795 1.6087147881307704 6.589591745590954 1.6218100403309035 6.621628677913462 1.703490139232399 6.566910103442395 1.7720749859337612 6.480154596648821 1.7589797337336281 6.448117664326313 1.677299634832133
0.0640618510427838 0.09119954678679713
4 -3.0930366677859666 -4.523315157692858 -3.212730522406067 -4.616949510009555 -2.9521000127027546 -4.580155900312398 -3.114279468249078 -4.372840062756621
0.08322691080829814 0.38890888089321074
5 -9.785062917848496 -4.348882532246861 -9.680463907143967 -4.322734350518113 -9.673009433863857 -4.215174547263357 -9.773001326713048 -4.174847114757414 -9.8422541883734 -4.25748319404448
0.06314866444789471 -0.058231888602989716
4 -4.530246919164734 6.394542261538664 -4.649940773784834 6.3009079092219675 -4.389310264081522 6.337701518919124 -4.551489719627845 6.545017356474901
0.0011908908439593273 0.015506148511851902
4 -2.1767780407167114 9.24580872674455 -2.2964718953368117 9.152174374427853 -2.0358413856334994 9.188967984125009 -2.1980208411798228 9.396283821680786
0.24730817665698432 -0.382956844300037
12 9.692672974651511 4.704057331933428 9.730899038913494 4.655192520405742 9.754104174916618 4.7127296689071585 9.815535375181724 4.721402005880888 9.777309310919742 4.770266817408575 9.800514446922865 4.827803965909991 9.73908324665776 4.819131628936261 9.700857182395778 4.867996440463947 9.677652046392653 4.81045929196253 9.616220846127547 4.801786954988801 9.65444691038953 4.752922143461114 9.631241774386407 4.6953849949596975
0.056133530399029324 0.07181081325993054
5 5.584750201827969 8.280318053022578 5.689349212532497 8.306466234751326 5.6968036858126085 8.414026038006082 5.596811792963416 8.454353470512025 5.527558931303067 8.371717391224959
0.29768619048847605 -0.4842908231733948
12 -8.176956550688894 -5.992268903356113 -8.138730486426912 -6.041133714883799 -8.115525350423788 -5.983596566382382 -8.054094150158681 -5.974924229408653 -8.092320214420663 -5.926059417880966 -8.069115078417541 -5.868522269379549 -8.130546278682646 -5.87719460635328 -8.168772342944628 -5.828329794825594 -8.191977478947752 -5.88586694332701 -8.253408679212859 -5.89453928030074 -8.215182614950876 -5.943404091828427 -8.238387750953999 -6.000941240329843
0.01623878761899279 0.13217461938373493
20 -7.748535979475943 9.001296101246451 -7.691894363745587 9.05135619595012 -7.694925916907948 9.089030870653364 -7.672927422718474 9.098384737491429 -7.6478973753666395 9.07006392962625 -7.5725480259601525 9.076127035950972 -7.622608120663822 9.132768651681328 -7.660282795367065 9.129737098518968 -7.66963666220513 9.151735592708443 -7.641315854339952 9.176765640060276 -7.647378960664674 9.252114989466763 -7.70402057639503 9.202054894763094 -7.700989023232669 9.16438022005985 -7.722987517422143 9.155026353221785 -7.748017564773978 9.183347161086964 -7.823366914180465 9.177284054762243 -7.773306819476796 9.120642439031887 -7.735632144773552 9.123673992194247 -7.726278277935487 9.101675498004772 -7.754599085800665 9.076645450652938
0.20136160991202232 0.42840214727384196
6 3.018637880570109 1.149518667222202 3.1055147171378796 1.161783203787921 3.138331735190209 1.2431530195388987 3.084271916674768 1.3122582987241578 2.997395080106997 1.2999937621584388 2.9645780620546676 1.218623946407461
0.17673049024105944 -0.3651219028356408
4 6.209301834950637 -0.4004850047541496 6.339446681683618 -0.3451467822596665 6.2841084591891345 -0.2150019355266856 6.153963612456153 -0.2703401580211687
-0.04405321861564573 -0.22403935847048093
12 -2.783005131368712 -2.8433482286177876 -2.7447790671067294 -2.8922130401454735 -2.7215739311036056 -2.834675891644057 -2.6601427308384995 -2.826003554670327 -2.698368795100482 -2.777138743142641 -2.6751636590973584 -2.7196015946412246 -2.7365948593624645 -2.7282739316149547 -2.774820923624447 -2.6794091200872687 -2.798026059627571 -2.736946268588685 -2.859457259892677 -2.745618605562415 -2.8212311956306944 -2.794483417090101 -2.844436331633818 -2.8520205655915176
-0.3839682441824747 -0.2872455331900148
12 -0.2978852791200997 9.284006525038128 -0.2596592148581172 9.23514171351044 -0.2364540788549936 9.292678862011858 -0.17502287858988744 9.301351198985587 -0.21324894285186993 9.350216010513273 -0.19004380684874628 9.40775315901469 -0.25147500711385246 9.39908082204096 -0.28970107137583495 9.447945633568647 -0.3129062073789586 9.39040848506723 -0.37433740764406476 9.3817361480935 -0.3361113433820822 9.332871336565814 -0.3593164793852059 9.275334188064397
-0.00229155055130769 -0.003355627827493635
4 -2.0571236174364813 3.6651898469687625 -1.9269787707035004 3.7205280694632457 -1.9823169931979834 3.8506729161962268 -2.1124618399309645 3.7953346937017436
0.5220122864546637 0.06859251255184083
12 3.2457259304314605 0.8651648232454799 3.2839519946934432 0.8163000117177938 3.307157130696567 0.8738371602192101 3.368588330961673 0.8825094971929404 3.3303622666996904 0.9313743087206265 3.353567402702814 0.9889114572220429 3.292136202437708 0.9802391202483126 3.2539101381757254 1.029103931775999 3.2307050021726016 0.9715667832745825 3.1692738019074955 0.9628944463008522 3.2074998661694782 0.914029634773166 3.1842947301663544 0.8564924862717497
0.04498272951247831 0.08529601826676429
3 0.7214182791399585 -8.005561507152638 0.890690951676418 -7.873142536202345 0.6913764226222407 -7.7927575870944334
0.46534256877132274 -0.3323098724181323
4 2.6187511915149777 -3.4214483785776943 2.748896038247959 -3.366110156083211 2.6935578157534756 -3.23596530935023 2.5634129690204945 -3.2913035318447132
0.041909314883032456 -0.14242616947861597
5 1.104212650055812 6.896822255690145 1.2088116607603407 6.922970437418893 1.2162661340404515 7.03053024067365 1.116274241191259 7.070857673179592 1.0470213795309098 6.9882215938925265
0.010199958013117353 -0.1398127871771196
5 -6.219577644682456 7.576398904913768 -6.114978633977928 7.602547086642517 -6.107524160697817 7.710106889897273 -6.2075160535470095 7.7504343224032155 -6.2767689152073585 7.66779824311615
-0.015441052175244198 0.3933081815226871
5 2.9632654620259067 -3.814394708224698 3.067864472730436 -3.78824652649595 3.0753189460105466 -3.6806867232411937 2.975327053161354 -3.640359290735251 2.9060741915010047 -3.7229953700223173
0.007577227938413874 -0.004142811021772787
12 -7.708790606941249 -4.435241942014387 -7.670564542679267 -4.484106753542073 -7.647359406676143 -4.426569605040656 -7.585928206411037 -4.417897268066927 -7.624154270673019 -4.36903245653924 -7.600949134669896 -4.3114953080378235 -7.662380334935002 -4.320167645011554 -7.700606399196984 -4.271302833483868 -7.723811535200108 -4.3288399819852845 -7.785242735465214 -4.337512318959014 -7.747016671203232 -4.386377130486701 -7.770221807206355 -4.443914278988117
-0.2262349510245449 -0.18036171332381568
4 8.948933290118699 -6.245771422548848 9.07907813685168 -6.190433200054365 9.023739914357197 -6.060288353321384 8.893595067624217 -6.115626575815867
0.18230344712654242 0.4857283240902957
5 -9.903098253950354 -1.3489141588335458 -9.798499243245825 -1.3227659771047977 -9.791044769965715 -1.2152061738500413 -9.891036662814907 -1.1748787413440984 -9.960289524475257 -1.2575148206311648
0.12738338194320514 -0.11251652023789657
4 3.0554150815193992 -7.030601119381182 3.1855599282523803 -6.975262896886699 3.130221705757897 -6.845118050153718 3.000076859024916 -6.900456272648201
0.12419692053098884 -0.037070887172539646
5 9.459705702265103 2.211961708019127 9.564304712969632 2.238109889747875 9.571759186249741 2.3456696930026313 9.47176729340055 2.385997125508574 9.4025144317402 2.3033610462215077
0.18125720841596799 -0.4480596044338002
5 0.1348894555677888 9.698333823356576 0.23948846627231762 9.724482005085324 0.2469429395524283 9.83204180834008 0.14695104670323578 9.872369240846023 0.07769818504288657 9.789733161558956
-0.4661362776242038 0.09822724270304987
5 -1.1213569085118602 6.591315661979271 -1.0167578978073315 6.61746384370802 -1.0093034245272208 6.725023646962776 -1.1092953173764133 6.765351079468719 -1.1785481790367625 6.682715000181653
0.5342378865786064 -0.02732806530625855
5 6.640815192053333 8.0733507773472 6.745414202757861 8.099498959075948 6.752868676037973 8.207058762330703 6.65287678318878 8.247386194836647 6.583623921528431 8.16475011554958
-0.2558427737632411 0.23354728876333242
5 6.136693990279179 -6.379972756101781 6.241293000983707 -6.353824574373032 6.248747474263818 -6.246264771118276 6.148755581414625 -6.205937338612333 6.079502719754276 -6.288573417899399
0.43064981987070783 -0.05258796691031346
12 1.5812041535219208 1.6241469737338692 1.6194302177839033 1.575282162206183 1.6426353537870269 1.6328193107075994 1.704066554052133 1.6414916476813297 1.6658404897901504 1.690356459209016 1.6890456257932742 1.7478936077104321 1.627614425528168 1.739221270736702 1.5893883612661854 1.7880860822643883 1.5661832252630619 1.7305489337629718 1.5047520249979558 1.7218765967892415 1.5429780892599383 1.6730117852615554 1.5197729532568145 1.6154746367601391
-0.14058966485508514 -0.09320437432909619
4 3.4551042996407944 2.4864781432810803 3.5852491463737755 2.5418163657755635 3.5299109238792923 2.6719612125085446 3.399766077146311 2.6166229900140614
-0.2692188478520608 0.08297164806640465
12 -0.720023558412428 -6.0230023636596774 -0.6817974941504455 -6.071867175187363 -0.6585923581473219 -6.014330026685947 -0.5971611578822157 -6.005657689712217 -0.6353872221441982 -5.9567928781845305 -0.6121820861410746 -5.899255729683114 -0.6736132864061807 -5.907928066656845 -0.7118393506681632 -5.859063255129159 -0.7350444866712869 -5.916600403630575 -0.796475686936393 -5.925272740604305 -0.7582496226744105 -5.9741375521319915 -0.7814547586775341 -6.031674700633408
-0.4130510915745029 0.41497675138067397
4 4.995766214756031 2.5148353986409084 4.876072360135931 2.4212010463242115 5.136702869839243 2.4579946560213686 4.9745234142929196 2.6653104935771452
0.1413095035148315 -0.2805093776438385
6 5.779992400882054 1.7527035956253276 5.866869237449825 1.7649681321910466 5.8996862555021545 1.8463379479420243 5.845626436986714 1.9154432271272834 5.758749600418943 1.9031786905615644 5.725932582366613 1.8218088748105867
-0.007905182827537736 0.15508924434272472
5 -9.724372896333156 3.799271552819143 -9.619773885628627 3.825419734547891 -9.612319412348517 3.9329795378026473 -9.712311305197709 3.97330697030859 -9.78156416685806 3.8906708910215237
0.04899553459393563 0.4223232368041399
3 -8.142837808098827 -2.5293549735642067 -7.973565135562368 -2.3969360026139133 -8.172879664616545 -2.3165510535060014
-0.12851521657182746 -0.3088798433618507
3 -4.195581243048452 5.940885225014641 -4.0263085705119925 6.073304195964934 -4.225623099566169 6.153689145072846
0.09316673149529514 0.531213365717341
4 -9.734606692412914 8.794882043006773 -9.854300547033015 8.701247690690076 -9.593670037329701 8.738041300387232 -9.755849492876026 8.94535713794301
-0.5497184049692109 -0.2919669367866325
4 -5.47525253245572 5.810765783450864 -5.345107685722739 5.866104005945347 -5.400445908217222 5.996248852678328 -5.530590754950203 5.940910630183845
-0.33336703263124917 -0.13247977933417096
20 0.7141182768474124 0.6234467475641736 0.7707598925777689 0.6735068422678429 0.7677283394154082 0.7111815169710863 0.789726833604882 0.7205353838091514 0.8147568809567167 0.6922145759439732 0.8901062303632035 0.6982776822686947 0.8400461356595342 0.7549192979990512 0.8023714609562907 0.7518877448366905 0.7930175941182257 0.7738862390261644 0.8213384019834039 0.798916286377999 0.8152752956586824 0.8742656357844858 0.7586336799283259 0.8242055410808166 0.7616652330906866 0.7865308663775731 0.7396667389012127 0.777176999539508 0.714636691549378 0.8054978074046862 0.6392873421428913 0.7994347010799647 0.6893474368465605 0.7427930853496082 0.727022111549804 0.7458246385119689 0.7363759783878691 0.723826144322495 0.7080551705226908 0.6987960969706604
-0.09937041734699448 -0.369616395123754
12 -1.833943298334643 5.003733482512758 -1.7957172340726606 4.954868670985072 -1.772512098069537 5.012405819486489 -1.711080897804431 5.021078156460218 -1.7493069620664135 5.069942967987905 -1.7261018260632897 5.127480116489322 -1.787533026328396 5.118807779515591 -1.8257590905903784 5.167672591043277 -1.848964226593502 5.110135442541861 -1.910395426858608 5.101463105568131 -1.8721693625966256 5.052598294040444 -1.8953744985997494 4.995061145539028
-0.48742234045612004 0.26986142376228184
3 -8.25656299869181 -0.5102291085429068 -8.087290326155351 -0.3778101375926136 -8.286604855209529 -0.2974251884847017
0.6760645418145292 0.08377519841264502
12 -7.098971978369492 -0.8154548003298182 -7.0607459141075095 -0.8643196118575044 -7.037540778104386 -0.806782463356088 -6.97610957783928 -0.7981101263823578 -7.014335642101262 -0.7492453148546716 -6.991130506098139 -0.6917081663532553 -7.052561706363245 -0.7003805033269855 -7.090787770625227 -0.6515156917992994 -7.113992906628351 -0.7090528403007157 -7.175424106893457 -0.717725177274446 -7.137198042631475 -0.7665899888021321 -7.160403178634598 -0.8241271373035485
0.03007889557926304 0.08150890332718468
20 2.972997373185831 1.2036260588891174 3.0296389889161874 1.2536861535927868 3.0266074357538266 1.29136082829603 3.0486059299433004 1.3007146951340953 3.073635977295135 1.272393887268917 3.148985326701622 1.2784569935936385 3.098925231997953 1.3350986093239952 3.0612505572947093 1.3320670561616343 3.051896690456644 1.354065550351108 3.0802174983218222 1.3790955977029429 3.0741543919971006 1.4544449471094296 3.017512776266744 1.4043848524057603 3.020544329429105 1.366710177702517 2.9985458352396313 1.3573563108644517 2.9735157878877967 1.3856771187296302 2.8981664384813097 1.3796140124049086 2.948226533184979 1.322972396674552 2.9859012078882223 1.3260039498369127 2.9952550747262876 1.304005455647439 2.9669342668611094 1.2789754082956042
0.5277524335863877 0.035329828875283166
12 3.6155798497368434 4.720930511285762 3.653805913998826 4.672065699758076 3.67701105000195 4.729602848259493 3.738442250267056 4.738275185233222 3.7002161860050733 4.787139996760909 3.723421322008197 4.844677145262326 3.661990121743091 4.836004808288595 3.6237640574811083 4.884869619816281 3.6005589214779845 4.827332471314865 3.5391277212128784 4.818660134341135 3.577353785474861 4.769795322813448 3.5541486494717374 4.712258174312032
0.028994288225551758 -0.9009604821712286
4 8.369518021625488 9.800585941122883 8.249824167005388 9.706951588806186 8.5104546767087 9.743745198503342 8.348275221162377 9.95106103605912
0.144393569479333 0.5323168503850022
6 2.5484911782542468 -5.5646288555884516 2.6353680148220175 -5.552364319022733 2.668185032874347 -5.470994503271755 2.6141252143589058 -5.401889224086497 2.527248377791135 -5.414153760652215 2.4944313597388055 -5.495523576403193
-0.023970631758672322 0.0049657372903257994
12 8.931478216191742 -6.883249055564047 8.969704280453724 -6.932113867091733 8.992909416456849 -6.874576718590316 9.054340616721955 -6.865904381616587 9.016114552459973 -6.8170395700889 9.039319688463095 -6.7595024215874835 8.97788848819799 -6.768174758561214 8.939662423936008 -6.719309947033528 8.916457287932884 -6.7768470955349445 8.855026087667778 -6.785519432508674 8.89325215192976 -6.834384244036361 8.870047015926637 -6.891921392537777
-0.005394545971899558 0.004239772056566583
3 -9.429334851103619 -9.764396429612692 -9.260062178567159 -9.631977458662398 -9.459376707621336 -9.551592509554487
0.02382279859299955 -0.06703481860174648
4 -9.768421317327668 5.579823671653254 -9.638276470594688 5.635161894147737 -9.69361469308917 5.765306740880718 -9.82375953982215 5.709968518386235
-0.0366613986651822 -0.26106476514852606
5 3.3883340284375687 -6.501959353413182 3.492933039142098 -6.475811171684433 3.5003875124222086 -6.368251368429677 3.400395619573016 -6.327923935923734 3.3311427579126667 -6.4105600152108
0.09335981059025099 0.19071830123297295
6 -7.389224301618601 -6.325235958793207 -7.30234746505083 -6.312971422227489 -7.2695304469985 -6.23160160647651 -7.323590265513941 -6.162496327291252 -7.410467102081712 -6.17476086385697 -7.443284120134042 -6.256130679607948
0.02724784456640968 -0.05204796800900417
4 -1.7287602815607617 -4.519576873636839 -1.8484541361808622 -4.613211225953536 -1.5878236264775498 -4.576417616256379 -1.7500030820238732 -4.369101778700602
-0.4180244938989536 -0.11736066516641173
5 5.91455466114323 -3.3479644554809327 6.019153671847758 -3.3218162737521846 6.026608145127869 -3.2142564704974284 5.926616252278676 -3.1739290379914857 5.857363390618327 -3.256565117278552
-0.2182211028479336 -0.6359081487581318
4 6.100542729170417 -0.03492748929027023 5.9808488745503166 -0.12856184160696696 6.241479384253629 -0.09176823190981023 6.0792999287073055 0.1155476056459665
0.04722137036411764 0.02351669845031175
4 3.402645954558217 -9.315328933927898 3.532790801291198 -9.259990711433415 3.477452578796715 -9.129845864700435 3.347307732063734 -9.185184087194918
0.1787627169969196 0.34443626861785964
6 4.2747835242912755 3.0592077110721125 4.361660360859046 3.0714722476378316 4.394477378911376 3.1528420633888095 4.340417560395935 3.2219473425740683 4.253540723828165 3.2096828060083493 4.220723705775835 3.1283129902573714
0.12559027832449926 0.017533099732446475
20 4.563248495243028 -7.567907571469825 4.619890110973384 -7.517847476766156 4.616858557811023 -7.480172802062913 4.638857052000497 -7.470818935224847 4.663887099352332 -7.4991397430900255 4.7392364487588186 -7.493076636765304 4.689176354055149 -7.4364350210349475 4.651501679351906 -7.439466574197309 4.642147812513841 -7.4174680800078345 4.670468620379019 -7.392438032656 4.664405514054297 -7.317088683249513 4.607763898323941 -7.367148777953182 4.610795451486302 -7.404823452656426 4.588796957296828 -7.414177319494491 4.563766909944993 -7.385856511629313 4.488417560538506 -7.391919617954034 4.5384776552421755 -7.448561233684391 4.576152329945419 -7.4455296805220295 4.585506196783484 -7.467528174711504 4.557185388918306 -7.492558222063338
0.3636669744073982 -0.27818753189536405
12 3.758557847718429 8.960911224451992 3.7967839119804117 8.912046412924305 3.8199890479835354 8.969583561425722 3.8814202482486415 8.978255898399452 3.843194183986659 9.027120709927138 3.8663993199897826 9.084657858428555 3.8049681197246765 9.075985521454824 3.766742055462694 9.124850332982511 3.74353691945957 9.067313184481094 3.682105719194464 9.058640847507364 3.7203317834564467 9.009776035979678 3.697126647453323 8.952238887478261
0.7791345301945883 -0.09864387508682942
20 -9.658313906802421 -4.49466958923086 -9.601672291072065 -4.444609494527191 -9.604703844234425 -4.406934819823947 -9.58270535004495 -4.397580952985882 -9.557675302693116 -4.42590176085106 -9.48232595328663 -4.419838654526338 -9.532386047990299 -4.363197038795982 -9.570060722693542 -4.366228591958343 -9.579414589531607 -4.344230097768869 -9.55109378166643 -4.3192000504170345 -9.55715688799115 -4.2438507010105475 -9.613798503721506 -4.293910795714217 -9.610766950559146 -4.33158547041746 -9.632765444748621 -4.340939337255525 -9.657795492100455 -4.312618529390347 -9.733144841506942 -4.318681635715069 -9.683084746803273 -4.375323251445425 -9.645410072100029 -4.372291698283064 -9.636056205261964 -4.394290192472538 -9.664377013127142 -4.419320239824373
-0.1262493309135226 0.1423425750164097
3 -4.8880973209665335 -1.789559824305252 -4.718824648430074 -1.657140853354959 -4.9181391774842504 -1.576755904247047
0.05083092612984237 -0.2370451532567731
3 5.663738756320417 6.790775360345377 5.833011428856877 6.92319433129567 5.6336968998027 7.0035792804035815
-0.4103181750677118 0.4617351484123314
12 -5.10811171726224 5.759348980985828 -5.069885653000258 5.710484169458142 -5.046680516997134 5.768021317959558 -4.985249316732028 5.776693654933288 -5.02347538099401 5.825558466460975 -5.000270244990887 5.883095614962391 -5.061701445255993 5.874423277988661 -5.0999275095179755 5.923288089516347 -5.123132645521099 5.86575094101493 -5.184563845786205 5.857078604041201 -5.146337781524223 5.808213792513514 -5.169542917527346 5.750676644012097
-0.04345919857572858 0.08284159956944522
12 -8.086851554305873 3.6139602711533856 -8.048625490043891 3.5650954596256996 -8.025420354040767 3.622632608127116 -7.96398915377566 3.631304945100846 -8.002215218037643 3.680169756628532 -7.979010082034519 3.7377069051299485 -8.040441282299625 3.7290345681562185 -8.078667346561607 3.7778993796839044 -8.101872482564731 3.720362231182488 -8.163303682829838 3.711689894208758 -8.125077618567856 3.662825082681072 -8.148282754570978 3.6052879341796555
-0.15420822599402284 -0.8060521041618275
4 -1.0571608873020217 -6.5438661158430556 -1.1768547419221222 -6.637500468159752 -0.9162242322188099 -6.600706858462596 -1.0784036877651333 -6.393391020906819
0.04451420273710464 -0.0678498501164236
3 -9.243152751119771 1.5165494418350607 -9.073880078583311 1.6489684127853537 -9.273194607637489 1.7293533618932657
0.05860805271161357 0.08862018214151389
20 2.3162506010984645 2.510875782577491 2.372892216828821 2.5609358772811603 2.36986066366646 2.598610551984404 2.391859157855934 2.607964418822469 2.4168892052077684 2.579643610957291 2.4922385546142554 2.5857067172820125 2.4421784599105862 2.642348333012369 2.4045037852073428 2.639316779850008 2.3951499183692775 2.661315274039482 2.4234707262344557 2.6863453213913164 2.417407619909734 2.7616946707978034 2.3607660041793777 2.7116345760941343 2.3637975573417385 2.673959901390891 2.3417990631522647 2.6646060345528255 2.31676901580043 2.6929268424180037 2.241419666393943 2.686863736093282 2.2914797610976123 2.6302221203629257 2.329154435800856 2.6332536735252865 2.338508302638921 2.6112551793358127 2.310187494773743 2.586225131983978
-0.2553593899147834 0.01874237778626667
20 -7.516744085714342 2.8364592632866863 -7.460102469983986 2.8865193579903554 -7.463134023146347 2.924194032693599 -7.441135528956873 2.933547899531664 -7.4161054816050385 2.905227091666486 -7.3407561321985515 2.9112901979912076 -7.390816226902221 2.967931813721564 -7.428490901605464 2.964900260559203 -7.437844768443529 2.986898754748677 -7.409523960578351 3.0119288021005115 -7.415587066903073 3.0872781515069985 -7.472228682633429 3.0372180568033293 -7.469197129471068 2.999543382100086 -7.491195623660542 2.9901895152620206 -7.516225671012377 3.018510323127199 -7.591575020418864 3.012447216802477 -7.5415149257151946 2.9558056010721208 -7.503840251011951 2.9588371542344816 -7.494486384173886 2.936838660045008 -7.522807192039064 2.9118086126931733
0.154068054701162 -0.12820452130685914
20 -5.15929695899636 -1.0889210202701456 -5.102655343266004 -1.0388609255664762 -5.105686896428365 -1.001186250863233 -5.083688402238891 -0.9918323840251678 -5.058658354887056 -1.0201531918903461 -4.983309005480569 -1.0140900855656245 -5.033369100184238 -0.957448469835268 -5.071043774887482 -0.9604800229976287 -5.080397641725547 -0.9384815288081548 -5.052076833860369 -0.9134514814563202 -5.05813994018509 -0.8381021320498334 -5.114781555915447 -0.8881622267535026 -5.1117500027530856 -0.9258369014567461 -5.13374849694256 -0.9351907682948112 -5.158778544294394 -0.906869960429633 -5.234127893700881 -0.9129330667543545 -5.184067798997212 -0.969574682484711 -5.146393124293969 -0.9665431293223503 -5.137039257455903 -0.9885416235118242 -5.165360065321082 -1.0135716708636588
0.14384794622718616 0.2982816028933858
5 9.850947505984584 -6.942779185250591 9.955546516689113 -6.916631003521842 9.963000989969222 -6.809071200267086 9.863009097120031 -6.768743767761143 9.79375623545968 -6.851379847048209
-0.3020017359710166 0.16801810086308683
6 9.02462792651041 1.5305944964170242 9.11150476307818 1.5428590329827432 9.14432178113051 1.6242288487337209 9.090261962615068 1.69333412791898 9.003385126047299 1.681069591353261 8.97056810799497 1.5996997756022833
-0.12577940591305542 -0.14117728622034728
4 8.573197423811955 -6.77997130334652 8.703342270544935 -6.724633080852037 8.648004048050453 -6.594488234119056 8.517859201317473 -6.649826456613539
-0.5604717104742829 0.007200917142972702
6 -3.1007922800146024 6.461066538674932 -3.0139154434468316 6.47333107524065 -2.981098425394502 6.5547008909916284 -3.0351582439099434 6.623806170176887 -3.122035080477714 6.611541633611169 -3.1548520985300437 6.53017181786019
0.5230252927007123 -0.31633504167704096
4 -7.57496487354806 -5.533481941918724 -7.444820026815079 -5.47814371942424 -7.500158249309562 -5.347998872691259 -7.630303096042543 -5.4033370951857425
0.03760635888401991 -0.6637533913742842
4 9.054123829627144 6.593789522412138 8.934429975007044 6.500155170095441 9.195060484710357 6.536948779792597 9.032881029164033 6.7442646173483745
-0.05559255535773334 0.03889742392962623
3 7.713325343913515 5.221906170879814 7.8825980164499745 5.354325141830107 7.683283487395798 5.434710090938019
-0.578358099891489 -0.17939855217423017
4 -4.800662764832397 2.4017828697122745 -4.920356619452498 2.3081485173955776 -4.659726109749186 2.3449421270927346 -4.821905565295509 2.5522579646485113
0.15596237468353494 -0.12912427676077268
12 4.219253572089866 7.604236846126807 4.257479636351849 7.555372034599121 4.280684772354972 7.6129091831005375 4.342115972620078 7.621581520074267 4.303889908358096 7.670446331601954 4.3270950443612195 7.72798348010337 4.265663844096113 7.71931114312964 4.227437779834131 7.768175954657326 4.204232643831007 7.7106388061559095 4.142801443565901 7.70196646918218 4.181027507827883 7.653101657654493 4.15782237182476 7.595564509153077
-0.005672340621077518 0.03884528546904615
12 7.258670798384615 -7.126341930500164 7.296896862646597 -7.17520674202785 7.32010199864972 -7.117669593526434 7.381533198914827 -7.108997256552704 7.343307134652845 -7.060132445025017 7.366512270655968 -7.002595296523601 7.3050810703908615 -7.011267633497331 7.266855006128879 -6.962402821969645 7.243649870125756 -7.019939970471062 7.182218669860649 -7.028612307444791 7.220444734122632 -7.077477118972478 7.197239598119508 -7.1350142674738946
-0.20070147541799205 -0.8689797875682925
4 -9.752482822493306 -0.6199713806476268 -9.872176677113407 -0.7136057329643235 -9.611546167410093 -0.6768121232671668 -9.773725622956418 -0.46949628571139007
0.2933323601828971 -0.21405039822895736
12 -4.981621475111328 5.403381966072453 -4.943395410849345 5.354517154544767 -4.920190274846222 5.412054303046183 -4.8587590745811156 5.420726640019913 -4.896985138843098 5.4695914515476 -4.8737800028399745 5.527128600049016 -4.935211203105081 5.518456263075286 -4.973437267367063 5.5673210746029715 -4.996642403370187 5.509783926101555 -5.058073603635293 5.5011115891278255 -5.019847539373311 5.452246777600139 -5.043052675376434 5.394709629098722
-0.06649863155604188 0.3974137032721614
6 8.647157685775001 -0.33016470623755845 8.734034522342771 -0.31790016967183954 8.7668515403951 -0.23653035392086177 8.71279172187966 -0.16742507473560284 8.62591488531189 -0.17968961130132172 8.59309786725956 -0.2610594270522995
-0.12574139246861996 -0.7059461223021354
4 -8.978728765607606 7.949348830305773 -9.098422620227707 7.855714477989077 -8.837792110524394 7.892508087686233 -8.999971566070718 8.09982392524201
-0.15874887819213584 0.22881704178082657
5 -9.295315853731429 1.3937549245975893 -9.1907168430269 1.4199031063263374 -9.18326236974679 1.5274629095810939 -9.283254262595982 1.5677903420870367 -9.352507124256332 1.4851542627999703
-0.11796349909647674 0.5535791342191626
3 -2.0226329550574875 -6.3674225621745695 -1.853360282521028 -6.2350035912242765 -2.0526748115752054 -6.154618642116365
-0.08252558681293311 0.05151949014524446
12 5.139321469495379 -6.601479746777232 5.1775475337573615 -6.650344558304918 5.200752669760485 -6.592807409803502 5.262183870025591 -6.584135072829772 5.223957805763609 -6.535270261302085 5.2471629417667325 -6.477733112800669 5.185731741501626 -6.4864054497743995 5.147505677239644 -6.4375406382467135 5.12430054123652 -6.49507778674813 5.062869340971414 -6.50375012372186 5.101095405233396 -6.552614935249546 5.077890269230273 -6.610152083750963
0.4009561552108199 -0.23701717395851085
4 -3.401570223982416 7.76570286926069 -3.271425377249435 7.821041091755173 -3.326763599743918 7.9511859384881545 -3.4569084464768993 7.895847715993671
-0.36923639587887674 0.22734993679735258
4 -6.056308649760196 -2.005516386873432 -5.926163803027215 -1.9501781643789489 -5.981502025521698 -1.820033317645968 -6.1116468722546795 -1.875371540140451
-9.838412266944551E-4 0.0012374517437849114
3 -0.7480566411571884 -3.1961660677836123 -0.5787839686207289 -3.063747096833319 -0.7780984976749061 -2.983362147725407
-0.48819996704647256 0.39251007334613824
4 3.6498787368691428 1.957884350351316 3.5301848822490425 1.8642499980346192 3.790815391952355 1.9010436077317758 3.6286359364060314 2.1083594452875527
0.037439254122562764 -0.33538562882458817
3 -0.994280911567739 9.787196079941795 -0.8250082390312795 9.919615050892089 -1.0243227680854567 10.0
0.06700392290596767 0.25513346242220525
4 -8.095423241342532 3.6915558781511564 -8.215117095962633 3.5979215258344595 -7.95448658625932 3.6347151355316165 -8.116666041805644 3.842030973087393
-0.13073034946098167 -0.19033225305732063
6 7.973815731926682 -0.20840154900116606 8.060692568494453 -0.19613701243544715 8.093509586546782 -0.11476719668446934 8.039449768031341 -0.04566191749921042 7.952572931463571 -0.0579264540649293 7.919755913411241 -0.1392962698159071
-0.14334060924659525 0.48547563494209695
5 0.824871469408899 -9.41289218001182 0.9294704801134278 -9.386743998283071 0.9369249533935384 -9.279184195028316 0.8369330605443459 -9.238856762522373 0.7676801988839967 -9.32149284180944
0.27600757649974433 0.03130547650832595
12 -3.0250699172151836 -9.951135188472312 -2.986843852953201 -10.0 -2.963638716950077 -9.942462851498583 -2.902207516684971 -9.933790514524853 -2.9404335809469537 -9.884925702997167 -2.91722844494383 -9.82738855449575 -2.978659645208936 -9.836060891469481 -3.0168857094709187 -9.787196079941793 -3.0400908454740425 -9.84473322844321 -3.1015220457391486 -9.85340556541694 -3.063295981477166 -9.902270376944626 -3.0865011174802897 -9.959807525446044
-0.03923426461950494 0.05406190533663316
12 4.977008680467786 1.3594001549195367 5.015234744729768 1.3105353433918505 5.038439880732891 1.368072491893267 5.099871080997998 1.3767448288669972 5.061645016736016 1.4256096403946834 5.084850152739139 1.4831467888960996 5.0234189524740325 1.4744744519223696 4.98519288821205 1.5233392634500558 4.961987752208927 1.4658021149486393 4.90055655194382 1.457129777974909 4.938782616205803 1.4082649664472229 4.915577480202679 1.3507278179458067
0.006491247302302629 -7.56428504938176E-4
5 -3.9599173339664238 0.9338827772570614 -3.8553183232618946 0.9600309589858095 -3.847863849981784 1.0675907622405658 -3.9478557428309764 1.1079181947465087 -4.017108604491326 1.0252821154594423
0.5028013593333507 -0.3288807937810226
12 -7.357874005989695 9.339176446852425 -7.3196479417277125 9.290311635324738 -7.296442805724589 9.347848783826155 -7.235011605459483 9.356521120799885 -7.273237669721465 9.40538593232757 -7.2500325337183416 9.462923080828988 -7.311463733983448 9.454250743855257 -7.34968979824543 9.503115555382944 -7.372894934248554 9.445578406881527 -7.43432613451366 9.436906069907797 -7.396100070251678 9.388041258380111 -7.419305206254801 9.330504109878694
-0.6232479442097532 0.3421984397237934
20 0.5001883774874301 -7.03906433633918 0.5568299932177866 -6.989004241635511 0.5537984400554259 -6.951329566932268 0.5757969342448997 -6.941975700094202 0.6008269815967344 -6.970296507959381 0.6761763310032212 -6.964233401634659 0.6261162362995519 -6.907591785904303 0.5884415615963084 -6.910623339066664 0.5790876947582434 -6.88862484487719 0.6074085026234216 -6.863594797525355 0.6013453962987001 -6.788245448118868 0.5447037805683436 -6.838305542822537 0.5477353337307043 -6.875980217525781 0.5257368395412304 -6.885334084363846 0.5007067921893957 -6.857013276498668 0.42535744278290893 -6.863076382823389 0.4754175374865782 -6.919717998553746 0.5130922121898217 -6.9166864453913846 0.5224460790278868 -6.938684939580859 0.49412527116270855 -6.963714986932693
0.5387847956203287 -0.22284004177444194
5 9.438206051674927 -7.672281040701629 9.542805062379456 -7.64613285897288 9.550259535659565 -7.538573055718124 9.450267642810374 -7.498245623212181 9.381014781150023 -7.580881702499247
-0.6509778074489972 0.15737324394349567
20 1.3940459875831788 -0.021349801242871946 1.4506876033135354 0.02871029346079737 1.4476560501511746 0.06638496816404078 1.4696545443406483 0.07573883500210593 1.4946845916924831 0.04741802713692766 1.5700339410989699 0.05348113346164918 1.5199738463953005 0.11012274919200572 1.4822991716920573 0.10709119602964495 1.472945304853992 0.12908969021911884 1.5012661127191704 0.1541197375709535 1.4952030063944488 0.22946908697744034 1.4385613906640922 0.17940899227377102 1.441592943826453 0.14173431757052762 1.4195944496369792 0.13238045073246246 1.3945644022851444 0.16070125859764073 1.3192150528786577 0.15463815227291922 1.369275147582327 0.09799653654256267 1.4069498222855703 0.10102808970492344 1.4163036891236356 0.07902959551544954 1.3879828812584571 0.05399954816361489
-0.5779865748562188 0.43922590706909703
12 8.601339297921836 9.430804757253439 8.639565362183818 9.381939945725751 8.662770498186942 9.439477094227168 8.724201698452049 9.448149431200898 8.685975634190067 9.497014242728584 8.70918077019319 9.554551391230001 8.647749569928084 9.54587905425627 8.609523505666102 9.594743865783958 8.586318369662978 9.53720671728254 8.524887169397871 9.52853438030881 8.563113233659854 9.479669568781125 8.539908097656731 9.422132420279707
0.2965801062799464 0.24923739725666708
4 9.836769461222119 -3.4186255589328907 9.966914307955099 -3.3632873364384075 9.911576085460617 -3.2331424897054264 9.781431238727636 -3.2884807121999096
-0.39382079766794204 0.2698815749002269
12 -2.0540161922645743 6.568384094032514 -2.0157901280025916 6.519519282504828 -1.992584991999468 6.577056431006245 -1.931153791734362 6.585728767979974 -1.9693798559963445 6.634593579507661 -1.9461747199932207 6.692130728009078 -2.0076059202583267 6.683458391035347 -2.0458319845203095 6.732323202563033 -2.0690371205234332 6.674786054061617 -2.1304683207885393 6.666113717087887 -2.0922422565265566 6.6172489055602 -2.1154473925296804 6.559711757058784
0.045668482297133314 -0.4798951400963399
5 6.543764736264611 -1.247896536358933 6.64836374696914 -1.2217483546301848 6.655818220249251 -1.1141885513754284 6.555826327400058 -1.0738611188694855 6.486573465739709 -1.156497198156552
-0.4443002497236365 -0.0010384244127555867
3 0.05809033835432883 -0.4117411378513099 0.22736301089078842 -0.27932216690101674 0.02804848183661117 -0.1989372177931048
0.4345352897596889 -0.5728444847907392
20 4.881056137613478 -1.5958280953864374 4.937697753343834 -1.545768000682768 4.934666200181473 -1.5080933259795248 4.956664694370947 -1.4987394591414596 4.981694741722782 -1.527060267006638 5.057044091129269 -1.5209971606819164 5.0069839964256 -1.4643555449515597 4.969309321722356 -1.4673870981139205 4.959955454884291 -1.4453886039244468 4.988276262749469 -1.420358556572612 4.982213156424748 -1.3450092071661253 4.925571540694391 -1.3950693018697946 4.928603093856752 -1.4327439765730379 4.906604599667278 -1.4420978434111031 4.881574552315444 -1.4137770355459247 4.806225202908957 -1.4198401418706463 4.856285297612626 -1.476481757601003 4.893959972315869 -1.4734502044386422 4.903313839153935 -1.495448698628116 4.874993031288756 -1.5204787459799507
0.12142003950278718 0.14130628773629011
3 7.788400880535492 -2.8517446180027424 7.957673553071952 -2.719325647052449 7.758359024017775 -2.638940697944537
0.047515232366885124 -0.27501269328583305
20 -4.412306578434142 -9.713336800426937 -4.355664962703786 -9.663276705723268 -4.358696515866147 -9.625602031020025 -4.336698021676673 -9.61624816418196 -4.3116679743248385 -9.644568972047137 -4.2363186249183515 -9.638505865722417 -4.286378719622021 -9.58186424999206 -4.324053394325264 -9.58489580315442 -4.333407261163329 -9.562897308964946 -4.305086453298151 -9.537867261613112 -4.311149559622873 -9.462517912206625 -4.367791175353229 -9.512578006910294 -4.364759622190868 -9.550252681613538 -4.386758116380342 -9.559606548451603 -4.411788163732177 -9.531285740586425 -4.487137513138664 -9.537348846911145 -4.437077418434995 -9.593990462641502 -4.399402743731751 -9.590958909479141 -4.390048876893686 -9.612957403668617 -4.418369684758864 -9.63798745102045
0.1667879282899134 0.02270482571336042
4 6.368456274881719 -4.38459661486923 6.4986011216147 -4.329258392374747 6.443262899120217 -4.199113545641766 6.313118052387236 -4.254451768136249
-0.4708505800377172 -0.529359226009815
3 9.227002757050839 5.627129058551448 9.396275429587298 5.759548029501741 9.19696090053312 5.839932978609653
0.1234250882723644 -0.04567908671250604
4 1.8611143476514407 0.8622268177605559 1.7414204930313402 0.7685924654438592 2.0020510027346528 0.8053860751410159 1.8398715471883291 1.0127019126967927
-0.20809647291231045 -0.023055665709750484
12 4.394480832723144 8.030212425393861 4.432706896985127 7.981347613866174 4.45591203298825 8.03888476236759 4.5173432332533565 8.04755709934132 4.479117168991374 8.096421910869006 4.502322304994498 8.153959059370424 4.440891104729391 8.145286722396692 4.402665040467409 8.19415153392438 4.3794599044642855 8.136614385422963 4.318028704199179 8.127942048449233 4.356254768461161 8.079077236921547 4.333049632458038 8.02154008842013
-0.11466519983631852 0.5986837890646575
12 1.763746513000348 -6.541619806643493 1.8019725772623305 -6.590484618171179 1.825177713265454 -6.532947469669763 1.8866089135305601 -6.524275132696033 1.8483828492685777 -6.475410321168346 1.8715879852717014 -6.41787317266693 1.8101567850065952 -6.42654550964066 1.7719307207446127 -6.377680698112974 1.748725584741489 -6.435217846614391 1.687294384476383 -6.44389018358812 1.7255204487383655 -6.492754995115807 1.7023153127352417 -6.550292143617224
-0.08093078249070543 -0.12471122808467563
3 -0.39571406616693733 9.787196079941795 -0.22644139363047772 9.919615050892089 -0.42575592268465495 10.0
-0.07600926458762827 0.4718162532356279
4 5.19977447545328 1.6954852696489813 5.329919322186261 1.7508234921434642 5.274581099691778 1.880968338876445 5.144436252958797 1.8256301163819622
-0.06246642609950652 0.23735957706699717
5 7.535555454675576 8.860481314952724 7.640154465380104 8.886629496681472 7.647608938660215 8.994189299936227 7.547617045811022 9.034516732442171 7.478364184150673 8.951880653155104
0.22147399064879886 0.5711760927314631
4 -0.9670019523142396 0.5333850867372681 -0.8368571055812587 0.5887233092317513 -0.8921953280757419 0.7188681559647322 -1.0223401748087226 0.663529933470249
0.27507137715806634 0.24480457940342504
4 -5.882710539504437 1.4416026790299885 -5.752565692771456 1.4969409015244715 -5.807903915265939 1.6270857482574523 -5.93804876199892 1.5717475257629694
-0.543420660034838 0.2638586792536054
3 -5.562492585625864 -3.2684419592539786 -5.393219913089404 -3.136022988303685 -5.592534442143581 -3.0556380391957734
-0.33345792215548814 -0.05552602178210437
3 6.423583514917614 -3.5120811818926168 6.592856187454074 -3.3796622109423233 6.393541658399897 -3.2992772618344115
-0.27210976507302853 0.18772384654117666
3 -3.6039383094149025 -7.468779649994486 -3.434665636878443 -7.336360679044193 -3.6339801659326203 -7.2559757299362815
-0.12831953799628962 -0.35755027569165154
6 -9.167858386058837 9.837260368498043 -9.080981549491067 9.849524905063763 -9.048164531438738 9.93089472081474 -9.102224349954179 10.0 -9.189101186521949 9.98773546343428 -9.221918204574278 9.906365647683304
-0.3931787349211697 0.005296817260004132
6 -6.9861704140684475 -4.574116920385316 -6.899293577500677 -4.5618523838195975 -6.866476559448347 -4.480482568068619 -6.920536377963788 -4.411377288883361 -7.007413214531558 -4.423641825449079 -7.040230232583888 -4.505011641200057
-0.20117243867310725 0.07545811206966134
5 -2.0614157529849604 9.78089365298924 -1.9568167422804315 9.807041834717989 -1.9493622690003207 9.914601637972744 -2.049354161849513 9.954929070478688 -2.1186070235098624 9.872292991191621
0.11343650825597607 9.234054348300336E-4
4 7.3915792840968635 2.6754469403834733 7.271885429476763 2.5818125880667764 7.532515939180075 2.6186061977639334 7.370336483633752 2.82592203531971
-0.34954981059592605 -0.10142180543673099
6 -3.322895375791488 9.350957057044223 -3.2360185392237173 9.363221593609943 -3.203201521171388 9.44459140936092 -3.257261339686829 9.51369668854618 -3.3441381762546 9.50143215198046 -3.3769551943069294 9.420062336229483
0.02778508267225281 -0.004944955253173443
4 0.18605885294361002 2.3094364416637685 0.06636499832350959 2.2158020893470716 0.3269955080268219 2.2525956990442286 0.16481605248049855 2.4599115366000053
-0.3292845831168681 0.33265938628450753
4 -4.022269689470194 5.956283532524196 -4.141963544090295 5.8626491802075 -3.8813330343869823 5.899442789904656 -4.043512489933306 6.106758627460433
-0.0015427928645271043 0.03602043298196686
4 -0.9775835734797962 8.561146205732449 -1.0972774280998967 8.467511853415752 -0.8366469183965843 8.504305463112908 -0.9988263739429076 8.711621300668686
-0.11619918058646936 -0.08350133446048014
4 1.518066898057688 -3.6619406264071683 1.6482117447906688 -3.606602403912685 1.5928735222961858 -3.476457557179704 1.462728675563205 -3.5317957796741872
0.01628866214560842 0.005189237841446103
12 8.910851321477733 8.887343035254839 8.949077385739715 8.83847822372715 8.972282521742839 8.896015372228568 9.033713722007946 8.904687709202298 8.995487657745963 8.953552520729984 9.018692793749086 9.011089669231401 8.957261593483981 9.00241733225767 8.919035529221999 9.051282143785357 8.895830393218874 8.99374499528394 8.834399192953768 8.98507265831021 8.87262525721575 8.936207846782525 8.849420121212628 8.878670698281107
-0.29192292377240137 0.16387475917807623
20 -7.941042392069302 3.9089162534416335 -7.884400776338945 3.9589763481453026 -7.887432329501307 3.996651022848546 -7.8654338353118325 4.006004889686611 -7.840403787959998 3.977684081821433 -7.765054438553511 3.983747188146155 -7.81511453325718 4.040388803876511 -7.852789207960424 4.03735725071415 -7.862143074798489 4.059355744903624 -7.833822266933311 4.084385792255459 -7.839885373258032 4.159735141661946 -7.896526988988389 4.109675046958277 -7.893495435826027 4.072000372255033 -7.915493930015502 4.062646505416968 -7.940523977367336 4.090967313282146 -8.015873326773823 4.084904206957424 -7.965813232070154 4.028262591227068 -7.9281385573669105 4.031294144389429 -7.918784690528845 4.009295650199955 -7.9471054983940235 3.9842656028481205
-0.1922345074016814 0.08201429457930096
6 1.0569287091667328 -5.13153112152503 1.1438055457345035 -5.119266584959312 1.1766225637868333 -5.037896769208333 1.1225627452713922 -4.968791490023075 1.0356859087036214 -4.981056026588793 1.0028688906512917 -5.062425842339771
0.07175312621973774 0.8116508834950541
20 8.61640528212589 -8.220897877582095 8.673046897856246 -8.170837782878426 8.670015344693885 -8.133163108175182 8.69201383888336 -8.123809241337117 8.717043886235194 -8.152130049202295 8.792393235641681 -8.146066942877574 8.742333140938012 -8.089425327147218 8.704658466234768 -8.092456880309578 8.695304599396703 -8.070458386120103 8.723625407261881 -8.04542833876827 8.71756230093716 -7.970078989361783 8.660920685206804 -8.020139084065452 8.663952238369165 -8.057813758768695 8.64195374417969 -8.06716762560676 8.616923696827856 -8.038846817741582 8.541574347421369 -8.044909924066303 8.591634442125038 -8.10155153979666 8.629309116828281 -8.0985199866343 8.638662983666347 -8.120518480823774 8.610342175801168 -8.145548528175608
-0.011233409734493282 -0.049508270607273155
20 2.010263730569581 8.111525629778738 2.0669053462999374 8.161585724482407 2.0638737931375766 8.19926039918565 2.0858722873270503 8.208614266023716 2.110902334678885 8.180293458158538 2.186251684085372 8.186356564483258 2.1361915893817027 8.242998180213615 2.0985169146784592 8.239966627051254 2.089163047840394 8.26196512124073 2.117483855705572 8.286995168592563 2.1114207493808506 8.36234451799905 2.054779133650494 8.312284423295381 2.057810686812855 8.274609748592137 2.035812192623381 8.265255881754072 2.0107821452715466 8.29357668961925 1.9354327958650597 8.28751358329453 1.985492890568729 8.230871967564173 2.0231675652719723 8.233903520726534 2.0325214321100376 8.211905026537059 2.0042006242448593 8.186874979185225
-0.013298273830302614 0.0024538834888992375
4 3.5790293677668465 3.1852098740932773 3.7091742144998276 3.2405480965877604 3.6538359920053445 3.3706929433207415 3.5236911452723634 3.3153547208262584
-0.15066384969281812 0.5268930128372437
20 -7.853627620608264 -3.8343315132841393 -7.796986004877907 -3.7842714185804702 -7.800017558040269 -3.7465967438772267 -7.7780190638507944 -3.7372428770391615 -7.75298901649896 -3.7655636849043397 -7.677639667092473 -3.759500578579618 -7.727699761796142 -3.7028589628492616 -7.7653744364993855 -3.7058905160116224 -7.774728303337451 -3.6838920218221487 -7.746407495472273 -3.658861974470314 -7.752470601796994 -3.583512625063827 -7.809112217527351 -3.6335727197674963 -7.806080664364989 -3.6712473944707398 -7.828079158554464 -3.680601261308805 -7.853109205906298 -3.652280453443627 -7.928458555312785 -3.6583435597683485 -7.878398460609116 -3.714985175498705 -7.8407237859058725 -3.711953622336344 -7.831369919067807 -3.733952116525818 -7.859690726932985 -3.7589821638776524
-0.04615818835700264 0.09198094606545253
4 1.9215343913473681 2.0821183960657113 1.8018405367272676 1.9884840437490146 2.06247104643058 2.0252776534461714 1.9002915908842566 2.232593491001948
