marco:(-10.0,10.0),(-10.0,10.0)
timeIntervals:0.0-1.0
framesPerSecond:1000
5.240201957349971 -10.6849926013375
20 4.458654888266862 2.9747675096950323 4.400946670395034 4.485523627440164 3.779331757935433 4.915667175614973 3.913094904348398 5.374664832725696 4.668472963220964 5.403518941661609 5.5287600595705815 6.646748766580812 4.01800394182545 6.589040548708984 3.587860393650641 5.967425636249383 3.1288627365399186 6.101188782662348 3.100008627604005 6.856566841534914 1.8567788026848029 7.716853937884531 1.9144870205566302 6.2060978201394 2.5361019330162313 5.775954271964591 2.4023387866032664 5.3169566148538685 1.6469607277307001 5.288102505917955 0.7866736313810825 4.044872680998752 2.2974297491262146 4.10258089887058 2.7275732973010234 4.724195811330181 3.1865709544117458 4.590432664917216 3.2154250633476593 3.83505460604465
-1.400982871619343 -8.181734590232146
3 -6.182180263489657 5.701779409869317 -6.204727384030136 10.0 -9.915822045882411 7.831363325764416
0.8838776103928129 0.5048549746661715
4 7.362413055425019 -6.359205187340863 8.080122504543487 -3.623351911551742 5.344269228754367 -2.9056424624332733 4.626559779635898 -5.641495738222394
0.7555525210839363 8.86222032283806
20 -5.360186031318373 -10.0 -5.458684521838799 -8.491354139276059 -6.091692413284503 -8.078159777267045 -5.970377374368236 -7.61571616999782 -5.216054444006265 -7.5664669247376075 -4.3896657199882405 -6.3004511418461995 -5.898311580712182 -6.398949632366625 -6.311505942721194 -7.031957523812329 -6.773949549990419 -6.910642484896062 -6.823198795250632 -6.156319554534091 -8.089214578142041 -5.329930830516066 -7.990716087621615 -6.838576691240008 -7.357708196175911 -7.25177105324902 -7.4790232350921775 -7.714214660518246 -8.233346165454149 -7.763463905778458 -9.059734889472173 -9.029479688669866 -7.5510890287482315 -8.930981198149441 -7.13789466673922 -8.297973306703737 -6.675451059469994 -8.419288345620004 -6.626201814209781 -9.173611275981974
5.686486764585249 8.239818643343776
6 -0.14533887276474877 -4.998676538949175 0.7240601202987642 -3.4744236640828836 -0.16128209459515086 -1.9593756126321251 -1.9160233025525788 -1.9685804360476573 -2.785422295616092 -3.492833310913948 -1.9000800807221778 -5.007881362364707
