marco:(-10.0,10.0),(-10.0,10.0)
timeIntervals:0.0-1.0
framesPerSecond:1000
-1.1218614952357233 1.5228590172991379
4 -9.65440606301821 7.117412523441622 -10.0 7.4513360751675775 -9.770795373243917 6.6511576187585355 -9.19242281581071 7.249743876398754
0.45766465501407894 1.0022313360615331
20 -7.0721935417528945 8.68908747691469 -6.886591966299014 8.538439170147257 -6.770652170955876 8.56748530829858 -6.730036528996456 8.503730658722962 -6.805360682380172 8.410929870996021 -6.747268406077527 8.179050280309745 -6.596620099310094 8.364651855763627 -6.625666237461417 8.480591651106764 -6.561911587885799 8.521207293066185 -6.469110800158859 8.445883139682469 -6.237231209472584 8.503975415985114 -6.422832784926464 8.654623722752547 -6.538772580269602 8.625577584601224 -6.5793882222290225 8.689332234176842 -6.504064068845306 8.782133021903782 -6.562156345147951 9.014012612590058 -6.712804651915384 8.828411037136176 -6.683758513764062 8.71247124179304 -6.747513163339679 8.671855599833618 -6.840313951066619 8.747179753217335
-1.0297103717299825 0.2785858408375037
20 5.192058122010448 -5.479518389165398 5.3776596974643285 -5.630166695932831 5.4935994928074665 -5.601120557781509 5.534215134766887 -5.6648752073571265 5.4588909813831705 -5.757675995084067 5.5169832576858155 -5.989555585770342 5.667631564453249 -5.8039540103164615 5.638585426301926 -5.6880142149733235 5.702340075877544 -5.647398573013903 5.795140863604484 -5.7227227263976195 6.027020454290759 -5.6646304500949745 5.841418878836879 -5.513982143327541 5.725479083493741 -5.543028281478864 5.68486344153432 -5.479273631903246 5.760187594918037 -5.386472844176306 5.702095318615392 -5.154593253490031 5.551447011847959 -5.340194828943911 5.580493149999281 -5.456134624287049 5.5167385004236635 -5.49675026624647 5.423937712696723 -5.421426112862753
-1.3166643626726828 1.6155111355393375
4 -2.6759548934459882 4.067062857575614 -2.435669515172246 3.6898852641427 -2.058491921739332 3.930170642416442 -2.2987773000130742 4.307348235849356
0.5576393008832183 -0.06524822325649195
5 1.2415191499744058 3.738519697327355 1.3774706715735339 3.4258473636364135 1.7168510625807798 3.45852387937213 1.7906481577393591 3.791391410421665 1.4968768798111254 3.9644383426258223
-0.425904005889061 0.4271867053110902
6 -10.0 1.1022746848881642 -9.916569966578992 0.8376627701614844 -9.645694309571141 0.777609341179322 -9.458248685984298 0.9821678269238394 -9.541678719405306 1.246779741650519 -9.812554376413157 1.3068331706326817
-0.3103048794878704 -0.8328147021760486
12 -4.921516618763989 2.0059139424123207 -5.054060690305986 1.8612692499931207 -4.862522676377374 1.818805063126329 -4.803528733990759 1.6316961838403374 -4.670984662448761 1.7763408762595374 -4.479446648520149 1.7338766893927455 -4.538440590906764 1.9209855686787374 -4.405896519364767 2.065630261097937 -4.597434533293379 2.108094447964729 -4.656428475679994 2.2952033272507206 -4.7889725472219915 2.150558634831521 -4.980510561150604 2.1930228216983125
-0.13884698894462275 0.03173050611620253
5 -9.32988909948798 6.114162160530231 -9.193937577888853 5.80148982683929 -8.854557186881607 5.834166342575006 -8.780760091723028 6.167033873624542 -9.074531369651261 6.340080805828698
0.026248139843507882 0.2787846363034985
5 3.444817531944717 -5.1757780440232874 3.5807690535438454 -5.488450377714229 3.9201494445510914 -5.455773861978512 3.993946539709671 -5.122906330928977 3.7001752617814367 -4.94985939872482
-0.38006728234209264 -0.957431579879378
3 8.661616848422906 8.519433706826186 9.16268076105336 8.060287574520618 9.309781019364125 8.723794717931002
-0.0021331958383906256 1.520094496195787
20 -9.07043640991106 5.016493232710802 -8.884834834457179 4.865844925943369 -8.768895039114042 4.894891064094692 -8.72827939715462 4.831136414519074 -8.803603550538337 4.738335626792134 -8.745511274235692 4.506456036105859 -8.59486296746826 4.692057611559739 -8.623909105619582 4.807997406902877 -8.560154456043964 4.848613048862298 -8.467353668317024 4.773288895478581 -8.235474077630748 4.831381171781226 -8.42107565308463 4.982029478548659 -8.537015448427766 4.952983340397337 -8.577631090387188 5.016737989972954 -8.502306937003471 5.109538777699894 -8.560399213306116 5.34141836838617 -8.71104752007355 5.155816792932289 -8.682001381922227 5.039876997589151 -8.745756031497844 4.999261355629731 -8.838556819224785 5.074585509013447
0.0729687218195196 -0.029925211067579064
6 0.22143514683373844 2.34256859369984 0.3048651802547463 2.0779566789731603 0.5757408372625964 2.017903249990998 0.7631864608494389 2.222461735735515 0.6797564274284311 2.4870736504621953 0.408880770420581 2.5471270794443575
0.3525070664091435 -2.423306982578718
20 3.9637359908209904 8.942982690421143 4.149337566274871 8.79233438365371 4.265277361618009 8.821380521805033 4.305893003577429 8.757625872229415 4.230568850193713 8.664825084502475 4.288661126496358 8.432945493816199 4.439309433263791 8.61854706927008 4.410263295112468 8.734486864613217 4.474017944688086 8.775102506572638 4.566818732415026 8.699778353188922 4.798698323101301 8.757870629491567 4.613096747647421 8.908518936259 4.497156952304283 8.879472798107678 4.456541310344862 8.943227447683295 4.531865463728579 9.036028235410235 4.473773187425934 9.267907826096511 4.323124880658501 9.08230625064263 4.352171018809823 8.966366455299493 4.288416369234206 8.925750813340072 4.1956155815072655 9.001074966723788
-0.20650049936015966 -1.3326267930784639
3 -1.390713523140764 -6.178604405787825 -0.8896496105103097 -6.637750538093392 -0.7425493521995447 -5.9742433946830085
-0.17173250724844044 -2.0381549093191245
3 2.7951935469934477 -6.011514437621481 3.296257459623902 -6.470660569927048 3.443357717934667 -5.807153426516665
0.3315808815717482 1.8765659286677
3 2.001949399817383 -0.2551129384536679 2.503013312447837 -0.7142590707592349 2.6501135707586023 -0.05075192734885159
0.8257689237184758 0.8974122261927634
3 2.602740688572523 -2.121440651019271 3.103804601202977 -2.5805867833248377 3.250904859513742 -1.9170796399144545
0.3521330029085186 -0.03816392780422404
4 7.131593588502427 7.239783102387523 7.371878966776169 6.862605508954609 7.749056560209083 7.102890887228352 7.508771181935341 7.480068480661266
1.0541777331020155 -1.8677512160086134
4 -1.0665811139643502 3.2828173865609127 -1.4208868043932081 3.607482730269755 -1.1705967041301848 2.8136469860897155 -0.6082598333696576 3.4273224433232676
-0.44072810533013695 -0.9351591622771644
4 -1.120036820628414 2.959781009059551 -1.4743425110572719 3.284446352768393 -1.2240524107942485 2.4906106085883537 -0.6617155400337213 3.104286065821906
-0.7492182099639845 -0.7314882411532087
3 -6.826801783879913 -7.125846299870607 -6.3257378712494585 -7.584992432176174 -6.178637612938694 -6.9214852887657905
-0.015917946008548605 -0.7157816070581751
6 -3.0690554029068027 9.795441514255481 -2.985625369485795 9.530829599528802 -2.714749712477945 9.470776170546639 -2.5273040888911025 9.675334656291158 -2.61073412231211 9.939946571017837 -2.88160977931996 10.0
-0.5167926613269209 -1.291358819135722
4 -3.178934638250867 0.2411012535708501 -3.5332403286797254 0.5657665972796921 -3.2829502284167016 -0.22806914690034708 -2.7206133576561746 0.38560631033320514
-1.378806494155975 0.6641630832349796
12 -5.9128255662192695 1.9093963652314234 -6.045369637761267 1.7647516728122234 -5.853831623832654 1.7222874859454318 -5.794837681446039 1.5351786066594402 -5.662293609904042 1.6798232990786401 -5.4707555959754295 1.6373591122118483 -5.5297495383620445 1.8244679914978401 -5.397205466820047 1.96911268391704 -5.58874348074866 2.0115768707838315 -5.647737423135275 2.1986857500698234 -5.780281494677272 2.0540410576506236 -5.9718195086058845 2.0965052445174153
1.5197224495977837 -0.5052800844958035
5 0.8072827223885597 -7.235729526935655 0.9432342439876876 -7.548401860626597 1.2826146349949337 -7.51572534489088 1.356411730153513 -7.182857813841345 1.0626404522252793 -7.009810881637188
-0.3489484330996606 0.5596210296430512
6 8.144973298074609 6.260101489304717 8.228403331495617 5.995489574578038 8.499278988503468 5.935436145595875 8.68672461209031 6.139994631340392 8.603294578669303 6.404606546067072 8.332418921661452 6.464659975049234
0.025312623904648023 0.03957294298313464
4 6.060953053942466 -8.038604666231153 6.297832005638471 -8.417930861270992 6.67715820067831 -8.181051909574988 6.440279248982305 -7.801725714535149
-0.13718111788034448 -0.23162498423020508
4 3.0576852976771267 -1.994825134640008 2.7063177569514876 -1.6669822469632025 2.9494487988617846 -2.4630397948120777 3.5172893372181084 -1.8544533621447439
-0.505302315865969 0.6560945845624212
20 -9.940113994102417 3.3666767690714576 -9.755876612239932 3.21436313124702 -9.63967994255141 3.2423639926446826 -9.59964009177511 3.1782461631111025 -9.675796910687328 3.08612747217986 -9.619795187892002 2.8537341328028187 -9.467481550067564 3.037971514665304 -9.495482411465227 3.1541681843538245 -9.431364581931648 3.194208035130126 -9.339245891000406 3.118051216217907 -9.106852551623364 3.1740529390132326 -9.291089933485848 3.3263665768376702 -9.40728660317437 3.2983657154400077 -9.447326453950671 3.3624835449735877 -9.371169635038452 3.4546022359048303 -9.427171357833778 3.6869955752818715 -9.579484995658216 3.5027581934193863 -9.551484134260553 3.3865615237308657 -9.615601963794132 3.346521672954564 -9.707720654725374 3.422678491866783
-0.26827419351582327 0.8222034579846798
4 -4.048100574023881 2.751398988214806 -4.39946811474952 3.0792418758916114 -4.156337072839223 2.2831843280427364 -3.588496534482899 2.89177076071007
1.3337915658203328 -0.7473078246588779
12 5.665804025231107 -0.540377401009668 5.531962726796315 -0.683822598835402 5.723110561381681 -0.7280099644425595 5.780417097532254 -0.9156425278754509 5.914258395967047 -0.7721973300497169 6.105406230552413 -0.8163846956568743 6.048099694401839 -0.6287521322239829 6.181940992836631 -0.48530693439824885 5.990793158251265 -0.44111956879109143 5.933486622100691 -0.2534870053582 5.7996453236658985 -0.396932203183934 5.608497489080532 -0.35274483757677655
1.044820449075363 -0.10256843626700791
4 -3.8526335772148794 7.133226390038571 -3.6157546255188753 6.753900194998732 -3.2364284304790356 6.990779146694736 -3.4733073821750398 7.370105341734575
1.6819778522212427 -0.9368696193917428
12 -8.4207606799179 0.011121721989189044 -8.554601978352693 -0.13232347583654497 -8.363454143767326 -0.17651084144370238 -8.306147607616753 -0.3641434048765938 -8.17230630918196 -0.2206982070508598 -7.981158474596594 -0.26488557265801727 -8.038465010747169 -0.07725300922512579 -7.904623712312376 0.0661921886006082 -8.095771546897742 0.11037955420776563 -8.153078083048316 0.29801211764065705 -8.286919381483107 0.15456691981492304 -8.478067216068474 0.19875428542208048
-1.06447957168831 2.370001719702219
20 3.7866767135734776 8.521153145182637 3.9709140954359627 8.3688395073582 4.087110765124483 8.396840368755862 4.127150615900785 8.332722539222283 4.050993796988566 8.240603848291041 4.106995519783891 8.008210508913999 4.259309157608329 8.192447890776483 4.231308296210667 8.308644560465005 4.295426125744246 8.348684411241306 4.387544816675489 8.272527592329087 4.61993815605253 8.328529315124413 4.435700774190045 8.480842952948851 4.319504104501525 8.452842091551188 4.279464253725223 8.516959921084768 4.355621072637442 8.60907861201601 4.299619349842117 8.841471951393052 4.147305712017679 8.657234569530567 4.175306573415341 8.541037899842046 4.111188743881762 8.500998049065744 4.019070052950519 8.577154867977963
-0.020271012578877107 1.6493991562278454
4 1.7074727752584684 5.981537432897502 1.9443517269544726 5.602211237857663 2.323677921994312 5.8390901895536675 2.086798970298308 6.218416384593507
-0.32152703026404755 0.02493843305637036
12 1.7317371104029453 -5.544948424129852 1.5978958119681532 -5.688393621955586 1.7890436465535193 -5.732580987562744 1.8463501827040931 -5.920213550995635 1.9801914811388852 -5.776768353169901 2.1713393157242513 -5.820955718777059 2.1140327795736775 -5.633323155344168 2.2478740780084694 -5.489877957518433 2.0567262434231037 -5.4456905919112755 1.9994197072725297 -5.258058028478384 1.8655784088377376 -5.4015032263041185 1.6744305742523715 -5.357315860696961
1.730965483099649 -1.4638283650076576
12 -4.657965075876261 8.48976041796044 -4.791806374311053 8.346315220134706 -4.6006585397256865 8.302127854527548 -4.543352003575113 8.114495291094658 -4.40951070514032 8.25794048892039 -4.218362870554954 8.213753123313234 -4.2756694067055285 8.401385686746124 -4.141828108270737 8.544830884571859 -4.332975942856103 8.589018250179016 -4.390282479006676 8.776650813611907 -4.524123777441469 8.633205615786174 -4.715271612026835 8.67739298139333
-1.4176305828845315 -0.5315046376579978
3 8.272245719538008 -4.2745126924409735 8.769154461009888 -4.738152550521071 8.922223985578324 -4.075997028003821
0.31400777574628164 0.45055672610693637
3 7.324893833003019 4.586557407346402 7.821802574474899 4.122917549266305 7.974872099043336 4.785073071783555
-0.1680325596990171 -2.3387870003515236
4 6.937173754583213 5.494716821753016 6.585806213857574 5.822559709429822 6.828937255767871 5.026502161580947 7.396777794124195 5.6350885942482805
0.9927764706062608 1.4642399769934602
6 -0.7808085728974927 -8.633573378290485 -0.6997648922607271 -8.898925894240111 -0.4294410321718536 -8.96141626596729 -0.24016085271974558 -8.758554121744847 -0.3212045333565111 -8.493201605795221 -0.5915283934453847 -8.430711234068042
-0.3266228797304418 -1.7300571587571465
6 4.543803268417842 -9.29395293502776 4.624846949054607 -9.559305450977385 4.895170809143481 -9.621795822704565 5.084450988595589 -9.418933678482121 5.003407307958824 -9.153581162532495 4.73308344786995 -9.091090790805316
1.412734605206304 -1.2427967062575003
5 -9.990440284904299 -2.2153058201717486 -9.85731005524955 -2.5291897898690423 -9.517649157079992 -2.499570898338359 -9.440857407016635 -2.167381446966006 -9.733058393591453 -1.9916959668443952
-0.9259099558085723 -0.020367040252775342
4 -8.715243978051078 0.5157694918769774 -8.478365026355073 0.13644329683713807 -8.099038831315234 0.3733222485331421 -8.335917783011238 0.7526484435729814
0.13803595303767352 -0.256533192355382
4 -3.2361248587810287 7.58329088429447 -3.587492399506668 7.911133771971276 -3.344361357596371 7.115076224122401 -2.776520819240047 7.723662656789735
-1.301656359004774 1.184012894677202
12 1.8587531619700135 -2.0714273586636893 1.7249118635352214 -2.214872556489423 1.9160596981205875 -2.2590599220965806 1.9733662342711613 -2.4466924855294723 2.1072075327059534 -2.303247287703738 2.2983553672913195 -2.3474346533108954 2.2410488311407457 -2.159802089878004 2.3748901295755376 -2.0163568920522703 2.183742294990172 -1.9721695264451127 2.1264357588395977 -1.7845369630122212 1.9925944604048058 -1.9279821608379553 1.8014466258194397 -1.8837947952307978
-1.815015525073436 1.0957862273375807
4 8.418324725855317 5.6933673419021495 8.066957185129677 6.021210229578955 8.310088227039975 5.22515268173008 8.877928765396298 5.833739114397414
1.4653136177908808 -0.24489721228474262
12 6.287648192385411 0.7933330157009162 6.153806893950619 0.6498878178751822 6.344954728535985 0.6057004522680247 6.402261264686558 0.41806788883513335 6.536102563121351 0.5615130866608673 6.727250397706717 0.5173257210537099 6.669943861556143 0.7049582844866014 6.803785159990935 0.8484034823123353 6.612637325405569 0.8925908479194928 6.555330789254995 1.0802234113523843 6.4214894908202025 0.9367782135266502 6.230341656234836 0.9809655791338077
-0.3470280294402448 -0.4833127606198356
4 5.302841163290493 9.329789360551104 4.951473622564854 9.657632248227909 5.1946046644751505 8.861574700379034 5.762445202831475 9.470161133046368
0.2535277096502087 1.3183600280221714
4 3.5819143073840127 -6.150310906329485 3.2305467666583736 -5.82246801865268 3.4736778085686706 -6.618525566501555 4.0415183469249945 -6.009939133834221
-0.17272585917005337 2.872217554134644
20 -3.9207095111940875 7.333306437602553 -3.7364721293316023 7.180992799778115 -3.6202754596430817 7.208993661175777 -3.58023560886678 7.144875831642198 -3.656392427778999 7.052757140710955 -3.6003907049836736 6.820363801333913 -3.448077067159236 7.004601183196399 -3.4760779285568986 7.120797852884919 -3.4119600990233185 7.160837703661221 -3.319841408092076 7.084680884749002 -3.0874480687150347 7.140682607544327 -3.27168545057752 7.292996245368765 -3.3878821202660405 7.264995383971103 -3.427921971042342 7.329113213504682 -3.351765152130123 7.421231904435925 -3.4077668749254486 7.653625243812966 -3.5600805127498862 7.469387861950481 -3.5320796513522237 7.353191192261961 -3.5961974808858037 7.313151341485659 -3.6883161718170463 7.389308160397878
1.0649752398500458 1.1041153379952453
3 8.192745497329925 -6.795776905046423 8.689654238801806 -7.25941676312652 8.842723763370241 -6.59726124060927
-0.8531508222973545 -0.8953682245705076
4 6.723744143168698 7.683598619690423 6.960623094864703 7.304272424650584 7.339949289904542 7.541151376346589 7.103070338208537 7.920477571386428
-0.3704623504526262 -1.0749834057014638
4 9.170196480381794 -6.721493554203018 9.407075432077798 -7.1008197492428575 9.786401627117638 -6.863940797546853 9.549522675421633 -6.484614602507014
0.9485660728181114 -1.2021849793817099
20 -5.006167966047116 8.324956316521543 -4.8219305841846305 8.172642678697105 -4.70573391449611 8.200643540094768 -4.665694063719808 8.13652571056119 -4.741850882632027 8.044407019629947 -4.685849159836702 7.812013680252905 -4.533535522012264 7.99625106211539 -4.561536383409926 8.112447731803911 -4.497418553876347 8.152487582580212 -4.405299862945104 8.076330763667993 -4.172906523568063 8.13233248646332 -4.357143905430548 8.284646124287757 -4.473340575119068 8.256645262890094 -4.51338042589537 8.320763092423674 -4.437223606983151 8.412881783354916 -4.493225329778476 8.645275122731958 -4.645538967602914 8.461037740869473 -4.617538106205252 8.344841071180952 -4.681655935738831 8.30480122040465 -4.7737746266700745 8.38095803931687
2.137894485379122 0.017341530238526925
12 -0.4327391784690979 9.713109604348533 -0.56658047690389 9.569664406522799 -0.37543264231852397 9.525477040915641 -0.31812610616795006 9.33784447748275 -0.18428480773315792 9.481289675308483 0.006863026852208104 9.437102309701327 -0.050443509298365774 9.624734873134217 0.08339778913642631 9.768180070959952 -0.10775004544893968 9.81236743656711 -0.16505658159951359 10.0 -0.29889788003430573 9.856554802174267 -0.4900457146196717 9.900742167781424
-1.2101867175748606 -0.0828543252417524
6 -1.8921266791067464 6.549294245081552 -1.8110829984699808 6.283941729131928 -1.5407591383811072 6.221451357404747 -1.3514789589289993 6.424313501627192 -1.4325226395657649 6.689666017576816 -1.7028464996546382 6.752156389303997
-0.6546511314453036 1.7874607983991644
12 0.9297265403449257 -8.786880483411018 0.7958852419101337 -8.930325681236752 0.9870330764954998 -8.97451304684391 1.0443396126460736 -9.1621456102768 1.1781809110808656 -9.018700412451068 1.3693287456662318 -9.062887778058224 1.312022209515658 -8.875255214625334 1.44586350795045 -8.7318100167996 1.254715673365084 -8.687622651192441 1.1974091372145101 -8.499990087759551 1.063567838779718 -8.643435285585284 0.872420004194352 -8.599247919978128
0.07770667647723273 -1.9149357478028077
5 3.882777141616546 -1.2646889806780524 4.015907371271294 -1.5785729503753465 4.355568269440853 -1.548954058844663 4.432360019504209 -1.2167646074723102 4.140159032929391 -1.0410791273506992
0.2401111362596087 -0.559297597735652
4 3.0583533174651976 8.36774893953439 2.7069857767395584 8.695591827211196 2.9501168186498554 7.899534279362321 3.5179573570061793 8.508120712029655
1.6984621323624784 -0.08701213445339873
5 5.597561019740181 -1.7822228511624394 5.730691249394929 -2.0961068208597333 6.0703521475644875 -2.06648792932905 6.147143897627844 -1.7342984779566972 5.854942911053026 -1.5586129978350862
-0.12024486565430441 -0.05688694127879655
4 1.1748006319139217 -5.316011406035267 1.4116795836099258 -5.6953376010751064 1.791005778649765 -5.458458649379102 1.5541268269537611 -5.079132454339263
-1.0893396457796656 1.1372084684634458
3 1.6416612708730016 -6.8759207230353345 2.138570012344881 -7.339560581115432 2.2916395369133182 -6.677405058598182
0.080881124535652 -0.17573195990928878
12 0.4928135798792033 -5.254084350168853 0.35897228144441123 -5.397529547994587 0.5501201160297773 -5.441716913601745 0.6074266521803511 -5.629349477034636 0.7412679506151433 -5.485904279208902 0.9324157852005093 -5.53009164481606 0.8751092490499355 -5.3424590813831685 1.0089505474847276 -5.199013883557434 0.8178027128993615 -5.154826517950276 0.7604961767487877 -4.967193954517385 0.6266548783139955 -5.110639152343119 0.4355070437286295 -5.0664517867359615
-0.43266556533168443 -0.955934792659904
4 1.5626588103994232 -5.502692243678698 1.7995377620954274 -5.8820184387185375 2.178863957135267 -5.645139487022533 1.9419850054392627 -5.265813291982694
0.3618189886613384 -2.331697313917494
4 2.9763427008411387 5.274116420732245 2.6249751601154996 5.60195930840905 2.8681062020257966 4.805901760560175 3.4359467403821204 5.414488193227509
0.5343501342838789 -0.27995524313320264
5 -6.233390152114294 -3.0777422486774415 -6.1002599224595455 -3.391626218374735 -5.760599024289987 -3.362007326844052 -5.683807274226631 -3.029817875471699 -5.976008260801448 -2.854132395350088
0.18461179724119609 -0.12663501368386854
4 5.931728340771329 -4.633899282870406 6.168607292467334 -5.013225477910245 6.547933487507173 -4.77634652621424 6.311054535811168 -4.397020331174401
0.2480034604469094 -1.3645679104911548
6 -4.106602769948398 9.797137855777557 -4.025559089311633 9.53178533982793 -3.755235229222759 9.469294968100751 -3.565955049770651 9.672157112323195 -3.6469987304074167 9.93750962827282 -3.91732259049629 10.0
0.3653260152462387 0.9973127942286316
6 4.657493466035905 -7.069900713788943 4.73853714667267 -7.3352532297385675 5.008861006761544 -7.3977436014657485 5.198141186213651 -7.194881457243303 5.117097505576886 -6.929528941293679 4.846773645488012 -6.867038569566498
-0.860428870817479 -0.40582900761241114
4 6.92616719817191 0.6774276215229665 7.163046149867915 0.2981014264831272 7.542372344907754 0.5349803781791312 7.30549339321175 0.9143065732189706
0.18140746039371436 -0.5824348984868658
4 -1.0907654892490546 -3.2504299118198445 -0.8538865375530506 -3.629756106859684 -0.4745603425132112 -3.39287715516368 -0.7114392942092153 -3.0135509601238404
-1.2656574117694916 0.18053544282151135
4 -3.9240970593528974 0.0844395197705694 -4.275464600078537 0.412282407447375 -4.03233355816824 -0.38377514040150035 -3.4644930198119157 0.22481129226583355
-0.9343861527549989 0.41574534452007683
12 6.150425163682246 7.420514163833012 6.016583865247454 7.277068966007278 6.20773169983282 7.23288160040012 6.265038235983393 7.0452490369672285 6.398879534418186 7.188694234792963 6.590027369003552 7.144506869185805 6.532720832852978 7.332139432618696 6.66656213128777 7.4755846304444304 6.475414296702404 7.519771996051588 6.41810776055183 7.70740455948448 6.284266462117038 7.563959361658745 6.0931186275316715 7.608146727265903
0.4345659904804347 0.48244139761814653
3 -10.0 -5.207926133366524 -9.50309125852812 -5.671565991446621 -9.350021733959684 -5.009410468929371
0.031163973480092085 -0.4543756131842571
5 -8.177948209763743 8.666068649818914 -8.044817980108995 8.35218468012162 -7.7051570819394355 8.381803571652304 -7.628365331876079 8.713993023024656 -7.920566318450897 8.889678503146268
0.5110334888356635 -0.614623831510473
5 4.830998976370656 4.32953958753037 4.964129206025404 4.015655617833075 5.303790104194962 4.045274509363759 5.380581854258319 4.377463960736112 5.088380867683501 4.553149440857723
0.15322504650856086 0.3285002232583561
20 -9.4401901286284 -2.335253057450078 -9.255952746765916 -2.4875666952745155 -9.139756077077394 -2.459565833876853 -9.099716226301092 -2.523683663410433 -9.175873045213311 -2.6158023543416755 -9.119871322417985 -2.8481956937187167 -8.967557684593547 -2.6639583118562316 -8.99555854599121 -2.547761642167711 -8.931440716457631 -2.5077217913914094 -8.83932202552639 -2.5838786103036284 -8.606928686149347 -2.527876887508303 -8.791166068011831 -2.3755632496838652 -8.907362737700353 -2.403564111081528 -8.947402588476654 -2.3394462815479478 -8.871245769564435 -2.247327590616705 -8.927247492359761 -2.014934251239664 -9.0795611301842 -2.199171633102149 -9.051560268786536 -2.3153683027906697 -9.115678098320116 -2.3554081535669713 -9.207796789251358 -2.2792513346547523
0.6655466214207788 -0.773570335698141
20 7.570158916215595 7.119166733683724 7.75439629807808 6.966853095859286 7.8705929677666004 6.994853957256948 7.9106328185429025 6.930736127723369 7.834475999630683 6.838617436792126 7.8904777224260085 6.606224097415085 8.042791360250447 6.79046147927757 8.014790498852784 6.90665814896609 8.078908328386364 6.946697999742392 8.171027019317606 6.870541180830173 8.403420358694648 6.926542903625498 8.219182976832164 7.0788565414499365 8.102986307143642 7.050855680052274 8.06294645636734 7.1149735095858535 8.13910327527956 7.2070922005170965 8.083101552484234 7.439485539894138 7.930787914659796 7.255248158031653 7.9587887760574585 7.139051488343132 7.894670946523879 7.09901163756683 7.802552255592636 7.175168456479049
-0.5695410949664161 -0.22257317737668925
12 4.9914505793595305 -5.338523768822874 4.857609280924739 -5.481968966648608 5.048757115510105 -5.526156332255766 5.106063651660678 -5.7137888956886576 5.239904950095471 -5.570343697862923 5.431052784680837 -5.614531063470081 5.373746248530263 -5.42689850003719 5.507587546965055 -5.283453302211456 5.3164397123796885 -5.239265936604298 5.259133176229115 -5.0516333731714065 5.125291877794322 -5.195078570997141 4.934144043208956 -5.150891205389983
-0.2720664086328765 -1.5554459643086151
6 -8.621294987032678 -9.60747210131027 -8.540251306395913 -9.872824617259896 -8.269927446307038 -9.935314988987075 -8.08064726685493 -9.732452844764632 -8.161690947491696 -9.467100328815006 -8.43201480758057 -9.404609957087827
-0.231959880720523 -0.1302052288430768
4 -5.562415791478248 -1.731122829474888 -5.913783332203887 -1.4032799417980824 -5.6706522902935905 -2.1993374896469575 -5.102811751937266 -1.5907510569796237
1.6641471286081986 -0.4865045456829583
4 -6.190310397200317 7.196665956317828 -5.953431445504313 6.817339761277989 -5.5741052504644735 7.054218712973993 -5.810984202160478 7.4335449080138325
-0.8088715938211574 0.051644214917388756
3 8.324097717999342 -0.3705253329120799 8.821006459471223 -0.8341651909921776 8.974075984039658 -0.17200966847492682
0.06060306303723067 0.013865231957082395
4 4.662414308319821 -5.071655871510401 4.311046767594182 -4.743812983833596 4.554177809504479 -5.539870531682471 5.122018347860803 -4.931284099015137
0.34878104510817143 -0.7043591488585985
6 -5.710233747939429 -0.15968050450893273 -5.629190067302664 -0.42503302045855784 -5.35886620721379 -0.4875233921857383 -5.1695860277616825 -0.28466124796329373 -5.2506297083984474 -0.019308732013668645 -5.520953568487322 0.043181639713511966
-0.390442760901417 -1.0046125148564733
4 6.002306862926542 5.474810120980123 6.239185814622546 5.095483925940284 6.6185120096623855 5.332362877636289 6.381633057966381 5.711689072676128
1.9470786487838971 0.07871975755034462
20 0.30012687922086745 -5.164060532145866 0.4843642610833524 -5.316374169970304 0.6005609307718731 -5.288373308572642 0.6406007815481748 -5.352491138106221 0.5644439626359559 -5.444609829037464 0.6204456854312812 -5.6770031684145055 0.772759323255719 -5.49276578655202 0.7447584618580564 -5.3765691168635 0.8088762913916362 -5.336529266087198 0.9009949823228787 -5.412686084999417 1.13338832169992 -5.356684362204092 0.949150939837435 -5.204370724379654 0.8329542701489143 -5.232371585777316 0.7929144193726126 -5.168253756243737 0.8690712382848316 -5.076135065312494 0.8130695154895062 -4.843741725935453 0.6607558776650684 -5.027979107797938 0.688756739062731 -5.144175777486458 0.6246389095291512 -5.18421562826276 0.5325202185979088 -5.108058809350541
1.5663850343752934 -0.5145281547174043
20 -9.247215481662108 -6.581746287369332 -9.062978099799624 -6.73405992519377 -8.946781430111102 -6.706059063796108 -8.9067415793348 -6.770176893329687 -8.98289839824702 -6.86229558426093 -8.926896675451694 -7.094688923637971 -8.774583037627256 -6.910451541775486 -8.802583899024919 -6.794254872086966 -8.73846606949134 -6.754215021310664 -8.646347378560097 -6.830371840222883 -8.413954039183055 -6.774370117427558 -8.59819142104554 -6.62205647960312 -8.714388090734062 -6.650057341000782 -8.754427941510363 -6.585939511467203 -8.678271122598144 -6.4938208205359595 -8.73427284539347 -6.261427481158918 -8.886586483217908 -6.4456648630214035 -8.858585621820245 -6.561861532709924 -8.922703451353824 -6.601901383486226 -9.014822142285066 -6.525744564574007
1.0936590228340888 0.7232062978874565
6 3.230203745892656 8.46722859543164 3.311247426529422 8.201876079482014 3.5815712866182956 8.139385707754835 3.7708514660704036 8.342247851977278 3.6898077854336377 8.607600367926905 3.4194839253447644 8.670090739654084
1.5931513775567225 1.6391975805624448
20 -9.821727559359362 -3.442096225794502 -9.637490177496877 -3.5944098636189397 -9.521293507808355 -3.566409002221277 -9.481253657032054 -3.630526831754857 -9.557410475944273 -3.7226455226860997 -9.501408753148947 -3.955038862063141 -9.34909511532451 -3.7708014802006558 -9.377095976722172 -3.654604810512135 -9.312978147188593 -3.6145649597358336 -9.220859456257351 -3.6907217786480526 -8.988466116880309 -3.634720055852727 -9.172703498742793 -3.4824064180282894 -9.288900168431315 -3.510407279425952 -9.328940019207616 -3.446289449892372 -9.252783200295397 -3.3541707589611294 -9.308784923090723 -3.121777419584088 -9.461098560915161 -3.3060148014465733 -9.433097699517498 -3.422211471135094 -9.497215529051077 -3.4622513219113955 -9.58933421998232 -3.3860945029991765
1.9836812002747723 0.9753498288368105
3 -3.633388672944216 4.849107734520101 -3.136479931472336 4.3854678764400035 -2.983410406903899 5.047623398957254
0.4664545764680202 -0.6037046522815983
3 -3.719754501473286 7.533462128998472 -3.222845760001406 7.069822270918374 -3.069776235432969 7.731977793435624
-0.21677135087099436 -0.10550841851754986
4 3.0689559683967573 -6.672782678923349 3.3058349200927615 -7.0521088739631885 3.685161115132601 -6.815229922267184 3.448282163436597 -6.435903727227345
-1.4989835251592714 -1.0024718172053644
4 8.392618552867024 5.9312069648337875 8.629497504563028 5.551880769793948 9.008823699602868 5.788759721489953 8.771944747906863 6.168085916529792
0.517062997673968 0.001815220194728231
6 7.067475034822762 -4.232967388416459 7.148518715459527 -4.498319904366084 7.4188425755484015 -4.560810276093265 7.608122755000509 -4.3579481318708195 7.527079074363744 -4.092595615921195 7.25675521427487 -4.030105244194014
-0.6188400628261052 -0.9327888543135976
3 -1.9440163074061638 -8.288412656650452 -1.4471075659342842 -8.75205251473055 -1.2940380413658474 -8.0898969922133
-0.9143994902769199 -0.899315640159866
4 -3.5144223708185045 -1.3118641418401216 -3.2775434191225004 -1.6911903368799608 -2.8982172240826607 -1.4543113851839566 -3.135096175778665 -1.0749851901441174
-0.06676670498074033 -0.20407090825489463
12 -3.545217731215849 9.550158047464357 -3.6790590296506407 9.406712849638623 -3.487911195065275 9.362525484031465 -3.430604658914701 9.174892920598575 -3.296763360479909 9.318338118424307 -3.105615525894543 9.274150752817151 -3.1629220620451166 9.461783316250042 -3.0290807636103247 9.605228514075776 -3.2202285981956904 9.649415879682934 -3.2775351343462646 9.837048443115824 -3.4113764327810565 9.693603245290092 -3.6025242673664226 9.737790610897248
1.9390237649028503 -0.7521461054803578
20 3.7321878545995375 4.8125868000074155 3.9164252364620227 4.660273162182977 4.032621906150543 4.6882740235806395 4.072661756926845 4.62415619404706 3.996504938014626 4.532037503115817 4.052506660809951 4.299644163738776 4.204820298634389 4.483881545601261 4.176819437236727 4.6000782152897814 4.240937266770306 4.6401180660660835 4.333055957701549 4.563961247153864 4.56544929707859 4.6199629699491895 4.381211915216105 4.772276607773628 4.265015245527585 4.7442757463759655 4.224975394751283 4.808393575909545 4.301132213663502 4.900512266840788 4.245130490868177 5.132905606217829 4.092816853043739 4.948668224355344 4.120817714441401 4.8324715546668235 4.056699884907822 4.7924317038905215 3.9645811939765787 4.868588522802741
1.2257619177545558 -0.4683457670824128
4 4.744029845779105 -3.935722784782644 4.980908797475109 -4.315048979822484 5.360234992514949 -4.078170028126479 5.123356040818944 -3.6988438330866398
1.2772611606716104 -0.13649165854851697
20 2.5807842881456757 -2.3949428586703303 2.765021670008161 -2.547256496494768 2.8812183396966815 -2.5192556350971054 2.921258190472983 -2.5833734646306854 2.845101371560764 -2.675492155561928 2.9011030943560896 -2.907885494938969 3.0534167321805272 -2.723648113076484 3.0254158707828647 -2.6074514433879634 3.0895337003164447 -2.567411592611662 3.1816523912476873 -2.643568411523881 3.4140457306247285 -2.5875666887285553 3.2298083487622433 -2.4352530509041177 3.1136116790737227 -2.4632539123017803 3.073571828297421 -2.3991360827682002 3.14972864720964 -2.3070173918369576 3.0937269244143146 -2.0746240524599164 2.941413286589877 -2.2588614343224016 2.9694141479875396 -2.375058104010922 2.9052963184539595 -2.4150979547872238 2.813177627522717 -2.3389411358750047
0.1705854675684786 1.1472819496085704
5 0.9381179082641882 2.624789199524549 1.0712481379189362 2.3109052298272554 1.4109090360884948 2.3405241213579386 1.4877007861518512 2.6727135727302915 1.1954997995770336 2.8483990528519025
-0.010509208477582858 0.04662292253383644
3 5.663795014816822 7.7105106360279185 6.160703756288702 7.246870777947821 6.313773280857139 7.909026300465071
0.7434939608010585 -2.083213278135528
12 -8.551513416267493 9.670954249230977 -8.685354714702287 9.527509051405243 -8.49420688011692 9.483321685798085 -8.436900343966347 9.295689122365195 -8.303059045531555 9.439134320190927 -8.111911210946188 9.394946954583771 -8.169217747096763 9.582579518016662 -8.03537644866197 9.726024715842396 -8.226524283247336 9.770212081449554 -8.28383081939791 9.957844644882444 -8.417672117832701 9.814399447056712 -8.608819952418068 9.858586812663868
0.865772843878091 0.24996574024480622
20 -7.757784819877245 -4.058528074547682 -7.57354743801476 -4.21084171237212 -7.45735076832624 -4.182840850974458 -7.417310917549938 -4.246958680508037 -7.493467736462157 -4.33907737143928 -7.437466013666832 -4.571470710816321 -7.285152375842394 -4.387233328953836 -7.313153237240056 -4.271036659265316 -7.249035407706477 -4.230996808489014 -7.156916716775234 -4.307153627401233 -6.9245233773981925 -4.251151904605908 -7.108760759260678 -4.09883826678147 -7.224957428949198 -4.126839128179132 -7.2649972797255 -4.0627212986455525 -7.188840460813281 -3.9706026077143095 -7.244842183608606 -3.7382092683372683 -7.397155821433044 -3.9224466501997535 -7.369154960035382 -4.038643319888274 -7.433272789568961 -4.078683170664576 -7.525391480500204 -4.002526351752357
-0.12531375733562478 0.32930119181656503
3 -3.691316175653406 7.183457932896476 -3.1944074341815263 6.719818074816379 -3.0413379096130893 7.381973597333629
0.17214676964555647 -0.19874438492812505
3 3.8808760117730206 8.875985906207418 4.3777847532449 8.41234604812732 4.530854277813337 9.074501570644571
-0.5049867860709075 -1.4183610999639171
4 -0.9230183840322539 3.104199399016368 -1.274385924757893 3.4320422866931732 -1.0312548828475963 2.6359847388442983 -0.4634143444912724 3.244571171511632
-0.42274742290067285 0.8816269621741076
4 6.000924902748583 -9.62067380496016 6.2378038544445875 -10.0 6.617130049484427 -9.763121048303995 6.380251097788422 -9.383794853264156
0.5608121970922847 0.5484024328071516
4 0.34875489020711115 7.593982190784438 -0.0026126505185281035 7.921825078461243 0.24051839139176887 7.125767530612368 0.8083589297480926 7.734353963279702
0.15785043397797738 0.09151906797107344
4 -0.866372607820457 3.601561331366917 -0.629493656124453 3.222235136327077 -0.25016746108461363 3.4591140880230813 -0.48704641278061767 3.838440283062921
-1.5383953449901704 1.3135473007548615
4 8.547643991503847 6.0689650061757625 8.784522943199851 5.689638811135923 9.16384913823969 5.926517762831928 8.926970186543686 6.305843957871767
0.17029989113093888 0.6777829007214258
12 9.15343286336321 -0.8444247874895479 9.019591564928417 -0.9878699853152818 9.210739399513784 -1.0320573509224393 9.268045935664357 -1.2196899143553308 9.40188723409915 -1.0762447165295967 9.593035068684516 -1.1204320821367542 9.535728532533941 -0.9327995187038627 9.669569830968735 -0.7893543208781287 9.478421996383368 -0.7451669552709712 9.421115460232794 -0.5575343918380798 9.287274161798003 -0.7009795896638138 9.096126327212636 -0.6567922240566564
-0.455612960853145 1.914269229404007
3 -4.239289854503872 -6.2882957462869475 -3.7423811130319926 -6.751935604367045 -3.5893115884635556 -6.089780081849795
-1.2387300959807312 -0.18841316394476929
4 -7.7137510086842855 2.7869801117592083 -7.476872056988281 2.4076539167193687 -7.097545861948442 2.644532868415373 -7.334424813644446 3.0238590634552125
0.6716584030160747 0.21213098282601375
5 -0.932026953344699 3.519105665835356 -0.7988967236899509 3.205221696138062 -0.4592358255203922 3.2348405876687454 -0.38244407545703596 3.5670300390410983 -0.6746450620318536 3.7427155191627093
0.7962258117384025 -1.5840738058898554
3 -10.0 -1.080580349486529 -9.50309125852812 -1.5442202075666267 -9.350021733959684 -0.8820646850493759
-1.2530588653037478 0.08675915285150666
5 6.528607449270727 -1.8384339794713898 6.661737678925475 -2.1523179491686837 7.001398577095034 -2.1226990576380005 7.07819032715839 -1.7905096062656476 6.785989340583573 -1.6148241261440366
-0.054217103491185754 -1.2084062141413006
6 -6.7385501442224625 4.475646743417944 -6.6575064635856975 4.21029422746832 -6.387182603496823 4.147803855741139 -6.197902424044716 4.350665999963584 -6.278946104681481 4.6160185159132086 -6.549269964770355 4.6785088876403895
-0.3048684107114177 -0.31592619373148023
12 2.226147566791716 -9.350196534011474 2.092306268356924 -9.493641731837208 2.2834541029422897 -9.537829097444366 2.340760639092864 -9.725461660877256 2.474601937527656 -9.582016463051524 2.665749772113022 -9.62620382865868 2.608443235962448 -9.43857126522579 2.74228453439724 -9.295126067400055 2.5511366998118743 -9.250938701792897 2.4938301636613 -9.063306138360007 2.359988865226508 -9.20675133618574 2.168841030641142 -9.162563970578583
1.3863117356156254 0.6375709973122976
5 7.913754900546718 0.05523663424395378 8.046885130201465 -0.2586473354533403 8.386546028371024 -0.2290284439226568 8.463337778434381 0.103161007449696 8.171136791859563 0.27884648757130703
0.5238955759351364 -1.4525665860293124
4 -9.224416423003664 5.904704643332245 -9.575783963729304 6.23254753100905 -9.332652921819006 5.436489983160175 -8.764812383462683 6.045076415827509
0.870012648116312 -1.5874640085561216
12 -8.152163761561035 5.709334922457206 -8.286005059995828 5.565889724631472 -8.094857225410461 5.521702359024314 -8.037550689259888 5.3340697955914225 -7.903709390825095 5.477514993417157 -7.712561556239729 5.433327627809999 -7.769868092390303 5.62096019124289 -7.636026793955511 5.764405389068624 -7.827174628540877 5.808592754675782 -7.884481164691451 5.9962253181086735 -8.018322463126243 5.852780120282939 -8.20947029771161 5.896967485890097
0.6115227618738727 -1.1579079769817064
20 -8.580683134651748 -0.3243407552161979 -8.396445752789264 -0.47665439304063567 -8.280249083100742 -0.44865353164297306 -8.24020923232444 -0.5127713611765529 -8.31636605123666 -0.6048900521077953 -8.260364328441334 -0.8372833914848367 -8.108050690616896 -0.6530460096223517 -8.136051552014559 -0.536849339933831 -8.07193372248098 -0.4968094891575293 -7.9798150315497365 -0.5729663080697482 -7.747421692172695 -0.5169645852744229 -7.9316590740351804 -0.3646509474499851 -8.047855743723701 -0.3926518088476477 -8.087895594500003 -0.3285339793140679 -8.011738775587784 -0.23641528838282538 -8.06774049838311 -0.00402194900578412 -8.220054136207548 -0.1882593308682691 -8.192053274809885 -0.30445600055678973 -8.256171104343464 -0.34449585133309146 -8.348289795274706 -0.26833903242087254
-0.5341484597694608 0.6293121532986049
4 -9.021727289301287 2.5318699895831416 -8.784848337605283 2.152543794543302 -8.405522142565443 2.389422746239306 -8.642401094261448 2.7687489412791457
-2.0527809579419207 -0.7784646795785977
3 7.085543823012193 5.496204589203233 7.582452564484073 5.032564731123136 7.73552208905251 5.694720253640386
-0.9864447191342133 0.5559585258383335
4 3.717710637861842 4.560220892295783 3.3663430971362027 4.888063779972589 3.6094741390464997 4.092006232123714 4.177314677402824 4.700592664791047
-1.5800012711716112 -0.7290737507838205
3 1.7993308037342859 -5.0977216220791375 2.2962395452061655 -5.561361480159235 2.4493090697746025 -4.899205957641985
0.5163192899314681 -0.26894062979881916
4 -1.233770365983757 -1.0522719367964548 -1.585137906709396 -0.7244290491196492 -1.3420068647990993 -1.5204865969685246 -0.7741663264427754 -0.9119001643011907
1.0800485616453708 -0.17060529597472784
20 7.987910145757999 -1.4273665716664072 8.172147527620483 -1.579680209490845 8.288344197309005 -1.5516793480931823 8.328384048085306 -1.6157971776267623 8.252227229173087 -1.7079158685580047 8.308228951968413 -1.9403092079350461 8.460542589792851 -1.756071826072561 8.432541728395188 -1.6398751563840404 8.496659557928767 -1.5998353056077388 8.58877824886001 -1.6759921245199576 8.821171588237052 -1.6199904017246323 8.636934206374567 -1.4676767639001944 8.520737536686045 -1.4956776252978572 8.480697685909744 -1.4315597957642772 8.556854504821963 -1.3394411048330348 8.500852782026637 -1.1070477654559934 8.3485391442022 -1.2912851473184785 8.376540005599862 -1.4074818170069991 8.312422176066283 -1.4475216677833007 8.220303485135041 -1.371364848871082
0.20307545982315406 -0.5389781338182605
20 -0.29041446986640007 9.08980538398501 -0.1061770880039151 8.937491746160571 0.010019581684605552 8.965492607558234 0.05005943246090727 8.901374778024655 -0.026097386451311655 8.809256087093413 0.029904336344013654 8.57686274771637 0.18221797416845148 8.761100129578855 0.15421711277078884 8.877296799267377 0.2183349423043687 8.917336650043678 0.3104536332356112 8.841179831131459 0.5428469726126525 8.897181553926785 0.3586095907501675 9.049495191751223 0.24241292106164686 9.02149433035356 0.20237307028534512 9.08561215988714 0.27852988919756405 9.177730850818381 0.22252816640223874 9.410124190195424 0.0702145285778009 9.22588680833294 0.09821538997546356 9.109690138644417 0.034097560441883695 9.069650287868116 -0.05802113048935881 9.145807106780335
0.765657611807847 0.6689837357851807
4 -6.240771012715578 -5.421818871418347 -6.592138553441218 -5.093975983741542 -6.349007511530921 -5.890033531590417 -5.781166973174597 -5.281447098923083
0.9828581774802494 -1.077021930347511
3 -10.0 -7.590851995545816 -9.50309125852812 -8.054491853625914 -9.350021733959684 -7.392336331108663
-0.7692116958735161 -0.5180198995696444
5 -1.505417984013252 -6.842906500962634 -1.372287754358504 -7.156790470659929 -1.0326268561889453 -7.127171579129245 -0.955835106125589 -6.794982127756892 -1.2480360927004066 -6.619296647635281
-2.2510907692024102 -0.8475789658498414
4 -5.60506803397947 -7.0848161670219145 -5.956435574705109 -6.756973279345109 -5.713304532794813 -7.553030827193984 -5.145463994438488 -6.94444439452665
0.7116009623683456 0.6313469871973574
4 7.070757200927595 -5.9852687629316925 6.719389660201956 -5.657425875254887 6.962520702112252 -6.453483423103762 7.530361240468577 -5.844896990436428
0.8833890766137932 -0.6576539454385495
4 -5.502078401313025 4.183787775866147 -5.853445942038664 4.511630663542952 -5.610314900128367 3.7155731156940774 -5.042474361772043 4.324159548361411
-0.4360414442212606 0.08873142109635028
5 0.5897688825216008 5.805193515596198 0.7228991121763488 5.491309545898903 1.0625600103459074 5.520928437429587 1.1393517604092638 5.85311788880194 0.8471507738344461 6.028803368923551
-1.1611644573191107 0.6900630781435986
12 3.0035751755217275 6.766651456372017 2.8697338770869356 6.623206258546283 3.0608817116723013 6.579018892939125 3.1181882478228755 6.391386329506234 3.2520295462576674 6.534831527331968 3.4431773808430335 6.49064416172481 3.3858708446924597 6.678276725157701 3.5197121431272516 6.821721922983436 3.328564308541886 6.8659092885905935 3.2712577723913117 7.053541852023485 3.13741647395652 6.91009665419775 2.9462686393711537 6.954284019804908
-1.197390123319672 0.5183010943245359
4 -0.29389833871741344 -5.264058011876369 -0.05701938702140938 -5.643384206916208 0.3223068080184299 -5.406505255220203 0.0854278563224259 -5.027179060180364
0.3293798076525463 -0.09168660623205539
4 -6.329131625763605 -2.237538654835987 -6.680499166489244 -1.9096957671591814 -6.437368124578947 -2.7057533150080566 -5.869527586222623 -2.097166882340723
0.9247601923836253 -0.35453356088469984
6 4.178195460794536 4.257961381368314 4.259239141431301 3.992608865418689 4.5295630015201755 3.9301184936915083 4.718843180972283 4.1329806379139535 4.637799500335518 4.398333153863578 4.367475640246644 4.460823525590759
1.3029277383516167 -1.3602223439068988
12 4.47123338347562 -1.9225872778837805 4.337392085040828 -2.0660324757095143 4.528539919626194 -2.1102198413166717 4.5858464557767675 -2.2978524047495634 4.71968775421156 -2.154407206923829 4.910835588796926 -2.1985945725309866 4.853529052646352 -2.0109620090980953 4.987370351081144 -1.8675168112723612 4.796222516495778 -1.8233294456652038 4.738915980345205 -1.6356968822323124 4.605074681910412 -1.7791420800580464 4.413926847325046 -1.734954714450889
-0.4623195336481886 0.5139437603863778
20 -1.3525486984113204 -7.963516778467141 -1.1683113165488352 -8.11583041629158 -1.0521146468603146 -8.087829554893917 -1.012074796084013 -8.151947384427496 -1.0882316149962319 -8.244066075358738 -1.0322298922009066 -8.47645941473578 -0.8799162543764687 -8.292222032873296 -0.9079171157741314 -8.176025363184774 -0.8437992862405516 -8.135985512408473 -0.7516805953093091 -8.212142331320692 -0.5192872559322678 -8.156140608525366 -0.7035246377947527 -8.003826970700928 -0.8197213074832734 -8.03182783209859 -0.8597611582595751 -7.967710002565012 -0.7836043393473562 -7.875591311633769 -0.8396060621426815 -7.643197972256727 -0.9919196999671194 -7.8274353541192125 -0.9639188385694567 -7.943632023807733 -1.0280366681030366 -7.983671874584035 -1.120155359034279 -7.907515055671816
0.18072639011279149 2.097392984863766
3 -4.517787333653992 -6.93635841665463 -4.020878592182112 -7.3999982747347275 -3.867809067613675 -6.737842752217477
0.07750985264747684 -0.012417198990195938
4 5.910569848193905 -9.62067380496016 6.14744879988991 -10.0 6.526774994929749 -9.763121048303995 6.289896043233744 -9.383794853264156
0.13220843269410945 1.1027692230362227
6 1.8163595755872197 -1.1998478548169964 1.8974032562239853 -1.4652003707666215 2.167727116312859 -1.527690742493802 2.357007295764967 -1.3248285982713575 2.2759636151282012 -1.0594760823217324 2.005639755039328 -0.9969857105945518
-2.2076254526685286 -0.28380826064032244
12 8.603560163521198 -7.029424784221523 8.469718865086405 -7.172869982047257 8.660866699671772 -7.217057347654415 8.718173235822345 -7.404689911087306 8.852014534257137 -7.261244713261572 9.043162368842504 -7.30543207886873 8.985855832691929 -7.117799515435839 9.119697131126722 -6.974354317610104 8.928549296541355 -6.9301669520029465 8.871242760390782 -6.742534388570055 8.73740146195599 -6.8859795863957896 8.546253627370623 -6.841792220788632
-1.3260880855671835 -1.0255002639179034
5 6.988676401245898 -1.6375959489720116 7.121806630900646 -1.9514799186693057 7.461467529070204 -1.9218610271386223 7.538259279133561 -1.5896715757662694 7.246058292558743 -1.4139860956446584
1.3310655928538209 1.1517721119036772
3 9.21468404510444 7.496541153768425 9.71159278657632 7.032901295688328 9.864662311144755 7.695056818205578
-1.4943283333250121 -0.6937381261724527
5 -6.450631141794701 -0.5691126766451639 -6.317500912139953 -0.8829966463424579 -5.977840013970394 -0.8533777548117745 -5.901048263907038 -0.5211883034394216 -6.1932492504818555 -0.34550282331781057
1.4833254850214697 -0.9302657422070699
4 4.329006348614712 7.55172212615221 3.9776388078890728 7.879565013829016 4.220769849799369 7.083507465980141 4.788610388155694 7.6920938986474745
-1.4037840396781762 -1.6591362931226463
3 8.802988907583869 -2.8690145655237833 9.29989764905575 -3.332654423603881 9.452967173624184 -2.6704989010866305
2.3442412324566826 -0.14608319748352402
4 3.440090235118305 1.1127557246351607 3.088722694392666 1.4405986123119663 3.3318537363029628 0.6445410644630909 3.8996942746592866 1.253127497130425
-0.06804535673647868 0.5308144023514823
4 1.690884260663836 -8.09352781106786 1.3395167199381968 -7.7656849233910545 1.5826477618484935 -8.56174247123993 2.1504883002048176 -7.953156038572596
0.5667893577409618 -0.5929541758352804
4 0.9910833376285471 -5.301565692805266 0.6397157969029078 -4.97372280512846 0.8828468388132048 -5.769780352977335 1.4506873771695286 -5.1611939203100015
0.01948630140399341 0.01561516324709367
20 8.449934858599123 -4.033679051127378 8.634172240461607 -4.185992688951816 8.75036891015013 -4.157991827554154 8.79040876092643 -4.222109657087733 8.714251942014211 -4.314228348018976 8.770253664809537 -4.5466216873960175 8.922567302633976 -4.362384305533532 8.894566441236313 -4.246187635845012 8.958684270769892 -4.20614778506871 9.050802961701134 -4.282304603980929 9.283196301078176 -4.226302881185604 9.098958919215692 -4.073989243361166 8.98276224952717 -4.101990104758828 8.942722398750869 -4.037872275225249 9.018879217663088 -3.945753584294006 8.962877494867762 -3.7133602449169647 8.810563857043324 -3.89759762677945 8.838564718440987 -4.01379429646797 8.774446888907407 -4.053834147244272 8.682328197976165 -3.977677328332053
-0.7277450870970288 1.5570085436296413
6 -6.222795250152165 -3.3171717129443885 -6.1417515695154 -3.582524228894014 -5.871427709426526 -3.6450146006211943 -5.682147529974419 -3.4421524563987496 -5.763191210611184 -3.1767999404491243 -6.033515070700058 -3.1143095687219438
-1.386518348746498 1.7558102432099008
12 -0.44756574661441645 5.855700948420559 -0.5814070450492086 5.712255750594824 -0.39025921046384254 5.6680683849876665 -0.33295267431326864 5.480435821554775 -0.1991113758784765 5.6238810193805095 -0.007963541293110471 5.579693653773352 -0.06527007744368435 5.767326217206243 0.06857122099110774 5.910771415031977 -0.12257661359425825 5.954958780639135 -0.17988314974483216 6.142591344072026 -0.3137244481796243 5.999146146246292 -0.5048722827649903 6.04333351185345
-0.06801919119339417 -0.06546368765579168
20 -8.130613562088481 -2.699838152120035 -7.946376180225996 -2.8521517899444726 -7.830179510537476 -2.82415092854681 -7.790139659761174 -2.88826875808039 -7.866296478673393 -2.9803874490116327 -7.8102947558780675 -3.212780788388674 -7.6579811180536295 -3.0285434065261887 -7.685981979451292 -2.912346736837668 -7.621864149917712 -2.8723068860613665 -7.529745458986469 -2.9484637049735856 -7.297352119609428 -2.89246198217826 -7.481589501471913 -2.7401483443538224 -7.5977861711604335 -2.768149205751485 -7.6378260219367355 -2.704031376217905 -7.5616692030245165 -2.6119126852866623 -7.617670925819842 -2.379519345909621 -7.76998456364428 -2.5637567277721063 -7.741983702246618 -2.679953397460627 -7.806101531780197 -2.7199932482369285 -7.89822022271144 -2.6438364293247094
0.038423579607061366 0.8612717146933286
4 3.5115488340332526 3.1453674139520005 3.7484277857292567 2.766041218912161 4.127753980769096 3.002920170608165 3.8908750290730922 3.3822463656480046
0.20337464431725083 -0.7649271042901642
5 5.103800140570725 6.336470505286872 5.2369303702254735 6.022586535589578 5.576591268395032 6.052205427120262 5.653383018458388 6.384394878492614 5.361182031883571 6.560080358614226
1.0766572354576487 0.8508916194314551
5 -7.736570705816892 1.65287845153985 -7.603440476162144 1.3389944818425559 -7.263779577992586 1.3686133733732393 -7.186987827929229 1.7008028247455922 -7.479188814504047 1.8764883048672032
-1.0993235303501818 1.4908985640682055
6 9.04307258580368 4.747772916002529 9.124116266440446 4.482420400052905 9.39444012652932 4.419930028325724 9.583720305981428 4.622792172548169 9.502676625344662 4.8881446884977935 9.232352765255788 4.9506350602249745
-0.3528954488701653 0.8611508742740523
6 -4.60820350440306 -7.32963480704549 -4.527159823766295 -7.594987322995115 -4.256835963677421 -7.657477694722296 -4.067555784225314 -7.454615550499851 -4.1485994648620785 -7.189263034550226 -4.418923324950953 -7.126772662823045
0.9609597190959466 -0.15210325951117168
5 -1.8896307831441839 -1.0538518013541671 -1.7565005534894358 -1.3677357710514613 -1.4168396553198772 -1.3381168795207778 -1.3400479052565208 -1.005927428148425 -1.6322488918313385 -0.830241948026814
-1.4180945150650068 -1.2568816633942452
3 -0.04874499362736612 3.9146739511104824 0.4481637478445136 3.4510340930303847 0.6012332724129503 4.113189615547635
-0.6979275080365193 0.6809243302631461
4 4.834879123183143 -2.631722037608815 5.071758074879147 -3.0110482326486547 5.4510842699189865 -2.7741692809526506 5.214205318222982 -2.394843085912811
0.40234754759174457 1.9621521758201392
20 7.617587177777262 -2.5988135684512463 7.801824559639747 -2.751127206275684 7.918021229328267 -2.7231263448780214 7.958061080104569 -2.7872441744116014 7.88190426119235 -2.879362865342844 7.937905983987675 -3.1117562047198852 8.090219621812114 -2.9275188228574 8.062218760414451 -2.8113221531688795 8.12633658994803 -2.771282302392578 8.218455280879272 -2.847439121304797 8.450848620256314 -2.7914373985094714 8.26661123839383 -2.6391237606850337 8.150414568705308 -2.6671246220826963 8.110374717929007 -2.6030067925491163 8.186531536841226 -2.5108881016178737 8.1305298140459 -2.2784947622408325 7.978216176221463 -2.4627321441033176 8.006217037619125 -2.5789288137918382 7.942099208085546 -2.61896866456814 7.849980517154303 -2.5428118456559208
0.8713098616469458 1.3804952735075864
4 -0.8895391742326648 8.979415638829629 -1.240906714958304 9.307258526506434 -0.9977756730480071 8.511200978657559 -0.4299351346916833 9.119787411324893
0.4021102066884168 0.28557730977575035
3 -3.6632331383791126 6.504253047540497 -3.1663243969072328 6.0406131894604 -3.0132548723387957 6.70276871197765
0.33728913033341973 0.13684011430683043
20 -0.2619365667335546 6.384346867189451 -0.07769918487106961 6.232033229365013 0.038497484817451036 6.260034090762675 0.07853733559375276 6.195916261229096 0.0023805166815338286 6.103797570297853 0.05838223947685914 5.871404230920811 0.21069587730129696 6.055641612783297 0.18269501590363432 6.171838282471817 0.24681284543721418 6.211878133248119 0.3389315363684567 6.1357213143359 0.571324875745498 6.191723037131225 0.387087493883013 6.344036674955663 0.27089082419449234 6.316035813558001 0.2308509734181906 6.38015364309158 0.30700779233040953 6.472272334022823 0.2510060695350842 6.704665673399864 0.09869243171064639 6.520428291537379 0.12669329310830904 6.404231621848859 0.06257546357472918 6.364191771072557 -0.029543227356513324 6.440348589984776
0.103333334783813 -0.693506933422789
4 -4.858431986510858 8.607867907521815 -5.209799527236497 8.93571079519862 -4.966668485326201 8.139653247349745 -4.398827946969877 8.748239680017079
-0.4107151925772843 -1.0361444091916918
6 -2.278876337239159 1.9231287884693518 -2.1978326566023934 1.6577762725197267 -1.9275087965135198 1.5952859007925462 -1.7382286170614119 1.7981480450149907 -1.8192722976981774 2.063500560964616 -2.0895961577870508 2.1259909326917965
0.0957403291620602 0.4378627075508426
4 4.161467965407729 1.9167247911550656 4.3983469171037335 1.5373985961152263 4.777673112143573 1.7742775478112305 4.540794160447568 2.15360374285107
0.21944930094448614 0.06621217789627432
3 7.414446250521019 5.868816181358036 7.911354991992899 5.405176323277939 8.064424516561335 6.067331845795189
-0.6983483172129507 -1.1237713481572784
4 4.2536700637025575 8.994292363819882 4.490549015398562 8.614966168780043 4.869875210438401 8.851845120476048 4.632996258742397 9.231171315515887
0.30891161305989007 -0.3524110711641534
20 6.966907630558966 9.38500555143889 7.151145012421451 9.232691913614453 7.267341682109971 9.260692775012116 7.307381532886273 9.196574945478536 7.231224713974054 9.104456254547294 7.287226436769379 8.872062915170252 7.439540074593817 9.056300297032736 7.411539213196155 9.172496966721258 7.475657042729734 9.21253681749756 7.5677757336609774 9.13637999858534 7.800169073038019 9.192381721380666 7.6159316911755335 9.344695359205105 7.499735021487013 9.316694497807442 7.459695170710711 9.38081232734102 7.53585198962293 9.472931018272263 7.479850266827605 9.705324357649305 7.327536629003167 9.52108697578682 7.355537490400829 9.404890306098299 7.29141966086725 9.364850455321998 7.199300969936007 9.441007274234217
-0.055444596070394335 1.4972017477827535
4 1.9947524147728972 -7.146410604125991 2.231631366468901 -7.525736799165831 2.610957561508741 -7.288857847469826 2.3740786098127367 -6.909531652429987
1.184785121911489 -2.280619443529353
20 3.466755681645447 4.651043754904596 3.650993063507932 4.498730117080158 3.7671897331964526 4.52673097847782 3.807229583972754 4.462613148944241 3.731072765060535 4.370494458012998 3.7870744878558606 4.138101118635957 3.9393881256802983 4.322338500498442 3.9113872642826357 4.438535170186962 3.9755050938162158 4.478575020963264 4.067623784747458 4.402418202051045 4.3000171241244995 4.45841992484637 4.115779742262014 4.610733562670808 3.9995830725734938 4.582732701273146 3.959543221797192 4.646850530806725 4.035700040709411 4.738969221737968 3.9796983179140857 4.97136256111501 3.827384680089648 4.7871251792525245 3.8553855414873106 4.670928509564004 3.7912677119537306 4.630888658787702 3.699149021022488 4.707045477699921
0.17766609431956987 0.08857553360503886
4 -5.327104834739576 1.8502102278575256 -5.090225883043572 1.4708840328176864 -4.710899688003733 1.7077629845136906 -4.947778639699737 2.08708917955353
-1.8486417617927067 0.41289284811494503
20 -8.11934481702252 3.76707675395795 -7.9351074351600355 3.6147631161335125 -7.818910765471515 3.642763977531175 -7.778870914695213 3.578646147997595 -7.855027733607432 3.4865274570663525 -7.799026010812107 3.2541341176893113 -7.646712372987669 3.4383714995517964 -7.674713234385331 3.554568169240317 -7.610595404851752 3.5946080200166186 -7.518476713920509 3.5184512011043996 -7.286083374543468 3.574452923899725 -7.470320756405953 3.7267665617241628 -7.586517426094473 3.6987657003265 -7.626557276870775 3.7628835298600802 -7.550400457958556 3.855002220791323 -7.606402180753881 4.087395560168364 -7.758715818578319 3.903158178305879 -7.730714957180657 3.7869615086173583 -7.794832786714236 3.7469216578410567 -7.886951477645479 3.8230784767532757
0.011189303389280359 0.011119478388443751
3 -8.624217897350196 5.473014770546395 -8.127309155878315 5.009374912466297 -7.974239631309879 5.671530434983548
0.35796102152950604 0.1413703733960997
4 0.9883617797039879 -5.366683094598885 0.6369942389783486 -5.03884020692208 0.8801252808886456 -5.834897754770955 1.4479658192449694 -5.226311322103621
0.2524422269254708 0.5224657324461642
20 -9.698177040190183 1.1783583106802387 -9.513939658327699 1.0260446728558008 -9.397742988639177 1.0540455342534636 -9.357703137862876 0.9899277047198837 -9.433859956775095 0.8978090137886412 -9.377858233979769 0.6654156744115999 -9.22554459615533 0.8496530562740848 -9.253545457552994 0.9658497259626055 -9.189427628019414 1.005889576738907 -9.097308937088172 0.9297327578266883 -8.86491559771113 0.9857344806220136 -9.049152979573615 1.1380481184464515 -9.165349649262136 1.1100472570487887 -9.205389500038438 1.1741650865823687 -9.129232681126219 1.266283777513611 -9.185234403921545 1.4986771168906525 -9.337548041745983 1.3144397350281674 -9.30954718034832 1.1982430653396468 -9.373665009881899 1.1582032145633452 -9.465783700813141 1.234360033475564
-1.2763078419928742 -1.8088692885395021
4 -9.64863245927436 9.141262736563654 -10.0 9.46910562424046 -9.756868958089703 8.673048076391584 -9.18902841973338 9.281634509058918
-0.053151601925067606 -0.1701253678693212
6 -9.140085914202116 2.149878214335771 -9.05904223356535 1.884525698386146 -8.788718373476476 1.8220353266589655 -8.599438194024367 2.02489747088141 -8.680481874661133 2.2902499868310353 -8.950805734750007 2.352740358558216
-0.24521778907932798 -0.7279698199374188
20 7.137993024913923 -4.151662104175708 7.322230406776408 -4.303975742000146 7.4384270764649285 -4.275974880602484 7.4784669272412305 -4.340092710136063 7.4023101083290115 -4.432211401067306 7.458311831124337 -4.664604740444347 7.610625468948775 -4.480367358581862 7.582624607551113 -4.364170688893342 7.646742437084692 -4.32413083811704 7.738861128015935 -4.400287657029259 7.971254467392976 -4.344285934233934 7.787017085530491 -4.191972296409496 7.670820415841971 -4.219973157807158 7.630780565065669 -4.155855328273579 7.706937383977888 -4.063736637342336 7.6509356611825625 -3.8313432979652946 7.4986220233581244 -4.01558067982778 7.526622884755787 -4.1317773495163 7.462505055222207 -4.171817200292602 7.370386364290964 -4.095660381380383
-1.7207266490718829 -0.08405160538242573
12 -1.7235544219364813 -2.6442869117790972 -1.8573957203712734 -2.787732109604831 -1.6662478857859073 -2.8319194752119885 -1.6089413496353335 -3.01955203864488 -1.4751000512005414 -2.876106840819146 -1.2839522166151753 -2.9202942064263033 -1.3412587527657491 -2.732661642993412 -1.207417454330957 -2.5892164451676782 -1.3985652889163231 -2.545029079560521 -1.455871825066897 -2.357396516127629 -1.589713123501689 -2.5008417139533634 -1.7808609580870551 -2.456654348346206
0.537883592768055 -1.0323418446170676
12 -0.44159852943676275 -4.711274613375 -0.5754398278715549 -4.854719811200734 -0.38429199328618885 -4.898907176807892 -0.32698545713561494 -5.0865397402407835 -0.1931441587008228 -4.943094542415049 -0.001996324115456777 -4.987281908022207 -0.059302860266030655 -4.799649344589316 0.07453843816876143 -4.6562041467635815 -0.11660939641660456 -4.612016781156424 -0.17391593256717847 -4.424384217723532 -0.3077572310019706 -4.567829415549267 -0.4989050655873366 -4.523642049942109
-0.7047178247510144 1.0200130841108848
4 -7.154796799255328 7.8950824874451335 -7.506164339980967 8.222925375121939 -7.26303329807067 7.426867827273064 -6.695192759714346 8.035454259940398
-0.8920843613772776 1.6272249964374375
20 8.795025792180178 -0.05383556486137084 8.979263174042662 -0.20614920268580866 9.095459843731184 -0.17814834128814602 9.135499694507486 -0.24226617082172588 9.059342875595267 -0.3343848617529684 9.115344598390593 -0.5667782011300097 9.26765823621503 -0.3825408192675247 9.239657374817368 -0.26634414957900404 9.303775204350947 -0.2263042988027023 9.395893895282189 -0.30246111771492123 9.628287234659231 -0.24645939491959593 9.444049852796747 -0.09414575709515809 9.327853183108225 -0.12214661849282074 9.287813332331924 -0.05802878895924088 9.363970151244143 0.034089901972001624 9.307968428448817 0.2664832413490429 9.155654790624379 0.08224585948655791 9.183655652022042 -0.033950810201962736 9.119537822488462 -0.07399066097826446 9.02741913155722 0.002166157933954471
0.34947430062486917 0.10018259442238987
6 -5.352211235402529 0.4860727331715266 -5.271167554765764 0.22072021722190152 -5.00084369467689 0.15822984549472102 -4.811563515224782 0.3610919897171656 -4.892607195861547 0.6264445056667907 -5.162931055950422 0.6889348773939713
0.7407849359822731 0.21138213538888423
4 9.383794853264156 2.0557565484147653 9.62067380496016 1.6764303533749259 10.0 1.91330930507093 9.763121048303995 2.2926355001107694
-0.015464790822579733 -1.0767796368050655
5 -7.60071501755078 3.697788615390347 -7.4675847878960315 3.3839046456930535 -7.127923889726473 3.4135235372237367 -7.051132139663117 3.7457129885960896 -7.343333126237934 3.9213984687177006
-2.4342875049172927 -0.4411032370973069
20 7.539688091872167 8.860280082264982 7.723925473734652 8.707966444440544 7.840122143423172 8.735967305838207 7.880161994199474 8.671849476304628 7.804005175287255 8.579730785373386 7.86000689808258 8.347337445996343 8.012320535907019 8.531574827858828 7.984319674509356 8.64777149754735 8.048437504042935 8.68781134832365 8.140556194974177 8.611654529411432 8.37294953435122 8.667656252206758 8.188712152488735 8.819969890031196 8.072515482800213 8.791969028633533 8.032475632023912 8.856086858167112 8.108632450936131 8.948205549098354 8.052630728140805 9.180598888475396 7.900317090316368 8.996361506612912 7.92831795171403 8.88016483692439 7.864200122180451 8.840124986148089 7.772081431249208 8.916281805060308
0.008946491278676496 0.8909332576384253
4 -1.829963520036701 -1.9574965549362773 -2.18133106076234 -1.6296536672594717 -1.9382000188520434 -2.425711215108347 -1.3703594804957195 -1.817124782441013
-1.3648962635144892 0.707524299379843
3 1.5190912264413312 8.571799138505067 2.015999967913211 8.10815928042497 2.169069492481648 8.77031480294222
0.012492258276062406 0.2486331784368487
4 -8.633622366560513 -3.6236743998808216 -8.396743414864508 -4.003000594920661 -8.017417219824669 -3.766121643224657 -8.254296171520673 -3.3867954481848175
