marco:(-10.0,10.0),(-10.0,10.0)
timeIntervals:0.0-1.0
framesPerSecond:1000
10.636293489804503 -4.2560260091254705
3 3.3496560601001186 -5.7807536895815606 2.5291871782475517 -10.0 6.593396108819968 -8.600923739489717
