areaTotal:400.0
tiempoTotalSimulado:1.0
areaOcupadaInicial:8.000000000000028
eventosSimples:892
eventosMultiples:0
0.0
[(0,39), (0,40), (0,162), (0,172), (1,91), (2,77), (2,83), (3,47), (3,103), (3,113), (3,158), (3,197), (4,34), (4,75), (4,181), (5,48), (5,63), (5,76), (5,84), (5,114), (5,136), (5,138), (5,140), (5,159), (6,43), (6,52), (6,74), (6,123), (6,180), (7,118), (8,23), (8,37), (8,62), (8,65), (8,126), (8,153), (8,154), (8,173), (9,79), (9,92), (9,97), (9,178), (10,31), (10,44), (10,128), (10,165), (10,176), (10,191), (11,30), (11,132), (11,190), (12,32), (12,93), (12,127), (12,166), (13,86), (13,92), (13,97), (13,125), (13,144), (13,147), (13,174), (14,82), (14,135), (14,149), (14,156), (14,182), (14,185), (15,25), (15,73), (15,90), (15,122), (15,131), (15,157), (16,68), (16,94), (16,101), (16,108), (16,124), (17,27), (17,43), (17,180), (17,199), (18,94), (18,101), (18,108), (18,112), (18,124), (18,134), (18,164), (19,28), (19,49), (19,64), (19,89), (19,120), (19,129), (19,167), (19,187), (20,21), (20,26), (20,51), (20,110), (20,156), (20,161), (20,192), (21,26), (21,30), (21,51), (21,105), (21,110), (21,132), (21,161), (21,190), (21,192), (22,42), (22,107), (22,115), (22,142), (23,37), (23,62), (23,65), (23,126), (23,153), (23,154), (23,173), (24,29), (24,31), (24,44), (24,45), (24,87), (24,121), (24,165), (24,191), (25,73), (25,90), (25,122), (25,131), (25,157), (26,51), (26,105), (26,110), (26,156), (26,161), (26,192), (27,199), (28,49), (28,120), (28,129), (28,167), (28,187), (29,31), (29,44), (29,45), (29,87), (29,121), (29,165), (29,191), (30,105), (30,132), (30,161), (30,190), (31,44), (31,45), (31,87), (31,165), (31,191), (32,166), (33,143), (33,186), (33,188), (34,75), (34,85), (34,181), (35,41), (35,95), (35,99), (35,151), (35,193), (35,195), (36,38), (36,59), (36,70), (36,96), (36,100), (36,106), (36,163), (36,179), (36,183), (37,62), (37,65), (37,153), (38,63), (38,69), (38,76), (38,96), (38,106), (38,136), (38,137), (38,140), (38,159), (38,183), (39,40), (39,162), (39,172), (40,162), (40,172), (41,78), (41,95), (41,193), (42,115), (42,142), (42,184), (43,52), (43,74), (43,123), (43,180), (44,45), (44,87), (44,128), (44,165), (44,176), (44,191), (45,87), (45,121), (45,165), (45,191), (46,57), (46,135), (46,148), (46,150), (46,168), (47,103), (47,158), (47,197), (48,58), (48,61), (48,63), (48,67), (48,84), (48,98), (48,114), (48,136), (48,138), (48,140), (49,64), (49,89), (49,113), (49,120), (49,129), (49,141), (49,187), (50,81), (50,88), (50,104), (50,139), (51,105), (51,110), (51,156), (51,161), (51,192), (52,74), (52,123), (52,180), (53,54), (53,186), (54,56), (54,189), (55,79), (55,171), (56,109), (56,189), (57,148), (57,150), (57,168), (57,198), (58,61), (58,67), (58,84), (58,98), (58,114), (59,70), (59,96), (59,100), (59,106), (59,163), (59,179), (59,194), (60,102), (60,111), (60,146), (60,170), (60,175), (61,67), (61,98), (61,114), (62,65), (62,153), (62,154), (63,76), (63,84), (63,136), (63,137), (63,138), (63,140), (63,159), (64,89), (64,113), (64,129), (64,141), (64,197), (65,126), (65,153), (65,154), (65,173), (66,71), (67,98), (67,114), (68,94), (68,108), (69,76), (69,96), (69,106), (69,136), (69,137), (69,140), (69,159), (69,183), (70,96), (70,100), (70,106), (70,163), (70,179), (70,183), (70,194), (72,86), (72,117), (72,125), (72,144), (72,147), (72,160), (72,169), (73,90), (73,122), (73,131), (73,157), (74,123), (74,180), (75,143), (75,181), (76,84), (76,96), (76,106), (76,136), (76,137), (76,138), (76,140), (76,159), (76,183), (77,83), (78,95), (78,196), (79,171), (79,178), (80,90), (80,122), (80,126), (80,130), (80,133), (80,154), (80,157), (80,173), (81,88), (81,104), (81,139), (82,135), (82,149), (82,182), (82,185), (83,85), (84,98), (84,114), (84,136), (84,138), (84,140), (84,159), (86,92), (86,97), (86,117), (86,125), (86,144), (86,147), (86,169), (86,174), (87,91), (87,121), (87,165), (87,191), (88,104), (88,139), (89,113), (89,129), (89,141), (89,197), (90,122), (90,130), (90,133), (90,157), (90,173), (91,121), (92,97), (92,147), (92,174), (92,178), (93,116), (93,127), (94,101), (94,108), (94,124), (95,193), (95,196), (96,106), (96,137), (96,163), (96,179), (96,183), (97,144), (97,147), (97,174), (97,178), (98,114), (99,151), (99,167), (99,193), (99,195), (100,163), (100,179), (100,194), (101,108), (101,124), (102,104), (102,111), (102,146), (102,170), (103,113), (103,158), (103,197), (104,111), (104,139), (104,146), (105,110), (105,132), (105,161), (105,190), (106,137), (106,179), (106,183), (107,115), (107,119), (107,142), (107,155), (108,124), (109,184), (109,189), (110,132), (110,156), (110,161), (110,192), (111,146), (111,170), (112,134), (112,145), (112,164), (113,129), (113,141), (113,197), (114,138), (115,119), (115,142), (115,155), (116,127), (116,177), (117,125), (117,144), (117,147), (117,160), (117,169), (118,131), (119,155), (120,129), (120,167), (120,187), (122,130), (122,133), (122,157), (123,180), (124,134), (125,144), (125,147), (125,169), (125,174), (126,130), (126,133), (126,154), (126,173), (128,152), (128,176), (129,141), (129,187), (130,133), (130,154), (130,157), (130,173), (132,161), (132,190), (133,157), (133,173), (134,145), (134,164), (135,149), (135,185), (136,137), (136,138), (136,140), (136,159), (137,140), (137,159), (137,183), (138,140), (138,159), (140,159), (140,183), (141,197), (142,155), (143,181), (143,188), (144,147), (144,169), (144,174), (145,164), (146,170), (146,175), (147,169), (147,174), (148,150), (148,168), (148,194), (148,198), (149,182), (149,185), (150,168), (150,194), (150,198), (151,193), (151,195), (152,176), (152,196), (153,154), (154,173), (156,182), (156,192), (158,197), (160,169), (161,190), (161,192), (162,172), (163,179), (163,194), (165,191), (167,187), (168,194), (168,198), (170,175), (171,177), (179,183), (179,194), (182,185), (182,192), (184,189), (186,188), (193,195), (194,198)]
[(0,53), (0,74), (0,89), (0,162), (0,177), (0,183), (1,36), (1,39), (1,72), (1,96), (1,122), (1,127), (1,144), (2,19), (2,47), (2,50), (2,75), (2,123), (2,129), (2,184), (3,112), (3,140), (3,161), (3,181), (4,10), (4,51), (4,62), (4,146), (4,155), (4,157), (5,9), (5,16), (5,35), (5,37), (5,64), (5,145), (5,148), (5,160), (5,170), (6,17), (6,31), (6,33), (6,63), (6,118), (6,120), (6,180), (6,196), (7,9), (7,64), (7,104), (7,110), (7,132), (7,145), (7,176), (8,15), (8,61), (8,68), (8,150), (9,16), (9,35), (9,64), (9,132), (9,145), (9,148), (9,160), (9,170), (10,51), (10,62), (10,146), (10,155), (10,157), (11,69), (11,76), (11,83), (11,91), (11,171), (11,172), (12,60), (12,93), (12,117), (12,126), (12,185), (12,193), (13,44), (13,90), (13,143), (13,144), (13,158), (14,89), (14,116), (14,162), (14,167), (14,168), (14,175), (14,177), (15,61), (15,150), (15,179), (16,28), (16,35), (16,37), (16,64), (16,145), (16,148), (16,160), (16,170), (17,31), (17,33), (17,63), (17,118), (17,120), (17,180), (17,196), (18,30), (18,40), (18,157), (18,166), (19,75), (19,78), (19,129), (19,164), (19,187), (20,68), (20,73), (20,125), (21,59), (21,87), (21,100), (21,101), (21,156), (21,163), (21,165), (21,192), (22,43), (22,94), (22,179), (23,56), (23,66), (23,71), (23,97), (23,99), (23,108), (23,124), (23,153), (23,194), (24,31), (24,33), (24,120), (25,52), (25,70), (25,166), (25,169), (25,199), (26,27), (26,38), (26,46), (26,115), (26,149), (26,152), (27,38), (27,115), (27,119), (27,190), (28,35), (28,37), (28,48), (28,58), (28,79), (28,148), (28,160), (29,95), (29,111), (29,154), (29,159), (29,174), (29,182), (30,40), (30,166), (30,169), (31,33), (31,63), (31,120), (31,180), (31,196), (32,42), (32,67), (32,80), (33,120), (33,180), (34,57), (34,139), (34,168), (34,175), (35,37), (35,64), (35,145), (35,148), (35,160), (35,170), (36,39), (36,55), (36,72), (36,96), (36,143), (36,144), (37,48), (37,58), (37,148), (37,160), (37,170), (38,46), (38,115), (38,149), (38,152), (39,72), (39,96), (39,122), (39,127), (39,144), (40,166), (40,169), (41,113), (41,121), (41,135), (41,173), (42,45), (42,67), (42,80), (42,197), (43,77), (43,94), (43,186), (44,90), (44,143), (44,158), (45,99), (45,141), (45,153), (45,194), (45,197), (46,60), (46,149), (46,152), (47,50), (47,76), (47,83), (47,103), (47,123), (47,136), (47,171), (47,184), (48,58), (48,79), (49,88), (49,130), (49,131), (49,151), (49,191), (49,195), (49,198), (50,75), (50,103), (50,123), (50,129), (50,184), (51,62), (51,155), (51,157), (52,70), (52,199), (53,74), (53,89), (53,107), (53,183), (54,98), (55,72), (55,143), (55,144), (56,71), (56,99), (56,108), (56,141), (56,153), (56,194), (57,70), (57,139), (58,79), (59,87), (59,92), (59,156), (59,165), (59,192), (60,117), (60,149), (61,150), (61,179), (62,146), (62,155), (62,157), (63,82), (63,118), (63,164), (63,180), (63,187), (63,196), (64,145), (64,148), (64,160), (64,170), (65,119), (65,190), (66,79), (66,97), (66,124), (67,80), (67,193), (68,125), (69,91), (69,171), (69,172), (70,199), (71,99), (71,108), (71,141), (71,153), (71,194), (72,96), (72,122), (72,143), (72,144), (73,125), (73,134), (73,188), (74,89), (74,183), (75,78), (75,82), (75,129), (75,164), (75,187), (76,83), (76,103), (76,136), (76,171), (76,172), (76,184), (77,102), (77,138), (77,186), (78,82), (78,118), (78,129), (78,164), (78,187), (79,97), (79,124), (80,93), (80,185), (80,193), (81,105), (82,118), (82,164), (82,187), (82,196), (83,103), (83,136), (83,171), (83,172), (84,85), (84,92), (84,189), (85,146), (85,189), (86,98), (86,128), (87,92), (87,100), (87,101), (87,156), (87,165), (87,192), (88,130), (88,131), (88,195), (88,198), (89,116), (89,162), (89,167), (89,177), (90,158), (91,172), (91,178), (92,189), (93,117), (93,126), (93,185), (93,193), (94,186), (95,107), (95,111), (95,133), (95,154), (95,159), (95,174), (95,182), (96,122), (96,127), (96,147), (97,108), (97,124), (98,128), (99,108), (99,141), (99,153), (99,194), (99,197), (100,101), (100,156), (100,163), (100,165), (100,192), (101,156), (101,163), (101,165), (101,192), (102,138), (102,186), (103,123), (103,136), (103,171), (103,184), (104,110), (104,132), (104,145), (104,176), (106,138), (106,142), (107,111), (107,133), (107,182), (107,183), (108,124), (108,141), (108,153), (108,194), (109,114), (109,130), (109,131), (109,151), (109,178), (109,191), (110,132), (110,145), (110,176), (111,133), (111,159), (111,174), (111,182), (112,140), (112,161), (113,121), (113,135), (113,173), (114,130), (114,131), (114,151), (114,191), (115,119), (115,152), (115,190), (116,162), (116,167), (116,168), (116,175), (116,177), (117,126), (117,185), (118,164), (118,180), (118,187), (118,196), (119,190), (120,180), (121,135), (121,173), (122,127), (123,129), (123,136), (123,184), (126,185), (126,193), (127,137), (127,147), (129,184), (129,187), (130,131), (130,151), (130,191), (131,151), (131,191), (132,145), (132,176), (133,159), (133,182), (133,183), (134,140), (134,188), (135,173), (136,171), (136,184), (137,147), (138,142), (140,161), (140,188), (141,153), (141,194), (141,197), (143,144), (143,158), (144,158), (145,160), (145,170), (145,176), (148,160), (148,170), (149,152), (150,179), (151,178), (151,191), (153,194), (153,197), (154,159), (154,174), (154,198), (155,157), (156,163), (156,165), (156,192), (159,174), (159,182), (160,170), (162,167), (162,175), (162,177), (163,165), (163,181), (163,192), (164,187), (165,192), (166,169), (167,168), (167,175), (167,177), (168,175), (171,172), (174,182), (180,196), (182,183), (185,193), (194,197), (195,198)]
2.577536139695179E-4, [(142,155),X]-
8.538330942705399E-4, [(123,136),Y]-
9.871779959073224E-4, [(159,183),X]+
0.0011316346743640402, [(67,84),X]+
0.0015719996069901575, [(87,163),Y]+
0.0024124344241040867, [(64,197),X]-
0.002894414196459067, [(49,151),Y]-
0.003121113532812637, [(77,94),Y]+
0.003917898569483143, [(94,134),X]+
0.00392096119415308, [(42,107),X]+
0.0048093575488515556, [(71,97),Y]+
0.005036996404184592, [(153,154),X]-
0.005507535170994566, [(69,136),X]-
0.005584666391656202, [(163,198),X]+
0.005947136758363386, [(50,75),Y]-
0.006393442260315026, [(148,194),X]-
0.007272256780988333, [(96,163),X]-
0.00800735307308617, [(97,144),X]-
0.008636431402698064, [(34,57),Y]-
0.008828235565397663, [(26,27),Y]-
0.009123370011309721, [(95,151),X]+
0.009224296622039453, [(18,62),Y]+
0.009909589440972724, [(86,169),X]-
0.010198543794877623, [(51,182),X]+
0.010488224503627332, [(0,162),Y]-
0.010983919961891485, [(91,171),Y]+
0.011433624272735938, [(69,178),Y]+
0.012226257670406193, [(140,188),Y]-
0.012580864036706453, [(59,183),X]+
0.012773274293151884, [(49,191),Y]-
0.013674009911930098, [(110,132),X]-
0.014611951597024596, [(42,80),Y]-
0.01464312558663283, [(13,72),X]+
0.014734243984198613, [(54,186),X]+
0.014785794197447646, [(53,56),X]+
0.014977759481034554, [(1,144),Y]-
0.015183950338006244, [(111,183),Y]+
0.015321500227381882, [(66,108),Y]+
0.01607399604787584, [(36,38),X]-
0.016187199339488017, [(54,109),X]+
0.016499792933736174, [(39,143),Y]+
0.016758353027245532, [(44,144),Y]+
0.017271445607204793, [(119,142),X]+
0.017271445607204793, [(142,155),X]+
0.017509808542240445, [(141,197),X]-
0.018377228260379148, [(71,124),Y]+
0.01863445553282654, [(48,66),Y]+
0.019436227236247074, [(164,196),Y]+
0.019904193493332806, [(19,82),Y]+
0.020002712505406372, [(62,146),Y]-
0.02014471124028192, [(153,197),Y]-
0.020174587675308536, [(25,52),Y]-
0.021498239557556777, [(59,84),Y]+
0.021677024404587783, [(77,172),X]+
0.02200551629865707, [(89,183),Y]+
0.022286335113648005, [(16,28),Y]-
0.023433983165043408, [(28,64),X]+
0.023847173206858346, [(64,120),X]+
0.023852238965177595, [(2,47),Y]-
0.023971873672111475, [(82,180),Y]+
0.02427618245110717, [(9,148),Y]-
0.024995422084860792, [(31,118),Y]+
0.02529675911365486, [(28,64),X]-
0.025883251315629425, [(37,154),X]+
0.025883251315629425, [(153,154),X]+
0.025950277676948796, [(79,92),X]+
0.02722142386665537, [(47,171),Y]-
0.02746054888262271, [(153,197),Y]+
0.027461392513786504, [(96,140),X]+
0.027756087920668637, [(175,177),Y]+
0.02781057994469902, [(36,122),Y]+
0.02788487684299171, [(49,151),Y]+
0.028038830842800455, [(154,198),Y]-
0.028500559447346897, [(10,191),X]-
0.02862201927675453, [(66,71),Y]+
0.028716792802873023, [(61,84),X]+
0.028815917963011636, [(20,182),X]+
0.028914039175445373, [(59,165),Y]-
0.0292435158612993, [(33,180),Y]-
0.03023992337658399, [(65,173),X]-
0.03044030749871991, [(78,118),Y]-
0.03054183354624275, [(43,123),X]-
0.031557715713310494, [(100,198),X]+
0.03160547073722773, [(130,154),X]-
0.03205356132422183, [(26,182),X]+
0.03216966498659704, [(37,48),Y]-
0.03236914500288589, [(111,174),Y]-
0.03263147923904028, [(68,94),X]-
0.033604953321425574, [(92,147),X]-
0.03379870854771949, [(1,143),Y]+
0.03414732327947227, [(154,182),Y]+
0.03489246307934355, [(16,124),X]-
0.035216755266123556, [(28,129),X]-
0.03785910092811497, [(19,141),X]+
0.03787055512941476, [(141,197),X]+
0.03787055512941476, [(64,197),X]+
0.03806619747667914, [(22,119),X]+
0.03845040027675787, [(48,97),Y]+
0.03989060537844889, [(147,169),X]-
0.04046934731422708, [(53,188),X]+
0.04067643566741486, [(4,146),Y]-
0.04100394310365666, [(99,187),X]+
0.04103059135272565, [(10,157),Y]-
0.041694867236504916, [(5,37),Y]-
0.042581464531461784, [(124,164),X]+
0.042781745076797925, [(157,173),X]+
0.04302540527356336, [(20,182),X]-
0.04451262727390191, [(9,97),X]-
0.0446260280362735, [(116,127),X]-
0.04469638880423426, [(162,168),Y]+
0.044700957895904406, [(39,55),Y]+
0.04484546676817801, [(80,93),Y]-
0.04505493669767142, [(41,196),X]+
0.045128500145619144, [(47,171),Y]+
0.04573745709740561, [(81,104),X]-
0.04592960118311519, [(153,158),X]+
0.046451452643019864, [(23,99),Y]-
0.04789961916580471, [(9,176),Y]+
0.04811113997132728, [(48,124),Y]+
0.04878446416068194, [(40,157),Y]+
0.04897758219739651, [(23,194),Y]-
0.04915965759741279, [(103,123),Y]-
0.049994758164509503, [(44,176),X]-
0.05067819902173538, [(42,67),Y]-
0.05136999991073005, [(96,143),Y]+
0.052077166014232366, [(23,194),Y]+
0.052077166014232366, [(23,99),Y]+
0.05222379090446115, [(14,89),Y]-
0.05231922248526551, [(9,55),X]+
0.052425490713774225, [(59,194),X]-
0.05252529566755457, [(164,180),Y]+
0.05299765780192649, [(1,121),X]+
0.053306263440820574, [(10,165),X]-
0.054248987727005225, [(32,197),Y]+
0.054897926721715416, [(88,151),Y]+
0.0549394230797932, [(28,35),Y]-
0.05494161913495163, [(8,173),X]-
0.055077911921500904, [(8,68),Y]-
0.05546140835552527, [(12,166),X]-
0.055575217822772464, [(179,194),X]-
0.0556860912391407, [(59,194),X]+
0.05570642398852508, [(82,182),X]-
0.05574478695868268, [(101,134),X]+
0.05621769234667706, [(96,159),X]+
0.0562663874285662, [(124,164),X]-
0.05684340986227499, [(76,84),X]-
0.05707777389569804, [(86,117),X]-
0.057886936892901704, [(33,53),X]+
0.0581774116655336, [(27,119),Y]-
0.05827274019828601, [(120,141),X]+
0.05919421103257794, [(84,159),X]-
0.059244067989095046, [(96,147),Y]-
0.05929334181368647, [(76,184),Y]-
0.05962864430845554, [(152,196),X]-
0.06047974096878354, [(89,103),X]+
0.06096694442545372, [(10,152),X]+
0.06104320259733541, [(41,193),X]-
0.061117210174120896, [(64,176),Y]+
0.06123360509625063, [(29,133),Y]+
0.06258199620638845, [(84,159),X]+
0.06258199620638845, [(76,84),X]+
0.06350300892135692, [(9,132),Y]-
0.0635467535296115, [(1,55),Y]+
0.06392392667767959, [(63,114),X]+
0.06400446527931211, [(19,89),X]-
0.06401596668610592, [(146,175),X]-
0.06445188713740024, [(57,70),Y]-
0.06468917831340415, [(134,140),Y]-
0.06502682584755842, [(21,59),Y]-
0.06506974536153315, [(18,108),X]-
0.06534340086441033, [(59,84),Y]-
0.06584534409423934, [(99,167),X]-
0.06584534409423934, [(99,187),X]-
0.06657796306916004, [(61,179),Y]-
0.06712955106048445, [(48,159),X]+
0.06957260375919692, [(146,189),Y]+
0.06959749799625037, [(16,28),Y]+
0.07020874360584796, [(42,119),X]+
0.07079757831745713, [(117,185),Y]-
0.0711118281581665, [(107,159),Y]+
0.0711811656301306, [(152,196),X]+
0.07236793893119227, [(129,197),X]+
0.07263675895496083, [(72,127),Y]+
0.07301677810315861, [(61,179),Y]+
0.07330575055328148, [(2,19),Y]-
0.07422639869225524, [(27,166),X]+
0.07444120931110387, [(11,136),Y]+
0.07489537677610578, [(9,132),Y]+
0.07489537677610578, [(64,132),Y]+
0.0767592855957171, [(66,108),Y]-
0.0767592855957171, [(108,124),Y]-
0.0788095952689913, [(123,180),X]-
0.07893682063071357, [(48,76),X]+
0.08103683234824154, [(52,57),Y]+
0.08103683234824154, [(57,70),Y]+
0.08333983615391514, [(117,147),X]-
0.08367589156068472, [(0,77),X]+
0.08428720522558981, [(103,123),Y]+
0.08463976008060775, [(59,192),Y]-
0.08483011815920904, [(7,131),X]+
0.08623196678524393, [(11,47),Y]+
0.08633614775831838, [(55,96),Y]+
0.08644758831038465, [(77,138),Y]-
0.08758036503454794, [(71,141),Y]-
0.0888455368114361, [(29,107),Y]+
0.08934365489148209, [(3,161),Y]-
0.09056485152338344, [(83,184),Y]+
0.09056485152338344, [(76,184),Y]+
0.09076706647540052, [(168,194),X]-
0.09077018211042086, [(40,62),Y]+
0.09135302534221365, [(3,89),X]+
0.09165070830083487, [(42,119),X]-
0.09165070830083487, [(22,119),X]-
0.09245061404372236, [(16,94),X]-
0.09285087645304044, [(78,95),X]-
0.09336657551644938, [(144,160),X]+
0.09371450878886683, [(153,158),X]-
0.09545845524618084, [(159,183),X]-
0.09545845524618084, [(140,183),X]-
0.09559377172190248, [(29,133),Y]-
0.09564720643018623, [(130,154),X]+
0.09565921321093486, [(43,74),X]-
0.09693677496994554, [(187,196),Y]+
0.09771061887530895, [(16,101),X]-
0.09898302953504887, [(42,184),X]-
0.09947683029605177, [(53,133),Y]+
0.09950603183761159, [(88,146),X]+
0.09992791842657214, [(7,35),Y]+
0.10031226619268233, [(98,114),X]-
0.10031226619268233, [(61,114),X]-
0.10031226619268233, [(67,114),X]-
0.10066698832777944, [(21,181),Y]+
0.10157303024447989, [(17,27),X]-
0.101599043945564, [(56,186),X]+
0.10260606514844325, [(14,34),Y]+
0.10267791546051734, [(65,126),X]-
0.10286218527942231, [(0,177),Y]-
0.10291009623148559, [(25,130),X]+
0.10371767177261042, [(148,198),X]-
0.10417556967045526, [(130,195),Y]+
0.10460254286953144, [(117,149),Y]+
0.10495915553174899, [(165,181),Y]+
0.10531826669097806, [(49,197),X]+
0.10531826669097806, [(28,49),X]-
0.10561410828792754, [(53,111),Y]+
0.1056265880403053, [(56,186),X]-
0.1056265880403053, [(53,56),X]-
0.10638852987459087, [(18,166),Y]-
0.10685511492512688, [(125,169),X]-
0.10702469093681496, [(109,130),Y]-
0.10765504561398932, [(9,104),Y]+
0.10823511642570371, [(53,111),Y]-
0.10823511642570371, [(53,133),Y]-
0.10911929815222518, [(139,146),X]+
0.10936479977806338, [(29,133),Y]+
0.10958408370329566, [(11,105),X]+
0.10994921895534432, [(122,131),X]+
0.10999737152815828, [(165,181),Y]-
0.10999737152815828, [(21,181),Y]-
0.1110976195520678, [(53,107),Y]-
0.11110997806340697, [(68,73),Y]+
0.11143929675909903, [(102,186),Y]-
0.11179296693891967, [(58,138),X]+
0.11248551241837636, [(70,166),Y]+
0.11315915643719793, [(12,193),Y]-
0.11318097642190417, [(14,156),X]-
0.11337867231483935, [(133,154),X]+
0.11453373200611817, [(5,137),X]+
0.11467189966965409, [(174,178),X]+
0.11544541101979242, [(30,157),Y]+
0.11556093544875805, [(2,75),Y]-
0.1165097489988765, [(95,196),X]-
0.1165097489988765, [(41,196),X]-
0.1166382136507401, [(9,104),Y]-
0.1166382136507401, [(9,104),Y]+
0.11728600833385243, [(13,92),X]-
0.11758107014826708, [(83,172),Y]-
0.11879859546143277, [(115,119),Y]-
0.11904109328047206, [(37,170),Y]-
0.11911650970547182, [(130,198),Y]+
0.11963470543017653, [(44,128),X]-
0.1220200391971325, [(114,136),X]+
0.12248725745855132, [(120,196),Y]+
0.12251780919071828, [(36,163),X]-
0.12306553527753836, [(150,163),X]+
0.12372432450904285, [(16,71),X]+
0.12461700397996718, [(82,180),Y]-
0.12527001754945627, [(58,138),X]-
0.12613704647949842, [(26,190),X]+
0.12623596240162163, [(75,85),X]+
0.12673014640914143, [(108,124),X]-
0.12716222904004534, [(89,167),Y]-
0.12758082570155038, [(145,160),Y]-
0.1280902964925712, [(63,96),X]+
0.12880908569274738, [(75,143),X]-
0.1289269130213502, [(23,173),X]-
0.1289269130213502, [(23,126),X]-
0.12970521725274226, [(118,187),Y]-
0.12970521725274226, [(187,196),Y]-
0.12974199476940534, [(19,89),X]+
0.12974199476940534, [(89,120),X]+
0.13009324685499002, [(38,190),Y]+
0.13031257794363035, [(42,194),Y]+
0.13170149678913065, [(121,191),X]+
0.13224987476333858, [(23,79),Y]+
0.13274142398078573, [(89,116),Y]-
0.13419069543154494, [(64,148),Y]-
0.1344090974441534, [(95,195),X]+
0.1355197188145145, [(163,179),X]-
0.13552052136613083, [(10,31),X]-
0.1361990729682107, [(53,107),Y]+
0.1361990729682107, [(53,107),Y]-
0.13634212488567518, [(182,183),Y]-
0.13634212488567518, [(111,183),Y]-
0.13706496379705935, [(109,131),Y]-
0.1386035417162735, [(89,162),Y]-
0.13965409305592766, [(2,85),X]+
0.13997073220958012, [(71,79),Y]+
0.14078580007293193, [(54,109),X]-
0.1418196193584136, [(12,185),Y]-
0.1418399135539627, [(36,163),X]+
0.14273699037335902, [(70,96),X]-
0.14345235010834118, [(73,130),X]+
0.14359548994588145, [(176,196),X]+
0.14378222161827323, [(23,79),Y]-
0.1442698029533917, [(59,100),Y]+
0.1442698029533917, [(59,192),Y]+
0.1442698029533917, [(21,59),Y]+
0.14439707126203216, [(16,94),X]+
0.14556678584559346, [(31,63),Y]-
0.14668413999296426, [(67,197),Y]+
0.1484877542766161, [(127,147),Y]-
0.1486483646587135, [(122,143),Y]+
0.14925849572079902, [(11,47),Y]-
0.14946693354993532, [(10,146),Y]-
0.1500374193218127, [(5,38),X]+
0.15030790508946582, [(49,197),X]-
0.15191442064275917, [(8,126),X]-
0.15200465499683713, [(94,112),X]+
0.15203188904786025, [(78,95),X]+
0.15203188904786025, [(95,196),X]+
0.1522351505448789, [(77,162),X]+
0.15228578323767097, [(138,142),Y]-
0.15326588778012434, [(63,114),X]-
0.15354504936628816, [(70,166),Y]-
0.15370276820657208, [(36,96),X]-
0.15464919150635745, [(69,179),X]+
0.154719820974268, [(102,106),Y]+
0.15528307668075106, [(43,74),X]+
0.15627052398387817, [(67,193),Y]-
0.15640290743130655, [(127,137),Y]-
0.15820846601939154, [(89,162),Y]+
0.15857008566810887, [(55,122),Y]+
0.1596748996331988, [(30,62),Y]+
0.15985731708233195, [(122,133),X]-
0.16038348704241753, [(75,85),X]-
0.1606875354125355, [(76,91),Y]+
0.16154745182887179, [(36,194),X]+
0.1620116257922264, [(46,115),Y]+
0.16230430937877144, [(17,164),Y]+
0.16310203329338366, [(117,125),X]-
0.16376796979437402, [(59,96),X]-
0.16406725304998154, [(24,121),X]-
0.16406725304998154, [(45,121),X]-
0.16478929679912657, [(150,194),X]-
0.16478929679912657, [(150,163),X]-
0.16478983321165372, [(43,199),X]+
0.16569368130415538, [(5,148),Y]-
0.16798070131819462, [(63,187),Y]-
0.16801307378099986, [(48,98),X]-
0.17035397506274225, [(172,178),Y]+
0.17040502252329937, [(80,197),Y]+
0.17063547376305688, [(36,96),X]+
0.17063547376305688, [(70,96),X]+
0.17063547376305688, [(59,96),X]+
0.1739131983272835, [(144,174),X]-
0.17518796641916062, [(59,101),Y]+
0.1753746419324905, [(20,105),X]+
0.17658362889366316, [(100,179),X]-
0.17800794687375335, [(48,71),Y]+
0.17853736457772684, [(131,195),Y]+
0.18052139569367864, [(5,7),Y]+
0.18069591879723498, [(17,164),Y]-
0.18092603745078703, [(77,83),X]-
0.18126684601088663, [(103,158),X]-
0.18135753563860998, [(117,126),Y]-
0.18159220552812966, [(4,157),Y]-
0.18277370592582334, [(19,123),Y]+
0.18305759211098355, [(12,149),Y]+
0.18368267399266022, [(110,190),X]+
0.18368267399266022, [(26,132),X]+
0.1838262980470262, [(15,157),X]-
0.183996665876331, [(27,119),Y]+
0.18646522462021367, [(10,44),X]-
0.18753414482517244, [(35,132),Y]+
0.18756858706026472, [(15,90),X]-
0.18763482138875742, [(163,168),X]+
0.18763482138875742, [(150,163),X]+
0.18895007281986048, [(97,125),X]+
0.18963024169010564, [(109,131),Y]+
0.18963024169010564, [(109,130),Y]+
0.19043415700431804, [(131,198),Y]+
0.19134217896309347, [(11,69),Y]-
0.19142489313535324, [(59,194),X]-
0.1924424855426991, [(50,146),X]+
0.19280706956543042, [(57,199),Y]+
0.19449244513842484, [(182,185),X]-
0.195557507849506, [(72,144),Y]-
0.19576067558772214, [(3,181),Y]-
0.19708624372455164, [(21,30),X]-
0.19929617391161497, [(24,121),X]+
0.2000859770948411, [(36,127),Y]+
0.20010374182365334, [(76,179),X]+
0.2010531765963411, [(0,53),Y]-
0.20221009619286198, [(30,161),X]-
0.2022628529278067, [(97,125),X]-
0.2022628529278067, [(125,174),X]-
0.2028588118699189, [(73,134),Y]-
0.2032273680646873, [(48,71),Y]-
0.20343624703012383, [(8,15),Y]-
0.20424540697820714, [(40,166),Y]-
0.20449184071874144, [(38,179),X]+
0.20449184071874144, [(36,38),X]+
0.20467000188246093, [(96,136),X]+
0.20544009920589723, [(47,113),X]+
0.20551271612828836, [(2,77),X]-
0.20566525203528796, [(12,193),Y]+
0.20639277879664725, [(108,124),X]+
0.20639277879664725, [(18,108),X]+
0.20714008689139302, [(1,144),Y]+
0.20714008689139302, [(55,122),Y]-
0.20714008689139302, [(122,143),Y]-
0.20719217987509364, [(82,118),Y]-
0.20880358054087825, [(3,112),Y]-
0.20904967804194483, [(15,22),Y]+
0.209543145592635, [(84,85),Y]-
0.21102614261570385, [(42,141),Y]+
0.2113406884609423, [(21,30),X]+
0.21217317024456514, [(69,109),Y]+
0.2122445090318226, [(111,139),X]+
0.21440049334146238, [(111,154),Y]+
0.21563934635054427, [(47,65),X]+
0.2160700625189199, [(60,104),X]+
0.2162799450844936, [(9,171),X]+
0.21636205362050132, [(95,99),X]+
0.2168059840291803, [(109,184),X]-
0.21682925395518016, [(106,137),X]-
0.21718232648877675, [(110,121),Y]+
0.2171991354923366, [(71,108),X]+
0.21770956488078705, [(9,160),Y]-
0.21948507147167906, [(14,182),X]-
0.22057781366459356, [(172,178),Y]-
0.2213039472591564, [(46,135),X]-
0.22213701528734142, [(3,89),X]-
0.22213701528734142, [(89,103),X]-
0.2224015507169416, [(35,132),Y]-
0.2241674382824107, [(171,177),X]-
0.2260519014275311, [(118,120),Y]+
0.22670541013070045, [(35,78),X]+
0.2275332791338537, [(46,60),Y]-
0.22759781544655847, [(26,60),Y]+
0.22759781544655847, [(46,60),Y]+
0.228614945368297, [(146,170),X]-
0.22901430307347062, [(22,43),Y]-
0.22923669358750376, [(27,65),Y]+
0.22995157170628283, [(14,182),X]+
0.23063094012437813, [(81,169),X]+
0.23122986506469567, [(81,88),X]-
0.23126836348600843, [(10,44),X]+
0.23126836348600843, [(10,31),X]+
0.2320640623223028, [(82,118),Y]+
0.23239854478407562, [(57,163),X]+
0.23252134059369436, [(48,124),Y]-
0.23271160863748389, [(38,149),Y]-
0.23327136836340806, [(46,135),X]+
0.23427181751237927, [(20,190),X]+
0.23595832072941184, [(64,160),Y]-
0.23636889412080123, [(51,157),Y]-
0.2385785569273904, [(69,109),Y]-
0.23908729271554593, [(2,77),X]+
0.23908729271554593, [(77,83),X]+
0.23936827499970675, [(73,188),Y]-
0.23949573928953255, [(7,110),Y]-
0.24292474391627106, [(85,189),Y]-
0.24292474391627106, [(146,189),Y]-
0.24315951058656718, [(9,178),X]-
0.24380712469992377, [(79,124),Y]-
0.24414149855876002, [(17,33),Y]-
0.24469154161088782, [(80,122),X]-
0.24535385552816652, [(150,198),X]-
0.24541167751247514, [(32,127),X]+
0.2463342764452973, [(51,190),X]+
0.24694227229088744, [(9,160),Y]+
0.247318166770736, [(44,121),X]+
0.2474078352439267, [(63,75),Y]+
0.2474078352439267, [(63,187),Y]+
0.24762072963453946, [(134,161),Y]+
0.24987445586983603, [(111,175),X]+
0.2499698968804568, [(80,185),Y]-
0.25154526584269177, [(134,161),Y]-
0.2546515489955736, [(109,178),Y]-
0.2557475889257629, [(60,93),Y]+
0.25575710801575424, [(110,176),Y]-
0.2565087312755936, [(110,113),Y]+
0.2567665283776381, [(150,198),X]+
0.2578738493275137, [(81,117),X]+
0.25934779083149223, [(139,168),Y]+
0.2595890386804201, [(26,117),Y]+
0.2597446475156163, [(16,58),Y]+
0.2598604899271688, [(36,38),X]-
0.25990511885840495, [(168,177),Y]+
0.26015400308510467, [(86,178),X]+
0.26056950779261434, [(6,123),X]-
0.26136073159151346, [(125,160),X]+
0.2622577971567624, [(46,190),Y]+
0.2625510414939506, [(152,190),Y]+
0.2642876987408612, [(156,165),Y]-
0.2647861387682661, [(32,42),Y]-
0.2655417129042037, [(104,110),Y]-
0.2655440642108167, [(46,163),X]+
0.2661151199244375, [(52,123),X]-
0.26904605174019264, [(13,55),Y]+
0.2695359459679203, [(121,135),Y]-
0.2695544418324021, [(35,78),X]-
0.26988866231218867, [(41,147),Y]+
0.26999595720307634, [(13,160),X]+
0.27010690695887596, [(182,185),X]+
0.2701566067420573, [(54,186),X]-
0.2701566067420573, [(56,109),X]-
0.2727209827265937, [(86,92),X]-
0.2727209827265937, [(86,178),X]-
0.2729311515075622, [(26,117),Y]-
0.2730976579649165, [(50,146),X]-
0.27327338044091737, [(101,165),Y]-
0.27337650599408336, [(63,75),Y]-
0.2735556671777145, [(129,197),X]-
0.2735556671777145, [(129,197),X]+
0.2735556671777145, [(129,197),X]-
0.2754611721661496, [(52,123),X]+
0.2754611721661496, [(6,123),X]+
0.2772365114849115, [(143,188),X]-
0.2779210839789807, [(19,113),X]+
0.2786434773526147, [(7,15),X]+
0.27864549478893197, [(44,128),X]+
0.27955520233643594, [(13,160),X]-
0.27955520233643594, [(125,160),X]-
0.28027171898640096, [(9,92),X]-
0.28037595519372505, [(110,176),Y]+
0.2808605379085813, [(108,124),Y]+
0.28120666071375233, [(77,102),Y]-
0.2839906490200007, [(7,15),X]-
0.2849861533048655, [(95,99),X]-
0.28671506950643266, [(11,21),X]+
0.28710597629921936, [(72,117),X]-
0.28764314957789033, [(5,160),Y]-
0.28764314957789033, [(9,160),Y]-
0.28781644633473946, [(155,157),Y]-
0.2882030187336215, [(60,93),Y]-
0.2888591279477067, [(156,165),Y]+
0.29245365798528916, [(26,190),Y]+
0.2947224559369987, [(22,186),Y]+
0.2947224559369987, [(22,43),Y]+
0.29515093912011736, [(101,165),Y]+
0.29745293569094244, [(66,71),X]-
0.2983469739335071, [(59,101),Y]-
0.29871892606739797, [(34,167),Y]+
0.29971812963338684, [(39,77),X]+
0.30134665163287905, [(57,198),X]-
0.30134665163287905, [(57,163),X]-
0.3016566024752512, [(28,48),Y]-
0.3047613219838641, [(79,174),X]+
0.3047920728261563, [(0,40),X]-
0.30540032538998124, [(58,114),X]-
0.3061474005235591, [(13,90),Y]-
0.30844002817235744, [(53,54),X]-
0.30844002817235744, [(53,54),X]+
0.3103301702053635, [(27,65),Y]-
0.3103301702053635, [(27,65),Y]+
0.31061463286956253, [(19,123),Y]-
0.3119103124433183, [(91,191),X]+
0.3130857293166251, [(30,166),Y]-
0.31372013750412786, [(72,117),X]+
0.31574990671468245, [(147,178),X]+
0.31574990671468245, [(86,178),X]+
0.31868883039296264, [(5,96),X]+
0.32128339638656456, [(60,146),X]-
0.3226715843452269, [(190,192),X]+
0.32351829782031966, [(52,139),Y]+
0.32475458943509145, [(14,139),Y]+
0.3259816822992685, [(71,141),Y]+
0.3270487018236993, [(3,158),X]-
0.32716154955246046, [(53,74),Y]-
0.3281092273551406, [(34,162),Y]+
0.32991403959701204, [(92,97),X]-
0.3310175437470668, [(79,171),X]-
0.3310175437470668, [(55,79),X]-
0.3321964563441468, [(143,158),Y]-
0.33273033110854516, [(10,62),Y]-
0.3337319237659679, [(137,183),X]-
0.3370926981691173, [(78,129),Y]-
0.33749267332372185, [(5,160),Y]+
0.3408899874816, [(12,26),Y]+
0.3408899874816, [(12,46),Y]+
0.34107001885506477, [(31,191),X]-
0.34206784878935004, [(112,161),Y]-
0.342594016900555, [(1,87),X]+
0.34294523718319336, [(120,167),X]-
0.3435512695600606, [(92,97),X]+
0.3440294469866126, [(14,139),Y]-
0.3440294469866126, [(139,168),Y]-
0.34592261481182396, [(22,77),Y]+
0.34629666231198325, [(73,90),X]-
0.34629666231198325, [(73,90),X]+
0.34661598767244245, [(11,91),Y]-
0.3500224374658804, [(168,177),Y]-
0.3506148121049709, [(49,174),Y]+
0.35667710010576126, [(95,99),X]+
0.3573118399314073, [(30,166),Y]+
0.3589759187793635, [(105,192),X]+
0.3590167979848656, [(36,198),X]+
0.36070288073450524, [(66,175),X]+
0.3617354049855368, [(81,139),X]-
0.36211266743767984, [(0,39),X]-
0.3648036216933862, [(124,153),Y]+
0.36491856697846037, [(48,58),Y]-
0.36568021676816237, [(12,32),X]-
0.36671225921783934, [(2,34),X]+
0.37246654304382504, [(34,116),Y]+
0.3739586468026958, [(92,147),X]+
0.37413357878395037, [(90,158),Y]-
0.37509749850708335, [(169,199),Y]+
0.37509749850708335, [(169,199),Y]-
0.37650664006180207, [(102,146),X]-
0.3769758984336999, [(27,152),Y]+
0.3775374952823799, [(16,64),Y]-
0.3800827660081493, [(135,150),X]+
0.3805370640676853, [(18,145),X]+
0.3807330530514013, [(149,156),X]+
0.38127071704295196, [(100,168),X]+
0.38197007369749675, [(55,72),Y]-
0.38197007369749675, [(127,143),Y]+
0.3821606219202353, [(34,181),X]-
0.38348883302060827, [(64,170),Y]-
0.38484797554609795, [(42,115),X]-
0.38526180920162606, [(92,100),Y]+
0.3865836361062255, [(126,157),X]+
0.38681101613658764, [(55,72),Y]+
0.38695291361931927, [(97,153),Y]+
0.3878298534535404, [(11,190),X]-
0.388704902922039, [(148,170),Y]-
0.38888061076472913, [(110,145),Y]-
0.3903117357258726, [(47,153),X]+
0.3917896985786781, [(36,38),X]+
0.3944717845449504, [(158,197),X]-
0.3957246699695465, [(55,79),X]+
0.3958906742973308, [(64,170),Y]+
0.3958906742973308, [(16,64),Y]+
0.3970790014540011, [(44,152),X]+
0.39721404462415977, [(56,97),Y]+
0.3974969092336445, [(73,118),X]+
0.3974969092336445, [(73,118),X]-
0.3989256373129988, [(11,172),Y]-
0.4004508278302999, [(19,129),Y]-
0.4025831766183482, [(148,168),X]-
0.4048298093210643, [(13,39),Y]+
0.40598969489703945, [(1,191),X]+
0.4068702424859399, [(70,198),X]+
0.4099097666631715, [(27,65),Y]-
0.41347162446595775, [(40,77),X]+
0.4142748279623918, [(56,97),Y]-
0.4147109532549639, [(19,167),X]-
0.4147109532549639, [(28,167),X]-
0.4149619467731601, [(180,199),X]+
0.42051612963374957, [(60,152),Y]+
0.4234925538546092, [(29,91),X]+
0.4234925538546092, [(1,29),X]+
0.4266970652166262, [(32,166),X]-
0.427060361385882, [(93,116),X]-
0.42718918816141943, [(92,100),Y]-
0.4285564869880401, [(93,177),X]+
0.4285564869880401, [(93,116),X]+
0.4287787942413261, [(50,81),X]-
0.4291470303627402, [(22,77),Y]-
0.43019182475139356, [(12,152),Y]+
0.4317244742624328, [(62,155),Y]-
0.4319425133736066, [(44,90),Y]-
0.43377517126309706, [(19,113),X]-
0.43377517126309706, [(19,113),X]+
0.4339714462007531, [(81,144),X]+
0.43481849393520905, [(5,69),X]+
0.43488105279575207, [(66,170),X]+
0.4364001731971357, [(106,142),Y]-
0.4377174728043073, [(151,198),Y]+
0.43935743633392277, [(154,157),X]+
0.44561761096373487, [(33,54),X]+
0.44675327727850805, [(48,61),X]-
0.44675327727850805, [(48,61),X]+
0.44718193613365786, [(7,170),Y]+
0.4484479444618854, [(56,97),Y]+
0.4493983504690549, [(26,190),Y]-
0.4493983504690549, [(26,190),Y]+
0.45017709327892785, [(140,179),X]+
0.45109823155347456, [(110,132),Y]-
0.45109823155347456, [(9,104),Y]-
0.4537700449139565, [(11,172),Y]+
0.4537700449139565, [(11,91),Y]+
0.45440890387549715, [(137,179),X]+
0.45440890387549715, [(137,183),X]+
0.45440890387549715, [(106,137),X]+
0.45538956727931934, [(151,198),Y]-
0.4564153576101722, [(57,148),X]-
0.4583966120754465, [(102,146),X]+
0.4583966120754465, [(60,146),X]+
0.4586072287416524, [(34,139),Y]-
0.4589747959366013, [(15,94),Y]+
0.4603795402148451, [(12,177),X]+
0.4649043441936654, [(156,190),X]+
0.4653020748707656, [(19,129),Y]+
0.47067859193715456, [(24,33),Y]-
0.47575929563009545, [(20,125),Y]-
0.478982173288781, [(61,125),Y]+
0.48247035047592174, [(86,98),Y]-
0.4835889193178588, [(90,126),X]+
0.4835889193178588, [(90,154),X]+
0.4836788950133179, [(13,97),X]-
0.4836862573683119, [(60,146),X]-
0.4836862573683119, [(60,104),X]-
0.48481548598261487, [(79,97),X]+
0.48481548598261487, [(79,147),X]+
0.48485430294480214, [(59,92),Y]-
0.48512740574077956, [(12,177),X]-
0.48999041493518053, [(46,163),X]-
0.4917650450837798, [(50,88),X]-
0.49352124029586636, [(121,176),Y]+
0.49429809730033236, [(41,147),Y]-
0.49782440512016074, [(15,94),Y]-
0.49861871301728283, [(27,199),X]-
0.5019494210541607, [(50,117),X]+
0.5024234655135144, [(110,113),Y]-
0.5036381473522977, [(127,177),X]+
0.5036381473522977, [(116,127),X]+
0.5040196714657644, [(78,129),Y]+
0.5046976520307779, [(21,156),X]+
0.5046976520307779, [(156,161),X]+
0.505609210499253, [(1,191),X]-
0.5068096056031222, [(104,104),Y]+
0.5068096056031222, [(104,104),Y]-
0.5076293349140952, [(140,163),Y]+
0.5131533570357175, [(39,44),Y]+
0.5175782710579814, [(55,116),X]+
0.5205921948834272, [(158,158),X]+
0.5220541331368158, [(46,82),X]+
0.5253203789720166, [(28,48),Y]+
0.5289768125773724, [(96,147),Y]+
0.5360679096830848, [(50,117),X]-
0.5362586876134516, [(69,178),Y]-
0.5435350601081861, [(91,191),X]-
0.5439110861294612, [(98,128),Y]-
0.5483211890887449, [(42,142),X]-
0.5501100213667158, [(44,90),Y]+
0.5503336796899557, [(2,172),X]+
0.5534341149061873, [(57,168),X]-
0.5537838393831511, [(34,139),Y]+
0.5537838393831511, [(34,139),Y]-
0.5540132468453525, [(72,147),Y]+
0.5540132468453525, [(72,137),Y]+
0.5567007466774845, [(86,160),X]+
0.5589810934405227, [(4,34),X]-
0.561697459048441, [(11,83),Y]-
0.561697459048441, [(136,172),Y]+
0.5642855436542564, [(53,89),Y]-
0.5671111750022552, [(6,63),Y]-
0.5685000874799914, [(54,186),X]+
0.5695041485247984, [(31,165),X]-
0.5812619579453513, [(135,173),Y]-
0.5842762230729841, [(83,85),X]-
0.5863913549002608, [(39,172),X]-
0.5864428434006099, [(11,21),X]-
0.5864428434006099, [(11,105),X]-
0.5887311283813925, [(102,170),X]-
0.5915433022343484, [(22,150),Y]+
0.5926167754009474, [(68,125),Y]-
0.5971418683323297, [(80,193),Y]-
0.597735324044857, [(8,179),Y]+
0.597735324044857, [(8,179),Y]-
0.5983836515832166, [(57,148),X]+
0.5983836515832166, [(135,148),X]+
0.5983836515832166, [(135,148),X]-
0.6040443368916516, [(86,160),X]-
0.6041185082060482, [(24,81),Y]+
0.6063727718292531, [(140,181),Y]+
0.6063727718292531, [(3,181),Y]+
0.6072940457793607, [(73,80),X]+
0.6072940457793607, [(73,133),X]+
0.6073041591003306, [(62,155),Y]+
0.6086058233059267, [(61,73),Y]+
0.6307915299839915, [(102,139),X]+
0.6352916628723114, [(8,8),Y]+
0.6430366631321027, [(22,77),Y]+
0.64468291812139, [(138,142),Y]+
0.6468293885225117, [(7,16),Y]+
0.6499266901258096, [(28,167),X]+
0.658294275003572, [(85,146),Y]-
0.6631192647684762, [(68,188),Y]+
0.6640456230455369, [(9,116),X]+
0.6655302548754685, [(68,134),Y]+
0.6679527055712104, [(79,86),X]+
0.6684135851853027, [(28,97),Y]+
0.6705222052015773, [(10,45),X]+
0.6710593300184988, [(122,143),Y]+
0.6751678532697248, [(20,20),Y]+
0.6761259940524244, [(50,139),X]-
0.6763773373875275, [(31,87),X]-
0.678858514734588, [(92,97),X]-
0.6798270627310204, [(12,93),X]-
0.6865932336664852, [(68,134),Y]-
0.6865932336664852, [(68,188),Y]-
0.6865932336664852, [(68,188),Y]+
0.6878761015161744, [(39,158),Y]+
0.6883443309643967, [(117,149),Y]-
0.6928435202258557, [(109,109),X]+
0.6939179943535976, [(29,31),X]-
0.695451955329119, [(14,46),X]+
0.6976520974481013, [(140,163),Y]-
0.6976520974481013, [(140,181),Y]-
0.7151375111598903, [(27,46),Y]+
0.7161539931461239, [(16,66),X]+
0.7161539931461239, [(66,108),X]+
0.7214160221156772, [(68,188),Y]-
0.731724374176358, [(33,143),X]-
0.7335363632749099, [(29,31),X]+
0.7335363632749099, [(31,165),X]+
0.7335363632749099, [(31,191),X]+
0.73411096350165, [(53,53),Y]+
0.734596949469805, [(31,81),Y]+
0.7385234357019643, [(117,193),Y]+
0.7451162112011972, [(91,151),Y]+
0.7451162112011972, [(91,151),Y]-
0.7505428648227763, [(36,137),X]+
0.7508323925826382, [(112,124),X]+
0.7508323925826382, [(112,124),X]-
0.7511632345436298, [(27,199),X]+
0.7551972708120763, [(38,136),X]-
0.7551972708120763, [(38,63),X]-
0.755599663472336, [(24,33),Y]+
0.7614299556337852, [(60,117),Y]-
0.7621788120677753, [(96,163),X]+
0.7621788120677753, [(96,100),X]+
0.7629125890592647, [(79,86),X]-
0.7629125890592647, [(86,178),X]-
0.7629125890592647, [(86,178),X]+
0.7642862579052584, [(16,175),X]+
0.7667873544481415, [(80,193),Y]+
0.7667873544481415, [(80,185),Y]+
0.7674655698927082, [(75,143),X]+
0.7685394363301096, [(128,176),X]-
0.7692512076600133, [(4,62),Y]-
0.7692512076600133, [(4,85),Y]+
0.777095738094413, [(78,123),Y]+
0.777095738094413, [(78,123),Y]-
0.77869058392709, [(20,68),Y]-
0.7789501457637482, [(136,172),Y]-
0.7833102984136122, [(60,66),X]+
0.7866920361281653, [(81,105),Y]-
0.7870853106787781, [(166,199),X]+
0.7921402340679662, [(16,175),X]-
0.7990913729796145, [(135,182),X]+
0.8011256753529882, [(39,172),X]+
0.8011256753529882, [(39,172),X]-
0.8162390362698206, [(6,24),Y]+
0.821580395768774, [(20,73),Y]-
0.821580395768774, [(20,125),Y]+
0.8380642678064085, [(32,32),X]+
0.8399506751340831, [(40,91),X]+
0.8462959473355078, [(30,118),X]+
0.8506921620478736, [(93,185),Y]-
0.8904359406748038, [(40,121),X]+
0.9096877025602732, [(116,171),X]+
0.9180835030136602, [(2,50),Y]-
0.9219085500024355, [(51,149),X]+
0.9265704190772185, [(73,173),X]+
0.9265718396824169, [(123,136),Y]+
0.9408119576073931, [(30,166),Y]-
0.9549228499531992, [(72,147),X]-
0.9550287738913069, [(54,119),Y]+
0.9652777733430181, [(51,85),Y]+
0.966274257250616, [(77,102),Y]+
0.9690024486896228, [(58,79),Y]-
0.9713188553694542, [(87,165),X]-
0.9819720311834755, [(82,149),X]-
0.985323310559497, [(30,169),Y]-
0.996285045933273, [(66,111),X]+
