marco:(-10.0,10.0),(-10.0,10.0)
timeIntervals:0.0-1.0
framesPerSecond:1000
0.04123579430991916 0.07780734429117471
20 -2.481845544468184 5.299331946758843 -2.232013569413357 5.706953600761219 -2.32011263849786 5.929172886983863 -2.204400880581174 6.026476185679093 -2.000590053579986 5.90156019815168 -1.5561514811346986 6.077758336320684 -1.9637731351370749 6.327590311375511 -2.1859924213597184 6.239491242291009 -2.283295720054949 6.355203000207695 -2.158379732527535 6.559013827208883 -2.33457787069654 7.0034523996541695 -2.584409845751367 6.595830745651794 -2.4963107766668644 6.37361145942915 -2.6120225345835504 6.27630816073392 -2.815833361584738 6.401224148261333 -3.2602719340300257 6.2250260100923285 -2.8526502800276496 5.975194035037502 -2.630430993805006 6.063293104122004 -2.5331276951097754 5.947581346205318 -2.658043682637189 5.74377051920413
-0.2303855993062998 -0.1581892816997501
3 8.854776910962192 3.561171010727863 9.643222282655357 4.66836329631444 8.290142950616644 4.797580874903697
2.106598036423796 -2.8976923228368294
12 -5.357295489417265 -7.362891876839505 -5.03767660735322 -7.590496450633687 -5.000374705461951 -7.1998960923399515 -4.643453921506638 -7.036900307840399 -4.963072803570682 -6.809295734046216 -4.925770901679413 -6.418695375752481 -5.282691685634726 -6.581691160252035 -5.60231056769877 -6.3540865864578535 -5.639612469590039 -6.744686944751589 -5.996533253545352 -6.907682729251142 -5.676914371481308 -7.135287303045324 -5.714216273372577 -7.525887661339059
-1.0035844674138286 -1.3691403382802543
5 -0.19576317722088116 -7.708357978477714 0.39151034634476245 -7.3618077996547555 0.24339903968017734 -6.696187593560063 -0.43541230552233884 -6.631361861417792 -0.7068294821419465 -7.256917561702965
-0.025815084708441988 -0.12743036750581505
4 5.132848130642715 -0.8798777736412702 5.822564484473926 -0.3104119263266298 5.253098637159285 0.37930442750458004 4.563382283328075 -0.1901614198100603
0.5325603463243751 -1.6667412852638421
12 -8.89713891862701 4.4614673263426035 -8.577520036562966 4.233862752548422 -8.540218134671697 4.624463110842157 -8.183297350716384 4.78745889534171 -8.502916232780427 5.015063469135892 -8.465614330889158 5.405663827429628 -8.822535114844472 5.242668042930074 -9.142153996908515 5.470272616724255 -9.179455898799784 5.07967225843052 -9.536376682755098 4.916676473930967 -9.216757800691054 4.689071900136785 -9.254059702582323 4.29847154184305
0.09443212945257308 1.762812311915893
6 5.950478491135281 -9.89881261996178 6.455240704497722 -9.66830177091287 6.507993560054666 -9.115909446746079 6.055984202249168 -8.794027971628198 5.551221988886727 -9.024538820677108 5.498469133329784 -9.576931144843899
-4.685274151606485 -1.6895678550851783
20 -4.015902323380498 -10.0 -3.762409593538836 -9.594644767532413 -3.848503867573372 -9.371641105855474 -3.731920525374115 -9.275383809099363 -3.5292429091403217 -9.402130174020195 -3.0832355857864404 -9.229941625951124 -3.4885908182540266 -8.976448896109462 -3.7115944799309672 -9.062543170143996 -3.8078517766870768 -8.94595982794474 -3.681105411766246 -8.743282211710946 -3.8532939598353178 -8.297274888357066 -4.10678668967698 -8.702630120824653 -4.0206924156424435 -8.925633782501592 -4.137275757841701 -9.021891079257703 -4.339953374075494 -8.89514471433687 -4.785960697429375 -9.067333262405942 -4.380605464961789 -9.320825992247604 -4.157601803284848 -9.23473171821307 -4.061344506528739 -9.351315060412325 -4.18809087144957 -9.55399267664612
1.118191444072941 1.6548011655285015
4 -8.190895429454333 2.0552398571525257 -7.5011790756231225 2.624705704467166 -8.070644922937763 3.314422058298376 -8.760361276768974 2.7449562109837355
-0.4483491884899623 -0.4355557172755308
6 -2.4571400864036845 8.895215351666419 -1.952377873041243 9.125726200715329 -1.8996250174842995 9.67811852488212 -2.351634375289797 10.0 -2.856396588652238 9.76948915095109 -2.909149444209182 9.2170968267843
3.4565916056490296 1.0069791330641102
4 -1.4583975218519853 5.8188954667684545 -0.7686811680207755 6.388361314083095 -1.3381470153354158 7.078077667914306 -2.0278633691666257 6.508611820599665
-3.6207683465048053 2.567704155762712
3 6.724360687354094 1.0311136739228868 7.51280605904726 2.1383059595094642 6.159726727008546 2.267523538098721
0.4407255173581039 -0.01910603370070255
3 5.83599220611128 -4.242710030108038 6.6244375778044455 -3.13551774452146 5.2713582457657315 -3.0063001659322035
2.059667480979577 0.3186936388533042
3 4.632871813898769 -2.736324133270644 5.421317185591934 -1.6291318476840668 4.06823785355322 -1.49991426909481
0.4115014162624468 -0.03664901734217859
20 -8.024581127886986 -3.401448225656235 -7.771088398045323 -2.9960929931886486 -7.857182672079859 -2.773089331511708 -7.7405993298806015 -2.6768320347555985 -7.537921713646809 -2.803578399676429 -7.091914390292928 -2.6313898516073575 -7.497269622760514 -2.3778971217656957 -7.720273284437455 -2.4639913958002313 -7.816530581193564 -2.3474080536009745 -7.689784216272733 -2.144730437367181 -7.861972764341805 -1.6987231140133 -8.115465494183466 -2.104078346480886 -8.029371220148931 -2.3270820081578267 -8.145954562348187 -2.4233393049139362 -8.348632178581981 -2.2965929399931055 -8.794639501935862 -2.4687814880621772 -8.389284269468275 -2.722274217903839 -8.166280607791336 -2.6361799438693034 -8.070023311035225 -2.7527632860685602 -8.196769675956057 -2.9554409023023536
-2.0652944380590195 -1.6239582321795663
3 4.102867820775009 -1.208888933399706 4.891313192468174 -0.10169664781312865 3.53823386042946 0.027520930776128105
-0.15830107393653756 0.1054728784385514
12 0.7247940910982726 7.338897557354061 1.0504448061269989 7.120010180867477 1.0771814772177462 7.511475661086212 1.4295688633372197 7.684053764818365 1.1039181483084937 7.902941141304948 1.1306548193992412 8.294406621523684 0.7782674332797677 8.121828517791533 0.4526167182510415 8.340715894278118 0.42588004716029404 7.949250414059382 0.07349266104082053 7.776672310327229 0.3991433760695466 7.5577849338406455 0.3724067049787991 7.1663194536219095
-1.162133376515334 0.7535238021472056
12 0.7597951204375746 -0.8657534511688654 1.0854458354663008 -1.0846408276554493 1.112182506557048 -0.6931753474367137 1.4645698926765216 -0.5205972437045622 1.1389191776477956 -0.30170986721797793 1.165655848738543 0.08975561300075785 0.8132684626190696 -0.08282249073139375 0.48761774759034343 0.13606488575519038 0.460881076499596 -0.25540059446354535 0.10849369038012247 -0.42797869819569695 0.4341444054088485 -0.6468660746822812 0.407407734318101 -1.038331554901017
1.1684845186788024 0.004050477831009253
4 -9.194962936922979 8.73802889683025 -8.520881751091345 9.325918814168366 -9.10877166842946 10.0 -9.782852854261094 9.412110082661885
0.15755194819637777 1.4363060626894515
4 -3.8240610503979338 8.262670459225312 -3.1499798645662986 8.850560376563427 -3.7378697819044144 9.524641562395061 -4.4119509677360496 8.936751645056946
-2.722274928846452 -1.677767161423013
3 -6.732904045701949 -4.282124867693724 -5.974655931281507 -3.1540376997919495 -7.330732133577906 -3.0614191542830835
4.045568316765252 0.3667626677461055
3 -1.1685718140541033 2.0427858857617314 -0.4103236996336611 3.170873053663506 -1.7663999019300602 3.263491599172372
-2.2587341183881025 0.14232057556095323
3 -8.031215096911968 1.1350679683697735 -7.272966982491527 2.263155136271548 -8.629043184787925 2.355773681780414
-0.3304246457339518 -1.8775677578051748
4 7.4651038402289664 0.07567952318754934 6.928941456700358 -0.721998563005323 8.423994518678452 0.0101883215945959 7.04237554530809 0.938848810973375
1.9032068207867905 -0.43987767390281024
5 -5.001253100654306 -7.609032447870176 -4.42355555006663 -7.24674422287738 -4.58959376648266 -6.585367984558514 -5.269908578246854 -6.538903214918699 -5.524328038551082 -7.171562646320726
-0.3472858596493934 -0.7866127040696271
4 -8.128799327455685 -0.4660658095965635 -7.45471814162405 0.12182410774155246 -8.042608058962166 0.7959052935731874 -8.716689244793802 0.2080153762350715
-0.14168753835757722 -0.607589418292754
20 -6.113243214155322 -7.832608357270594 -5.870793197802553 -7.420553241852801 -5.962880239063839 -7.199956700686355 -5.848939722616229 -7.100585167696295 -5.642912164907332 -7.221810175872679 -5.201719082574441 -7.037636093350106 -5.613774197992234 -6.795186076997338 -5.83437073915868 -6.887273118258624 -5.9337422721487405 -6.773332601811013 -5.812517263972357 -6.567305044102117 -5.996691346494929 -6.126111961769226 -6.239141362847698 -6.538167077187019 -6.1470543215864115 -6.7587636183534645 -6.260994838034022 -6.858135151343525 -6.4670223957429185 -6.736910143167141 -6.908215478075809 -6.921084225689714 -6.496160362658016 -7.163534242042482 -6.275563821491571 -7.071447200781196 -6.17619228850151 -7.1853877172288065 -6.297417296677894 -7.391415274937703
2.880903388864237 -3.5230564969146663
12 -8.688616452843243 3.6726615455185514 -8.362965737814518 3.453774169031967 -8.33622906672377 3.845239649250703 -7.983841680604296 4.017817752982855 -8.309492395633022 4.2367051294694384 -8.282755724542275 4.6281706096881745 -8.63514311066175 4.455592505956023 -8.960793825690475 4.674479882442607 -8.987530496781222 4.283014402223872 -9.339917882900696 4.110436298491719 -9.01426716787197 3.8915489220051356 -9.041003838962718 3.5000834417863995
0.013883553152485179 1.2124798698745998
5 5.307734075353668 -10.0 5.885431625941345 -9.637711775007205 5.719393409525314 -8.976335536688337 5.0390785977611205 -8.929870767048522 4.7846591374568925 -9.562530198450549
-2.141636019791374 -1.6123413372827282
5 -3.2349063327683285 6.1675531206389245 -2.6572087821806525 6.529841345631721 -2.823246998596683 7.191217583950587 -3.503561810360876 7.237682353590402 -3.7579812706651046 6.605022922188375
-1.1969347911526698 -2.3176344926448698
4 -9.325459306438379 8.281056355428564 -8.651378120606743 8.86894627276668 -9.23926803794486 9.543027458598313 -9.913349223776496 8.955137541260198
0.4965575213280446 -0.2314355185393761
6 -2.180175562005495 -5.7868494693105434 -1.6818245413461308 -5.5427871744439035 -1.6440131784768872 -4.989171383117672 -2.1045528362670076 -4.679617886658078 -2.6029038569263716 -4.923680181524717 -2.6407152197956156 -5.47729597285095
1.0696578753310069 -5.282411989773614
4 -9.463837616471393 6.937107020119203 -10.0 6.139428933926331 -8.50494693802191 6.87161581852625 -9.88656591139227 7.800276307905029
-0.6839539119600656 -0.16865937627643005
3 -4.885372395411621 -1.5502472751602485 -4.127124280991179 -0.42216010725847386 -5.483200483287578 -0.3295415617496082
-0.3136458547269669 -0.26919635638682393
20 3.5196216149295543 6.407727459987758 3.7620716312823235 6.819782575405551 3.669984590021037 7.040379116571996 3.783925106468647 7.139750649562057 3.9899526641775434 7.018525641385673 4.431145746510435 7.202699723908245 4.0190906310926415 7.445149740261014 3.798494089926196 7.353062698999728 3.699122556936135 7.467003215447338 3.82034756511252 7.673030773156235 3.636173482589947 8.114223855489126 3.393723466237178 7.702168740071333 3.4858105074984644 7.481572198904887 3.371869991050854 7.3822006659148265 3.165842433341958 7.50342567409121 2.7246493510090666 7.319251591568638 3.1367044664268597 7.076801575215869 3.357301007593305 7.1688886164771555 3.4566725405833663 7.054948100029545 3.3354475324069814 6.8489205423206485
-1.0648802087309843 -0.4702100084026785
4 2.2783314288812497 8.73802889683025 2.952412614712885 9.325918814168366 2.364522697374769 10.0 1.690441511543134 9.412110082661885
0.7452699423192 -1.6407567400512908
4 3.179071104100412 -9.97290824390953 3.853152289932047 -9.385018326571414 3.265262372593931 -8.71093714073978 2.591181186762296 -9.298827058077896
-0.21420052640824658 0.463167053790152
5 -6.217849302279628 -2.278957430547139 -5.640151751691952 -1.9166692055543433 -5.806189968107982 -1.2552929672354765 -6.486504779872176 -1.2088281975956618 -6.740924240176404 -1.8414876289976887
-1.5514123130900126 1.3013607798291646
20 9.08847586841912 8.293503604498632 9.330925884771888 8.705558719916425 9.238838843510603 8.92615526108287 9.352779359958213 9.025526794072931 9.558806917667109 8.904301785896546 10.0 9.08847586841912 9.587944884582207 9.330925884771888 9.367348343415761 9.238838843510603 9.2679768104257 9.352779359958213 9.389201818602086 9.558806917667109 9.205027736079511 10.0 8.962577719726744 9.587944884582207 9.054664760988029 9.367348343415761 8.94072424454042 9.2679768104257 8.734696686831523 9.389201818602086 8.293503604498632 9.205027736079511 8.705558719916425 8.962577719726744 8.92615526108287 9.054664760988029 9.025526794072931 8.94072424454042 8.904301785896546 8.734696686831523
-3.688937858492385 1.3721169399016333
4 -9.020012050336659 -3.5070894912936996 -9.556174433865266 -4.304767577486572 -8.061121371887175 -3.5725806928866533 -9.442740345257535 -2.643920203507874
1.9377658969325613 1.1570436054014657
6 9.336421875927952 -0.6426823348811395 9.834772896587316 -0.3986200400144998 9.87258425945656 0.15499575131173277 9.41204460166644 0.464549247771326 8.913693581007076 0.22048695290468656 8.875882218137832 -0.33312883842154595
4.822534540111405 3.3450907631259255
20 7.368341282034382 4.726509472684507 7.61079129838715 5.1385645881023 7.518704257125864 5.359161129268745 7.632644773573475 5.458532662258806 7.838672331282371 5.337307654082422 8.279865413615262 5.521481736604994 7.867810298197469 5.763931752957763 7.6472137570310235 5.671844711696477 7.547842224040963 5.785785228144087 7.669067232217347 5.991812785852984 7.484893149694774 6.433005868185875 7.242443133342006 6.020950752768082 7.334530174603292 5.800354211601636 7.220589658155681 5.700982678611576 7.014562100446785 5.8222076867879595 6.573369018113894 5.638033604265387 6.985424133531687 5.395583587912618 7.206020674698133 5.487670629173905 7.305392207688193 5.373730112726294 7.184167199511809 5.167702555017398
-0.15805910128641248 -0.30779555198075215
5 -5.256730144130794 -6.756611625276861 -4.679032593543117 -6.3943234002840645 -4.8450708099591475 -5.732947161965198 -5.525385621723341 -5.6864823923253836 -5.779805082027569 -6.31914182372741
-1.900522976883132 -3.05243702100611
4 -7.83650187800089 7.231874441784131 -7.162420692169255 7.819764359122248 -7.7503106095073715 8.493845544953881 -8.424391795339005 7.905955627615766
0.3223875440638958 -0.19713576008596456
6 -4.619796019172917 -7.812089636445168 -4.121444998513553 -7.568027341578528 -4.083633635644309 -7.014411550252296 -4.544173293434429 -6.7048580537927025 -5.042524314093793 -6.948920348659342 -5.0803356769630375 -7.502536139985574
-2.6764450478397057 -1.5049051385119956
3 -1.9793403632134003 2.6643645861596537 -1.2210922487929583 3.792451754061428 -2.5771684510893573 3.885070299570294
-1.948477023160759 2.1491280342769636
4 2.2783802382389933 3.319543507798331 1.7422178547103855 2.5218654216054586 3.2372709166884777 3.254052306205377 1.8556519433181167 4.182712795584156
-2.265246223047082 0.33271042269613677
4 5.073662815254975 0.942898945923555 5.74774400108661 1.530788863261671 5.159854083748494 2.204870049093306 4.485772897916859 1.6169801317551902
-0.03122828927954982 -0.00805861776908178
6 -1.933686428016012 -2.921153358697924 -1.4353354073566478 -2.6770910638312846 -1.3975240444874042 -2.123475272505052 -1.8580637022775244 -1.8139217760454587 -2.3564147229368886 -2.0579840709120982 -2.3942260858061326 -2.6115998622383305
0.3773743706801869 -0.12145344994655834
6 -8.702195442299633 4.440046954021738 -8.20384442164027 4.684109248888378 -8.166033058771026 5.23772504021461 -8.626572716561146 5.547278536674203 -9.12492373722051 5.303216241807564 -9.162735100089753 4.749600450481331
