marco:(-10.0,10.0),(-10.0,10.0)
timeIntervals:0.0-1.0
framesPerSecond:1000
0.08079569225003615 -0.06534677914589293
6 2.2122705610791824 8.292443114437614 2.186330296528192 8.486909359891676 2.004947455510899 8.561677554536661 1.8495048790445956 8.441979503727584 1.8754451435955861 8.247513258273521 2.0568279846128794 8.172745063628536
0.8378786090721456 0.29174054769276797
6 1.9082985815726554 -4.469155399523922 1.8771145025189824 -4.275460868987953 1.6937780789738963 -4.205619808374072 1.5416257344824833 -4.32947327829616 1.5728098135361563 -4.523167808832128 1.7561462370812424 -4.59300886944601
0.625627200593404 -1.4403600246443264
3 0.2791991051818964 7.724502026328759 -0.02417869900036171 8.097197633500889 -0.1952536605991622 7.648116944548647
0.4416749780723817 1.177650228772772
12 -6.463776309558315 1.999170026840303 -6.356188354995005 2.086747655295695 -6.485826783322225 2.1361327428610313 -6.507877257086135 2.2730954588817593 -6.615465211649445 2.1855178304263676 -6.745103639976664 2.2349029179917035 -6.723053166212755 2.0979402019709754 -6.830641120776065 2.0103625735155832 -6.701002692448845 1.960977485950247 -6.678952218684935 1.8240147699295186 -6.571364264121625 1.9115923983849108 -6.441725835794406 1.8622073108195747
0.6077861206865633 -0.7442096135559098
4 -0.2687666941506782 7.983620616687713 -0.39812343451734084 8.272180547588924 -0.6866833654185521 8.14282380722226 -0.5573266250518896 7.85426387632105
-0.41797283964836 0.8792674721226449
6 5.091478026925449 3.8541510047047085 5.060293947871776 4.047845535240677 4.87695752432669 4.1176865958545585 4.724805179835277 3.993833125932471 4.75598925888895 3.8001385953965023 4.939325682434036 3.730297534782621
-1.2350556188160622 -0.12881268212736346
4 -6.235299792214761 -8.805054066511435 -6.0207792896160015 -9.068589657661285 -6.114331526777021 -8.487506066053378 -6.57078856025126 -8.859066475819642
0.18063542968041404 0.018932337054206435
12 -3.816031873658822 -2.5266310844454543 -3.708443919095512 -2.439053455990062 -3.8380823474227315 -2.3896683684247257 -3.860132821186641 -2.2527056524039977 -3.967720775749951 -2.3402832808593894 -4.09735920407717 -2.2908981932940535 -4.075308730313261 -2.4278609093147816 -4.182896684876571 -2.515438537770174 -4.053258256549351 -2.56482362533551 -4.031207782785441 -2.701786341356238 -3.9236198282221317 -2.6142087129008464 -3.7939813998949123 -2.6635938004661823
0.29937847262880146 -0.2946455486284827
6 -7.0077947138999495 5.8772039301024686 -7.038978792953622 6.070898460638437 -7.222315216498709 6.140739521252319 -7.374467560990121 6.016886051330231 -7.3432834819364485 5.823191520794262 -7.159947058391363 5.753350460180381
-0.38550497234465414 0.17852360984847396
5 -2.81278049117265 -6.080187635856115 -2.875771521495606 -5.847474223395034 -3.11656042770898 -5.835469853982366 -3.2023851255398004 -6.060764158132909 -3.0146387996600623 -6.212008064982369
-0.02526326966452846 0.09609749740445792
20 -3.384118000032235 -7.980252693478288 -3.498489370400518 -7.855791381370832 -3.5825853063539856 -7.8642015358859085 -3.604450586253725 -7.815426005216843 -3.542219930199997 -7.758240320032702 -3.55904023923015 -7.590048448125767 -3.683501551337606 -7.704419818494051 -3.6750913968225296 -7.788515754447518 -3.7238669274915943 -7.810381034347257 -3.7810526126757362 -7.74815037829353 -3.9492444845826706 -7.764970687323682 -3.8348731142143877 -7.889431999431139 -3.75077717826092 -7.881021844916062 -3.7289118983611806 -7.929797375585127 -3.791142554414909 -7.986983060769268 -3.774322245384756 -8.155174932676204 -3.6498609332772998 -8.04080356230792 -3.658271087792376 -7.9567076263544525 -3.6094955571233114 -7.9348423464547135 -3.5523098719391695 -7.997073002508441
0.6465822870454225 0.4476503037721702
3 -7.144137695643193 4.926996073738167 -7.4475154998254505 5.299691680910295 -7.618590461424251 4.850610991958055
-0.0929570637804667 -0.39312963790445343
4 -6.431891623198208 -1.8348306284095899 -6.561248363564871 -1.5462706975083784 -6.849808294466081 -1.675627437875041 -6.7204515540994185 -1.9641873687762523
-0.005150112160908416 0.012845365296171871
6 -7.517279043151733 -4.643015937236494 -7.548463122205406 -4.449321406700525 -7.731799545750492 -4.379480346086644 -7.883951890241905 -4.503333816008731 -7.852767811188232 -4.6970283465447 -7.669431387643146 -4.766869407158581
-1.4456720953820905 0.8048574621013956
4 7.261077311448606 -5.524298280437199 7.475597814047365 -5.787833871587049 7.3820455768863456 -5.2067502799791425 6.925588543412107 -5.578310689745405
1.3769566830303337 -0.23618659027805447
12 -0.21238819776913462 1.5012899443150343 -0.10480024320582482 1.5888675727704265 -0.23443867153304426 1.6382526603357626 -0.2564891452969539 1.7752153763564908 -0.36407709986026365 1.6876377479010987 -0.4937155281874831 1.7370228354664348 -0.4716650544235734 1.6000601194457065 -0.5792530089868833 1.5124824909903143 -0.4496145806596638 1.4630974034249782 -0.4275641068957542 1.32613468740425 -0.3199761523324444 1.413712315859642 -0.19033772400522497 1.364327228294306
-0.2940154535302603 0.03397438335535684
20 -6.334904642645078 8.868495041192569 -6.449276013013362 8.992956353300025 -6.533371948966829 8.984546198784948 -6.555237228866568 9.033321729454013 -6.493006572812841 9.090507414638155 -6.509826881842994 9.25869928654509 -6.63428819395045 9.144327916176806 -6.625878039435373 9.060231980223339 -6.6746535701044385 9.0383667003236 -6.7318392552885795 9.100597356377328 -6.900031127195515 9.083777047347175 -6.785659756827231 8.959315735239718 -6.701563820873764 8.967725889754796 -6.679698540974025 8.91895035908573 -6.741929197027752 8.861764673901588 -6.7251088879975995 8.693572801994653 -6.600647575890143 8.807944172362937 -6.60905773040522 8.892040108316404 -6.560282199736155 8.913905388216143 -6.503096514552014 8.851674732162415
0.07965724782031412 0.34157749637655277
12 2.493702464214947 6.885694853062103 2.6012904187782566 6.973272481517495 2.4716519904510372 7.022657569082831 2.4496015166871277 7.15962028510356 2.342013562123818 7.072042656648168 2.2123751337965984 7.121427744213504 2.234425607560508 6.984465028192775 2.126837652997198 6.896887399737383 2.2564760813244176 6.847502312172047 2.278526555088327 6.710539596151318 2.386114509651637 6.7981172246067105 2.5157529379788564 6.748732137041374
0.07737452571501335 0.1896347393549954
6 1.511124676551223 2.471130442000935 1.47994059749755 2.6648249725369038 1.2966041739524639 2.734666033150785 1.1444518294610508 2.6108125632286976 1.1756359085147239 2.417118032692729 1.35897233205981 2.3472769720788476
0.3557553959030205 -0.8621861790673436
4 9.246045523782335 -2.67047026554581 9.460566026381095 -2.93400585669566 9.367013789220076 -2.352922265087754 8.910556755745835 -2.7244826748540163
-0.3797672255356604 0.0026582235668415263
4 8.463827102448473 6.787585224570357 8.33447036208181 7.0761451554715675 8.045910431180598 6.946788415104905 8.175267171547262 6.658228484203694
-0.5583063983091964 -0.8104683080527038
4 5.77946402993405 9.123634185463299 5.650107289567387 9.41219411636451 5.361547358666177 9.282837375997847 5.490904099032839 8.994277445096635
-0.011932367914025683 -0.3710198270581336
4 9.652090749512237 2.525998574170208 9.866611252110996 2.2624629830203578 9.773059014949977 2.843546574628264 9.316601981475737 2.4719861648620016
0.3672470420587512 0.9098225926261754
5 -9.101809633344903 3.0571927463698247 -9.164800663667858 3.289906158830906 -9.405589569881233 3.301910528243574 -9.491414267712052 3.0766162240930313 -9.303667941832314 2.9253723172435713
0.6590973269896926 0.3301090155614508
20 -5.717456842559908 -1.691426533785643 -5.831828212928192 -1.566965221678187 -5.915924148881659 -1.5753753761932636 -5.937789428781398 -1.5265998455241985 -5.875558772727671 -1.4694141603400568 -5.892379081757824 -1.3012222884331222 -6.01684039386528 -1.4155936588014055 -6.008430239350203 -1.4996895947548727 -6.0572057700192685 -1.5215548746546121 -6.1143914552034095 -1.4593242186008843 -6.282583327110345 -1.4761445276310374 -6.168211956742061 -1.6006058397384932 -6.084116020788594 -1.5921956852234167 -6.062250740888855 -1.6409712158924818 -6.124481396942582 -1.6981569010766235 -6.10766108791243 -1.8663487729835582 -5.983199775804973 -1.7519774026152748 -5.99160993032005 -1.6678814666618076 -5.942834399650985 -1.6460161867620682 -5.885648714466844 -1.708246842815796
-0.8789629658631938 0.8099174412143013
3 9.245398210125005 7.792722411657193 8.942020405942745 8.165418018829323 8.770945444343946 7.716337329877081
-0.3546977068364962 1.9241029810852248
4 -2.1387145557705107 -2.854481906738295 -1.9241940531717514 -3.118017497888145 -2.017746290332771 -2.5369339062802387 -2.47420332380701 -2.908494316046501
-0.13512842715897058 0.004958300610964396
12 3.067665269793111 8.080584442121468 3.1752532243564207 8.16816207057686 3.0456147960292013 8.217547158142196 3.0235643222652917 8.354509874162924 2.915976367701982 8.266932245707531 2.7863379393747625 8.316317333272869 2.808388413138672 8.17935461725214 2.700800458575362 8.091776988796747 2.8304388869025816 8.042391901231412 2.852489360666491 7.905429185210683 2.960077315229801 7.993006813666075 3.0897157435570204 7.943621726100739
-1.4079982068476398 0.05516419219068889
20 7.458885049896322 -7.5539304726167185 7.344513679528038 -7.429469160509262 7.260417743574571 -7.437879315024339 7.238552463674832 -7.389103784355274 7.3007831197285595 -7.331918099171133 7.283962810698407 -7.163726227264197 7.15950149859095 -7.278097597632481 7.167911653106027 -7.362193533585948 7.119136122436962 -7.384058813485687 7.061950437252821 -7.32182815743196 6.893758565345886 -7.3386484664621126 7.0081299357141695 -7.463109778569569 7.092225871667637 -7.454699624054492 7.114091151567376 -7.503475154723557 7.051860495513648 -7.560660839907698 7.068680804543801 -7.728852711814634 7.1931421166512575 -7.61448134144635 7.184731962136181 -7.530385405492883 7.233507492805246 -7.508520125593144 7.290693177989387 -7.570750781646871
-0.07502545673655224 -0.45133540449535475
4 -7.339400434844417 1.7185285674837245 -7.4687571752110795 2.007088498384936 -7.75731710611229 1.8777317580182733 -7.627960365745627 1.589171827117062
-0.6903989980604854 -1.7194436383775062
20 7.184835506833901 -4.467927217254523 7.070464136465617 -4.343465905147067 6.98636820051215 -4.3518760596621435 6.964502920612411 -4.303100528993078 7.026733576666138 -4.245914843808937 7.009913267635985 -4.077722971902002 6.885451955528529 -4.192094342270286 6.893862110043606 -4.276190278223753 6.845086579374541 -4.298055558123492 6.7879008941903995 -4.235824902069765 6.619709022283464 -4.252645211099917 6.734080392651748 -4.377106523207374 6.818176328605215 -4.368696368692297 6.840041608504954 -4.417471899361362 6.777810952451227 -4.474657584545503 6.7946312614813795 -4.6428494564524385 6.919092573588836 -4.528478086084155 6.910682419073759 -4.4443821501306875 6.959457949742824 -4.4225168702309485 7.016643634926965 -4.484747526284676
0.5825540091828005 -0.8421311124711248
6 -5.101546058202449 6.572285126340266 -5.132730137256122 6.765979656876235 -5.316066560801208 6.835820717490116 -5.468218905292621 6.711967247568029 -5.437034826238948 6.51827271703206 -5.253698402693862 6.448431656418179
-0.6433762119571986 0.6220216235263618
5 -8.827933386492134 4.769661777969256 -8.890924416815091 5.002375190430337 -9.131713323028466 5.014379559843005 -9.217538020859285 4.789085255692462 -9.029791694979547 4.637841348843002
-1.1737204462338755 0.5266543990607663
3 1.8034687560083738 0.5724679700538666 1.5000909518261158 0.9451635772259954 1.3290159902273153 0.49608288827375463
-0.7965408610905216 -0.5906691888374345
3 -1.967986475835243 -1.9755103298500045 -2.271364280017501 -1.6028147226778757 -2.4424392416163014 -2.0518954116301167
-0.35637088327384275 0.38486143050679533
4 -8.939437969200696 -2.649078012264115 -9.06879470956736 -2.3605180813629034 -9.357354640468571 -2.489874821729566 -9.227997900101908 -2.7784347526307775
0.5532065743945986 0.7049173852113318
20 -2.002018164380632 -3.5134201238738934 -2.116389534748915 -3.3889588117664373 -2.2004854707023824 -3.3973689662815136 -2.222350750602122 -3.348593435612449 -2.1601200945483936 -3.291407750428307 -2.1769404035785467 -3.1232158785213726 -2.3014017156860027 -3.2375872488896555 -2.2929915611709264 -3.321683184843123 -2.341767091839991 -3.3435484647428626 -2.398952777024133 -3.2813178086891344 -2.5671446489310674 -3.2981381177192874 -2.4527732785627845 -3.4225994298267435 -2.368677342609317 -3.414189275311667 -2.3468120627095774 -3.462964805980732 -2.4090427187633057 -3.5201504911648738 -2.3922224097331526 -3.688342363071808 -2.2677610976256966 -3.5739709927035253 -2.276171252140773 -3.4898750567500576 -2.227395721471708 -3.468009776850318 -2.1702100362875663 -3.5302404329040464
-1.483852515526796 -0.27978466170475025
4 5.758148260823848 -7.233098507484492 5.972668763422607 -7.496634098634342 5.879116526261588 -6.915550507026436 5.422659492787349 -7.287110916792698
-0.006082297408910023 0.728160338335097
6 7.974863719430587 8.693883434721899 7.9436796403769145 8.887577965257867 7.760343216831828 8.957419025871747 7.6081908723404155 8.83356555594966 7.639374951394088 8.639871025413692 7.822711374939174 8.570029964799811
-0.15733556115040312 -0.4591917638108828
20 -7.572468698485965 9.609795754647479 -7.686840068854249 9.734257066754935 -7.770936004807716 9.725846912239858 -7.792801284707455 9.774622442908923 -7.7305706286537275 9.831808128093066 -7.74739093768388 10.0 -7.871852249791337 9.885628629631716 -7.86344209527626 9.801532693678249 -7.912217625945325 9.77966741377851 -7.969403311129466 9.841898069832238 -8.137595183036401 9.825077760802085 -8.023223812668117 9.700616448694628 -7.93912787671465 9.709026603209706 -7.917262596814911 9.66025107254064 -7.979493252868639 9.603065387356498 -7.962672943838486 9.434873515449564 -7.8382116317310295 9.549244885817847 -7.846621786246106 9.633340821771315 -7.797846255577041 9.655206101671054 -7.7406605703929 9.592975445617325
0.004602759415560299 0.002643216728992441
20 -2.901284469427703 -6.118998734463223 -3.015655839795986 -5.994537422355767 -3.0997517757494535 -6.002947576870843 -3.121617055649193 -5.954172046201778 -3.0593863995954647 -5.896986361017637 -3.0762067086256177 -5.728794489110702 -3.2006680207330738 -5.843165859478986 -3.1922578662179975 -5.927261795432453 -3.241033396887062 -5.949127075332192 -3.298219082071204 -5.8868964192784645 -3.4664109539781385 -5.903716728308617 -3.3520395836098555 -6.028178040416074 -3.267943647656388 -6.019767885900997 -3.2460783677566485 -6.068543416570062 -3.3083090238103767 -6.125729101754203 -3.2914887147802236 -6.293920973661138 -3.1670274026727676 -6.1795496032928545 -3.175437557187844 -6.095453667339387 -3.1266620265187792 -6.073588387439648 -3.0694763413346373 -6.135819043493376
0.8222138718982571 -0.41491643975071296
20 -6.900870244150553 -5.329534083025866 -7.015241614518837 -5.2050727709184095 -7.099337550472304 -5.213482925433486 -7.121202830372043 -5.164707394764421 -7.058972174318316 -5.10752170958028 -7.075792483348469 -4.939329837673345 -7.200253795455925 -5.053701208041629 -7.191843640940848 -5.137797143995096 -7.2406191716099135 -5.159662423894835 -7.2978048567940546 -5.097431767841107 -7.46599672870099 -5.11425207687126 -7.351625358332706 -5.2387133889787165 -7.267529422379239 -5.23030323446364 -7.2456641424795 -5.279078765132705 -7.307894798533227 -5.336264450316846 -7.291074489503075 -5.504456322223781 -7.166613177395618 -5.390084951855497 -7.175023331910695 -5.30598901590203 -7.12624780124163 -5.284123736002291 -7.069062116057489 -5.346354392056019
0.001971589984825695 -0.03431096204474255
4 -8.184564520346228 1.0378657609963873 -8.313921260712892 1.3264256918975987 -8.602481191614103 1.197068951530936 -8.47312445124744 0.9085090206297247
-0.5914922613925184 -0.7494753979269138
6 4.738632675411962 9.252954213525003 4.707448596358289 9.44664874406097 4.5241121728132025 9.516489804674851 4.37195982832179 9.392636334752764 4.403143907375463 9.198941804216796 4.586480330920549 9.129100743602915
0.15494448686061119 -0.022676079037577068
20 -4.7014177776600885 6.861313327612381 -4.815789148028372 6.985774639719837 -4.8998850839818395 6.9773644852047605 -4.9217503638815785 7.026140015873826 -4.859519707827851 7.083325701057967 -4.876340016858004 7.251517572964902 -5.00080132896546 7.137146202596618 -4.9923911744503835 7.053050266643151 -5.041166705119449 7.031184986743412 -5.09835239030359 7.093415642797139 -5.266544262210525 7.076595333766987 -5.152172891842241 6.95213402165953 -5.068076955888774 6.960544176174607 -5.046211675989035 6.911768645505542 -5.108442332042762 6.854582960321401 -5.09162202301261 6.6863910884144655 -4.967160710905153 6.800762458782749 -4.97557086542023 6.8848583947362165 -4.926795334751165 6.9067236746359555 -4.869609649567024 6.844493018582228
-0.28097880639265754 0.2943035319355949
4 -2.1544040702384155 -4.019789308511803 -1.9398835676396562 -4.283324899661653 -2.0334358048006758 -3.702241308053747 -2.4898928382749146 -4.073801717820009
-0.6800824331259544 0.696274775990895
3 9.141774271802168 3.166449826388361 8.838396467619908 3.5391454335604897 8.667321506021109 3.0900647446082488
-0.021238921718141714 0.004395513892524814
12 4.048681199970653 1.6611621113093833 4.1562691545339625 1.7487397397647755 4.026630726206743 1.7981248273301116 4.004580252442833 1.9350875433508399 3.8969922978795233 1.8475099148954477 3.767353869552304 1.8968950024607838 3.7894043433162135 1.7599322864400555 3.6818163887529036 1.6723546579846633 3.811454817080123 1.6229695704193272 3.8335052908440326 1.486006854398599 3.9410932454073424 1.573584482853991 4.070731673734562 1.524199395288655
0.014795606236521432 0.022733218209283115
6 4.626001888562438 -9.767843171889275 4.594817809508766 -9.574148641353307 4.411481385963679 -9.504307580739427 4.259329041472267 -9.628161050661515 4.290513120525939 -9.821855581197482 4.473849544071025 -9.891696641811365
0.5110131285675418 0.20567916972946473
5 -2.6547867683712596 8.130590745647684 -2.7177777986942155 8.363304158108765 -2.9585667049075894 8.375308527521433 -3.04439140273841 8.15001422337089 -2.8566450768586718 7.99877031652143
0.21080127059467502 -0.41314779954168357
6 -3.0557423971166764 5.132979958331027 -3.0869264761703494 5.3266744888669955 -3.2702628997154357 5.396515549480877 -3.422415244206849 5.272662079558789 -3.391231165153176 5.0789675490228205 -3.2078947416080896 5.009126488408939
-0.6382704262596984 -0.9617089326626744
12 6.909185191100115 9.328924945314553 7.016773145663425 9.416502573769945 6.887134717336205 9.46588766133528 6.865084243572295 9.602850377356008 6.757496289008985 9.515272748900616 6.627857860681766 9.564657836465953 6.6499083344456755 9.427695120445224 6.542320379882366 9.340117491989831 6.6719588082095855 9.290732404424496 6.6940092819734955 9.153769688403768 6.801597236536805 9.24134731685916 6.931235664864024 9.191962229293823
-0.461525294486604 -0.4953829035879618
3 1.9679126952435277 7.981939958249049 1.6645348910612698 8.354635565421178 1.4934599294624693 7.905554876468937
-0.03331695750686029 -0.3215023696532626
3 7.318607704798095 -3.636457981788189 7.015229900615837 -3.2637623746160602 6.844154939017036 -3.712843063568301
-0.06472669310246648 -0.2732198690261113
6 -1.5330995832717276 9.01737693542736 -1.5642836623254006 9.211071465963327 -1.7476200858704867 9.280912526577207 -1.8997724303618997 9.15705905665512 -1.8685883513082266 8.963364526119152 -1.6852519277631406 8.893523465505272
-0.08117134662558245 0.508296492594072
20 -4.925886996515134 0.35648794007577694 -5.0402583668834176 0.4809492521832328 -5.124354302836885 0.47253909766815627 -5.146219582736624 0.5213146283372214 -5.083988926682896 0.578500313521363 -5.100809235713049 0.7466921854282977 -5.2252705478205055 0.6323208150600144 -5.216860393305429 0.548224879106547 -5.265635923974494 0.5263595992068076 -5.322821609158635 0.5885902552605357 -5.49101348106557 0.5717699462303825 -5.376642110697286 0.44730863412292665 -5.292546174743819 0.4557187886380032 -5.27068089484408 0.4069432579689381 -5.3329115508978076 0.34975757278479647 -5.316091241867655 0.18156570087786178 -5.191629929760198 0.2959370712461451 -5.200040084275275 0.3800330071996124 -5.15126455360621 0.40189828709935177 -5.094078868422069 0.33966763104562386
0.7714447044129751 -0.02598863550769435
4 -9.289369648156601 -3.3949024648879758 -9.418726388523265 -3.1063425339867643 -9.707286319424476 -3.235699274353427 -9.577929579057813 -3.5242592052546384
0.8948094532668862 0.19226483620296433
5 6.869017743484016 8.638616111668522 6.80602671316106 8.871329524129603 6.565237806947686 8.883333893542272 6.479413109116866 8.658039589391729 6.667159434996604 8.506795682542268
-0.29814292783570207 0.5642573308548979
6 8.078438984082155 -0.011588303749458129 8.047254905028481 0.18210622678651056 7.863918481483395 0.2519472874003918 7.711766136991983 0.12809381747830437 7.742950216045656 -0.0656007130576643 7.926286639590741 -0.13544177367154564
-0.3996787787240387 -1.1322128968279612
4 3.0579740619318474 -9.607382595765335 2.9286173215651847 -9.318822664864124 2.6400573906639733 -9.448179405230787 2.769414131030636 -9.736739336131999
1.5338590362606235 -0.17571990512069324
12 -1.1984834615504094 3.700472614557861 -1.0908955069870996 3.788050243013253 -1.220533935314319 3.8374353305785895 -1.2425844090782285 3.9743980465993176 -1.3501723636415384 3.886820418143926 -1.4798107919687578 3.9362055057092618 -1.4577603182048482 3.7992427896885337 -1.565348272768158 3.7116651612331415 -1.4357098444409386 3.662280073667805 -1.413659370677029 3.525317357647077 -1.3060714161137192 3.612894986102469 -1.1764329877864999 3.563509898537133
1.346018478576071 0.992976866899404
20 -5.298468712923308 3.205206398799767 -5.4128400832915915 3.329667710907223 -5.496936019245059 3.3212575563921467 -5.518801299144798 3.3700330870612114 -5.45657064309107 3.4272187722453533 -5.473390952121223 3.5954106441522877 -5.597852264228679 3.481039273784005 -5.589442109713603 3.396943337830537 -5.638217640382668 3.3750780579307977 -5.695403325566809 3.437308713984526 -5.863595197473744 3.420488404954373 -5.74922382710546 3.296027092846917 -5.665127891151993 3.304437247361993 -5.643262611252254 3.2556617166929285 -5.7054932673059815 3.1984760315087866 -5.688672958275829 3.030284159601852 -5.564211646168372 3.144655529970135 -5.572621800683449 3.2287514659236027 -5.523846270014384 3.250616745823342 -5.466660584830243 3.188386089769614
-0.19216563994013605 1.451346984769756
20 -2.666558196252748 -5.197565036028508 -2.780929566621031 -5.073103723921052 -2.8650255025744986 -5.0815138784361285 -2.886890782474238 -5.032738347767063 -2.82466012642051 -4.975552662582922 -2.841480435450663 -4.807360790675987 -2.965941747558119 -4.921732161044271 -2.9575315930430426 -5.005828096997738 -3.0063071237121073 -5.027693376897477 -3.063492808896249 -4.96546272084375 -3.2316846808031836 -4.982283029873902 -3.1173133104349007 -5.106744341981359 -3.033217374481433 -5.098334187466282 -3.0113520945816936 -5.147109718135347 -3.073582750635422 -5.204295403319488 -3.0567624416052688 -5.372487275226423 -2.9323011294978127 -5.25811590485814 -2.940711284012889 -5.174019968904672 -2.8919357533438244 -5.1521546890049335 -2.8347500681596824 -5.214385345058661
-0.47608837917488545 -0.2503091264183124
6 2.0627132283227483 9.147769104558245 2.0315291492690752 9.341463635094213 1.848192725723989 9.411304695708093 1.696040381232576 9.287451225786006 1.727224460286249 9.093756695250038 1.910560883831335 9.023915634636158
-0.029576882663117934 0.15412992160049174
4 3.2746301801386233 6.178362549355537 3.1480404342302415 6.468147014485832 2.858255969099946 6.34155726857745 2.9848457150083276 6.051772803447155
-0.19066470006313355 -0.5286191768424008
6 -2.4164278618523114 9.376366651175076 -2.445757155966894 9.57035069807769 -2.62841691557076 9.641942807750702 -2.7817473810600446 9.519550870521101 -2.7524180869454624 9.325566823618487 -2.569758327341596 9.253974713945475
0.5755872208850654 0.8898265516111338
4 -7.439338846519997 4.060103154265056 -7.56592859242838 4.349887619395351 -7.855713057558675 4.223297873486969 -7.729123311650293 3.9335134083566734
-0.013852007697603742 -0.004239228921347148
6 2.6733068164591827 -9.877608062770399 2.6439775223446 -9.683624015867785 2.461317762740734 -9.612031906194773 2.3079872972514495 -9.734423843424374 2.3373165913660316 -9.928407890326987 2.5199763509698982 -10.0
-0.9098386610044386 0.8266774271868542
20 9.178155043965832 -1.095581520208618 9.064979811818331 -0.9700315484850545 8.980807253484656 -0.977636649826986 8.959409681012762 -0.9286541350951667 9.022184666874542 -0.8720665190214159 9.00697446419068 -0.7037214023540638 8.881424492467117 -0.8168966345015656 8.889029593809047 -0.9010691928352416 8.840047079077229 -0.9224667653071357 8.783459463003478 -0.8596917794453538 8.615114346336126 -0.8749019821292169 8.728289578483627 -1.0004519538527807 8.812462136817302 -0.9928468525108491 8.833859709289197 -1.0418293672426684 8.771084723427416 -1.0984169833164192 8.786294926111278 -1.2667620999837714 8.911844897834841 -1.1535868678362695 8.904239796492911 -1.0694143095025936 8.95322231122473 -1.0480167370306994 9.00980992729848 -1.1107917228924813
0.42047253578590676 0.5224812327496949
4 -6.072237888120334 -1.971905220554204 -6.198827634028716 -1.6821207554239088 -6.4886120991590115 -1.8087105013322906 -6.362022353250629 -2.098494966462586
0.8335919307575516 -1.150372130739962
4 -3.4807282950607403 -6.125257695257636 -3.607318040969122 -5.835473230127341 -3.8971025060994178 -5.962062976035723 -3.770512760191036 -6.251847441166018
0.444902125299566 -0.5687441383304079
4 0.7607461367171169 7.311393036680375 0.9727351904355659 7.0458168801047485 0.8847473080918187 7.627769020812589 0.4247559116239661 7.260593209123788
-0.6762843529460054 -0.2470804484400756
6 0.7509947815098719 5.241669765094953 0.7216654873952895 5.435653811997566 0.5390057277914229 5.507245921670579 0.38567526230213867 5.384853984440978 0.415004556416721 5.190869937538365 0.5976643160205876 5.119277827865352
-0.4263259695107929 -0.1177488406859835
4 3.965186275912469 -7.3822808701156095 4.177175329630918 -7.647857026691236 4.089187447287171 -7.065904885983396 3.629196050819318 -7.433080697672197
-0.5990391954647135 -1.0252261086331913
4 -1.8796656689815567 -4.583355432166892 -2.0062554148899383 -4.2935709670365965 -2.296039880020234 -4.420160712944979 -2.169450134111852 -4.709945178075274
0.7903781452463617 -0.7562299362836966
20 2.175117086354713 -1.6424874313530178 2.061941854207211 -1.516937459629454 1.9777692958735351 -1.5245425609713856 1.956371723401641 -1.4755600462395664 2.0191467092634228 -1.4189724301658155 2.0039365065795596 -1.2506273134984633 1.8783865348559958 -1.3638025456459653 1.8859916361979274 -1.4479751039796411 1.8370091214661082 -1.4693726764515354 1.7804215053923573 -1.4065976905897535 1.6120763887250051 -1.4218078932736167 1.725251620872507 -1.5473578649971804 1.809424179206183 -1.5397527636552488 1.8308217516780771 -1.588735278387068 1.7680467658162953 -1.645322894460819 1.7832569685001585 -1.813668011128171 1.9088069402237222 -1.7004927789806692 1.9012018388817906 -1.6163202206469933 1.9501843536136099 -1.594922648175099 2.0067719696873607 -1.657697634036881
0.09604932586025428 -0.13790144463848206
20 -3.90744841355178 -0.21686565372621092 -4.020623645699282 -0.09131568200264714 -4.104796204032958 -0.0989207833445787 -4.126193776504852 -0.04993826861275939 -4.06341879064307 0.006649347460991467 -4.078628993326933 0.17499446412834352 -4.204178965050497 0.06181923198084177 -4.196573863708565 -0.02235332635283424 -4.2455563784403845 -0.043750898824728365 -4.302143994514136 0.019024087037053522 -4.470489111181488 0.003813884353190397 -4.357313879033986 -0.12173608737037336 -4.27314132070031 -0.11413098602844181 -4.2517437482284155 -0.1631135007602611 -4.314518734090198 -0.21970111683401197 -4.299308531406335 -0.388046233501364 -4.173758559682771 -0.2748710013538623 -4.181363661024703 -0.19069844302018626 -4.132381146292883 -0.16930087054829213 -4.075793530219132 -0.23207585641007403
0.4915052251782022 0.5615628516446635
6 1.4803738398880024 -9.877608062770399 1.45104454577342 -9.683624015867785 1.2683847861695534 -9.612031906194773 1.1150543206802692 -9.734423843424374 1.1443836147948516 -9.928407890326987 1.327043374398718 -10.0
0.4339911433864822 0.48208071979268136
5 3.2406181131251413 3.6459375316749334 3.179856674232938 3.8792430176459622 2.939193654292418 3.8935508152940166 2.851217167026186 3.669088034573641 3.037507727625352 3.5160546092310803
-0.13638027067919536 0.10608793163035532
4 9.769155877581596 -7.519075317263308 9.981144931300046 -7.7846514738389345 9.893157048956297 -7.202699333131094 9.433165652488446 -7.569875144819895
0.014361878996939973 0.5845407315796525
3 -9.183753622007858 -4.6220879278351905 -9.483551416851126 -4.246506525363019 -9.65891555515938 -4.693929732931931
0.513996669177694 1.3380308721767218
4 1.323217029737421 6.009303632214785 1.53520608345587 5.743727475639158 1.4472182011121228 6.325679616346998 0.9872268046442703 5.958503804658197
0.7886048636757572 0.6684041570765059
5 -9.455522661295774 -4.784724330641887 -9.516284100187976 -4.551418844670858 -9.756947120128498 -4.537111047022804 -9.84492360739473 -4.761573827743179 -9.658633046795563 -4.91460725308574
-0.12854699348685455 -0.012594559923610391
20 3.4638062272413697 -6.4428294037468 3.350630995093868 -6.317279432023236 3.2664584367601917 -6.324884533365168 3.245060864288298 -6.2759020186333485 3.3078358501500795 -6.219314402559597 3.2926256474662163 -6.050969285892245 3.1670756757426526 -6.164144518039747 3.174680777084584 -6.248317076373423 3.1256982623527647 -6.2697146488453175 3.069110646279014 -6.206939662983535 2.900765529611662 -6.222149865667398 3.0139407617591636 -6.347699837390962 3.09811332009284 -6.34009473604903 3.1195108925647337 -6.38907725078085 3.056735906702952 -6.445664866854601 3.0719461093868152 -6.614009983521953 3.197496081110379 -6.500834751374451 3.1898909797684474 -6.416662193040775 3.238873494500267 -6.395264620568881 3.2954611105740175 -6.458039606430663
0.07665216317802305 0.07623232465035135
4 7.33941302452429 -0.5806610971607731 7.212823278615907 -0.29087663203047787 6.923038813485612 -0.4174663779388596 7.0496285593939945 -0.7072508430691549
1.1068428218165172 0.8252667759281654
20 -6.816560126386222 4.978654421823238 -6.9297353585337245 5.104204393546802 -7.0139079168674 5.09659929220487 -7.035305489339295 5.14558180693669 -6.972530503477512 5.202169423010441 -6.987740706161375 5.370514539677793 -7.113290677884939 5.257339307530291 -7.105685576543007 5.173166749196615 -7.154668091274827 5.151769176724721 -7.211255707348578 5.214544162586503 -7.37960082401593 5.19933395990264 -7.266425591868428 5.073783988179076 -7.182253033534752 5.081389089521008 -7.160855461062858 5.032406574789189 -7.22363044692464 4.975818958715437 -7.208420244240777 4.807473842048085 -7.082870272517213 4.9206490741955875 -7.090475373859145 5.004821632529263 -7.041492859127326 5.026219205001158 -6.984905243053574 4.963444219139375
-1.5240733887320599 0.06563239676090477
12 -1.8726036682309741 9.126359674949342 -1.7641826563210115 9.21290384372695 -1.8933426109868101 9.263527109956188 -1.9140815537426459 9.400694544963036 -2.0225025656526086 9.314150376185427 -2.1516625203184074 9.364773642414665 -2.1309235775625712 9.227606207407817 -2.2393445894725343 9.141062038630208 -2.1101846348067355 9.09043877240097 -2.0894456920508997 8.953271337394122 -1.9810246801409368 9.039815506171731 -1.8518647254751381 8.989192239942494
1.330220320029776 0.10068524724331832
6 4.640972818254499 8.585459733951168 4.611643524139917 8.779443780853782 4.428983764536051 8.851035890526795 4.275653299046767 8.728643953297194 4.304982593161349 8.53465990639458 4.487642352765215 8.463067796721568
0.4354475556411179 0.21545353804880757
3 -0.28795068656471967 -2.304715896709931 -0.5877484814079887 -1.9291344942377593 -0.7631126197162426 -2.3765577018066715
-0.001928709492808739 -1.0438538046232506
12 -0.4180008135152524 1.252787975781449 -0.30957980160528964 1.3393321445590578 -0.4387397562710883 1.3899554107882963 -0.45947869902692423 1.5271228457951438 -0.567899710936887 1.4405786770175348 -0.6970596656026856 1.4912019432467734 -0.6763207228468497 1.354034508239926 -0.7847417347568125 1.2674903394623174 -0.6555817800910139 1.2168670732330789 -0.6348428373351779 1.0796996382262314 -0.5264218254252152 1.1662438070038403 -0.39726187075941655 1.1156205407746018
0.5344758480073002 0.9901264738250909
3 -5.620519156632081 -6.882111000764193 -5.920316951475351 -6.506529598292022 -6.0956810897836045 -6.953952805860934
-1.1644663704742813 -0.16266226429142142
12 9.003139432770219 9.08475532643725 9.111560444680181 9.171299495214859 8.982400490014383 9.221922761444096 8.961661547258547 9.359090196450945 8.853240535348585 9.272546027673336 8.724080580682786 9.323169293902573 8.744819523438622 9.186001858895725 8.63639851152866 9.099457690118117 8.765558466194458 9.048834423888879 8.786297408950293 8.91166698888203 8.894718420860256 8.99821115765964 9.023878375526055 8.947587891430402
-0.45284497590056705 0.03348940552045122
6 -4.182206270237035 3.7074241472245753 -4.2115355643516175 3.9014081941271885 -4.394195323955484 3.9730003038002017 -4.547525789444768 3.8506083665706012 -4.518196495330185 3.6566243196679875 -4.335536735726319 3.5850322099949743
-0.6484683931897945 1.1003598034409594
4 -5.576405942743881 -8.607899154182153 -5.364416889025431 -8.87347531075778 -5.452404771369179 -8.291523170049938 -5.912396167837032 -8.658698981738741
1.9467001429906399 -0.06501520693863744
4 -4.832989215699454 -9.093475684538303 -4.621000161981005 -9.35905184111393 -4.7089880443247525 -8.777099700406088 -5.168979440792605 -9.144275512094891
-1.0477187808890296 -0.37629043221836617
4 8.894615604290676 4.274021105091252 8.768025858382295 4.563805570221548 8.478241393252 4.437215824313165 8.604831139160382 4.14743135918287
0.011703086300526893 0.018619258464791212
6 7.758607025663012 1.35917036201781 7.72927773154843 1.5531544089204234 7.546617971944563 1.6247465185934364 7.393287506455279 1.502354581363836 7.422616800569862 1.3083705344612224 7.605276560173728 1.2367784247882094
1.652779125636241 -0.146347426909082
4 -6.940649623672856 0.390878125411561 -6.728660569954407 0.12530196883593442 -6.816648452298154 0.7072541095437751 -7.276639848766007 0.3400782978549734
-1.1383244236971848 -1.1049429007934433
20 -8.916388068475962 3.6087893012348773 -9.029563300623463 3.734339272958441 -9.113735858957138 3.7267341716165094 -9.135133431429033 3.775716686348329 -9.072358445567252 3.8323043024220795 -9.087568648251114 4.000649419089432 -9.213118619974678 3.88747418694193 -9.205513518632747 3.8033016286082537 -9.254496033364566 3.78190405613636 -9.311083649438316 3.8446790419981416 -9.479428766105668 3.8294688393142784 -9.366253533958167 3.7039188675907146 -9.282080975624492 3.7115239689326462 -9.260683403152598 3.6625414542008268 -9.323458389014379 3.605953838127076 -9.308248186330516 3.437608721459724 -9.182698214606953 3.5507839536072257 -9.190303315948883 3.634956511940902 -9.141320801217065 3.6563540844127957 -9.084733185143314 3.593579098551014
0.04907226593315466 -0.840045018796935
3 2.685788988452057 -5.092414775936132 2.385991193608788 -4.7168333734639605 2.210627055300534 -5.164256581032872
0.1583255973752699 0.805040402541787
4 -0.5785999437360243 -9.496367263076792 -0.7051896896444061 -9.206582797946497 -0.9949741547747013 -9.333172543854879 -0.8683844088663196 -9.622957008985173
0.3109426969511467 -0.1564509152312314
20 -9.032775105993204 -9.013448608709181 -9.145950338140706 -8.887898636985618 -9.23012289647438 -8.895503738327548 -9.251520468946275 -8.84652122359573 -9.188745483084494 -8.789933607521979 -9.203955685768356 -8.621588490854627 -9.32950565749192 -8.734763723002128 -9.32190055614999 -8.818936281335803 -9.370883070881808 -8.840333853807698 -9.427470686955559 -8.777558867945917 -9.59581580362291 -8.79276907062978 -9.48264057147541 -8.918319042353342 -9.398468013141734 -8.910713941011412 -9.37707044066984 -8.95969645574323 -9.43984542653162 -9.016284071816981 -9.424635223847758 -9.184629188484333 -9.299085252124195 -9.071453956336832 -9.306690353466125 -8.987281398003157 -9.257707838734307 -8.965883825531263 -9.201120222660556 -9.028658811393043
0.5425835119108434 -0.11819330897840943
6 -5.509641064393485 -7.9555974515876855 -5.538970358508068 -7.761613404685072 -5.721630118111934 -7.690021295012059 -5.874960583601218 -7.81241323224166 -5.845631289486636 -8.006397279144274 -5.662971529882769 -8.077989388817286
-0.14393862723808143 0.38837358298290553
6 6.548545913787067 4.2293591614674355 6.519216619672485 4.423343208370049 6.336556860068619 4.494935318043062 6.183226394579335 4.372543380813461 6.212555688693917 4.178559333910848 6.395215448297783 4.106967224237835
0.34481920058045434 -0.7386616194110168
6 7.71496456612319 5.590492328035102 7.685635272008608 5.784476374937716 7.502975512404742 5.856068484610729 7.349645046915458 5.733676547381128 7.37897434103004 5.539692500478515 7.561634100633906 5.4681003908055015
-0.05549781643528534 1.3437112354359044
3 -7.508680832385865 6.232002900740612 -7.8084786272291336 6.607584303212784 -7.983842765537387 6.160161095643872
-1.2251955073210898 0.5322374394344328
12 -2.6914309315926443 -7.922735878437954 -2.5830099196826812 -7.836191709660345 -2.71216987434848 -7.7855684434311065 -2.732908817104316 -7.648401008424259 -2.8413298290142786 -7.734945177201868 -2.9704897836800774 -7.6843219109726295 -2.9497508409242412 -7.821489345979477 -3.0581718528342043 -7.9080335147570855 -2.9290118981684055 -7.958656780986324 -2.9082729554125697 -8.095824215993172 -2.799851943502607 -8.009280047215563 -2.670691988836808 -8.059903313444801
-0.1545250566205324 1.3050536252429346
5 -7.159487717998838 0.056858900894514744 -7.2202491568910405 0.29016438686554363 -7.4609121768315605 0.304472184513598 -7.548888664097793 0.08000940379322247 -7.362598103498626 -0.07302402154933857
0.24826869109491387 1.8393252431411968
4 4.132460210571216 -8.000919525728968 4.344449264289665 -8.266495682304594 4.256461381945917 -7.684543541596754 3.7964699854780646 -8.051719353285556
-0.7236699617549954 0.3381810349857586
20 -7.665400127137317 4.8270973991453605 -7.778575359284819 4.952647370868925 -7.862747917618495 4.945042269526993 -7.884145490090389 4.994024784258812 -7.821370504228606 5.050612400332564 -7.8365807069124696 5.218957516999915 -7.962130678636034 5.105782284852413 -7.954525577294102 5.021609726518737 -8.003508092025921 5.000212154046843 -8.060095708099672 5.062987139908626 -8.228440824767024 5.0477769372247625 -8.115265592619522 4.922226965501198 -8.031093034285847 4.92983206684313 -8.009695461813953 4.880849552111311 -8.072470447675734 4.824261936037559 -8.057260244991872 4.655916819370208 -7.931710273268307 4.76909205151771 -7.939315374610239 4.853264609851386 -7.89033285987842 4.87466218232328 -7.833745243804668 4.811887196461497
-1.1691948809919324 0.7059824813889602
12 -4.91639972203596 -8.398574258943599 -4.807978710125997 -8.31203009016599 -4.937138664791796 -8.261406823936753 -4.957877607547632 -8.124239388929904 -5.066298619457594 -8.210783557707513 -5.195458574123393 -8.160160291478276 -5.174719631367557 -8.297327726485124 -5.28314064327752 -8.383871895262732 -5.153980688611721 -8.43449516149197 -5.133241745855885 -8.571662596498818 -5.024820733945923 -8.48511842772121 -4.895660779280124 -8.535741693950447
-0.42877078709434335 -1.1804323924935178
4 -1.3530303482459125 2.806793140073051 -1.1410412945274635 2.5412169834974243 -1.2290291768712107 3.123169124205265 -1.6890205733390633 2.755993312516463
0.1432883920646768 -0.03349694097502055
4 8.625685965251884 -4.916500471651391 8.499096219343503 -4.626716006521096 8.209311754213209 -4.753305752429478 8.33590150012159 -5.043090217559773
1.0228656015332163 -0.5330757652446924
20 -7.563292439269534 -0.9751850011253481 -7.676467671417036 -0.8496350294017844 -7.760640229750712 -0.8572401307437159 -7.782037802222606 -0.8082576160118966 -7.719262816360824 -0.7516699999381458 -7.734473019044687 -0.5833248832707937 -7.860022990768251 -0.6965001154182955 -7.852417889426319 -0.7806726737519715 -7.901400404158139 -0.8020702462238656 -7.95798802023189 -0.7392952603620837 -8.126333136899241 -0.7545054630459468 -8.01315790475174 -0.8800554347695105 -7.928985346418064 -0.872450333427579 -7.90758777394617 -0.9214328481593983 -7.970362759807952 -0.9780204642331491 -7.955152557124089 -1.1463655809005013 -7.829602585400525 -1.0331903487529994 -7.837207686742457 -0.9490177904193234 -7.7882251720106375 -0.9276202179474293 -7.731637555936886 -0.9903952038092112
1.193431257216821 0.021680399262216862
20 -2.417777117474329 -9.1049786395538 -2.5309523496218307 -8.979428667830236 -2.615124907955507 -8.987033769172166 -2.636522480427401 -8.938051254440348 -2.573747494565619 -8.881463638366597 -2.5889576972494823 -8.713118521699245 -2.714507668973046 -8.826293753846747 -2.7069025676311145 -8.910466312180422 -2.755885082362934 -8.931863884652316 -2.8124726984366846 -8.869088898790535 -2.9808178151040368 -8.884299101474397 -2.867642582956535 -9.00984907319796 -2.7834700246228588 -9.00224397185603 -2.762072452150965 -9.051226486587849 -2.8248474380127466 -9.1078141026616 -2.8096372353288834 -9.276159219328951 -2.6840872636053197 -9.16298398718145 -2.6916923649472513 -9.078811428847775 -2.642709850215432 -9.05741385637588 -2.586122234141681 -9.120188842237662
0.088892200852518 -0.06577199627074352
3 -0.230335769312624 -9.110286971453322 -0.5301335641558931 -8.73470556898115 -0.7054977024641469 -9.182128776550062
-0.7705439787644331 0.10757851218657238
12 7.785975889855774 1.3927045889647216 7.894396901765736 1.4792487577423303 7.765236947099938 1.5298720239715689 7.744498004344102 1.6670394589784163 7.636076992434139 1.5804952902008074 7.506917037768341 1.6311185564300459 7.527655980524177 1.4939511214231986 7.419234968614214 1.40740695264559 7.5483949232800125 1.3567836864163514 7.569133866035848 1.219616251409504 7.677554877945811 1.3061604201871129 7.806714832611609 1.2555371539578744
1.1661765286487582 0.18377979547293669
6 -7.497836438731945 -9.857032058358932 -7.527165732846528 -9.663048011456318 -7.709825492450394 -9.591455901783306 -7.863155957939678 -9.713847839012907 -7.8338266638250955 -9.90783188591552 -7.651166904221229 -9.979423995588533
-1.308298799860788 -0.23126196703878796
6 -6.137934972254675 3.8222928295128415 -6.167264266369258 4.016276876415455 -6.349924025973124 4.087868986088468 -6.503254491462408 3.9654770488588675 -6.473925197347826 3.771493001956254 -6.291265437743959 3.6999008922832406
-0.6524701044819023 0.896361834311334
12 -4.718862687893141 1.3915341657793947 -4.6104416759831786 1.4780783345570034 -4.739601630648977 1.528701600786242 -4.760340573404813 1.6658690357930894 -4.868761585314775 1.5793248670154805 -4.997921539980574 1.629948133244719 -4.977182597224738 1.4927806982378717 -5.085603609134701 1.406236529460263 -4.956443654468902 1.3556132632310245 -4.935704711713067 1.218445828224177 -4.827283699803104 1.304989997001786 -4.6981237451373055 1.2543667307725475
0.7145323170994774 -0.9690573418890677
12 -6.563498063026234 5.604671451331607 -6.455077051116271 5.691215620109216 -6.58423700578207 5.741838886338455 -6.604975948537906 5.879006321345302 -6.713396960447868 5.792462152567693 -6.842556915113667 5.843085418796932 -6.821817972357831 5.705917983790084 -6.930238984267794 5.619373815012476 -6.801079029601995 5.568750548783237 -6.780340086846159 5.43158311377639 -6.671919074936197 5.518127282553999 -6.542759120270398 5.46750401632476
0.5128436060061459 -0.3495636423468503
5 0.3920942493583158 -6.917130795942148 0.3313328104661128 -6.683825309971119 0.09066979052559264 -6.669517512323065 0.0026933032593604855 -6.89398029304344 0.18898386385852686 -7.047013718386001
-0.46539353219696594 0.38255738942962053
4 1.509695209800159 -1.7349081595573337 1.3831054638917772 -1.4451236944270385 1.093320998761482 -1.5717134403354203 1.2199107446698638 -1.8614979054657155
-0.06786851506337835 -0.033621362173908105
20 -7.882467084978541 8.726064141412294 -7.995642317126043 8.851614113135858 -8.079814875459718 8.844009011793927 -8.101212447931612 8.892991526525746 -8.038437462069831 8.949579142599497 -8.053647664753694 9.117924259266848 -8.179197636477257 9.004749027119347 -8.171592535135327 8.920576468785672 -8.220575049867145 8.899178896313778 -8.277162665940896 8.961953882175559 -8.445507782608248 8.946743679491696 -8.332332550460746 8.821193707768133 -8.248159992127071 8.828798809110063 -8.226762419655177 8.779816294378245 -8.289537405516958 8.723228678304494 -8.274327202833096 8.554883561637142 -8.148777231109532 8.668058793784644 -8.156382332451463 8.752231352118319 -8.107399817719644 8.773628924590213 -8.050812201645893 8.710853938728432
0.07401456806287668 -0.0837514721781703
12 -0.8716531738599114 -5.4698563181350055 -0.7632321619499486 -5.383312149357397 -0.8923921166157472 -5.332688883128158 -0.9131310593715832 -5.195521448121311 -1.021552071281546 -5.28206561689892 -1.1507120259473447 -5.231442350669681 -1.1299730831915087 -5.3686097856765285 -1.2383940951014714 -5.455153954454137 -1.1092341404356727 -5.505777220683376 -1.088495197679837 -5.642944655690223 -0.9800741857698742 -5.556400486912614 -0.8509142311040755 -5.607023753141853
-1.1184405000059832 1.1330138440768631
12 3.2723784388828197 0.100869148927063 3.3807994507927828 0.18741331770467184 3.251639496126984 0.23803658393391036 3.230900553371148 0.3752040189407577 3.1224795414611854 0.2886598501631489 2.9933195867953866 0.3392831163923874 3.0140585295512228 0.20211568138554004 2.9056375176412597 0.11557151260793119 3.0347974723070585 0.06494824637869269 3.0555364150628943 -0.07221918862815466 3.163957426972857 0.014324980149454186 3.293117381638656 -0.03629828607978433
-0.7131286557366824 0.002826372595028591
12 -5.058234510828541 0.7466107218993772 -4.949813498918578 0.833154890676986 -5.078973453584377 0.8837781569062245 -5.0997123963402125 1.0209455919130719 -5.208133408250175 0.934401423135463 -5.337293362915974 0.9850246893647016 -5.316554420160138 0.8478572543578542 -5.4249754320701005 0.7613130855802454 -5.295815477404302 0.7106898193510068 -5.275076534648466 0.5735223843441595 -5.166655522738504 0.6600665531217683 -5.037495568072705 0.6094432868925298
0.7038960274534681 0.6854300502475338
6 -4.968624721164444 -4.43312518101326 -4.997954015279026 -4.239141134110646 -5.180613774882892 -4.167549024437633 -5.333944240372176 -4.289940961667234 -5.304614946257594 -4.483925008569847 -5.121955186653728 -4.555517118242861
-0.3643834576757293 0.3812595778638692
6 3.355874539702659 -0.41742871655829483 3.3265452455880764 -0.22344466965568127 3.1438854859842102 -0.1518525599826683 2.990555020494926 -0.27424449721226885 3.019884314609508 -0.46822854411488235 3.2025440742133746 -0.5398206537878955
1.2211978173500662 0.5244549678190676
5 7.35678247104263 2.712469259956423 7.296021032150427 2.945774745927452 7.055358012209907 2.9600825435755063 6.967381524943675 2.735619762855131 7.1536720855428415 2.58258633751257
-1.576274607819811 -0.5734828263339284
4 7.649330049670436 -8.35422160049779 7.861319103388885 -8.619797757073416 7.7733312210451375 -8.037845616365574 7.313339824577285 -8.405021428054377
0.9848427835150239 -0.030859393324937895
4 -6.435953867416532 -9.873410254091619 -6.562543613324914 -9.583625788961324 -6.852328078455209 -9.710215534869706 -6.725738332546827 -10.0
0.49255599945868195 0.13868776643307265
20 -8.68113308285587 -4.174987437422798 -8.794308315003372 -4.049437465699234 -8.878480873337047 -4.057042567041166 -8.899878445808941 -4.008060052309347 -8.83710345994716 -3.9514724362355955 -8.852313662631023 -3.7831273195682433 -8.977863634354586 -3.896302551715745 -8.970258533012656 -3.9804751100494213 -9.019241047744474 -4.001872682521316 -9.075828663818225 -3.9390976966595335 -9.244173780485577 -3.9543078993433967 -9.130998548338075 -4.07985787106696 -9.0468259900044 -4.072252769725028 -9.025428417532506 -4.121235284456848 -9.088203403394287 -4.177822900530599 -9.072993200710425 -4.346168017197951 -8.947443228986861 -4.232992785050449 -8.955048330328792 -4.148820226716773 -8.906065815596973 -4.127422654244879 -8.849478199523222 -4.190197640106661
-1.522560522744908 0.5314314176042105
3 0.5021554580109275 7.325635078417291 0.20235766316765846 7.701216480889462 0.026993524859404594 7.25379327332055
0.8731764367298503 -0.71266538971471
4 9.322028174453623 6.301844008438781 9.195438428545241 6.591628473569076 8.905653963414947 6.465038727660694 9.032243709323328 6.175254262530399
-0.6165546358532152 -0.6129268796064438
3 2.508332063513493 5.047012777204184 2.2085342686702236 5.422594179676356 2.03317013036197 4.975170972107444
0.17157690164997905 -0.12956317237084508
6 6.794626196985917 0.3536368782923114 6.765296902871335 0.5476209251949249 6.582637143267469 0.6192130348679379 6.429306677778185 0.4968210976383374 6.458635971892767 0.30283705073572387 6.641295731496633 0.2312449410627108
0.30522580795634124 -0.3025796311549771
5 6.034457904880764 5.809555582202838 5.973696465988561 6.042861068173868 5.733033446048041 6.057168865821922 5.645056958781809 5.832706085101546 5.831347519380976 5.679672659758985
-0.13469241880321972 -0.3947228724701611
4 -4.767140151080965 4.515546772296942 -4.893729896989347 4.805331237427237 -5.1835143621196424 4.6787414915188545 -5.05692461621126 4.388957026388559
0.9337700952240321 -1.1106483400789766
12 -7.07546930529539 -3.7953784406749156 -6.967048293385427 -3.708834271897307 -7.096208248051226 -3.6582110056680683 -7.116947190807061 -3.521043570661221 -7.225368202717024 -3.60758773943883 -7.3545281573828225 -3.5569644732095913 -7.333789214626987 -3.6941319082164386 -7.442210226536949 -3.7806760769940473 -7.313050271871151 -3.831299343223286 -7.292311329115315 -3.968466778230133 -7.1838903172053525 -3.8819226094525243 -7.054730362539554 -3.932545875681763
-0.3901607391017832 -1.246395754299133
4 -0.48382239487440093 1.7182181538198333 -0.6104121407827827 2.0080026189501288 -0.9001966059130779 1.8814128730417468 -0.7736068600046963 1.5916284079114515
0.2569705335526883 0.6958583832607822
20 4.921613552201342 -8.573714891338996 4.80843832005384 -8.448164919615433 4.724265761720164 -8.455770020957363 4.70286818924827 -8.406787506225545 4.7656431751100525 -8.350199890151794 4.750432972426189 -8.181854773484442 4.624883000702625 -8.295030005631943 4.632488102044557 -8.379202563965618 4.583505587312738 -8.400600136437513 4.526917971238986 -8.337825150575732 4.3585728545716345 -8.353035353259594 4.471748086719137 -8.478585324983158 4.5559206450528125 -8.470980223641227 4.577318217524707 -8.519962738373046 4.514543231662924 -8.576550354446796 4.529753434346787 -8.744895471114148 4.6553034060703515 -8.631720238966647 4.6476983047284195 -8.547547680632972 4.696680819460239 -8.526150108161078 4.7532684355339905 -8.588925094022859
0.7246229451938042 -0.9431205067092223
3 -4.9936991288728105 9.510495477369028 -5.293496923716079 9.8860768798412 -5.468861062024333 9.438653672272288
0.04900019427771667 1.6581199524122037
3 -1.8931224690388073 1.5433977381412252 -2.1929202638820766 1.918979140613397 -2.3682844021903304 1.4715559330444847
-0.607530160085917 1.3424774900682872
3 1.9392574238500484 5.957957788141288 1.6394596290067793 6.333539190613459 1.4640954906985255 5.886115983044547
-0.7012975421434131 -1.191761783910542
12 4.949816513521002 -9.478804668125974 5.058237525430965 -9.392260499348366 4.929077570765166 -9.341637233119128 4.90833862800933 -9.20446979811228 4.799917616099368 -9.291013966889889 4.670757661433569 -9.240390700660651 4.691496604189405 -9.377558135667499 4.583075592279442 -9.464102304445108 4.712235546945241 -9.514725570674345 4.732974489701077 -9.651893005681194 4.841395501611039 -9.565348836903585 4.970555456276838 -9.615972103132822
-0.5121678608737378 -0.1735684153681422
4 5.439484663304509 -3.4008269299451315 5.312894917396127 -3.111042464814836 5.023110452265832 -3.2376322107232176 5.149700198174214 -3.5274166758535133
1.1478112963376303 -1.1094582764967211
3 6.181496549403198 1.8724646384258854 5.881698754559929 2.248046040898057 5.7063346162516755 1.800622833329145
0.07561751817985503 0.19194284224355845
12 -0.37057909793622534 4.179557918759154 -0.26215808602626256 4.266102087536763 -0.3913180406920612 4.316725353766001 -0.41205698344789715 4.4538927887728486 -0.5204779953578599 4.36734861999524 -0.6496379500236585 4.417971886224478 -0.6288990072678227 4.280804451217631 -0.7373200191777854 4.194260282440022 -0.6081600645119868 4.143637016210784 -0.5874211217561508 4.006469581203937 -0.47900010984618807 4.093013749981545 -0.34984015518038947 4.042390483752307
-0.40780949765894875 0.667849778787464
6 8.581928863149406 9.662087652292684 8.552599569034824 9.856071699195297 8.369939809430957 9.92766380886831 8.216609343941672 9.805271871638709 8.245938638056254 9.611287824736095 8.42859839766012 9.539695715063083
0.9698833901054037 0.3685214913674829
4 -9.388758690184753 -2.239219467278336 -9.515348436093134 -1.9494350021480404 -9.805132901223429 -2.076024748056422 -9.678543155315047 -2.3658092131867177
-0.8922827266522612 1.0060429304159788
12 -1.8268096677302912 -6.796020541569297 -1.7183886558203285 -6.709476372791689 -1.8475486104861272 -6.65885310656245 -1.868287553241963 -6.521685671555603 -1.9767085651519258 -6.608229840333212 -2.1058685198177245 -6.557606574103973 -2.0851295770618883 -6.69477400911082 -2.1935505889718514 -6.781318177888429 -2.0643906343060525 -6.831941444117668 -2.0436516915502168 -6.969108879124515 -1.9352306796402539 -6.882564710346906 -1.8060707249744552 -6.933187976576145
-0.08144573785218363 -0.6699538625844266
6 3.82996904126878 5.165569602930017 3.8006397471541975 5.35955364983263 3.6179799875503313 5.431145759505643 3.464649522061047 5.308753822276042 3.493978816175629 5.114769775373429 3.6766385757794957 5.043177665700416
-0.2548352691920535 0.9383013603279193
12 -1.7753479520756075 0.032094141212678735 -1.6669269401656448 0.11863830999028757 -1.7960868948314435 0.1692615762195261 -1.8168258375872792 0.30642901122637345 -1.9252468494972421 0.21988484244876458 -2.054406804163041 0.2705081086780031 -2.0336678614072046 0.13334067367115576 -2.1420888733171677 0.04679650489354692 -2.012928918651369 -0.0038267613356915836 -1.992189975895533 -0.14099419634253893 -1.8837689639855701 -0.05445002756493009 -1.7546090093197715 -0.1050732937941686
-0.5104306330167568 -0.9897535072399347
4 -0.463114125278943 -0.12483936177135772 -0.5897038711873248 0.16494510335893756 -0.87948833631762 0.038355357450555794 -0.7528985904092383 -0.25142910767973947
-1.2096387827125572 0.3206692186400762
4 3.133621543056674 2.8695444857638033 3.0070317971482923 3.159328950894099 2.7172473320179966 3.032739204985717 2.8438370779263784 2.7429547398554215
-1.2123075287526994 -0.12865217830641967
3 0.2604060618473185 -9.31036136100828 -0.03939173299595057 -8.934779958536108 -0.21475587130420443 -9.38220316610502
-1.2037581646947912 -0.04314173268300259
12 -1.1853515904614331 -5.532969555545896 -1.0769305785514705 -5.446425386768287 -1.2060905332172691 -5.395802120539049 -1.2268294759731049 -5.2586346855322015 -1.3352504878830678 -5.34517885430981 -1.4644104425488664 -5.294555588080572 -1.4436714997930304 -5.431723023087419 -1.5520925117029931 -5.518267191865028 -1.4229325570371945 -5.568890458094266 -1.4021936142813587 -5.706057893101113 -1.2937726023713958 -5.619513724323505 -1.1646126477055971 -5.670136990552743
0.38414995001598423 -0.992625711341839
20 1.7854305472953298 9.608139882145446 1.6722553151478279 9.73368985386901 1.588082756814152 9.726084752527079 1.5666851843422578 9.775067267258898 1.6294601702040397 9.831654883332648 1.6142499675201765 10.0 1.4886999957966127 9.886824767852499 1.4963050971385443 9.802652209518824 1.447322582406725 9.78125463704693 1.3907349663329742 9.84402962290871 1.222389849665622 9.828819420224848 1.335565081813124 9.703269448501285 1.4197376401467998 9.710874549843215 1.441135212618694 9.661892035111396 1.3783602267569122 9.605304419037646 1.3935704294407754 9.436959302370294 1.519120401164339 9.550134534517795 1.5115152998224075 9.63430709285147 1.5604978145542268 9.655704665323364 1.6170854306279776 9.592929679461584
0.16529315477065756 0.2981234439442487
5 -0.5169466528268188 0.37328608796044993 -0.5777080917190218 0.6065915739314789 -0.818371111659542 0.6208993715795332 -0.9063475989257742 0.39643659085915767 -0.7200570383266078 0.24340316551659663
1.2200349514740816 -0.6640364179258995
3 0.8638314056958518 1.2751998972791867 0.5640336108525827 1.6507812997513585 0.3886694725443289 1.2033580921824463
-0.2983448017707235 1.0221988794542662
12 -7.854299837320198 -7.377769935470929 -7.7458788254102355 -7.29122576669332 -7.875038780076034 -7.240602500464082 -7.89577772283187 -7.1034350654572345 -8.004198734741832 -7.189979234234843 -8.13335868940763 -7.139355968005605 -8.112619746651795 -7.276523403012452 -8.221040758561758 -7.363067571790061 -8.09188080389596 -7.413690838019299 -8.071141861140124 -7.550858273026146 -7.962720849230161 -7.464314104248538 -7.833560894564362 -7.514937370477776
1.8953340275503936 0.15410362565015323
4 -4.394431941236432 -7.896406938537892 -4.182442887517983 -8.161983095113518 -4.27043076986173 -7.580030954405678 -4.730422166329583 -7.947206766094479
-0.6052849134096044 -0.06008842737739797
3 -6.7532052284755135 7.804751818666171 -7.053003023318782 8.180333221138342 -7.228367161627036 7.73291001356943
-0.6130969990874696 -0.7352296834679928
4 2.217899415503438 0.12087015845096057 2.091309669595056 0.4106546235812558 1.8015252044647607 0.2840648776728741 1.9281149503731425 -0.0057195874574211825
-1.2952916538652863 -0.9400697299753394
3 -3.406118502714732 6.892381714872423 -3.705916297558001 7.267963117344594 -3.881280435866255 6.8205399097756825
-0.3360380066596575 0.029210399554743118
6 7.395149515679457 5.936549453056838 7.365820221564875 6.130533499959451 7.183160461961009 6.202125609632464 7.029829996471725 6.079733672402863 7.059159290586307 5.88574962550025 7.241819050190173 5.814157515827237
1.4442849377046605 0.5718502921890619
4 3.802685707865912 0.4590829786251387 4.014674761584361 0.19350682204951214 3.9266868792406138 0.7754589627573528 3.466695482772761 0.4082831510685511
-0.03411865060729136 -0.07676633028752206
12 7.815120765801517 2.614201173908227 7.923541777711479 2.7007453426858357 7.794381823045681 2.751368608915074 7.773642880289845 2.8885360439219214 7.6652218683798825 2.8019918751443127 7.536061913714084 2.852615141373551 7.55680085646992 2.715447706366704 7.448379844559957 2.6289035375890952 7.577539799225756 2.5782802713598567 7.598278741981591 2.4411128363530095 7.706699753891554 2.527657005130618 7.8358597085573525 2.4770337389013797
-0.07197543434110046 0.05052073865681291
5 0.22724965189926075 8.937783150358209 0.16648821300705768 9.171088636329237 -0.07417480693346247 9.185396433977292 -0.16215129419969462 8.960933653256918 0.024139266399471747 8.807900227914356
0.21614409009173716 -0.3077809776179236
4 -9.583625788961324 -0.015733248097550764 -9.710215534869706 0.2740512170327445 -10.0 0.14746147112436275 -9.873410254091619 -0.1423229940059325
0.925937579234132 1.3427419646342174
3 9.897005033362138 7.917198064425454 9.59720723851887 8.292779466897626 9.421843100210616 7.845356259328714
-0.06615235175285547 -0.16935257629618755
5 6.483768555419298 -4.917736928270766 6.423007116527095 -4.684431442299736 6.182344096586575 -4.6701236446516825 6.094367609320343 -4.894586425372058 6.280658169919509 -5.047619850714619
0.10348824825574088 0.05100472710941078
4 5.965585672863798 4.810737131864935 5.838995926955416 5.10052159699523 5.549211461825121 4.9739318510868475 5.675801207733503 4.684147385956552
0.4959623193981673 0.27481451012765734
4 -1.522786295403619 7.332161230630046 -1.6493760413120009 7.621945695760341 -1.939160506442296 7.495355949851959 -1.8125707605339143 7.205571484721664
0.42220478477155293 0.7488087325162698
4 9.78801094628155 8.292676730382034 10.0 8.027100573806408 9.912012117656252 8.609052714514249 9.4520207211884 8.241876902825446
-0.038913720957642645 0.3121305769144228
6 0.1555809965162864 -8.157454518096012 0.12625170240170402 -7.963470471193398 -0.05640805720216253 -7.891878361520385 -0.20973852269144674 -8.014270298749986 -0.18040922857686442 -8.2082543456526 0.002250531027002088 -8.279846455325613
-0.15874639031274201 0.54326257969181
4 -7.0946739566108 8.009007553181497 -6.8826849028923505 7.743431396605871 -6.970672785236098 8.325383537313712 -7.430664181703951 7.95820772562491
0.4929026823121605 -0.053311802198677316
3 -1.9832392969732466 4.533065472769957 -2.283037091816516 4.908646875242129 -2.4584012301247697 4.461223667673217
-0.7141345077116666 0.3687107212786516
6 5.355417701857774 -7.776772609776758 5.326088407743192 -7.5827885628741445 5.143428648139325 -7.511196453201132 4.9900981826500415 -7.633588390430733 5.019427476764624 -7.8275724373333455 5.20208723636849 -7.899164547006359
-0.0700708754584083 -1.2144148695236443
4 3.122921668772544 -9.776104327229007 2.996331922864162 -9.486319862098712 2.7065474577338664 -9.612909608007094 2.833137203642248 -9.902694073137388
0.10584646154223061 -1.067017362046958
12 -8.23339690908428 -3.4091743578322466 -8.124975897174318 -3.322630189054638 -8.254135851840116 -3.2720069228253994 -8.274874794595952 -3.134839487818552 -8.383295806505915 -3.221383656596161 -8.512455761171713 -3.1707603903669224 -8.491716818415878 -3.3079278253737696 -8.60013783032584 -3.3944719941513783 -8.470977875660042 -3.445095260380617 -8.450238932904206 -3.582262695387464 -8.341817920994243 -3.4957185266098554 -8.212657966328445 -3.546341792839094
-0.756435077411852 1.2453437877673619
4 -6.075030619594633 2.40140351380581 -6.2016203655030155 2.6911879789361057 -6.491404830633311 2.564598233027724 -6.3648150847249285 2.2748137678974283
-0.8177332134567263 1.0251708598197982
4 -1.289662700328891 1.2965197100893648 -1.4162524462372728 1.58630417521966 -1.706036911367568 1.4597144293112783 -1.5794471654591862 1.169929964180983
0.2785265602445385 1.0882869410144311
6 -5.548516267363356 -7.85607432843699 -5.577845561477938 -7.662090281534376 -5.760505321081804 -7.5904981718613636 -5.913835786571088 -7.7128901090909645 -5.884506492456506 -7.906874155993577 -5.70184673285264 -7.978466265666591
0.8668832934518007 1.803762245737027
4 -2.8145079905093784 -6.3319965522857835 -2.6025189367909296 -6.59757270886141 -2.6905068191346766 -6.01562056815357 -3.1504982156025294 -6.382796379842371
-1.296336842612581 0.530080898382439
4 -3.1523244946159377 -7.218478298208899 -3.2789142405243195 -6.928693833078603 -3.568698705654615 -7.055283578986986 -3.4421089597462333 -7.345068044117281
-1.1667586430335497 -0.0492983026500575
4 0.42159473694546534 7.11601380699323 0.6335837906639143 6.850437650417604 0.5455959083201671 7.432389791125444 0.08560451185231455 7.065213979436643
1.0898814659513976 -0.25424223608404733
20 8.320525786963268 5.671650787003188 8.207350554815767 5.797200758726752 8.123177996482092 5.78959565738482 8.101780424010197 5.838578172116639 8.164555409871978 5.895165788190391 8.149345207188116 6.0635109048577425 8.023795235464553 5.95033567271024 8.031400336806483 5.8661631143765645 7.982417822074664 5.84476554190467 7.925830206000913 5.907540527766453 7.757485089333561 5.89233032508259 7.870660321481063 5.766780353359025 7.954832879814739 5.774385454700957 7.976230452286633 5.725402939969138 7.913455466424851 5.6688153238953864 7.928665669108714 5.500470207228035 8.054215640832277 5.613645439375537 8.046610539490347 5.697817997709213 8.095593054222165 5.719215570181107 8.152180670295916 5.656440584319324
-1.0131562701572159 -0.3767262032213669
12 -5.110843995520793 8.549813002936723 -5.00242298361083 8.636357171714332 -5.131582938276629 8.68698043794357 -5.1523218810324645 8.824147872950418 -5.260742892942427 8.737603704172809 -5.389902847608226 8.788226970402047 -5.36916390485239 8.651059535395198 -5.4775849167623525 8.56451536661759 -5.348424962096554 8.513892100388352 -5.327686019340718 8.376724665381504 -5.219265007430756 8.463268834159113 -5.090105052764957 8.412645567929875
-0.12066280866515589 -1.2631686601877652
5 -1.6428631891115777 8.878278158746026 -1.7036246280037808 9.111583644717054 -1.944287647944301 9.12589144236511 -2.032264135210533 8.901428661644735 -1.8459735746113668 8.748395236302173
-0.8085736218148152 0.4028114883409111
4 1.1191253357248374 1.9726249299643255 0.9925355898164556 2.262409395094621 0.7027511246861604 2.135819649186239 0.8293408705945421 1.8460351840559437
1.3228270855785633 0.5358749555174384
12 0.6160582846303095 -7.996612642237072 0.7244792965402723 -7.9100684734594635 0.5953193418744737 -7.859445207230225 0.5745803991186377 -7.722277772223378 0.46615938720867495 -7.8088219410009865 0.33699943254287634 -7.758198674771748 0.3577383752987122 -7.895366109778595 0.24931736338874946 -7.981910278556204 0.3784773180545481 -8.032533544785442 0.399216260810384 -8.16970097979229 0.5076372727203468 -8.083156811014682 0.6367972273861454 -8.13378007724392
0.9057629303957416 0.21143696393967015
4 8.548915869144226 -9.688524546361418 8.422326123235845 -9.398740081231123 8.13254165810555 -9.525329827139505 8.259131404013932 -9.815114292269799
0.03485496791578741 0.6018288134670251
12 4.596957589908719 -7.614249290935963 4.705378601818682 -7.527705122158355 4.576218647152883 -7.477081855929116 4.555479704397047 -7.339914420922269 4.447058692487085 -7.426458589699878 4.317898737821286 -7.375835323470639 4.338637680577122 -7.513002758477486 4.230216668667159 -7.599546927255095 4.359376623332958 -7.650170193484334 4.380115566088794 -7.787337628491181 4.488536577998756 -7.700793459713572 4.617696532664555 -7.751416725942811
-0.0891361875933616 0.1362509806186182
3 7.384620477958013 6.917453762506996 7.084822683114744 7.293035164979168 6.9094585448064905 6.845611957410256
-0.9213587825626707 -0.8064103508811513
4 -9.38063932268098 4.541377924223163 -9.50722906858936 4.831162389353458 -9.797013533719655 4.704572643445076 -9.670423787811274 4.41478817831478
-0.5756625998259123 0.797809200395743
5 -5.626385382996865 -8.655813258799087 -5.687146821889068 -8.422507772828059 -5.927809841829588 -8.408199975180004 -6.01578632909582 -8.632662755900379 -5.8294957684966535 -8.78569618124294
-0.4232847460019418 1.1873767913244655
6 -9.324712698703197 7.165954886550782 -9.354041992817779 7.359938933453396 -9.536701752421646 7.431531043126409 -9.69003221791093 7.309139105896808 -9.660702923796348 7.115155058994195 -9.478043164192481 7.043562949321181
0.7653047169116906 -0.2837868991286736
4 4.678569531683872 7.329423302573016 4.890558585402321 7.063847145997389 4.802570703058573 7.64579928670523 4.3425793065907206 7.2786234750164285
