marco:(-10.0,10.0),(-10.0,10.0)
timeIntervals:0.0-1.0
framesPerSecond:1000
-12.181657590773682 1.0286798227541378
6 0.8565878744495299 -0.5825518246422356 1.839726422735642 -3.1770541245195907 4.578200598749639 -3.622882316202741 6.333536226477524 -1.4742082080085361 5.350397678191413 1.1202940918688187 2.6119235021774165 1.56612228355197
