areaTotal:400.0
tiempoTotalSimulado:1.0
areaOcupadaInicial:39.99999999999999
eventosSimples:3
eventosMultiples:0
0.0
null
null
0.021618346114534594, [(0,1),X]+
0.21547754660651106, [(0,1),Y]+
0.5661077204843904, [(0,1),X]-
