marco:(-10.0,10.0),(-10.0,10.0)
timeIntervals:0.0-1.0
framesPerSecond:1000
0.11797085050083528 -2.829463715399769
5 -2.528378243125244 3.831656003372718 -2.959625108974774 4.819833206865864 -4.03270008792969 4.7150566143010995 -4.264650031551377 3.6621239153775287 -3.3349280014432847 3.1161523121413675
0.8132692298029421 -4.222755598638685
3 0.2545716562547644 8.371778709847982 -1.370470422284085 9.778206950639222 -1.775951968139732 7.667665108010291
