marco:(-10.0,10.0),(-10.0,10.0)
timeIntervals:0.0-1.0
framesPerSecond:1000
1.2515204830715034 3.0852575057161933
5 -6.580052837125146 1.5396009696200894 -6.390890731198486 0.47814642867640467 -5.322933167859822 0.3300427902460119 -4.852061201100669 1.2999642487821887 -5.629003884632666 2.047512315005811
-1.5033279695943103 2.527435415586912
3 -7.04411371896799 4.709681968917375 -5.812175345457096 2.948679414294487 -4.903071583779829 4.896070618963248
-0.18358539617024144 1.6859484588451035
12 0.7108753129255347 5.567612096928329 0.20251766344796351 5.211982121142556 0.7646810815644729 4.949546470379721 0.818486850203411 4.3314808438311125 1.3268444996809825 4.687110819616885 1.889007917797492 4.4246751688540495 1.835202149158554 5.042740795402658 2.343559798636125 5.39837077118843 1.7813963805196158 5.660806421951266 1.7275906118806776 6.278872048499874 1.2192329624031062 5.9232420727141015 0.6570695442865967 6.185677723476937
0.20254377586125832 -2.3449353491581615
6 3.792619952286966 5.749373022857891 3.8687128000300612 4.8752962313562245 4.663731930200446 4.504156174797213 5.382658212627735 5.007092909739868 5.306565364884641 5.881169701241534 4.511546234714256 6.252309757800546
-2.4975173455370694 4.879977189546764
6 3.4540776775101723 -6.491868433565953 3.5301705252532676 -7.36594522506762 4.325189655423652 -7.737085281626631 5.0441159378509415 -7.234148546683976 4.968023090107847 -6.36007175518231 4.173003959937462 -5.988931698623298
2.375874501397642 -8.5589493460185
4 -9.072649633320044 -8.62298647355568 -9.943761611233523 -7.377769625495001 -9.715483068004238 -10.0 -7.55870422072237 -8.491189795172035
-0.43330159569464965 -0.82658867501917
6 6.915185954732465 6.24643098215103 6.99127880247556 5.3723541906493635 7.786297932645945 5.001214134090352 8.505224215073234 5.504150869033007 8.42913136733014 6.378227660534673 7.634112237159755 6.749367717093685
-4.747412334680616 0.647536946549407
20 -7.612018942742337 -6.249216216553985 -7.142368911117123 -6.8415484031039036 -6.764541027009591 -6.831388046418794 -6.682879236177019 -7.056052705546291 -6.979045329451979 -7.290877721358897 -6.958724616081759 -8.04653348957396 -6.366392429531841 -7.576883457948747 -6.37655278621695 -7.199055573841215 -6.151888127089453 -7.117393783008643 -5.917063111276847 -7.413559876283602 -5.161407343061784 -7.393239162913383 -5.631057374686997 -6.800906976363464 -6.008885258794529 -6.811067333048574 -6.0905470496271015 -6.586402673921077 -5.794380956352142 -6.351577658108471 -5.8147016697223615 -5.5959218898934076 -6.40703385627228 -6.065571921518621 -6.39687349958717 -6.443399805626153 -6.621538158714667 -6.525061596458725 -6.8563631745272735 -6.228895503183765
-0.07074258257001735 -5.059603897081434
4 0.08113654010265137 9.208046946340422 0.5642542098989412 7.878912898499271 1.8933882577400922 8.36203056829556 1.4102705879438027 9.691164616136712
-2.7742930771648604 0.3281372694557007
12 -8.26825115990956 -3.125946875113801 -8.776608809387131 -3.4815768508995735 -8.214445391270623 -3.744012501662409 -8.160639622631683 -4.362078128211017 -7.652281973154112 -4.006448152425245 -7.090118555037603 -4.26888380318808 -7.143924323676541 -3.650818176639472 -6.635566674198969 -3.2951882008536995 -7.197730092315479 -3.032752550090864 -7.251535860954417 -2.4146869235422557 -7.759893510431988 -2.7703168993280283 -8.322056928548498 -2.5078812485651927
