marco:(-10.0,10.0),(-10.0,10.0)
timeIntervals:0.0-1.0
framesPerSecond:1000
0.49213528561340086 3.0512758433087064
20 8.816544402285487 7.6118613325520865 8.870883991212287 7.136868029813305 9.077183188985838 7.016105874562391 9.04598573539 6.868173924848077 8.808489084020609 6.841004130384677 8.56696477351878 6.428405734837574 9.041958076257561 6.482745323764372 9.162720231508475 6.689044521537925 9.310652181222789 6.657847067942086 9.33782197568619 6.4203504165726955 9.750420371233293 6.178826106070867 9.696080782306494 6.653819408809648 9.489781584532942 6.774581564060562 9.52097903812878 6.922513513774876 9.758475689498171 6.949683308238276 10.0 7.36228170378538 9.525006697261219 7.307942114858581 9.404244542010305 7.101642917085028 9.256312592295991 7.132840370680867 9.22914279783259 7.370337022050258
-0.7713082002413156 -1.8373688141455298
12 -0.22853171816221388 7.9402086591475465 -0.6205128681320203 7.922577724621881 -0.40925345595543106 7.591927558206224 -0.5899751937486483 7.243646457264901 -0.19799404377884178 7.261277391790566 0.013265368397747574 6.930627225374908 0.19398710619096474 7.278908326316231 0.5859682561607712 7.296539260841897 0.3747088439841819 7.627189427257554 0.5554305817773991 7.975470528198877 0.16344943180759264 7.957839593673212 -0.04780998036899671 8.288489760088869
0.6394105071454294 -1.899995044279046
4 -5.877513079530205 2.3348837852808786 -6.069953651494761 1.4614041768972859 -5.196474043111168 1.2689636049327302 -5.004033471146612 2.142443213316323
0.9287010566320733 4.322554639593664
3 -0.8933113811064703 9.463969112521932 -0.8322360323397262 8.10610657780797 0.3131697431863213 8.837930648741946
-1.3183236001855263 -1.1497788239184212
5 8.319115859032973 -3.062051957759229 8.0700336208962 -3.6968316491232547 8.596774338198573 -4.129880647112181 9.171400242886712 -3.7627399552993963 8.999797865497767 -3.102785531117019
2.7834806085611095 0.9071546885972849
6 8.719003495610801 1.2767881541532788 8.463424363008 0.7842442976838273 8.7621902888871 0.3166343479378832 9.316535347369003 0.3415682546613907 9.572114479971805 0.834112111130842 9.273348554092705 1.3017220608767863
-0.6237159007517072 0.4916073521101261
12 -1.1083504584072066 9.138683247217187 -1.5003316083770128 9.121052312691521 -1.2890721962004237 8.790402146275865 -1.4697939339936408 8.442121045334542 -1.0778127840238345 8.459751979860206 -0.866553371847245 8.12910181344455 -0.6858316340540279 8.47738291438587 -0.29385048408422143 8.495013848911537 -0.5051098962608107 8.825664015327193 -0.3243881584675935 9.173945116268516 -0.7163693084374 9.156314181742852 -0.9276287206139894 9.486964348158509
0.0036207799143200188 -0.03769933750524769
5 -2.899793102924969 -1.0723497539910878 -3.1488753410617405 -1.7071294453551134 -2.622134623759368 -2.1401784433440394 -2.0475087190712298 -1.773037751531255 -2.2191110964601757 -1.1130833273488778
-0.048167167841572246 3.1110149784907524
5 -2.322536429547444 -0.9614482806209872 -2.571618667684216 -1.5962279719850128 -2.0448779503818435 -2.029276969973939 -1.4702520456937052 -1.6621362781611544 -1.641854423082651 -1.0021818539787772
-1.9017565409170765 -3.709666991732475
12 5.774844585240147 -8.990418566227362 5.38286343527034 -9.008049500753028 5.594122847446929 -9.338699667168685 5.413401109653712 -9.686980768110008 5.805382259623519 -9.669349833584343 6.016641671800108 -10.0 6.197363409593325 -9.651718899058679 6.5893445595631315 -9.634087964533013 6.3780851473865425 -9.303437798117356 6.558806885179759 -8.955156697176033 6.166825735209953 -8.972787631701697 5.955566323033364 -8.64213746528604
