areaTotal:400.0
tiempoTotalSimulado:1.0
areaOcupadaInicial:39.999999999999964
eventosSimples:484
eventosMultiples:0
0.0
[(0,7), (0,11), (0,13), (0,34), (0,37), (0,46), (0,61), (0,63), (0,78), (1,10), (1,16), (1,22), (1,39), (1,52), (1,62), (1,74), (1,75), (1,92), (2,19), (2,29), (2,38), (2,47), (2,79), (2,81), (2,92), (2,94), (2,98), (3,27), (3,43), (3,64), (3,72), (3,97), (4,5), (4,18), (4,24), (4,32), (4,44), (4,45), (4,48), (4,53), (4,67), (4,83), (4,91), (4,93), (5,32), (5,33), (5,35), (5,44), (5,45), (5,48), (5,53), (5,65), (5,67), (5,69), (5,91), (5,93), (6,12), (6,49), (6,68), (6,73), (6,85), (6,88), (6,99), (7,8), (7,11), (7,13), (7,34), (7,46), (7,63), (7,73), (7,77), (7,78), (8,12), (8,34), (8,68), (8,73), (8,77), (8,95), (8,99), (9,20), (9,31), (9,40), (9,42), (9,80), (9,82), (10,38), (10,39), (10,47), (10,75), (10,92), (10,94), (10,98), (11,34), (11,46), (11,63), (11,77), (11,78), (12,68), (12,73), (12,77), (12,85), (12,95), (12,99), (13,27), (13,37), (13,46), (13,61), (13,63), (13,64), (13,72), (13,78), (14,17), (14,36), (14,41), (14,50), (14,51), (14,57), (14,58), (14,66), (14,89), (14,96), (15,20), (15,30), (15,31), (15,40), (15,42), (15,71), (15,82), (16,22), (16,39), (16,52), (16,59), (16,62), (16,74), (16,75), (16,76), (17,23), (17,25), (17,51), (17,57), (17,58), (17,66), (17,86), (17,89), (17,96), (18,24), (18,32), (18,44), (18,48), (18,53), (18,83), (18,91), (18,93), (19,29), (19,38), (19,47), (19,79), (19,81), (19,92), (19,94), (19,98), (20,31), (20,40), (20,42), (20,80), (20,82), (21,26), (21,55), (21,70), (21,84), (21,87), (22,25), (22,28), (22,39), (22,52), (22,59), (22,62), (22,74), (22,75), (22,76), (22,86), (23,25), (23,28), (23,51), (23,58), (23,59), (23,66), (23,86), (23,89), (23,96), (24,32), (24,48), (24,53), (24,83), (24,88), (24,93), (25,28), (25,51), (25,58), (25,59), (25,66), (25,76), (25,86), (25,96), (26,55), (26,70), (26,84), (26,87), (27,37), (27,43), (27,64), (27,72), (27,97), (28,52), (28,58), (28,59), (28,62), (28,66), (28,74), (28,76), (28,86), (29,38), (29,47), (29,79), (29,81), (29,94), (29,98), (30,31), (30,36), (30,41), (30,42), (30,50), (30,54), (30,71), (31,40), (31,42), (31,71), (31,80), (31,82), (32,44), (32,45), (32,48), (32,53), (32,67), (32,83), (32,91), (32,93), (33,35), (33,45), (33,55), (33,56), (33,65), (33,67), (33,69), (33,87), (34,63), (34,73), (34,77), (34,95), (35,45), (35,55), (35,56), (35,65), (35,67), (35,69), (36,41), (36,50), (36,54), (36,57), (36,71), (36,89), (37,43), (37,46), (37,61), (37,64), (37,72), (37,78), (38,47), (38,79), (38,81), (38,92), (38,94), (38,98), (39,52), (39,62), (39,74), (39,75), (39,92), (40,42), (40,71), (40,80), (40,82), (41,50), (41,54), (41,57), (41,71), (41,89), (42,71), (42,80), (42,82), (43,64), (43,72), (43,97), (44,45), (44,48), (44,53), (44,67), (44,69), (44,83), (44,91), (44,93), (45,48), (45,53), (45,65), (45,67), (45,69), (45,91), (45,93), (46,61), (46,63), (46,78), (47,79), (47,81), (47,92), (47,94), (47,98), (48,53), (48,67), (48,83), (48,91), (48,93), (49,68), (49,85), (49,88), (50,54), (50,57), (50,71), (50,89), (50,96), (51,57), (51,58), (51,59), (51,66), (51,86), (51,89), (51,96), (52,59), (52,62), (52,74), (52,75), (52,76), (53,67), (53,83), (53,91), (53,93), (54,71), (55,56), (55,65), (55,84), (55,87), (56,65), (56,87), (57,58), (57,66), (57,89), (57,96), (58,59), (58,66), (58,86), (58,89), (58,96), (59,62), (59,66), (59,74), (59,75), (59,76), (59,86), (60,90), (61,64), (61,78), (62,74), (62,75), (62,76), (63,77), (63,78), (64,72), (64,78), (64,97), (65,67), (65,69), (65,87), (66,86), (66,89), (66,96), (67,69), (67,91), (67,93), (68,73), (68,77), (68,85), (68,95), (68,99), (69,91), (69,93), (70,84), (72,97), (73,77), (73,85), (73,95), (73,99), (74,75), (74,76), (74,86), (75,76), (75,92), (76,86), (77,95), (77,99), (79,81), (79,92), (79,94), (79,98), (80,82), (81,90), (81,94), (81,98), (83,91), (83,93), (84,87), (85,88), (85,99), (86,96), (89,96), (91,93), (92,94), (92,98), (94,98), (95,99)]
[(0,5), (0,6), (0,22), (0,31), (0,32), (0,34), (0,54), (0,57), (0,60), (0,85), (0,99), (1,28), (1,42), (1,58), (1,59), (1,70), (1,71), (1,76), (1,86), (1,91), (1,93), (2,11), (2,12), (2,18), (2,36), (2,39), (2,50), (2,51), (2,55), (2,56), (2,83), (3,13), (3,15), (3,44), (3,45), (3,49), (3,68), (3,78), (3,79), (3,98), (4,14), (4,20), (4,58), (4,62), (4,70), (4,74), (5,6), (5,22), (5,24), (5,32), (5,54), (5,60), (5,81), (5,99), (6,22), (6,31), (6,34), (6,54), (6,60), (6,85), (6,99), (7,8), (7,9), (7,10), (7,17), (7,25), (7,27), (7,35), (7,48), (7,52), (7,64), (7,65), (7,66), (8,9), (8,10), (8,21), (8,25), (8,52), (8,64), (8,65), (8,66), (8,88), (9,10), (9,17), (9,25), (9,27), (9,35), (9,48), (9,52), (9,64), (9,65), (9,66), (10,17), (10,25), (10,27), (10,35), (10,48), (10,52), (10,64), (10,65), (10,66), (11,12), (11,18), (11,36), (11,39), (11,50), (11,51), (11,55), (11,83), (12,18), (12,36), (12,39), (12,50), (12,51), (12,55), (12,83), (13,15), (13,30), (13,45), (13,49), (13,68), (13,72), (13,78), (13,79), (13,95), (14,20), (14,58), (14,62), (14,70), (14,74), (15,43), (15,44), (15,45), (15,49), (15,68), (15,78), (15,79), (15,98), (16,17), (16,27), (16,35), (16,43), (16,48), (16,53), (16,63), (17,25), (17,27), (17,35), (17,43), (17,48), (17,52), (17,53), (17,63), (17,66), (18,36), (18,39), (18,50), (18,51), (18,55), (18,83), (19,37), (19,41), (19,56), (19,61), (19,73), (19,75), (19,80), (19,94), (20,58), (20,62), (20,70), (20,74), (21,23), (21,64), (21,65), (21,88), (22,31), (22,34), (22,54), (22,57), (22,60), (22,85), (22,89), (22,99), (23,46), (23,88), (23,90), (24,26), (24,32), (24,47), (24,77), (24,81), (24,84), (24,87), (25,27), (25,35), (25,48), (25,52), (25,64), (25,65), (25,66), (26,32), (26,47), (26,77), (26,81), (26,82), (26,84), (26,87), (27,35), (27,43), (27,48), (27,52), (27,53), (27,63), (27,66), (28,42), (28,59), (28,71), (28,76), (28,86), (28,91), (28,93), (29,31), (29,34), (29,40), (29,57), (29,67), (29,85), (29,89), (29,92), (29,95), (30,40), (30,45), (30,72), (30,92), (30,95), (31,34), (31,40), (31,54), (31,57), (31,67), (31,85), (31,89), (31,99), (32,47), (32,60), (32,77), (32,81), (32,84), (32,87), (32,99), (33,38), (33,96), (34,54), (34,57), (34,67), (34,85), (34,89), (34,99), (35,48), (35,52), (35,53), (35,63), (35,66), (36,39), (36,50), (36,51), (36,55), (36,83), (37,41), (37,56), (37,75), (37,80), (37,94), (38,41), (38,61), (38,73), (38,80), (38,94), (39,50), (39,51), (39,55), (39,83), (40,57), (40,67), (40,72), (40,85), (40,89), (40,92), (40,95), (41,61), (41,73), (41,75), (41,80), (41,94), (42,58), (42,59), (42,70), (42,71), (42,76), (42,86), (42,91), (42,93), (43,44), (43,53), (43,63), (43,68), (43,78), (43,79), (43,98), (44,49), (44,53), (44,63), (44,68), (44,78), (44,79), (44,98), (45,49), (45,68), (45,72), (45,78), (45,79), (45,95), (46,86), (46,90), (46,93), (47,69), (47,77), (47,81), (47,82), (47,84), (47,87), (47,96), (47,97), (48,52), (48,53), (48,63), (48,66), (49,68), (49,78), (49,79), (49,98), (50,51), (50,55), (50,56), (50,83), (51,55), (51,83), (52,64), (52,65), (52,66), (53,63), (53,68), (53,98), (54,60), (54,99), (55,83), (56,75), (57,67), (57,85), (57,89), (57,92), (58,59), (58,62), (58,70), (58,71), (58,74), (58,91), (59,70), (59,71), (59,76), (59,86), (59,91), (59,93), (60,99), (61,73), (61,75), (61,80), (61,94), (62,74), (63,98), (64,65), (64,66), (64,88), (65,66), (65,88), (67,85), (67,89), (67,92), (68,78), (68,79), (68,98), (69,77), (69,81), (69,82), (69,84), (69,87), (69,96), (69,97), (70,71), (70,91), (71,76), (71,86), (71,91), (71,93), (72,92), (72,95), (73,75), (73,80), (73,94), (75,80), (75,94), (76,86), (76,91), (76,93), (77,81), (77,82), (77,84), (77,87), (77,96), (77,97), (78,79), (78,98), (79,98), (80,94), (81,82), (81,84), (81,87), (81,96), (82,84), (82,87), (82,96), (82,97), (84,87), (84,96), (84,97), (85,89), (85,92), (86,91), (86,93), (87,96), (87,97), (89,92), (90,93), (92,95), (96,97)]
3.3033499260527917E-4, [(45,95),Y]-
0.0010437105761355008, [(0,57),Y]-
0.0016480179740697468, [(16,59),X]-
0.0031153456161900983, [(86,89),X]+
0.004258768461865792, [(28,62),X]-
0.004365083852733993, [(16,66),Y]+
0.00596762150872492, [(33,73),Y]+
0.00618396278248324, [(7,37),X]+
0.006690408178927251, [(21,46),Y]+
0.006898175757845649, [(28,52),X]-
0.007723078926378903, [(29,72),Y]+
0.00843258250128303, [(10,19),X]+
0.00858327786342984, [(38,81),X]-
0.008675192588099592, [(60,81),X]+
0.008886966253186641, [(30,42),X]-
0.00925170729307967, [(37,80),Y]-
0.009647330553883164, [(21,90),Y]+
0.009802994194798, [(29,92),X]+
0.010561675462006736, [(17,50),X]+
0.011082181339930969, [(28,62),X]+
0.012388684947583519, [(62,70),Y]+
0.012469282832392207, [(16,98),Y]+
0.012902541224941633, [(30,40),Y]-
0.013219126512736847, [(73,85),X]-
0.014184827159351458, [(35,91),X]+
0.016176706591956278, [(21,46),Y]-
0.017114085903398586, [(74,86),X]-
0.017140083704855657, [(6,73),X]-
0.017275193148578637, [(90,93),Y]-
0.017960733679951303, [(1,74),X]-
0.01814250777296283, [(22,25),X]-
0.01850581746235046, [(53,79),Y]+
0.01940778837770778, [(10,79),X]+
0.0206796501773497, [(23,57),X]+
0.021176893851897693, [(91,93),Y]+
0.022368941074807563, [(53,78),Y]+
0.023755166223241482, [(4,5),X]-
0.024355696757298553, [(70,90),X]+
0.027648618589265476, [(37,63),X]+
0.02812864022110246, [(27,78),X]+
0.02914901112530267, [(50,71),X]-
0.029168181673649898, [(15,53),Y]+
0.030379378275080807, [(49,98),Y]-
0.03059599371183693, [(4,67),X]-
0.03116022438833416, [(0,34),X]-
0.03177434403125931, [(89,95),Y]+
0.03191726667212641, [(72,78),X]+
0.03265689184505871, [(49,99),X]+
0.03339774872779897, [(11,73),X]+
0.03850621401266268, [(49,68),X]-
0.03850621401266268, [(49,99),X]-
0.039128574995810725, [(13,15),Y]-
0.039275506513877574, [(30,31),X]-
0.039331272010770545, [(6,85),Y]-
0.03949644931432526, [(5,65),X]-
0.04027747724886272, [(63,77),X]-
0.040596283250427745, [(50,66),X]+
0.04077227691044808, [(0,85),Y]-
0.04164837997292046, [(69,81),Y]-
0.04180161624088264, [(21,64),Y]-
0.042415509063912234, [(6,85),Y]+
0.04246881407418792, [(62,70),Y]-
0.04277864011955029, [(13,43),X]+
0.043197068170724245, [(7,37),X]-
0.043261872769112475, [(28,51),X]+
0.043291665796792896, [(0,24),Y]+
0.043788530658656295, [(4,67),X]+
0.043788530658656295, [(4,5),X]+
0.04451674109886016, [(84,97),Y]-
0.04451776379201988, [(81,96),Y]-
0.045024826685601024, [(10,17),Y]-
0.045261675623228775, [(10,17),Y]+
0.0452851672674165, [(0,81),Y]+
0.04553011456713914, [(41,96),X]+
0.04631764755199498, [(47,81),X]-
0.0470598795819969, [(25,89),X]+
0.047411193347537586, [(63,68),Y]+
0.04745809018918162, [(22,89),Y]-
0.047570132019946115, [(3,37),X]+
0.048786622203736765, [(13,92),Y]+
0.04880242036637923, [(5,65),X]+
0.05045665204429718, [(30,40),Y]+
0.05109472818581999, [(24,48),X]-
0.05137323334975977, [(46,93),Y]-
0.051607266013806566, [(19,56),Y]-
0.05164576807045175, [(10,29),X]+
0.052874692698381166, [(43,48),Y]+
0.053064578830820885, [(27,61),X]+
0.053511581802862286, [(86,91),Y]-
0.053511581802862286, [(91,93),Y]-
0.05396516914983701, [(61,63),X]+
0.05521690462529085, [(77,99),X]-
0.05558224346768256, [(0,24),Y]-
0.05558224346768256, [(0,81),Y]-
0.05749213258154634, [(10,75),X]-
0.058217451010582455, [(61,72),X]+
0.0582379526184322, [(19,38),Y]+
0.05829356944575681, [(32,99),Y]-
0.05880974244950047, [(7,8),X]-
0.059143216108415525, [(35,44),X]+
0.059373041250972834, [(55,69),X]+
0.05970598597600179, [(24,32),X]-
0.061209357023198144, [(24,49),X]+
0.06196930631340479, [(52,59),X]-
0.062239856614529486, [(2,92),X]-
0.06271000577460106, [(2,56),Y]-
0.06383706933098116, [(33,87),X]-
0.06454536031350151, [(36,96),X]+
0.06604192171975128, [(59,75),X]-
0.06628812939924134, [(32,82),Y]+
0.06679529406973012, [(38,39),X]+
0.06744239175537071, [(0,64),X]+
0.06910838643196865, [(81,94),X]-
0.070875740344898, [(39,74),X]-
0.07157844168790801, [(5,24),Y]-
0.0720507012108471, [(37,94),Y]-
0.07348749301358945, [(11,78),X]-
0.0749521825492749, [(34,95),X]-
0.07498091390837557, [(24,93),X]-
0.07722485719078905, [(18,91),X]-
0.07746962784787774, [(1,38),X]+
0.07757084115184085, [(29,34),Y]-
0.07867200723081126, [(6,57),Y]+
0.07942732133394285, [(24,93),X]+
0.08073132681368182, [(60,81),Y]+
0.08073132681368182, [(0,81),Y]+
0.08215603076113177, [(31,40),Y]-
0.08265513163005402, [(37,41),Y]-
0.0830420755958069, [(45,55),X]+
0.08400686575500749, [(13,68),Y]-
0.0842529257812502, [(34,68),X]+
0.0842529257812502, [(34,95),X]+
0.0844388084662801, [(31,60),Y]+
0.0855783003839101, [(43,78),X]+
0.08608427884933374, [(35,56),X]-
0.08629836143624069, [(37,41),Y]+
0.08629836143624069, [(37,94),Y]+
0.08638907719034071, [(14,54),X]+
0.08670042097792362, [(32,99),Y]+
0.08677627094445327, [(22,86),X]-
0.08683301643844596, [(41,96),X]-
0.08733365885780979, [(45,72),Y]-
0.0880257867999306, [(15,43),Y]-
0.0896538711805676, [(3,13),X]+
0.09049219313462017, [(77,97),Y]-
0.09107889537495355, [(2,38),X]-
0.09193928638827442, [(69,84),Y]-
0.09250216693993885, [(58,76),X]+
0.09375307448444391, [(35,44),X]-
0.09375307448444391, [(35,91),X]-
0.09404560359488873, [(9,64),Y]-
0.09407653956636011, [(84,96),Y]-
0.0941337081860359, [(84,90),X]+
0.09442011483132946, [(21,65),Y]-
0.09483306431962508, [(21,55),X]-
0.09484582671688246, [(57,92),Y]-
0.0957903220470578, [(11,36),Y]-
0.09590380572919914, [(5,31),Y]+
0.09594172371357444, [(28,91),Y]-
0.09681793588939062, [(43,61),X]+
0.09821010444796667, [(57,92),Y]+
0.09904055713261893, [(44,49),Y]-
0.09966231897982133, [(5,31),Y]-
0.09966231897982133, [(31,60),Y]-
0.09985902407147722, [(41,57),X]-
0.10087064184384192, [(86,90),Y]+
0.10110186631466572, [(38,75),Y]+
0.10598024441223178, [(16,52),Y]+
0.1064883185504912, [(75,92),X]-
0.1077619014877156, [(29,31),Y]-
0.1078504148948477, [(50,51),X]+
0.10804234314987153, [(15,30),X]-
0.10815110088146035, [(52,64),Y]-
0.10865160928666892, [(26,90),X]+
0.1090915326757773, [(39,47),X]+
0.10950696875974274, [(24,93),X]-
0.10954720184708538, [(33,97),Y]+
0.11153157189211352, [(7,16),Y]+
0.11153157189211352, [(9,16),Y]+
0.11309688752080319, [(9,64),Y]+
0.11346070505314314, [(30,50),X]-
0.11389118638975812, [(34,99),Y]-
0.11534584525262137, [(0,34),X]+
0.11545631634222922, [(13,79),Y]-
0.11558432476894728, [(67,83),X]+
0.11558432476894728, [(67,83),X]-
0.11586431326503142, [(1,47),X]+
0.11676707241081545, [(67,83),X]+
0.11684094038100319, [(2,60),X]+
0.11854949287586318, [(2,47),X]-
0.11855095230343202, [(73,99),X]-
0.11977796260064155, [(10,88),Y]+
0.12238372497171122, [(29,60),X]+
0.12238372497171122, [(60,79),X]+
0.12242723598606069, [(21,55),X]+
0.1227156614058211, [(26,56),X]+
0.12274041660374138, [(57,92),Y]-
0.12274041660374138, [(85,92),Y]-
0.12290863292577256, [(29,31),Y]+
0.12290863292577256, [(31,40),Y]+
0.12505741888308738, [(8,99),X]-
0.12505741888308738, [(95,99),X]-
0.12675105423361574, [(26,65),X]+
0.12689164598239494, [(44,49),Y]+
0.1272768933397056, [(15,45),Y]-
0.12776828509776347, [(33,56),X]-
0.1278588357867071, [(54,89),X]+
0.1280700134864282, [(3,53),Y]+
0.12952599421659933, [(24,60),Y]+
0.13040452482638681, [(8,52),Y]-
0.1305284940384394, [(45,72),Y]+
0.13075639360508923, [(63,78),Y]+
0.13171649227900242, [(11,12),Y]-
0.1328722512757839, [(18,44),X]-
0.133411486449785, [(25,96),X]-
0.13361682973898695, [(7,13),X]-
0.13606340792305602, [(52,92),X]+
0.13606340792305602, [(22,92),X]+
0.13617101385962915, [(3,37),X]-
0.13749591094859986, [(35,53),Y]-
0.13858380636935327, [(13,78),Y]-
0.13858731100728416, [(19,81),X]-
0.13878276743128287, [(50,58),X]+
0.13905650564157582, [(52,65),Y]-
0.1397432794622827, [(21,65),Y]+
0.14151243231435495, [(22,92),X]-
0.14192157785964696, [(63,78),Y]-
0.14228763018938728, [(64,97),X]-
0.14298062628930808, [(35,56),X]+
0.1432666246902898, [(86,96),X]-
0.14366748834536475, [(52,92),X]-
0.14389394199395672, [(16,76),X]-
0.14406286431476362, [(60,98),X]+
0.14440540349247868, [(24,83),X]-
0.1447801592239347, [(30,49),Y]+
0.14713657412898645, [(36,50),Y]-
0.14713657412898645, [(12,50),Y]-
0.14911740046566166, [(18,44),X]+
0.14911740046566166, [(18,91),X]+
0.14985459770876886, [(77,97),Y]+
0.14994444299300216, [(1,86),Y]-
0.15309011973739484, [(1,62),X]-
0.15524053451944336, [(20,70),Y]-
0.1592541477279857, [(24,53),X]-
0.16410547002441803, [(63,66),Y]+
0.16494946417156842, [(52,63),Y]+
0.16511452883909813, [(23,50),X]+
0.1654458376149249, [(63,66),Y]-
0.16563663258498817, [(37,43),X]-
0.16567849807671378, [(24,87),Y]-
0.16725259933038875, [(44,63),Y]-
0.16759380738192084, [(44,45),Y]+
0.16759380738192084, [(44,45),Y]-
0.16858898267518335, [(3,13),Y]-
0.16892998866585948, [(12,77),X]-
0.17100659878364385, [(81,99),Y]+
0.1710773947731523, [(11,68),X]+
0.17163562885960704, [(17,59),X]+
0.172196403398961, [(63,64),X]+
0.17251492912357913, [(24,85),X]+
0.17397368694827656, [(52,76),X]-
0.17570588650646715, [(6,68),X]-
0.17661327002374413, [(17,28),X]+
0.17812769702777348, [(24,60),Y]-
0.17859107897265386, [(19,39),X]+
0.17941655848171545, [(0,72),X]+
0.179495717509107, [(3,53),Y]-
0.17955757078517856, [(4,88),X]+
0.1798690447601221, [(67,95),Y]+
0.1807210284856193, [(19,60),X]+
0.18121210734597493, [(42,86),Y]-
0.18173454838125458, [(0,34),Y]-
0.18198321781323867, [(1,19),X]+
0.18247313788271638, [(46,64),X]+
0.18278500679007842, [(26,90),X]-
0.18278500679007842, [(84,90),X]-
0.18313275109518157, [(1,75),X]-
0.18549974419136658, [(17,28),X]-
0.18549974419136658, [(17,59),X]-
0.1857406085490209, [(2,94),X]-
0.18753598781632688, [(11,51),Y]-
0.19205603317498388, [(39,62),X]-
0.19309347561750342, [(27,37),X]-
0.19368429096593057, [(12,73),X]-
0.1946712737965774, [(29,39),X]+
0.19474341558804004, [(72,89),Y]+
0.1954943843301917, [(55,56),Y]+
0.19658740267775326, [(29,34),Y]+
0.19692221418204114, [(1,29),X]+
0.19797806414211497, [(37,80),Y]+
0.20045050479767992, [(43,52),Y]+
0.20179876084109172, [(18,36),Y]-
0.20515367896915984, [(39,75),X]-
0.207226843894308, [(17,53),Y]-
0.2100527950087925, [(0,72),X]-
0.2110578528670877, [(28,91),Y]+
0.21328780305788475, [(14,23),X]+
0.21335328209890697, [(38,98),X]-
0.2188590934822788, [(39,94),X]+
0.2188590934822788, [(1,29),X]-
0.2192472619751443, [(63,73),X]+
0.21977724225988618, [(1,75),X]+
0.21977724225988618, [(1,62),X]+
0.2200556003148041, [(56,75),Y]-
0.22035511039639838, [(12,77),X]+
0.22161693393849788, [(11,39),Y]-
0.224166385803722, [(4,49),X]+
0.22765260015288347, [(39,79),X]+
0.22858229676869896, [(72,97),X]-
0.2291217501738516, [(35,87),X]+
0.23041708946885586, [(33,94),Y]+
0.23058263762026293, [(43,52),Y]-
0.2338410008978361, [(41,50),X]-
0.23563783055467288, [(21,55),X]-
0.23568630477189087, [(43,97),X]-
0.2369572806776115, [(82,84),Y]-
0.2375525651296716, [(70,81),X]+
0.24003860417352507, [(27,53),Y]-
0.24003913164365845, [(39,79),X]-
0.2409944955590746, [(27,43),Y]-
0.2412123321703262, [(23,57),X]-
0.2412123321703262, [(23,57),X]+
0.24219725316538393, [(50,86),X]+
0.24483067578807563, [(88,90),Y]+
0.24493806957802547, [(54,57),X]+
0.24702122048465625, [(25,50),X]+
0.24752333236715215, [(43,97),X]+
0.24752333236715215, [(72,97),X]+
0.24891674534155367, [(16,76),X]+
0.249535803342903, [(36,51),X]+
0.24956049586607462, [(1,29),X]+
0.25362584615437367, [(23,57),X]-
0.2543316197403821, [(30,89),X]+
0.25435016034004165, [(3,13),Y]+
0.25470342921578787, [(48,98),Y]+
0.25485067640146875, [(84,90),X]+
0.25485067640146875, [(81,84),X]+
0.262101940394954, [(67,95),Y]-
0.26460576384945683, [(23,86),Y]+
0.2706692527136274, [(36,55),Y]-
0.2706692527136274, [(36,55),Y]+
0.27307836737564806, [(18,36),Y]+
0.2736408542494543, [(4,85),X]+
0.2737579453779992, [(6,12),X]-
0.278160901390781, [(60,90),X]-
0.27954429786980367, [(14,25),X]+
0.2799203584121942, [(45,79),Y]-
0.2803511719980048, [(13,97),X]+
0.28139335513281444, [(17,98),Y]+
0.2842817583741599, [(27,61),X]-
0.28716875468982667, [(39,94),X]-
0.287193139631694, [(16,68),Y]+
0.2873823937898788, [(37,50),Y]+
0.2901951533662001, [(19,81),X]+
0.2975498995587477, [(60,94),X]+
0.2975498995587477, [(60,92),X]+
0.2975498995587477, [(47,60),X]+
0.2975498995587477, [(10,60),X]+
0.3013560261786663, [(6,24),X]+
0.30542509598367307, [(51,76),X]+
0.30844032893603085, [(3,98),Y]-
0.30852270830828565, [(58,74),Y]-
0.3090487532177296, [(13,40),Y]+
0.31212593879652584, [(41,50),X]+
0.31335156769468775, [(1,74),X]+
0.31382468461038693, [(48,68),Y]+
0.3206425202596901, [(15,20),X]-
0.3217945606694337, [(9,16),Y]-
0.322310136847233, [(37,55),Y]+
0.3292715932363685, [(49,72),Y]+
0.33115505620372915, [(45,79),Y]+
0.3317583220255836, [(16,68),Y]-
0.3343239301953085, [(7,68),X]+
0.33581192218049893, [(59,86),Y]-
0.33822433444000993, [(37,55),Y]-
0.33822433444000993, [(37,50),Y]-
0.33822501017266243, [(42,71),X]-
0.34485703017080743, [(0,31),Y]-
0.34526734728898023, [(38,79),X]-
0.3484962489758973, [(7,68),X]-
0.34929454546616273, [(15,80),X]+
0.34929454546616273, [(15,20),X]+
0.3502447522253532, [(8,11),X]+
0.35828283318319176, [(46,64),X]-
0.35834212281366, [(18,24),X]-
0.3589489060349714, [(65,90),Y]+
0.36188778244543046, [(27,78),X]-
0.3625010669876202, [(9,40),X]-
0.37263460393194686, [(56,69),X]+
0.37578211073844947, [(2,70),X]+
0.3758459122145012, [(34,99),Y]+
0.3778179186246512, [(77,99),X]+
0.3780638803913392, [(11,46),X]-
0.37945848898063067, [(5,55),X]+
0.37997626392208206, [(76,86),Y]-
0.38308479446523747, [(23,46),Y]-
0.38775927591669856, [(36,50),Y]+
0.391878724558531, [(13,97),X]-
0.391878724558531, [(13,97),X]+
0.391878724558531, [(64,97),X]+
0.3960780540364723, [(27,98),Y]+
0.39671342632963835, [(2,94),X]+
0.40199776727505065, [(30,89),X]-
0.40506787453471765, [(4,6),X]+
0.41214151907772956, [(17,53),Y]+
0.41257655809758575, [(39,52),X]-
0.4220693348348722, [(33,73),Y]-
0.4220693348348722, [(33,73),Y]+
0.42426038631335145, [(9,64),Y]-
0.4302701158502059, [(0,73),X]+
0.4397099467787505, [(94,97),Y]+
0.4438242868322581, [(26,70),X]-
0.44743366325445516, [(50,86),X]-
0.44743366325445516, [(50,86),X]+
0.44743366325445516, [(14,86),X]+
0.44743366325445516, [(14,86),X]-
0.44974899389769496, [(77,85),X]+
0.45081621557845974, [(2,90),X]+
0.45081621557845974, [(60,90),X]+
0.45081621557845974, [(29,90),X]+
0.4549600613448532, [(13,40),Y]-
0.457228016870393, [(26,65),X]-
0.45746060014619294, [(45,56),X]+
0.4685047396047654, [(4,6),X]-
0.4685047396047654, [(4,49),X]-
0.4685047396047654, [(4,85),X]-
0.4685047396047654, [(4,85),X]+
0.4773186759121753, [(94,96),Y]+
0.4811794685359016, [(45,78),Y]-
0.4811794685359016, [(45,78),Y]+
0.4854755426788726, [(31,71),X]-
0.49648518303593486, [(65,90),Y]-
0.501217712949193, [(58,76),Y]+
0.5260407743049066, [(38,94),X]-
0.5296410177765531, [(3,72),Y]+
0.5343524395452367, [(36,51),X]-
0.5493543823731993, [(45,87),X]+
0.5619828916921661, [(17,53),Y]-
0.5628695995139137, [(6,24),X]-
0.5628695995139137, [(24,49),X]-
0.5677470190114728, [(22,81),Y]+
0.5786305848690192, [(89,95),Y]-
0.5823475065148784, [(40,41),X]+
0.5847482339810668, [(39,52),X]+
0.5872759241961878, [(23,86),Y]-
0.5881074038274474, [(11,18),Y]-
0.6098397310863121, [(15,71),X]-
0.6209752539934124, [(55,56),Y]-
0.6284382613181797, [(62,74),Y]-
0.6367133028769908, [(28,66),X]-
0.6394707659490603, [(25,64),Y]-
0.6394707659490603, [(25,64),Y]+
0.6480382519505969, [(25,76),X]-
0.6573368169485153, [(11,36),Y]+
0.6869317621771899, [(18,67),X]+
0.6869317621771899, [(18,67),X]-
0.6975541435156235, [(14,41),X]-
0.6975541435156235, [(41,50),X]-
0.7019418740446657, [(10,60),X]-
0.704044211117945, [(36,71),X]-
0.7103818902121312, [(67,72),Y]+
0.723498841843133, [(54,71),X]-
0.731037865139954, [(33,41),Y]+
0.7454074206702509, [(13,92),Y]-
0.7467963521255709, [(15,53),Y]-
0.7536299518501529, [(30,36),X]-
0.7758976907580805, [(10,21),Y]+
0.8328868448628544, [(23,88),Y]-
0.9006806920031063, [(84,90),X]-
0.9006806920031063, [(2,70),X]-
0.9014386240609829, [(5,6),Y]-
0.9150555525507151, [(0,73),X]-
0.9213950233528012, [(30,54),X]-
0.9213950233528012, [(30,30),X]+
0.9376420689697053, [(0,64),X]-
0.9580736552668354, [(84,87),Y]-
0.9631240400099988, [(33,56),X]+
0.9631240400099988, [(33,87),X]+
0.9892343072376528, [(65,90),Y]+
0.9892343072376528, [(65,90),Y]-
0.9892343072376528, [(88,90),Y]-
0.9908004794665358, [(8,12),X]-
0.9908004794665358, [(12,95),X]-
0.9968355462802649, [(28,58),Y]+
