areaTotal:400.0
tiempoTotalSimulado:1.0
areaOcupadaInicial:8.000000000000005
eventosSimples:47
eventosMultiples:0
0.0
[(0,9), (1,7), (1,15), (1,17), (2,6), (2,11), (5,12), (6,11), (7,15), (7,17), (8,14), (10,13), (15,17), (16,18), (17,19)]
[(0,1), (0,10), (1,10), (2,11), (4,17), (5,9), (5,13), (8,12), (8,19), (12,17), (12,19), (13,18), (14,15), (17,19)]
0.05019659148801653, [(13,18),Y]-
0.11849135055979822, [(3,18),Y]+
0.12211748275381638, [(12,17),Y]-
0.1624806328756244, [(8,19),Y]-
0.17307527992035115, [(1,17),X]-
0.20680218802645342, [(1,15),X]-
0.2122000735984677, [(2,11),Y]-
0.21718548972581567, [(15,19),X]+
0.22650300538721108, [(1,15),X]+
0.22650300538721108, [(1,17),X]+
0.23031799249031926, [(5,13),Y]-
0.24384277831164317, [(0,11),Y]+
0.2752999795302872, [(1,4),X]+
0.28433606512642307, [(10,13),X]-
0.287160834124102, [(2,6),Y]+
0.3059373291768542, [(10,11),Y]+
0.3166144229192285, [(1,11),Y]+
0.3221294635647447, [(17,19),X]-
0.3221294635647447, [(15,19),X]-
0.32477918885858964, [(9,13),Y]+
0.32477918885858964, [(5,13),Y]+
0.3561222800163345, [(8,15),Y]+
0.3885547221228087, [(8,14),Y]+
0.3992065970275829, [(1,11),Y]-
0.3992065970275829, [(10,11),Y]-
0.4034431620817122, [(12,19),Y]-
0.4329657406028636, [(5,14),Y]+
0.4454644478028077, [(13,14),X]+
0.4508929027237839, [(5,15),Y]+
0.48578886876822225, [(10,11),Y]+
0.53400906760856, [(8,13),X]+
0.5368372883473587, [(1,10),Y]-
0.5436566053503413, [(5,8),Y]+
0.5781387794288194, [(8,12),Y]-
0.6008961245936533, [(1,10),Y]+
0.6210173387298796, [(4,7),X]+
0.6335081318771254, [(5,12),X]-
0.639313961244934, [(7,16),Y]+
0.6715954474825023, [(14,15),Y]-
0.7349141240092484, [(5,12),Y]+
0.7447635835911912, [(12,15),Y]+
0.7529068826924912, [(19,19),X]+
0.7643184065008037, [(3,5),X]+
0.8261283714958111, [(16,18),X]-
0.8671749290755052, [(12,15),Y]-
0.8671749290755052, [(12,15),Y]+
0.906790861797965, [(3,18),Y]-
