areaTotal:400.0
tiempoTotalSimulado:1.0
areaOcupadaInicial:8.000000000000014
eventosSimples:144
eventosMultiples:0
0.0
[(0,27), (0,40), (0,46), (1,28), (2,17), (3,8), (3,23), (4,5), (4,18), (4,25), (4,34), (5,18), (5,25), (5,34), (6,14), (7,20), (7,22), (8,21), (8,23), (9,10), (9,11), (9,39), (10,11), (10,37), (11,37), (12,31), (12,47), (12,49), (13,21), (13,26), (13,47), (14,33), (14,38), (14,40), (14,46), (15,24), (15,41), (15,44), (16,30), (16,43), (18,25), (18,34), (19,42), (20,22), (20,45), (21,26), (21,47), (24,41), (26,47), (27,40), (27,46), (29,32), (33,38), (33,40), (33,46), (35,48), (38,40), (38,46), (40,46), (41,44), (47,49)]
[(0,3), (0,38), (0,42), (1,6), (1,35), (1,37), (2,12), (3,31), (3,38), (3,41), (3,42), (4,19), (4,27), (5,7), (5,30), (5,44), (6,35), (6,40), (7,17), (7,22), (7,25), (7,30), (8,16), (8,31), (8,41), (9,46), (10,39), (11,27), (11,29), (13,20), (14,18), (14,49), (15,19), (15,45), (17,22), (17,25), (17,30), (18,48), (18,49), (22,25), (22,30), (23,28), (23,34), (25,30), (26,32), (26,33), (26,43), (28,34), (31,38), (31,41), (31,42), (33,43), (35,40), (38,41), (38,42), (41,42)]
0.006963276833617414, [(8,21),X]-
0.007661231883634113, [(16,30),X]-
0.01166911410833124, [(5,7),Y]-
0.013101957603302298, [(47,49),X]-
0.017658736700081903, [(12,47),X]-
0.020003369189962383, [(31,49),X]+
0.03982019884745844, [(5,30),Y]-
0.04201465921529884, [(15,44),X]-
0.05208888297343536, [(26,33),Y]-
0.05612276147079954, [(0,33),X]+
0.06285632669944163, [(10,39),X]+
0.07234058702806447, [(27,33),X]+
0.07405485879869325, [(27,40),X]-
0.07405485879869325, [(27,33),X]-
0.0753789221948349, [(18,34),X]-
0.07766420130547949, [(0,31),Y]+
0.0922241048203643, [(0,38),X]+
0.09553426655021559, [(14,46),X]-
0.09567390647565663, [(35,37),Y]+
0.09635103581493318, [(11,27),Y]-
0.09798700583031213, [(20,45),X]-
0.11840700247543062, [(0,41),Y]+
0.12655475606685695, [(6,14),X]-
0.1386104609342415, [(4,19),Y]-
0.1387822487210677, [(3,41),Y]-
0.1387822487210677, [(0,41),Y]-
0.14779203169178198, [(9,11),X]-
0.16159957135238606, [(41,44),X]-
0.17109561505056348, [(4,25),X]-
0.18229203746738115, [(1,6),Y]-
0.18538924301847926, [(34,43),X]+
0.18616052045115547, [(38,46),X]-
0.1912821696369016, [(0,14),X]+
0.19306015270849627, [(16,41),Y]+
0.19746092880431212, [(4,43),X]+
0.20694984108499737, [(1,33),Y]+
0.20783638650209002, [(3,31),Y]-
0.21342997495594968, [(34,43),X]-
0.2196056213676106, [(13,45),Y]+
0.22037087509992953, [(9,17),Y]+
0.2244725581927757, [(15,44),X]+
0.23636575108331212, [(38,41),Y]-
0.23960726756189146, [(6,46),Y]+
0.2475800483150351, [(8,31),Y]-
0.2538112714582694, [(20,45),X]+
0.2551807462778907, [(9,46),Y]-
0.2572680467184016, [(19,45),Y]+
0.25982819189866, [(4,18),X]-
0.26067365977345036, [(12,21),Y]+
0.2800084570789832, [(3,18),Y]+
0.2872104456761726, [(18,49),Y]-
0.28770485866143747, [(3,48),Y]+
0.29240034493967887, [(3,42),Y]-
0.293564060455739, [(17,19),X]+
0.31927900761947076, [(4,16),X]+
0.3238167983674357, [(37,40),Y]+
0.3297787872042727, [(7,9),Y]+
0.3301021697746373, [(21,26),X]-
0.3394028406123408, [(18,49),Y]+
0.34138691568781887, [(26,43),Y]-
0.3415043289201609, [(1,33),Y]-
0.34672949101510003, [(0,3),Y]-
0.34975082682521497, [(9,17),Y]-
0.36758826584649346, [(1,35),Y]-
0.36758826584649346, [(37,40),Y]-
0.38200392911488823, [(20,32),Y]+
0.3865406899042406, [(6,38),X]+
0.3865406899042406, [(6,40),X]+
0.3872296613639733, [(4,16),X]-
0.38904143281526754, [(38,41),Y]+
0.3906894686327901, [(24,41),X]-
0.4044593879270094, [(0,3),Y]+
0.4044593879270094, [(3,42),Y]+
0.43194281560731834, [(26,47),X]-
0.43248121264417777, [(10,29),Y]+
0.43433624822324685, [(16,31),Y]+
0.43433624822324685, [(8,31),Y]+
0.4372284182757903, [(6,40),X]-
0.44173142139747523, [(35,37),Y]-
0.44346135458046687, [(10,11),X]-
0.47198948955914766, [(2,49),X]+
0.4742407886929793, [(16,42),Y]+
0.47928731650155415, [(38,48),Y]+
0.4821513345525921, [(1,28),X]-
0.48238123664315796, [(13,19),Y]+
0.49468382524518345, [(6,38),X]-
0.4976685927442436, [(23,28),Y]-
0.5017806597673087, [(7,9),Y]-
0.5053000990211356, [(8,23),X]-
0.508994765386349, [(6,40),Y]-
0.5113046970231159, [(5,25),X]-
0.5162219220135007, [(2,12),Y]-
0.5193125779815801, [(33,33),Y]+
0.548213526998245, [(21,24),Y]+
0.5522497312409319, [(3,47),X]+
0.5577528216355263, [(15,45),Y]-
0.5701875114089309, [(33,38),X]-
0.5728629013952409, [(11,48),X]+
0.5771009616040952, [(37,39),X]+
0.5775231501106216, [(21,26),X]+
0.5834205508685866, [(16,42),Y]-
0.5911872548779209, [(16,43),X]-
0.6018924895392256, [(3,42),Y]-
0.6131065038592142, [(17,49),X]+
0.6186235803440633, [(11,35),X]+
0.6404535498965731, [(0,48),Y]+
0.6425690936278821, [(7,45),X]+
0.6478922679240182, [(36,41),X]+
0.6658669320274356, [(12,24),Y]+
0.6846144867603342, [(20,26),Y]+
0.684661985711542, [(13,20),Y]-
0.7038275084554355, [(24,41),X]+
0.7296525293907387, [(9,9),Y]+
0.7303609594514952, [(28,34),Y]-
0.7357862394100926, [(10,11),Y]+
0.7514459603053872, [(3,47),X]-
0.7611369137005878, [(29,32),X]-
0.7637541873328657, [(5,18),X]-
0.7662879773699249, [(24,47),Y]+
0.7664757206005691, [(4,27),Y]-
0.7735145716814283, [(12,24),Y]-
0.7735145716814283, [(21,24),Y]-
0.7753314890804665, [(6,40),Y]+
0.7769336192990944, [(11,35),X]-
0.7769336192990944, [(11,48),X]-
0.7805894939002607, [(11,37),X]-
0.7839179480954725, [(35,37),Y]+
0.7839179480954725, [(37,40),Y]+
0.7839179480954725, [(6,37),Y]+
0.7964660343030484, [(13,47),X]-
0.8121641301347566, [(19,49),X]+
0.8314905231377043, [(17,42),X]+
0.834747883486663, [(8,44),X]+
0.8443196563470098, [(9,39),X]-
0.8448548276308058, [(2,31),X]+
0.8448548276308058, [(17,31),X]+
0.8745985413806706, [(9,9),Y]-
0.8958999904150724, [(10,29),Y]-
0.9118785951713763, [(15,45),Y]+
0.9118785951713763, [(13,15),Y]+
0.9521554192058276, [(42,49),X]+
0.9837268241679498, [(3,8),X]-
0.9905516635829954, [(22,22),Y]+
0.9980608578333987, [(4,34),X]-
