marco:(-10.0,10.0),(-10.0,10.0)
timeIntervals:0.0-1.0
framesPerSecond:1000
0.5671588144055628 -0.48571265837638306
6 6.256807615833965 -9.385252880129643 6.192142747428607 -9.279354523331685 6.068099646019867 -9.282406763704124 6.008721413016486 -9.39135736087452 6.073386281421845 -9.497255717672479 6.197429382830585 -9.49420347730004
0.029104152783579015 -0.0790822473938229
12 -3.2693814414463604 3.7561424270637187 -3.2264439590052505 3.8326563224737313 -3.3141756773933824 3.8315843253372743 -3.358969913340404 3.9070262236108304 -3.401907395781514 3.8305123282008178 -3.4896391141696457 3.8294403310643608 -3.444844878222624 3.7539984327908047 -3.487782360663734 3.677484537380792 -3.4000506422756023 3.678556534517249 -3.355256406328581 3.603114636243693 -3.312318923887471 3.6796285316537056 -3.224587205499339 3.6807005287901626
-0.6354410950015255 0.4737947860420523
4 -7.2370807041018095 7.473001092636843 -7.3806119493301185 7.61228060169403 -7.519891458387305 7.468749356465721 -7.376360213158996 7.329469847408534
0.3249678568346913 -0.31421542828600774
6 5.218557880969822 9.266179902277393 5.154909256485652 9.37269215405935 5.030842628386107 9.370826954231102 4.970424624770732 9.262449502620896 5.034073249254902 9.155937250838939 5.158139877354447 9.157802450667187
0.017717407831431102 -0.5436147572593762
12 9.872944126910872 3.9802980202839824 9.915666106973058 4.0569324512452765 9.82793775292492 4.055613555798454 9.782931378938967 4.130929091312925 9.740209398876782 4.054294660351632 9.652481044828644 4.052975764904809 9.697487418814598 3.9776602293903376 9.654765438752412 3.901025798429044 9.74249379280055 3.9023446938758664 9.787500166786502 3.827029158361395 9.830222146848687 3.9036635893226888 9.917950500896826 3.904982484769511
-0.5836304914618874 -0.40705658432033737
3 6.949092979786926 -3.4206467328406482 6.683540266443696 -3.2728028979797092 6.688280106332826 -3.5767002112093027
-0.1613840919656906 0.22604775274084152
4 8.94713147931055 7.4405896247402445 9.134728809935126 7.335731324745903 8.94414276559101 7.655482828740447 8.762522862405511 7.3305547207343835
-0.06118990428326184 0.08461460031747207
6 -5.551097492765571 -4.095563030962793 -5.61462617421361 -3.9889791962979446 -5.738694823390148 -3.990704730968451 -5.799234791118648 -4.099014100303806 -5.735706109670609 -4.205597934968654 -5.611637460494071 -4.203872400298147
0.2867302762182605 -0.28603502360023203
4 -8.227538021787602 3.006291841623969 -8.370912386689206 3.145732838067132 -8.510353383132369 3.00235847316553 -8.366979018230765 2.862917476722367
-0.5330747888843884 0.6060326485130685
3 -2.4119996409468873 -6.923115162595841 -2.6773857556366116 -6.7749724840719505 -2.6729880212781096 -7.078874940466847
-0.02622097021812309 0.6221771046759311
12 -1.491333725081541 4.9614147578008705 -1.448568617419421 5.038025130178521 -1.536297699922912 5.036755613620668 -1.5812616747642831 5.112096469440465 -1.6240267824264032 5.035486097062815 -1.7117558649298943 5.034216580504962 -1.6667918900885232 4.958875724685164 -1.7095569977506433 4.882265352307514 -1.6218279152471522 4.883534868865366 -1.5768639404057812 4.808194013045569 -1.534098832743661 4.8848043854232195 -1.44636975024017 4.886073901981073
-0.4381985937251861 0.3638886318033528
3 -2.000499874128482 2.736026014102058 -2.2658859888182064 2.8841686926259484 -2.2614882544597044 2.5802662362310516
-0.2748720183242187 0.11941144693696816
20 9.045926828053299 -5.601490003842985 8.949496526165234 -5.555340590993546 8.902107670459039 -5.580067887893941 8.877793521177562 -5.556580033850302 8.900868227602281 -5.50836488290627 8.851413633801492 -5.413587171493879 8.805264220952054 -5.510017473381946 8.829991517852449 -5.55740632908814 8.80650366380881 -5.581720478369617 8.758288512864777 -5.558645771944898 8.663510801452388 -5.6081003657456865 8.759941103340452 -5.654249778595125 8.807329959046648 -5.62952248169473 8.831644108328124 -5.653010335738369 8.808569401903405 -5.701225486682401 8.858023995704194 -5.796003198094792 8.904173408553632 -5.699572896206726 8.879446111653237 -5.652184040500531 8.902933965696876 -5.627869891219055 8.95114911664091 -5.6509445976437735
0.09294232114589546 -0.11388614692279875
3 4.668064864592574 -5.395482693099684 4.402262898108404 -5.248087450016713 4.407515856443653 -5.551976326909349
-0.13836538339612373 -0.44006976954244015
4 -3.136137815436366 9.126772985166383 -2.94818744248269 9.022548809267775 -3.1398522178965114 9.34165487074433 -3.320373785929897 9.016115275487044
0.17289113839467132 -0.801910337575018
6 9.563185847016491 8.242036611551423 9.499297588545218 8.348405298710274 9.375235474062816 8.346260787450031 9.315061618051686 8.237747589030935 9.37894987652296 8.131378901872084 9.503011991005362 8.133523413132327
0.042533087131924295 -0.036425194085450155
6 2.8501165327423337 6.295139804116078 2.7862282742710596 6.401508491274931 2.6621661597886574 6.399363980014687 2.6019923037775285 6.290850781595592 2.6658805622488027 6.184482094436739 2.7899426767312048 6.186626605696983
-0.008092178230888999 -0.13075007153622653
12 2.5981549115769136 9.763199403841005 2.6406610508915134 9.839953763389913 2.5529367560136556 9.838387980078704 2.5077186004503975 9.9135765563164 2.4652124611357977 9.836822196767493 2.37748816625794 9.835256413456284 2.422706321821198 9.760067837218587 2.380200182506598 9.68331347766968 2.467924477384456 9.684879260980889 2.513142632947714 9.609690684743192 2.555648772262314 9.6864450442921 2.6433730671401716 9.688010827603309
0.20921832572988097 0.24104632374387905
5 8.06104900587382 -9.164141501181382 7.969443565112071 -9.042248908629507 7.825209182704913 -9.091703977407107 7.827672872792688 -9.244161483379502 7.973429899411837 -9.288930335132882
-0.7477432959673114 0.4294630255958777
5 5.164091081616345 3.9548524517683497 5.072485640854596 4.076745044320225 4.928251258447438 4.027289975542624 4.930714948535213 3.8748324695702285 5.076471975154362 3.830063617816849
-0.3056097954808283 1.06520592971334
20 -6.315663160505721 -8.351702319909641 -6.4120414544223685 -8.30544439204546 -6.459458113743035 -8.330118331252864 -6.4837458091316105 -8.306603123501946 -6.46061684519952 -8.258413976543622 -6.5099647236143285 -8.163580657902289 -6.55622265147851 -8.259958951818936 -6.531548712271106 -8.307375611139602 -6.555063920022025 -8.331663306528178 -6.603253066980349 -8.308534342596086 -6.698086385621682 -8.357882221010897 -6.601708091705035 -8.404140148875078 -6.554291432384368 -8.379466209667674 -6.530003736995793 -8.402981417418593 -6.5531327009278835 -8.451170564376916 -6.503784822513075 -8.54600388301825 -6.457526894648893 -8.449625589101602 -6.4822008338562975 -8.402208929780937 -6.458685626105378 -8.37792123439236 -6.410496479147055 -8.401050198324452
-0.04735786321102045 0.1252911977209328
3 8.360475430026236 -2.3331273679766396 8.09483954353774 -2.1854330252284804 8.099750433966836 -2.489327622458397
0.7199002064457785 0.5331179076063545
12 -1.6427684816954136 3.7191703124415385 -1.6001327974236963 3.7958527877268176 -1.687859611181679 3.794435135771218 -1.7329507406679445 3.869699959100897 -1.7755864249396618 3.793017483815618 -1.8633132386976445 3.7915998318600184 -1.818222109211379 3.716335008530339 -1.8608577934830963 3.63965253324506 -1.7731309797251136 3.6410701852006597 -1.728039850238848 3.5658053618709804 -1.6854041659671308 3.6424878371562595 -1.597677352209148 3.643905489111859
-1.210962035512107 -0.3929323735440981
4 -8.53033673333064 0.6986857162430926 -8.342503796668124 0.5942500449429791 -8.533809257254719 0.9135716467103216 -8.714697146069078 0.5882354570759771
-0.6688968215469959 0.11121558363956838
12 -0.24524604235426128 5.623383568065949 -0.202610358082544 5.700066043351229 -0.29033717184052676 5.698648391395629 -0.3354283013267923 5.773913214725308 -0.3780639855985095 5.6972307394400294 -0.46579079935649226 5.695813087484429 -0.4206996698702268 5.62054826415475 -0.46333535414194404 5.5438657888694705 -0.3756085403839613 5.54528344082507 -0.33051741089769576 5.470018617495391 -0.28788172662597855 5.54670109278067 -0.20015491286799578 5.5481187447362705
-0.552085138806304 -0.08048585585638629
4 9.518606599184459 8.958801925276514 9.706439535846975 8.854366253976401 9.51513407526038 9.173687855743744 9.334246186446022 8.8483516661094
-0.0010186245975552072 0.15964623804004804
4 0.6567638277531316 -8.652125251398736 0.8445967644156475 -8.75656092269885 0.6532913038290533 -8.437239320931507 0.47240341501469385 -8.762575510565851
0.34601826564176785 -0.01815676146916816
3 -7.32229753939032 -5.934409578845554 -7.587933425878816 -5.786715236097395 -7.58302253544972 -6.090609833327312
-0.5638346880978897 0.1902008659964014
5 -8.431188566087933 5.334698942941801 -8.5228626006628 5.456539955252672 -8.667069123999601 5.407003710711086 -8.664519622246335 5.254547615598487 -8.518737420171636 5.209860811568401
0.22907716039099307 -0.9087631819461821
12 5.228146514429174 3.1934345802270454 5.2707390305376975 3.270141041237446 5.1830130286140275 3.2686740116933257 5.137879542798882 3.343913443159606 5.095287026690358 3.2672069821492054 5.007561024766688 3.2657399526050845 5.0526945105818335 3.1905005211388047 5.01010199447331 3.113794060128404 5.09782799639698 3.1152610896725244 5.142961482212125 3.040021658206244 5.185553998320649 3.1167281192166447 5.273280000244319 3.1181951487607655
0.7467632849914699 -0.07580371357857567
4 10.0 -5.969984789685431 9.856233775384784 -5.830947842581839 9.717196828281192 -5.974714067197056 9.860963052896409 -6.113751014300648
0.7496720850448928 0.4141877237787235
6 5.504428230564382 8.781572666700631 5.440599842807429 8.887977291105486 5.316536541114207 8.885902598027789 5.256301627177938 8.777423280545237 5.3201300149348905 8.671018656140383 5.4441933166281125 8.67309334921808
0.17192965723448725 -0.19820333036333887
4 4.620505827370724 -6.213689797448877 4.476739602755506 -6.074652850345285 4.337702655651914 -6.218419074960503 4.481468880267132 -6.3574560220640945
0.7944040789245684 0.22642287485483373
4 -4.819266415016778 -0.8406565203919897 -4.9630326396319955 -0.7016195732883983 -5.102069586735587 -0.8453857979036158 -4.95830336212037 -0.9844227450072072
0.23211167877441644 -0.981782014862542
4 -6.1686713248490666 -7.849778346302065 -5.980779635398893 -7.9541082776292225 -6.17226479866975 -7.634894404414659 -6.352969540478558 -7.960332356862314
0.23912467004665616 0.048438256819921886
12 6.842861197607075 -5.517646785851004 6.885453713715599 -5.440940324840604 6.797727711791929 -5.442407354384724 6.752594225976783 -5.367167922918444 6.710001709868259 -5.443874383928844 6.622275707944589 -5.445341413472965 6.667409193759735 -5.5205808449392455 6.624816677651211 -5.597287305949646 6.712542679574881 -5.595820276405526 6.757676165390026 -5.671059707871805 6.80026868149855 -5.594353246861405 6.88799468342222 -5.592886217317284
-0.22041707598395463 -0.7604892874588874
4 0.2305694424382902 2.3319527003334017 0.08680321782307272 2.470989647436993 -0.05223372928051856 2.3272234228217754 0.0915324953346989 2.1881864757181844
-0.5754013218368625 0.585122388462212
3 0.47525704536568103 -8.951752125629808 0.2095380698880508 -8.804207321785489 0.21462000930129344 -9.108099106738852
-0.48587490123179894 -0.6197681950874694
5 0.20751230586627134 7.670435401040718 0.11583827129140631 7.79227641335159 -0.028368252045396086 7.742740168810004 -0.025818750292129863 7.590284073697405 0.11996345178256851 7.545597269667319
0.08018025778063612 0.006543821812247142
6 -8.534038209724821 5.047848630413084 -8.597866597481772 5.154253254817938 -8.721929899174995 5.152178561740241 -8.782164813111264 5.04369924425769 -8.718336425354313 4.937294619852835 -8.59427312366109 4.939369312930532
0.3802750456045696 0.7812813772558442
3 4.033731829566906 5.162764803504191 3.767598672405989 5.309561212622067 3.773535831506034 5.005684933172418
-0.19967401068242732 -0.12911109195330805
20 3.3347946601808736 1.244187292851613 3.2382606960543847 1.290119473276639 3.1909276346464273 1.2652855417535513 3.1665606634509835 1.288718592293708 3.1895267536634964 1.3369855743569528 3.139858890617321 1.431651697172867 3.093926710192295 1.3351177330463782 3.1187606417153826 1.287784671638421 3.095327591175226 1.2634177004429767 3.0470606091119814 1.28638379065549 2.952394486296067 1.2367159276093145 3.048928450422556 1.1907837471842884 3.0962615118305132 1.215617678707376 3.120628483025957 1.1921846281672193 3.097662392813444 1.1439176461039746 3.1473302558596195 1.0492515232880604 3.1932624362846456 1.1457854874145492 3.168428504761558 1.1931185488225065 3.1918615553017147 1.2174855200179506 3.240128537364959 1.1945194298054373
-1.1748458785279472 0.4716395559557918
4 1.7702542058779187 -3.053133760641396 1.9584387660049885 -3.15693449698248 1.7660560004172934 -2.8382607828008113 1.5862678512114743 -3.1642060021408964
0.21566388065675762 -0.10937062461189297
6 -3.1933690760419307 -5.8287178397998725 -3.2574966645711623 -5.722493268405982 -3.3815536361690004 -5.724917103458788 -3.441483019237607 -5.833565509905482 -3.3773554307083753 -5.939790081299373 -3.253298459110537 -5.937366246246567
-0.023307068865496782 -0.18786660877010639
4 9.81181543987293 -4.373215535409143 10.0 -4.4770162717502275 9.807617234412305 -4.158342557568558 9.627829085206486 -4.484287776908643
0.4214457956756923 -0.14514248439535726
5 -5.716961464686729 4.796942192070502 -5.8089780322439655 4.918524724496653 -5.95304457511476 4.8685828370530535 -5.950066027693367 4.716134520724436 -5.80415864127905 4.671858167149255
1.1490467766052874 0.013273164423411235
4 -7.175953208178763 -2.841656844791518 -6.987768648051693 -2.9454575811326023 -7.180151413639388 -2.6267838669509334 -7.359939562845208 -2.9527290862910185
0.6107409293557806 -0.305827990111111
3 8.064392869153224 6.9716754885455865 7.798259711992306 7.118471897663462 7.804196871092351 6.814595618213813
0.13516244239545092 0.17531922299439348
5 7.50355089456128 3.898682241884008 7.411534327004043 4.020264774310158 7.267467784133249 3.9703228868665588 7.270446331554641 3.817874570537942 7.416353717968959 3.773598216962761
-0.3568864462261876 -0.6871387452591017
5 8.66337203578278 0.5279619750987343 8.571355468225542 0.6495445075248851 8.427288925354748 0.5996026200812856 8.43026747277614 0.44715430375266857 8.57617485919046 0.4028779501774873
-0.31165577853977594 0.3657664690474532
5 -2.785793441643641 -6.3846013400307315 -2.877810009200878 -6.263018807604581 -3.021876552071672 -6.31296069504818 -3.0188980046502802 -6.4654090113767975 -2.872990618235962 -6.509685364951979
-0.6761871047815106 0.5698341048845956
3 -1.6423018890779406 5.564552690917087 -1.908435046238858 5.711349100034963 -1.902497887138813 5.407472820585314
-0.3248832949816591 -0.09378713897844212
6 7.805491803464111 6.591277955994786 7.74136421493488 6.697502527388677 7.6173072433370415 6.695078692335871 7.557377860268435 6.586430285889176 7.621505448797667 6.480205714495286 7.745562420395505 6.482629549548092
0.08559836831972965 0.05541796336504861
12 3.0697047772603443 -0.8558792560810667 3.1120812504204824 -0.7790532311174965 3.024359724550184 -0.7807671413198128 2.9790146718400234 -0.7056550265585588 2.9366381986798857 -0.7824810515221292 2.8489166728095876 -0.7841949617244455 2.894261725519748 -0.8593070764856995 2.85188525235961 -0.9361331014492698 2.9396067782299085 -0.9344191912469534 2.984951830940069 -1.0095313060082074 3.0273283041002066 -0.932705281044637 3.1150498299705047 -0.9309913708423208
0.17340503781785255 -0.18342910173125754
4 -5.592229832143875 -9.780001837549834 -5.403986876663604 -9.883696636104162 -5.596548980095654 -9.565131256743292 -5.776153639672368 -9.891177619802049
0.35313291562699345 -0.1968218923401366
12 5.588345619931991 2.4531619218254126 5.63067884417179 2.5300117865920986 5.542958296886542 2.5282485018245247 5.497570973841093 2.6033350818236367 5.455237749601294 2.5264852170569507 5.367517202316046 2.524721932289377 5.412904525361495 2.4496353522902647 5.3705713011216965 2.3727854875235788 5.458291848406945 2.3745487722911527 5.503679171452394 2.2994621922920406 5.546012395692192 2.3763120570587266 5.63373294297744 2.3780753418263005
-0.3106873950523675 -0.8758732591519058
4 8.808236909583401 -3.5512319472774796 8.664001956620936 -3.4126813126924467 8.525451322035904 -3.556916265654912 8.66968627499837 -3.695466900239945
0.11667310972010461 0.11563498746909309
20 7.531613255281239 5.015886952916499 7.435053453112187 5.061764791070066 7.387734377200044 5.036904221648515 7.363354220364685 5.06032355331149 7.386293139441468 5.108603454396016 7.336572000598367 5.203241606220302 7.2906941624448 5.10668180405125 7.31555473186635 5.0593627281391065 7.292135400203375 5.034982571303748 7.243855499118849 5.057921490380531 7.149217347294564 5.00820035153743 7.245777149463616 4.962322513383863 7.293096225375759 4.987183082805413 7.317476382211118 4.963763751142438 7.2945374631343345 4.915483850057912 7.344258601977436 4.820845698233627 7.390136440131003 4.917405500402679 7.3652758707094526 4.964724576314822 7.3886952023724275 4.989104733150181 7.436975103456954 4.966165814073397
0.03001505891794702 -0.09644561459329494
5 -9.55000918645437 1.9322272573863664 -9.642094173239514 2.0537579782142763 -9.786132583056347 2.003735009553773 -9.783068229223492 1.8512883938755018 -9.637135944584397 1.8070941725769403
-0.8574371767590461 0.21417785774581613
4 8.848857381768727 3.9985939663450054 9.037100337248999 3.894899167790678 8.84453823381695 4.213464547151547 8.664933574240234 3.887418184092791
-0.07874533644783158 -0.41855155563873975
12 4.234736923471908 9.690634631018252 4.277070147711706 9.767484495784938 4.189349600426458 9.765721211017365 4.143962277381009 9.840807791016477 4.1016290531412105 9.763957926249791 4.013908505855962 9.762194641482216 4.059295828901411 9.687108061483105 4.016962604661613 9.61025819671642 4.104683151946861 9.612021481483993 4.15007047499231 9.53693490148488 4.192403699232108 9.613784766251566 4.280124246517357 9.615548051019141
-0.03670275112854683 -0.46931934757441357
20 6.829725790181919 0.6303158185242477 6.733243593881167 0.6763566398196442 6.6858826064727825 0.6515760076879624 6.661542029712097 0.6750364737066566 6.684562440359795 0.7232775718570325 6.635001176096432 0.8179995466738007 6.588960354801035 0.721517350373049 6.613740986932717 0.6741563629646649 6.590280520914023 0.649815786203979 6.542039422763647 0.6728361968516773 6.447317447946879 0.6232749325883138 6.54379964424763 0.5772341112929172 6.591160631656015 0.602014743424599 6.615501208416701 0.5785542774059048 6.592480797769002 0.530313179255529 6.642042062032366 0.43559120443876076 6.688082883327763 0.5320734007395125 6.663302251196081 0.5794343881478966 6.6867627172147746 0.6037749649085825 6.73500381536515 0.5807545542608842
-0.22452030211152305 -0.030751087492751215
12 -6.503112929155296 2.854886108015252 -6.460649998444062 2.9316643803623683 -6.548373398110962 2.930049220903877 -6.593633867066629 3.005212333792502 -6.636096797777862 2.9284340614453854 -6.723820197444762 2.926818901986894 -6.678559728489096 2.851655789098269 -6.7210226592003295 2.7748775167511526 -6.6332992595334295 2.776492676209644 -6.588038790577762 2.701329563321019 -6.5455758598665295 2.7781078356681355 -6.457852460199629 2.779722995126627
-0.13447179596012002 -0.05260553856429468
12 7.240183449255206 -5.305265193514058 7.28264637996644 -5.228486921166941 7.19492298029954 -5.230102080625433 7.149662511343873 -5.1549389677368085 7.10719958063264 -5.231717240083925 7.01947618096574 -5.233332399542416 7.064736649921406 -5.308495512431041 7.0222737192101725 -5.385273784778158 7.1099971188770725 -5.383658625319666 7.15525758783274 -5.45882173820829 7.1977205185439725 -5.382043465861174 7.285443918210873 -5.380428306402683
-0.00652647877807235 -0.3491136654379365
5 -5.252229201394453 3.514857122356211 -5.344108843062225 3.636543162406717 -5.488231515106834 3.5867634848375154 -5.485424583312085 3.4343119121002323 -5.339567132014218 3.3898713360794157
0.9872674272338132 -0.4486146468299105
20 8.373610881040719 2.3097964540665457 8.277128684739967 2.355837275361942 8.229767697331583 2.3310566432302604 8.205427120570898 2.3545171092489543 8.228447531218595 2.40275820739933 8.178886266955233 2.4974801822160986 8.132845445659836 2.400997985915347 8.157626077791518 2.3536369985069627 8.134165611772824 2.329296421746277 8.085924513622448 2.352316832393975 7.9912025388056795 2.3027555681306113 8.087684735106432 2.256714746835215 8.135045722514816 2.2814953789668966 8.159386299275502 2.2580349129482027 8.136365888627804 2.209793814797827 8.185927152891166 2.1150718399810584 8.231967974186563 2.21155403628181 8.207187342054882 2.2589150236901943 8.230647808073575 2.28325560045088 8.278888906223951 2.260235189803182
-4.568586717771597E-4 -0.0039080087818304556
3 -4.049500480815135 2.2326437299966724 -4.315550970161902 2.379589911262761 -4.309784851454064 2.0757103381661355
2.5588630741815623E-4 -5.078414632372292E-4
3 0.37662465284667235 6.784824993622868 0.11057416349990584 6.931771174888956 0.11634028220774338 6.6278916017923315
-0.49916276295084133 -0.7880728070126795
4 8.965614732702068 0.2942658467945769 9.153740837857166 0.1903592055518581 8.96153747106263 0.5091411535952738 8.781565889186409 0.1832971812365988
-0.09807353271387138 -0.3877811148300166
6 1.708178219275453 -6.712582340454517 1.6441104303439409 -6.606321691106713 1.5200521141203551 -6.6086756992117985 1.4600615868282816 -6.717290356664691 1.5241293757597938 -6.8235510060124955 1.6481876919833796 -6.82119699790741
-0.46559889089162515 -0.4166434248746894
4 7.370844840828052 1.9425558990818934 7.22676594813142 2.081268813690852 7.088053033522461 1.93718992099422 7.232131926219092 1.798477006385261
-0.24755497081676978 -0.5897557874505741
4 -1.8107149880033369 7.110625520661067 -1.6225888828482389 7.006718879418348 -1.8147922496427755 7.325500827461764 -1.9947638315189962 6.999656855103089
-0.49874947273464815 0.5288639200254956
6 -2.005725695585518 9.538859378701808 -2.0697934845170303 9.645120028049613 -2.193851800740616 9.642766019944526 -2.2538423280326896 9.534151362491635 -2.1897745391011774 9.42789071314383 -2.0657162228775916 9.430244721248917
0.7164823290406798 0.4089049711076019
12 6.534986561171635 2.533384791965882 6.577406269826818 2.6101869527870756 6.489683793162535 2.608522417693001 6.444381025153434 2.68366004342012 6.401961316498252 2.606857882598926 6.314238839833969 2.6051933475048514 6.35954160784307 2.5300557217777326 6.317121899187888 2.453253560956539 6.4048443758521705 2.454918096050614 6.450147143861272 2.3797804703234946 6.492566852516454 2.4565826311446886 6.5802893291807365 2.4582471662387633
-0.3288143362227568 -0.5408120839460694
5 0.6884333702744698 -7.548073084330245 0.5964852510969187 -7.426438778824428 0.4523906208138998 -7.476299569229029 0.4552833608801953 -7.628749537910825 0.6011658028448035 -7.67310800973543
-0.586705129707628 0.01994471952922775
20 -8.752198488769007 9.812425904051912 -8.848706584269998 9.85841241219662 -8.896053616178177 9.833605126439634 -8.920407394014003 9.857051888433146 -8.89741413994165 9.905305936183641 -8.947028711455618 10.0 -8.993015219600325 9.90349190449901 -8.96820793384334 9.85614487259083 -8.991654695836852 9.831791094755005 -9.039908743587347 9.854784348827357 -9.134602807403706 9.80516977731339 -9.038094711902716 9.759183269168682 -8.990747679994536 9.783990554925667 -8.96639390215871 9.760543792932156 -8.989387156231063 9.71228974518166 -8.939772584717096 9.617595681365302 -8.893786076572388 9.714103776866292 -8.918593362329373 9.761450808774471 -8.895146600335861 9.785804586610297 -8.846892552585366 9.762811332537945
0.17632871678615095 -0.8985828190482315
4 4.261380652322347 5.7107722269841625 4.1173017596257155 5.849485141593122 3.9785888450167564 5.70540624889649 4.122667737713388 5.566693334287531
0.16100387911233335 0.3105117392014211
6 -9.751883367552828 -8.852150438393288 -9.81595115648434 -8.745889789045483 -9.940009472707926 -8.74824379715057 -10.0 -8.856858454603461 -9.935932211068488 -8.963119103951266 -9.811873894844902 -8.96076509584618
0.5444483301901065 0.07300635125868071
12 -8.104231034041913 -8.596726258229493 -8.052690085320606 -8.52572249639885 -8.139951621190855 -8.51658860638637 -8.1756722083398 -8.436450954543245 -8.227213157061106 -8.507454716373887 -8.314474692931356 -8.498320826361406 -8.278754105782411 -8.57845847820453 -8.330295054503718 -8.649462240035174 -8.24303351863347 -8.658596130047654 -8.207312931484525 -8.738733781890778 -8.155771982763218 -8.667730020060135 -8.068510446892969 -8.676863910072617
0.12882369036193894 0.05627876482278875
4 -0.5653893500281231 -1.2420521697104825 -0.6913197786524978 -1.0866767303821212 -0.8466952179808591 -1.212607159006496 -0.7207647893564845 -1.3679825983348572
0.02176404876124403 -0.18007096909189366
4 -8.377830427689062 9.030885288511296 -8.203907441385883 8.904636263285141 -8.35545705779178 9.24463152556498 -8.574126783889524 8.943388076683767
-0.04772543981349675 0.06967818814849103
6 5.834449921604746 5.026527862660328 5.78393338280278 5.139859616753607 5.660526935301566 5.152776887886482 5.587637026602318 5.052362404926078 5.638153565404283 4.939030650832799 5.761560012905497 4.926113379699924
-0.8256438247563839 0.10161138860355895
20 1.6004998723245951 -7.57157605705569 1.5103782470678542 -7.51407245638882 1.4603403192240836 -7.532870026291454 1.4390541917137483 -7.5066067835657195 1.4678059920471838 -7.461545970937348 1.4302108522419135 -7.361470115249808 1.3727072515750425 -7.451591740506548 1.3915048214776777 -7.501629668350319 1.3652415787519423 -7.522915795860654 1.3201807661235718 -7.494163995527218 1.2201049104360304 -7.531759135332489 1.3102265356927714 -7.58926273599936 1.360264463536542 -7.570465166096725 1.3815505910468773 -7.59672840882246 1.3527987907134418 -7.641789221450831 1.390393930518712 -7.741865077138372 1.447897531185583 -7.651743451881631 1.4290999612829478 -7.60170552403786 1.4553632040086832 -7.5804193965275255 1.5004240166370537 -7.609171196860961
-0.3613187316124089 0.6510224492566634
5 -2.4708535267625527 2.6058757198037408 -2.5471486050012233 2.737892468486348 -2.6962804698588316 2.706126956051264 -2.7121539529078196 2.5544780410137173 -2.5728324400943303 2.4925193695985524
0.06296647659806034 -0.7380970048475124
5 -8.367291336453627 7.409186473995849 -8.443586414692298 7.5412032226784556 -8.592718279549906 7.509437710243372 -8.608591762598895 7.357788795205825 -8.469270249785405 7.29583012379066
-0.07661388423583294 -0.1333563311004459
5 10.0 -4.808674474452128 9.92370492176133 -4.676657725769521 9.774573056903721 -4.708423238204605 9.758699573854733 -4.860072153242152 9.898021086668223 -4.922030824657317
0.26240324500352397 0.2693332931371073
5 6.0298386481929125 -3.578041801749197 5.953543569954242 -3.44602505306659 5.8044117050966335 -3.4777905655016736 5.788538222047646 -3.6294394805392205 5.927859734861134 -3.6913981519543855
-0.6398051595658923 0.4160889647549367
12 -6.534956200268712 1.1010274147410335 -6.483415251547406 1.1720311765716764 -6.570676787417656 1.1811650665841575 -6.606397374566599 1.2613027184272814 -6.6579383232879055 1.1902989565966386 -6.745199859158156 1.1994328466091198 -6.7094792720092125 1.1192951947659957 -6.761020220730519 1.0482914329353528 -6.673758684860268 1.0391575429228717 -6.638038097711325 0.9590198910797477 -6.586497148990019 1.0300236529103906 -6.499235613119769 1.0208897628979094
0.20828322049845485 0.4782728372987638
3 2.4503038883482913 8.379126222925782 2.2042391700145254 8.557530812165142 2.172768622748395 8.25523022049336
-0.2850954455415387 0.20316299401767232
20 1.985004575326417 -7.182356946904424 1.894850592556006 -7.124904089541157 1.844823254779576 -7.1437298254403405 1.8235223456847793 -7.1174785699543195 1.8522487743664127 -7.0724015785691146 1.814597302568044 -6.972346903016255 1.7571444452047773 -7.062500885786665 1.7759701811039617 -7.112528223563095 1.7497189256179406 -7.133829132657892 1.704641934232735 -7.105102703976258 1.604587258679875 -7.142754175774627 1.694741241450286 -7.200207033137894 1.744768579226716 -7.18138129723871 1.7660694883215127 -7.207632552724731 1.7373430596398793 -7.252709544109936 1.774994531438248 -7.352764219662796 1.8324473888015147 -7.262610236892385 1.8136216529023304 -7.212582899115955 1.8398729083883514 -7.191281990021158 1.884949899773557 -7.220008418702792
-0.7864044105125569 0.1648120542494533
6 -0.5313679449719406 8.891659710981596 -0.5819482761602841 9.004963008706188 -0.7053619759165041 9.017810805827548 -0.7781953444843803 8.917355305224316 -0.7276150132960368 8.804052007499724 -0.604201313539817 8.791204210378364
-0.20714487888160674 -1.0709339765848551
4 1.4587681749473358 4.6456619019314545 1.6327622058918994 4.519510807085503 1.4810212123268685 4.859420700259278 1.2625211066232396 4.558054198449582
-0.022293884927984148 0.1211988375040392
3 2.8212641202180717 -1.5963199397256207 2.575199401884306 -1.417915350486261 2.5437288546181755 -1.7202159421580443
-0.07260531673276324 0.05987376513287317
12 4.3966137634654245 -6.028782179421499 4.448114732276429 -5.957749413737464 4.360848068287486 -5.948664649269642 4.325082373109546 -5.868547119117784 4.273581404298542 -5.939579884801819 4.186314740309598 -5.930495120333996 4.222080435487538 -6.010612650485853 4.170579466676533 -6.081645416169888 4.2578461306654765 -6.09073018063771 4.293611825843416 -6.170847710789568 4.34511279465442 -6.099814945105533 4.432379458643364 -6.108899709573356
-0.05543423608192467 -0.012285180446304082
20 3.5064539212301584 -6.439664883661212 3.4162999384597477 -6.382212026297945 3.3662726006833177 -6.401037762197129 3.3449716915885213 -6.374786506711108 3.3736981202701544 -6.329709515325903 3.3360466484717857 -6.229654839773043 3.278593791108519 -6.319808822543454 3.2974195270077034 -6.369836160319884 3.2711682715216823 -6.391137069414681 3.226091280136477 -6.362410640733047 3.126036604583617 -6.400062112531415 3.2161905873540277 -6.4575149698946825 3.2662179251304577 -6.438689233995499 3.287518834225254 -6.46494048948152 3.258792405543621 -6.510017480866725 3.2964438773419897 -6.610072156419585 3.3538967347052564 -6.519918173649174 3.335070998806072 -6.469890835872744 3.361322254292093 -6.448589926777947 3.4063992456772985 -6.477316355459581
0.13848261771751708 -0.17252293014501127
6 0.017605536963335278 -2.3785462702868045 -0.03297479422500832 -2.2652429725622127 -0.1563884939812282 -2.252395175440853 -0.22922186254910454 -2.352850676044085 -0.178641531360761 -2.4661539737686766 -0.055227831604541124 -2.4790017708900365
-0.058742155993115705 0.03643548229847689
5 5.427627392378026 -0.7165659139060933 5.351258007073895 -0.5845921366454543 5.202144048321134 -0.6164415981990119 5.186355938919009 -0.7680994252231326 5.325712309443155 -0.8299796554304337
0.05048905639563529 -0.02845123816521865
6 7.287254615765438 0.38662310235179814 7.236674284577093 0.49992640007639 7.113260584820874 0.51277419719775 7.040427216252997 0.4123186965945182 7.091007547441341 0.2990153988699264 7.214421247197561 0.2861676017485663
-0.3021763764273024 -0.757575674035322
3 6.0769314706915765 -8.296423879495533 5.830866752357811 -8.118019290256173 5.79939620509168 -8.420319881927956
0.020007922816666086 -0.32782419783458333
5 5.808643264140965 -8.455388056434172 5.732273878836834 -8.323414279173534 5.583159920084073 -8.355263740727091 5.567371810681948 -8.506921567751212 5.706728181206094 -8.568801797958512
