marco:(-10.0,10.0),(-10.0,10.0)
timeIntervals:0.0-1.0
framesPerSecond:1000
0.6856550922407171 1.1322911002590386
20 -0.2845116308395453 4.095835994290788 -0.2472839350915458 4.43184166828307 -0.3705178959640593 4.547534448779955 -0.32574901984043114 4.6446133814028405 -0.15774618284428943 4.625999533528841 0.07363937814948018 4.872467455273868 -0.26236629584280324 4.909695151021867 -0.37805907633968805 4.786461190149354 -0.47513800896257313 4.8312300662729815 -0.45652416108857335 4.999232903269124 -0.7029920828336005 5.230618464262893 -0.7402197785815999 4.89461279027061 -0.6169858177090863 4.778920009773725 -0.6617546938327146 4.68184107715084 -0.8297575308288563 4.7004549250248395 -1.061143091822626 4.453987003279813 -0.7251374178303425 4.416759307531813 -0.6094446373334577 4.539993268404326 -0.5123657047105726 4.495224392280699 -0.5309795525845723 4.327221555284557
0.7376949331075762 -1.2742915652689435
4 -2.075464208940081 5.5757197135225915 -1.814817408351146 6.151969004492004 -2.3910666993205596 6.412615805080939 -2.6517134999094947 5.836366514111527
0.5501780234534882 -0.7132282511551717
6 0.9142277236401691 -9.152018280448148 1.1673677396370064 -8.8522180067908 1.0343030945866345 -8.483092185394465 0.6480984335394252 -8.41376663765548 0.3949584175425879 -8.713566911312828 0.5280230625929596 -9.082692732709162
1.5032322129645155 0.8409124052420038
12 7.055085579880558 4.351305616502361 7.3280903503656845 4.301823991788602 7.234440309145764 4.562993870739942 7.413795038410972 4.774682124977522 7.140790267925844 4.824163749691281 7.047140226705925 5.085333628642621 6.8677854974407175 4.873645374405041 6.594780726955591 4.9231269991188 6.688430768175511 4.66195712016746 6.509076038910304 4.45026886592988 6.782080809395431 4.400787241216121 6.8757308506153505 4.139617362264781
-0.563020621300967 -1.2392868716110497
12 1.4278023548171603 -2.356705411531157 1.700807125302287 -2.4061870362449165 1.607157084082367 -2.1450171572935766 1.786511813347574 -1.9333289030559964 1.513507042862447 -1.883847278342237 1.419857001642527 -1.6226773993908976 1.24050227237732 -1.8343656536284778 0.9674975018921933 -1.7848840289147188 1.0611475431121133 -2.0460539078660585 0.8817928138469064 -2.257742162103639 1.1547975843320333 -2.307223786817398 1.2484476255519534 -2.5683936657687374
0.13803519123294317 -0.19704509019968297
4 -5.937496104452946 -9.827312269509385 -5.667478433537733 -9.255394043367287 -6.239396659679831 -8.985376372452073 -6.509414330595044 -9.55729459859417
0.10163364009735859 -2.4346510439163813
6 -3.8706259769713984 -1.1086337949654224 -3.6169800863687884 -0.8092613948275524 -3.749421244778799 -0.43991140993122846 -4.135508293791419 -0.3699338251727744 -4.389154184394029 -0.6693062253106442 -4.256713025984019 -1.038656210206968
2.423382094324691 0.2708521081772767
4 7.499327585953548 -8.27559282651191 7.769023304864289 -7.703522709130116 7.196953187482496 -7.433826990219375 6.927257468571755 -8.005897107601168
-1.7575129368286952 -1.0658670552502547
5 -8.130801278549558 7.039972858493795 -7.860615899836485 7.439339194194976 -8.15694398214004 7.819711743940634 -8.610270187537788 7.655428572369729 -8.594113108161055 7.173523438813622
1.059833054020546 -3.0468711829969974
3 1.0358290131287633 0.0800255046913867 1.2040435890531958 1.0263152526808514 0.3004253399913286 0.6988484747235041
-2.9437671781660697 -0.9706882842916006
20 -1.4541618138201753 -4.549068498991898 -1.4152324575907542 -4.213255724503974 -1.5378787605170974 -4.096940149665828 -1.4926186761994786 -4.000089252942393 -1.3247122889555167 -4.019553931057104 -1.0920811392792258 -3.7742613252044177 -1.4278939137671494 -3.7353319689749966 -1.544209488605295 -3.85797827190134 -1.64106038532873 -3.8127181875837213 -1.6215957072140195 -3.644811800339759 -1.8668883130667058 -3.412180650663468 -1.9058176692961268 -3.747993425151392 -1.7831713663697837 -3.8643089999895373 -1.8284314506874024 -3.9611598967129726 -1.9963378379313643 -3.941695218598262 -2.2289689876076553 -4.186987824450949 -1.8931562131197317 -4.225917180680369 -1.776840638281586 -4.103270877754026 -1.679989741558151 -4.148530962071645 -1.6994544196728616 -4.316437349315606
-0.1575667201428275 -0.19826423350345185
12 4.100595934275244 0.9984570690897252 4.373793538906477 0.9500514421884347 4.27911523917349 1.2108503215027844 4.457634544071735 1.4232435739158436 4.184436939440502 1.471649200817134 4.089758639707515 1.7324480801314839 3.9112393348092698 1.5200548277184245 3.6380417301780374 1.568460454619715 3.732720029911025 1.3076615753053653 3.5542007250127794 1.0952683228923061 3.827398329644012 1.0468626959910157 3.922076629376999 0.7860638166766659
-2.00057491317191 1.3650834130506901
6 -6.647869550847898 -0.43182302344705237 -6.395405128715383 -0.13145360532797198 -6.5293004642601975 0.2373717068500854 -6.91566022193753 0.30582760090906236 -7.168124644070045 0.005458182789982127 -7.03422930852523 -0.3633671293880753
1.0919017222059164 0.6188880630192461
12 -7.444269126409017 -5.52056340411569 -7.171071521777784 -5.568969031016981 -7.265749821510771 -5.308170151702631 -7.087230516612526 -5.095776899289572 -7.360428121243759 -5.047371272388282 -7.455106420976746 -4.786572393073932 -7.633625725874991 -4.998965645486991 -7.906823330506223 -4.9505600185857 -7.8121450307732365 -5.21135889790005 -7.9906643356714815 -5.42375215031311 -7.717466731040249 -5.4721577772144 -7.622788431307262 -5.732956656528749
0.14277963516308845 -0.22764063789036448
12 6.195051954089767 -2.2536265858208457 6.468249558720999 -2.3020322127221364 6.3735712589880125 -2.041233333407787 6.552090563886257 -1.8288400809947274 6.278892959255025 -1.780434454093437 6.184214659522038 -1.519635574779087 6.005695354623793 -1.7320288271921465 5.73249774999256 -1.683623200290856 5.827176049725547 -1.9444220796052056 5.648656744827302 -2.156815332018265 5.921854349458535 -2.2052209589195555 6.016532649191522 -2.466019838233905
0.09036209914988826 -0.7351324881376585
20 -5.573654057006598 1.6203869852859958 -5.534724700777177 1.9561997597739194 -5.6573710037035205 2.072515334612065 -5.612110919385902 2.1693662313355 -5.44420453214194 2.1499015532207895 -5.211573382465649 2.3951941590734758 -5.547386156953572 2.434123515302897 -5.663701731791718 2.3114772123765537 -5.760552628515153 2.356737296694172 -5.741087950400443 2.5246436839381343 -5.986380556253129 2.7572748336144253 -6.02530991248255 2.4214620591265015 -5.902663609556207 2.3051464842883562 -5.947923693873825 2.208295587564921 -6.115830081117787 2.2277602656796316 -6.348461230794078 1.9824676598269453 -6.012648456306155 1.9435383035975242 -5.896332881468009 2.0661846065238674 -5.799481984744574 2.020924522206249 -5.818946662859284 1.8530181349622867
-0.060965299953199895 0.08585166786493542
12 3.420241770540953 7.210859802384019 3.6934393751721855 7.162454175482728 3.598761075439198 7.423253054797078 3.7772803803374435 7.635646307210138 3.5040827757062107 7.6840519341114275 3.409404475973224 7.944850813425777 3.2308851710749784 7.732457561012718 2.957687566443746 7.780863187914009 3.0523658661767334 7.520064308599659 2.873846561278488 7.307671056186599 3.147044165909721 7.25926542928531 3.2417224656427077 6.99846654997096
-0.42582808476827 0.21360052013852407
6 8.8660095103238 -1.6582642288545262 9.118980769068823 -1.3583215442748575 8.98570841391604 -0.9892706654845066 8.599464800018232 -0.9201624712738241 8.346493541273208 -1.2201051558534926 8.479765896425992 -1.5891560346438436
-1.545900185282569 -0.10116762240383073
5 -2.7680042363693618 6.779411685597451 -2.4973694178104915 7.178473590501093 -2.7932690846699857 7.559179508650727 -3.246779954607794 7.395406800881795 -3.231165419637398 6.9134837829013565
-0.3952874181011093 -1.9543319792150036
20 0.20716430093021831 2.312034157186149 0.24666064699200743 2.6477807177545065 0.12421092658320122 2.7643032243497294 0.1696344864585737 2.861077557914058 0.3375077667427524 2.841329384883163 0.5705527799331981 3.0862288257007755 0.23480621936484078 3.1257251717625647 0.1182837127696179 3.0032754513537587 0.02150937920528958 3.048699011229131 0.041257552236184145 3.2165722915133097 -0.2036418885814283 3.4496173047037555 -0.2431382346432174 3.113870744135398 -0.1206885142344112 2.997348237540175 -0.16611207410978368 2.9005739039758467 -0.3339853543939624 2.9203220770067415 -0.5670303675844081 2.675422636189129 -0.23128380701605075 2.63592629012734 -0.11476130042082787 2.758376010536146 -0.017986966856499552 2.7129524506607736 -0.03773513988739412 2.545079170376595
1.6071709373530103 -0.36154803918087675
4 5.980359574992095 4.4506797149655215 6.2490889792472 5.023204393288383 5.67656430092434 5.291933797543488 5.407834896669233 4.719409119220628
-1.3302511659909035 -1.630843199152283
4 -4.077076825845847 -8.170176855432945 -3.8083474215907414 -7.597652177110083 -4.380872099913602 -7.328922772854978 -4.649601504168708 -7.901447451177838
-2.5148972046744893 1.992153212564684
12 -5.219537963791886 7.605709397457562 -4.946422485214748 7.5568425246956314 -5.040660271287983 7.817800903691143 -4.86178257878408 8.029892409924726 -5.134898057361219 8.078759282686656 -5.229135843434454 8.339717661682167 -5.408013535938357 8.127626155448585 -5.681129014515496 8.176493028210515 -5.58689122844226 7.9155346492150045 -5.765768920946163 7.703443142981423 -5.492653442369025 7.654576270219493 -5.398415656295789 7.393617891223981
-0.49437960601383996 -0.08794068231360862
4 -2.2637754133659502 -8.63058045223541 -1.995368355876006 -8.057904582751117 -2.568044225360298 -7.789497525261173 -2.836451282850242 -8.362173394745465
-0.3606990350899949 -0.40355228806664517
12 -9.45371410994662 -5.780933689185217 -9.18057116491993 -5.829646803170025 -9.274955843224985 -5.568741516920012 -9.09619757650335 -5.356549344654806 -9.36934052153004 -5.307836230669999 -9.463725199835094 -5.046930944419985 -9.64248346655673 -5.259123116685191 -9.91562641158342 -5.2104100027003835 -9.821241733278365 -5.471315288950397 -10.0 -5.683507461215602 -9.72685705497331 -5.73222057520041 -9.632472376668256 -5.993125861450424
1.8962218369853923 0.9024254537129599
12 9.64248346655673 2.082095021387475 9.91562641158342 2.0333819074026676 9.821241733278365 2.294287193652681 10.0 2.5064793659178872 9.72685705497331 2.555192479902695 9.632472376668256 2.8160977661527085 9.45371410994662 2.6039055938875024 9.18057116491993 2.65261870787231 9.274955843224985 2.3917134216222964 9.09619757650335 2.1795212493570904 9.36934052153004 2.1308081353722828 9.463725199835094 1.8699028491222693
-0.5198182605859741 -0.6187553631503212
4 -1.510942410173243 -2.177700803871412 -1.6283812790083245 -2.847094804022621 -0.8725107664838706 -1.9447088475986964 -2.0319351850275336 -1.741298759992918
1.6094990829840568 0.33679095925776964
20 -2.91139340237998 -9.151462149743388 -2.8730311784289952 -8.815584115243887 -2.995873725043501 -8.699475815313642 -2.9507772544082553 -8.602548627358889 -2.7828382371585043 -8.621729739334382 -2.5506216372980153 -8.37604464610537 -2.8864996717975173 -8.337682422154387 -3.002607971727762 -8.460524968768892 -3.0995351596825143 -8.415428498133647 -3.0803540477070217 -8.247489480883894 -3.326039140936033 -8.015272881023407 -3.3644013648870175 -8.351150915522908 -3.241558818272512 -8.467259215453153 -3.2866552889077574 -8.564186403407906 -3.4545943061575084 -8.545005291432412 -3.6868109060179974 -8.790690384661424 -3.3509328715184954 -8.829052608612407 -3.2348245715882507 -8.706210061997902 -3.1378973836334985 -8.751306532633148 -3.157078495608991 -8.9192455498829
-0.6504925317939683 1.4013963078240002
6 8.309890993200792 0.816051469477474 8.561847830708944 1.116846788285449 8.427329862035874 1.4854454696286832 8.040855055854653 1.5532488321639426 7.788898218346501 1.252453513355968 7.923416187019571 0.8838548320127337
-0.48419794410195777 0.11880712575032966
5 -3.460426587871822 6.9235089723767365 -3.1913661746121864 7.323634081534197 -3.4887635267989245 7.703171199447627 -3.9416256118741875 7.537612929152842 -3.924112420480108 7.055755173078594
0.46495842882066035 -0.3840271961621395
3 -2.1944160615482633 -7.658578422561627 -2.0288651975313696 -6.711819032786874 -2.9315583123562052 -7.041827473817158
3.0271347498701253 -2.553061867969224
20 -2.456986798053917 4.793397272544304 -2.4188136006531376 5.12929684278207 -2.54172146952801 5.245335992813711 -2.496679553284 5.342288544144963 -2.328729768165117 5.323201945444573 -2.0966514681018342 5.569017683194318 -2.4325510383395996 5.6071908805950965 -2.548590188371241 5.484283011720224 -2.645542739702493 5.529324927964235 -2.626456141002103 5.697274713083117 -2.8722718787518478 5.9293530131464 -2.910445076152627 5.593453442908634 -2.7875372072777544 5.477414292876993 -2.8325791235217648 5.380461741545742 -3.0005289086406477 5.399548340246131 -3.2326072087039304 5.153732602496387 -2.896707638466165 5.115559405095608 -2.7806684884345234 5.23846727397048 -2.6837159371032717 5.193425357726469 -2.7028025358036616 5.025475572607587
-1.8822278757729105 -2.5703805729285496
20 -9.224379589349986 -6.4095490221679565 -9.186206391949208 -6.073649451930191 -9.30911426082408 -5.95761030189855 -9.26407234458007 -5.860657750567298 -9.096122559461186 -5.879744349267687 -8.864044259397904 -5.633928611517943 -9.19994382963567 -5.595755414117164 -9.31598297966731 -5.718663282992036 -9.412935530998562 -5.6736213667480255 -9.393848932298173 -5.5056715816291435 -9.639664670047917 -5.27359328156586 -9.677837867448696 -5.609492851803626 -9.554929998573824 -5.725532001835267 -9.599971914817834 -5.822484553166519 -9.767921699936718 -5.80339795446613 -10.0 -6.049213692215874 -9.664100429762234 -6.087386889616653 -9.548061279730593 -5.964479020741781 -9.451108728399342 -6.009520936985791 -9.47019532709973 -6.177470722104673
1.8581987508724127 1.404191280199116
6 -5.095040209690348 -8.185625367619242 -4.843252689223452 -7.884688303898216 -4.977978071112711 -7.516165382957477 -5.364490973468863 -7.448579525737765 -5.616278493935758 -7.749516589458791 -5.481553112046501 -8.11803951039953
-0.6653913164366881 -0.6256348148202769
20 9.639664670047917 4.464857841075869 9.677837867448696 4.800757411313635 9.554929998573824 4.916796561345276 9.599971914817834 5.0137491126765275 9.767921699936718 4.994662513976138 10.0 5.240478251725882 9.664100429762234 5.278651449126661 9.548061279730593 5.155743580251789 9.451108728399342 5.2007854964958 9.47019532709973 5.368735281614682 9.224379589349986 5.600813581677965 9.186206391949208 5.264914011440199 9.30911426082408 5.148874861408558 9.26407234458007 5.051922310077306 9.096122559461186 5.071008908777696 8.864044259397904 4.825193171027951 9.19994382963567 4.787019973627173 9.31598297966731 4.909927842502045 9.412935530998562 4.864885926258034 9.393848932298173 4.696936141139152
0.1266500527484342 -1.6926788861932278
3 -1.8251022250260536 0.9678479087924504 -1.65955136100916 1.9146072985672027 -2.5622444758339955 1.5845988575369196
-1.1967047600784395 0.388249110742427
4 -8.307876288320749 3.4228314205064123 -8.426068693953406 2.753570058553949 -7.669182744282216 3.655104475670369 -8.828377426726627 3.8598197272949193
0.29417071335663547 1.322086505162314
6 -1.491366937438794 -3.1016721456409426 -1.2390716208817305 -2.801160673268803 -1.3731745318061375 -2.4324107836884794 -1.7595727592876078 -2.364172366480296 -2.011868075844671 -2.6646838388524356 -1.8777651649202642 -3.033433728432759
-0.7034523391115926 -0.2393798094505518
4 -4.211273562950417 9.06807637125943 -4.329465968583073 8.398815009306967 -3.5725800189118835 9.300349426423386 -4.7317747013562945 9.505064678047937
1.1665013959775747 -0.7943058631879847
5 -9.519838623110484 -4.333713547924797 -9.250102951850312 -3.9340433381123314 -9.546859002852981 -3.554004583305645 -10.0 -3.718797925605391 -9.983300486930208 -4.200684567073016
-1.3943111836879392 1.7986715116165832
20 2.4755436580926995 0.6675997970404858 2.5142839929650656 1.0034344300664606 2.3915722402163855 1.1196809539231996 2.436777803980693 1.2165573103437555 2.6046951204936803 1.1971871429075722 2.8371881682071582 1.4426106484049326 2.5013535351811833 1.4813509832772986 2.385107011324444 1.3586392305286186 2.2882306549038884 1.403844794292926 2.3076008223400715 1.5717621108059134 2.0621773168427113 1.8042551585193913 2.0234369819703453 1.4684205254934164 2.1461487347190253 1.3521740016366774 2.100943170954718 1.2552976452161215 1.9330258544417305 1.2746678126523048 1.7005328067282526 1.0292443071549444 2.0363674397542275 0.9905039722825784 2.1526139636109667 1.1132157250312584 2.2494903200315224 1.068010161266951 2.2301201525953394 0.9000928447539637
-0.8050457216295739 0.03233475181982869
6 -2.616073536383286 -5.8025570892013665 -2.3637782198262225 -5.502045616829227 -2.4978811307506295 -5.133295727248903 -2.8842793582321 -5.06505731004072 -3.136574674789163 -5.3655687824128595 -3.0024717638647562 -5.734318671993183
1.4298007696123405 -1.5067896990309104
5 9.730264328739828 -8.901846264671509 10.0 -8.502176054859044 9.703243948997331 -8.122137300052357 9.250102951850312 -8.286930642352102 9.266802464920104 -8.768817283819727
-0.885011704261694 -0.4449220597747033
5 4.367452615659296 -1.348483602533458 4.637188286919468 -0.9488133927209926 4.340432235916799 -0.5687746379143062 3.8872912387697798 -0.7335679802140518 3.9039907518395722 -1.2154546216816766
-0.9615306604040593 -0.6512312672391758
12 2.568996810721503 4.464409861025687 2.842221617612113 4.416158013480344 2.7473965399206093 4.676903560964381 2.9257962691197155 4.889397260903076 2.6525714622291057 4.937649108448419 2.5577463845376016 5.198394655932456 2.379346655338496 4.985900955993762 2.106121848447886 5.034152803539105 2.2009469261393897 4.773407256055068 2.0225471969402835 4.560913556116374 2.2957720038308933 4.512661708571031 2.3905970815223974 4.251916161086993
0.3398270509114483 0.024471379354357503
4 9.037332399607795 -6.865648275630614 8.919516775041721 -7.534976068240338 9.675895083749815 -6.633015703162701 8.516585340031847 -6.428953055488802
3.1039972923966737 -0.5392240741703967
12 4.188545338752636 1.6362398673826104 4.461797265845507 1.588141840063579 4.366825415829271 1.8488339642185745 4.545105492905906 2.0614280610545386 4.271853565813035 2.10952608837357 4.176881715796799 2.370218212528566 3.9986016387201637 2.157624115692602 3.7253497116272927 2.2057221430116334 3.820321561643529 1.9450300188566378 3.6420414845668936 1.732435922020674 3.915293411659765 1.6843378947016423 4.010265261676001 1.4236457705466465
-0.9833383958639099 3.060977257322743
20 -0.767733514677688 -1.200171802969642 -0.7291822448808506 -0.8643154141919893 -0.8519594194528604 -0.7481379896399586 -0.8068083996360439 -0.6512361999863465 -0.6388802052472176 -0.6705118348847653 -0.4065253561431561 -0.4249574857407456 -0.7423817449208088 -0.3864062159439082 -0.8585591694728395 -0.509183390515918 -0.9554609591264516 -0.4640323706991015 -0.9361853242280328 -0.29610417631027525 -1.1817396733720524 -0.06374932720621374 -1.22029094316889 -0.3996057159838664 -1.09751376859688 -0.5157831405358971 -1.1426647884136965 -0.6126849301895092 -1.310592982802523 -0.5934092952910904 -1.5429478319065844 -0.8389636444351101 -1.2070914431289317 -0.8775149142319475 -1.090914018576901 -0.7547377396599377 -0.9940122289232889 -0.7998887594767542 -1.0132878638217075 -0.9678169538655805
2.926627052554943 2.2253475098886977
4 8.44647212398625 9.32599008055092 8.328656499420177 8.656662287941195 9.08503480812827 9.558622653018833 7.925725064410304 9.762685300692732
-0.30706621431071346 3.7837025637815516
4 -2.4310922853651773 -2.1621332943511025 -2.5489079099312506 -2.831461086960827 -1.7925296012231566 -1.9295007218831894 -2.9518393449411247 -1.7254380742092907
