marco:(-10.0,10.0),(-10.0,10.0)
timeIntervals:0.0-1.0
framesPerSecond:1000
0.7304729022447704 0.17433537946450767
4 -8.940094345033767 2.1691182172862113 -7.467008011891548 2.5425050567277143 -10.0 3.258154984034288 -9.353275023209754 0.7066946110966315
4.8363443223737335 -2.8257295440461596
3 7.977704250620567 -5.75541727911758 5.890637563855739 -6.268208463239817 7.378261099524713 -7.8192656413092605
