marco:(-10.0,10.0),(-10.0,10.0)
timeIntervals:0.0-1.0
framesPerSecond:1000
-1.0238367531900836 1.4547424510987388
20 -6.837649771459238 8.637279564840314 -6.618322815767488 8.732350820484944 -6.5905532313178155 8.848602979455034 -6.515248019045828 8.855191660579248 -6.467712391223513 8.745528182733374 -6.235208073283335 8.689989013834028 -6.330279328927965 8.909315969525776 -6.446531487898054 8.937085553975448 -6.453120169022268 9.012390766247437 -6.343456691176393 9.059926394069752 -6.287917522277048 9.29243071200993 -6.507244477968797 9.1973594563653 -6.53501406241847 9.08110729739521 -6.6103192746904575 9.074518616270996 -6.6578549025127725 9.18418209411687 -6.89035922045295 9.239721263016216 -6.79528796480832 9.020394307324468 -6.6790358058382315 8.992624722874796 -6.672447124714017 8.917319510602807 -6.782110602559892 8.869783882780492
0.09421991340563594 -0.7881859758859202
6 -3.5793430638453243 -3.8546727003224106 -3.3064650604662384 -3.904848702193761 -3.126572366495771 -3.6936174200691716 -3.2195576759043893 -3.432210136073232 -3.4924356792834748 -3.382034134201882 -3.6723283732539427 -3.5932654163264712
-0.3987013175660342 0.1392886137254789
4 3.9747315935976797 2.654621523529075 3.5219608962481264 2.493566243275836 4.340594906385384 2.3430382376617853 4.061638978159529 3.1272600896496034
0.2880894052555895 0.9846147199917711
3 -7.791137317782846 -2.3273330537581605 -7.150822856945984 -2.09956649213223 -7.6682317158651045 -1.6589211834499362
-1.0115471888599326 0.33069216073117347
5 -0.06955901965583286 5.695861911977318 0.2703772826374646 5.669591874595966 0.4004076672859251 5.984772622023582 0.14083456227559873 6.205835073914798 -0.14962082383458908 6.027278435392341
-1.0963978070991176 -1.1953817656087666
5 -5.97568479467227 -2.9185937703399145 -5.635748492378974 -2.9448638077212665 -5.505718107730513 -2.6296830602936496 -5.7652912127408396 -2.4086206084024346 -6.055746598851027 -2.5871772469248917
2.2824610534203216 0.32784404061140027
20 -2.5125878704934 3.23399386682384 -2.2951762520405894 3.3333671293474527 -2.2697020715141916 3.4501437554856604 -2.194541259725987 3.458214572397463 -2.1448546284641807 3.349508763171058 -1.9113013761877653 3.2985604021182615 -2.010674638711378 3.515972020571072 -2.1274512648495856 3.54144620109747 -2.1355220817613882 3.6166070128856744 -2.026816272534983 3.6662936441474807 -1.9758679114821867 3.899846896423896 -2.193279529934997 3.8004736339002836 -2.218753710461395 3.683697007762076 -2.2939145222495996 3.675626190850273 -2.343601153511406 3.7843320000766782 -2.5771544057878213 3.835280361129475 -2.4777811432642087 3.6178687426766643 -2.361004517126001 3.5923945621502664 -2.3529337002141983 3.517233750362062 -2.4616395094406034 3.4675471191002556
0.6952506686323 -0.5923388423088074
4 7.545658112063882 8.955756200180323 7.990315471165433 9.003503796945337 7.942567874400418 9.448161156046888 7.497910515298868 9.400413559281874
-1.0874249415087494 1.7723648431366232
12 -1.5800919162729001 7.957991427508942 -1.5093720518850295 7.774992196016194 -1.3862500007332161 7.9277370108746545 -1.1924080851935321 7.897482594240366 -1.2631279495814027 8.080481825733115 -1.1400058984295893 8.233226640591575 -1.3338478139692733 8.263481057225862 -1.404567678357144 8.44648028871861 -1.5276897295089573 8.29373547386015 -1.7215316450486413 8.323989890494436 -1.6508117806607707 8.14099065900169 -1.7739338318125841 7.988245844143229
-1.0218933845488518 -1.6040348133512299
6 -5.6638327494857466 9.525186216164101 -5.389698883573145 9.482400009838205 -5.215578009007057 9.698413798593206 -5.31559100035357 9.957213793674104 -5.589724866266171 10.0 -5.763845740832259 9.783986211244999
-0.08108259419194594 -0.2831807216047713
4 5.634041685341284 9.525186216164101 5.185786944862595 9.351958633734995 6.008188542600398 9.22360001475731 5.70814956856086 10.0
-0.02629483763969735 -0.03632126410684283
12 7.335858656960909 9.332574888613879 7.40657852134878 9.149575657121131 7.529700572500593 9.302320471979591 7.723542488040278 9.272066055345304 7.652822623652407 9.455065286838051 7.7759446748042205 9.607810101696511 7.5821027592645365 9.638064518330799 7.511382894876665 9.821063749823546 7.3882608437248525 9.668318934965086 7.194418928185168 9.698573351599373 7.265138792573039 9.515574120106626 7.142016741421225 9.362829305248166
0.913894586154536 -0.3603893190842549
6 -3.3062782509463466 -7.7097678921334785 -3.0321443850337455 -7.752554098459374 -2.858023510467657 -7.536540309704372 -2.958036501814169 -7.2777403146234745 -3.2321703677267704 -7.234954108297579 -3.406291242292859 -7.450967897052581
-1.3092473244010132 -0.15131880956301283
12 9.559913982156688 -0.06764065285312187 9.630633846544558 -0.25063988434586953 9.753755897696372 -0.09789506948740934 9.947597813236056 -0.12814948612169685 9.876877948848186 0.05484974537105083 10.0 0.207594560229511 9.806158084460316 0.23784897686379852 9.735438220072446 0.4208482083565462 9.612316168920632 0.268103393498086 9.418474253380948 0.2983578101323735 9.489194117768818 0.11535857863962581 9.366072066617004 -0.03738623621883437
-1.0988906558189107 0.6839993697913532
20 1.1747762446358214 5.3787011319054345 1.3921878630886317 5.478074394429047 1.41766204361503 5.594851020567255 1.4928228554032343 5.602921837479057 1.5425094866650404 5.494216028252652 1.776062738941456 5.443267667199856 1.6766894764178437 5.660679285652666 1.5599128502796358 5.686153466179064 1.551842033367833 5.761314277967268 1.6605478425942384 5.811000909229075 1.7114962036470347 6.0445541615054905 1.4940845851942244 5.945180898981878 1.468610404667826 5.82840427284367 1.3934495928796218 5.820333455931868 1.3437629616178157 5.929039265158273 1.1102097093414 5.979987626211069 1.2095829718650124 5.762576007758259 1.3263595980032203 5.737101827231861 1.334430414915023 5.661941015443657 1.2257246056886177 5.61225438418185
0.3448774733106824 -0.3492315165702209
20 8.938614619034203 6.269891619458982 9.156026237487012 6.369264881982595 9.18150041801341 6.4860415081208025 9.256661229801615 6.494112325032605 9.30634786106342 6.3854065158062 9.539901113339837 6.334458154753404 9.440527850816224 6.551869773206214 9.323751224678016 6.577343953732612 9.315680407766214 6.652504765520816 9.42438621699262 6.702191396782623 9.475334578045414 6.935744649059038 9.257922959592605 6.836371386535426 9.232448779066207 6.719594760397218 9.157287967278002 6.711523943485416 9.107601336016197 6.82022975271182 8.87404808373978 6.871178113764617 8.973421346263393 6.653766495311807 9.0901979724016 6.6282923147854085 9.098268789313403 6.553131502997204 8.989562980086998 6.503444871735398
-0.5302968718638194 0.07129280762277525
3 -10.0 4.499056067437577 -9.366072066617004 4.744036863885921 -9.895195626472113 5.170544160139992
-1.3364166662143542 2.3943988144036266
4 2.9761287676103194 6.799260706341897 2.5278740271316296 6.626033123912791 3.3502756248694334 6.497674504935104 3.0502366508298953 7.274074490177797
0.033496870481615426 -0.14541143759060607
4 -2.2556029067190675 1.3929723164096721 -2.7038576471977573 1.2197447339805658 -1.8814560494599537 1.0913861150028792 -2.1814950234994916 1.8677861002455713
0.013185149391247607 -0.2157946177041423
4 3.321892720971153 -0.7420770698601586 2.873637980492463 -0.9153046522892649 3.696039578230267 -1.0436632712669516 3.396000604190729 -0.2672632860242594
