marco:(-10.0,10.0),(-10.0,10.0)
timeIntervals:0.0-1.0
framesPerSecond:1000
-4.040626649298362 -5.012942853835314
20 -2.409807915789842 8.873266467016714 -3.2058618631592903 7.587960122757959 -2.9305555096666227 6.883946640532553 -3.2979023283033326 6.577960131991871 -3.94055550043271 6.975987105676595 -5.348582464883522 6.42537439869126 -4.063276120624767 5.629320451321812 -3.359262638399361 5.904626804814479 -3.0532761298586792 5.5372799861777695 -3.4513031035434034 4.894626814048392 -2.900690396558068 3.4865998495975803 -2.10463644918862 4.771906193856335 -2.3799428026812874 5.475919676081741 -2.0125959840445775 5.781906184622423 -1.3699428119152 5.383879210937699 0.038084152535611704 5.934491917923034 -1.2472221917231434 6.730545865292482 -1.9512356739485492 6.455239511799815 -2.257222182489231 6.822586330436525 -1.8591952088045067 7.465239502565902
-0.7419137564991432 -8.75609506804819
5 -0.38953550931130904 5.409169196640344 -2.241892665717291 4.305246579630504 -1.7644097083059844 2.2024193863937267 0.38304814482900384 2.0067233255156953 1.2327671300629999 3.988603701665381
8.188667043348133 -3.2019321821793554
12 -1.6758239987019274 -4.0270669224193245 -2.6896561016732794 -3.3117032492965643 -2.8022631640564617 -4.547389442203336 -3.9287023294109957 -5.067711961987348 -2.9148702264396436 -5.783075635110109 -3.027477288822826 -7.01876182801688 -1.9010381234682916 -6.49843930823287 -0.8872060204969396 -7.21380298135563 -0.7745989581137576 -5.978116788448858 0.3518402072407767 -5.457794268664847 -0.6619918957305753 -4.742430595542086 -0.5493848333473932 -3.506744402635314
-0.5981093885930722 -4.237463384321119
4 -0.42197277438303615 -7.240798818594824 1.330303205290865 -4.757427481462198 -3.4487734292069705 -6.964968974322273 0.8525519007669968 -10.0
-4.283353755474612 3.5743240898990756
12 5.835926452649838 -2.616277594053765 4.822094349678487 -1.9009139209310042 4.709487287295304 -3.136600113837776 3.58304812194077 -3.6569226336217877 4.596880224912122 -4.372286306744549 4.48427316252894 -5.6079724996513205 5.6107123278834745 -5.08764997986731 6.624544430854826 -5.80301365299007 6.7371514932380085 -4.567327460083298 7.863590658592543 -4.047004940299287 6.84975855562119 -3.3316412671765256 6.962365618004373 -2.095955074269754
